Id;Function;threads;gpus;P;Q;mtxfmt;nb;norm;uplo;n;lda;seedA;bump;tsub;time;gflops
0;dlansy;63;0;1;1;1;300;171;121;1800;1800;1681692777;4.254358e-01;0.000000e+00;3.407469e-03;3.805523e+00
1;dlansy;63;0;1;1;1;300;171;121;1800;1800;1957747793;4.892778e-01;0.000000e+00;3.665138e-03;3.537984e+00
2;dlansy;63;0;1;1;1;300;171;121;1800;1800;719885386;3.777180e-01;0.000000e+00;3.168947e-03;4.091959e+00
3;dlansy;63;0;1;1;1;300;171;121;1800;1800;596516649;-3.517510e-01;0.000000e+00;3.116547e-03;4.160759e+00
4;dlansy;63;0;1;1;1;300;171;121;1800;1800;1025202362;4.000452e-01;0.000000e+00;3.108962e-03;4.170910e+00
5;dlansy;63;0;1;1;1;300;171;121;1800;1800;783368690;3.744478e-01;0.000000e+00;3.069709e-03;4.224244e+00
6;dlansy;63;0;1;1;1;300;171;121;1800;1800;2044897763;4.141058e-01;0.000000e+00;3.118591e-03;4.158032e+00
7;dlansy;63;0;1;1;1;300;171;121;1800;1800;1365180540;-1.381986e-01;0.000000e+00;3.104925e-03;4.176333e+00
8;dlansy;63;0;1;1;1;300;171;121;1800;1800;304089172;2.200654e-01;0.000000e+00;3.007901e-03;4.311046e+00
9;dlansy;63;0;1;1;1;300;171;121;1800;1800;35005211;-1.757242e-01;0.000000e+00;3.028210e-03;4.282134e+00
10;dlansy;63;0;1;1;1;300;171;121;2700;2700;294702567;-3.976154e-01;0.000000e+00;6.642852e-03;4.391307e+00
11;dlansy;63;0;1;1;1;300;171;121;2700;2700;336465782;4.797187e-01;0.000000e+00;6.915139e-03;4.218397e+00
12;dlansy;63;0;1;1;1;300;171;121;2700;2700;278722862;-3.098429e-01;0.000000e+00;6.756998e-03;4.317124e+00
13;dlansy;63;0;1;1;1;300;171;121;2700;2700;2145174067;4.597866e-01;0.000000e+00;6.638804e-03;4.393984e+00
14;dlansy;63;0;1;1;1;300;171;121;2700;2700;1101513929;3.332689e-02;0.000000e+00;6.354544e-03;4.590542e+00
15;dlansy;63;0;1;1;1;300;171;121;2700;2700;1315634022;-3.123134e-01;0.000000e+00;6.427923e-03;4.538138e+00
16;dlansy;63;0;1;1;1;300;171;121;2700;2700;1369133069;-2.396071e-01;0.000000e+00;6.496163e-03;4.490466e+00
17;dlansy;63;0;1;1;1;300;171;121;2700;2700;1059961393;-4.405380e-01;0.000000e+00;6.476606e-03;4.504026e+00
18;dlansy;63;0;1;1;1;300;171;121;2700;2700;628175011;-8.299381e-02;0.000000e+00;6.777347e-03;4.304162e+00
19;dlansy;63;0;1;1;1;300;171;121;2700;2700;1131176229;-4.098657e-01;0.000000e+00;5.562581e-03;5.244112e+00
20;dlansy;63;0;1;1;1;300;171;121;3600;3600;859484421;4.760135e-01;0.000000e+00;1.046406e-02;4.955478e+00
21;dlansy;63;0;1;1;1;300;171;121;3600;3600;608413784;-2.172434e-01;0.000000e+00;9.744541e-03;5.321379e+00
22;dlansy;63;0;1;1;1;300;171;121;3600;3600;1734575198;3.559216e-01;0.000000e+00;1.000065e-02;5.185105e+00
23;dlansy;63;0;1;1;1;300;171;121;3600;3600;149798315;-3.746092e-01;0.000000e+00;9.516939e-03;5.448643e+00
24;dlansy;63;0;1;1;1;300;171;121;3600;3600;1129566413;3.212047e-02;0.000000e+00;9.337989e-03;5.553059e+00
25;dlansy;63;0;1;1;1;300;171;121;3600;3600;412776091;-3.302276e-01;0.000000e+00;9.256545e-03;5.601917e+00
26;dlansy;63;0;1;1;1;300;171;121;3600;3600;1911759956;1.752074e-01;0.000000e+00;9.057436e-03;5.725064e+00
27;dlansy;63;0;1;1;1;300;171;121;3600;3600;137806862;2.019681e-01;0.000000e+00;9.755160e-03;5.315587e+00
28;dlansy;63;0;1;1;1;300;171;121;3600;3600;982906996;2.243788e-01;0.000000e+00;9.320777e-03;5.563313e+00
29;dlansy;63;0;1;1;1;300;171;121;3600;3600;511702305;-1.333755e-01;0.000000e+00;9.105658e-03;5.694745e+00
30;dlansy;63;0;1;1;1;300;171;121;4500;4500;1937477084;-3.694056e-01;0.000000e+00;1.418463e-02;5.711675e+00
31;dlansy;63;0;1;1;1;300;171;121;4500;4500;572660336;-1.501402e-01;0.000000e+00;1.420208e-02;5.704656e+00
32;dlansy;63;0;1;1;1;300;171;121;4500;4500;805750846;-1.383824e-01;0.000000e+00;2.130457e-02;3.802846e+00
33;dlansy;63;0;1;1;1;300;171;121;4500;4500;1100661313;7.019839e-02;0.000000e+00;1.531349e-02;5.290628e+00
34;dlansy;63;0;1;1;1;300;171;121;4500;4500;1141616124;-2.465265e-01;0.000000e+00;1.421165e-02;5.700815e+00
35;dlansy;63;0;1;1;1;300;171;121;4500;4500;939819582;2.290667e-01;0.000000e+00;1.443099e-02;5.614169e+00
36;dlansy;63;0;1;1;1;300;171;121;4500;4500;1998898814;-2.416937e-01;0.000000e+00;1.431357e-02;5.660225e+00
37;dlansy;63;0;1;1;1;300;171;121;4500;4500;610515434;2.529978e-01;0.000000e+00;1.426515e-02;5.679434e+00
38;dlansy;63;0;1;1;1;300;171;121;4500;4500;1374344043;-2.102271e-01;0.000000e+00;1.407285e-02;5.757044e+00
39;dlansy;63;0;1;1;1;300;171;121;4500;4500;1477171087;-1.733443e-01;0.000000e+00;1.501283e-02;5.396583e+00
40;dlansy;63;0;1;1;1;300;171;121;5400;5400;945117276;5.373797e-02;0.000000e+00;2.066419e-02;5.645592e+00
41;dlansy;63;0;1;1;1;300;171;121;5400;5400;1780695788;-4.132594e-01;0.000000e+00;2.025061e-02;5.760894e+00
42;dlansy;63;0;1;1;1;300;171;121;5400;5400;491705403;-2.237386e-01;0.000000e+00;2.036810e-02;5.727662e+00
43;dlansy;63;0;1;1;1;300;171;121;5400;5400;752392754;-3.676393e-01;0.000000e+00;2.020881e-02;5.772810e+00
44;dlansy;63;0;1;1;1;300;171;121;5400;5400;2053999932;-4.222437e-01;0.000000e+00;4.301267e-02;2.712261e+00
45;dlansy;63;0;1;1;1;300;171;121;5400;5400;1411549676;3.886879e-01;0.000000e+00;2.056790e-02;5.672023e+00
46;dlansy;63;0;1;1;1;300;171;121;5400;5400;943947739;1.866877e-01;0.000000e+00;2.004840e-02;5.818997e+00
47;dlansy;63;0;1;1;1;300;171;121;5400;5400;855636226;-2.672705e-01;0.000000e+00;2.042769e-02;5.710953e+00
48;dlansy;63;0;1;1;1;300;171;121;5400;5400;1469348094;-2.187391e-01;0.000000e+00;2.010689e-02;5.802070e+00
49;dlansy;63;0;1;1;1;300;171;121;5400;5400;1036140795;-4.443388e-01;0.000000e+00;2.121486e-02;5.499052e+00
50;dlansy;63;0;1;1;1;300;171;121;6300;6300;2040651434;-4.033480e-01;0.000000e+00;2.808264e-02;5.654213e+00
51;dlansy;63;0;1;1;1;300;171;121;6300;6300;317097467;-1.054364e-01;0.000000e+00;2.769233e-02;5.733906e+00
52;dlansy;63;0;1;1;1;300;171;121;6300;6300;1376710097;-7.005727e-02;0.000000e+00;5.582075e-02;2.844555e+00
53;dlansy;63;0;1;1;1;300;171;121;6300;6300;1330573317;1.333576e-02;0.000000e+00;2.796771e-02;5.677448e+00
54;dlansy;63;0;1;1;1;300;171;121;6300;6300;1687926652;1.623906e-01;0.000000e+00;2.770405e-02;5.731480e+00
55;dlansy;63;0;1;1;1;300;171;121;6300;6300;959997301;7.965982e-02;0.000000e+00;3.799003e-02;4.179655e+00
56;dlansy;63;0;1;1;1;300;171;121;6300;6300;402724286;4.667617e-01;0.000000e+00;2.754473e-02;5.764630e+00
57;dlansy;63;0;1;1;1;300;171;121;6300;6300;1194953865;-1.382589e-02;0.000000e+00;2.842346e-02;5.586413e+00
58;dlansy;63;0;1;1;1;300;171;121;6300;6300;364228444;-4.175981e-01;0.000000e+00;2.851166e-02;5.569132e+00
59;dlansy;63;0;1;1;1;300;171;121;6300;6300;221558440;3.770548e-01;0.000000e+00;2.743325e-02;5.788056e+00
60;dlansy;63;0;1;1;1;300;171;121;7200;7200;1063958031;2.509115e-01;0.000000e+00;3.765161e-02;5.508099e+00
61;dlansy;63;0;1;1;1;300;171;121;7200;7200;2114738097;-4.980996e-01;0.000000e+00;3.676313e-02;5.641218e+00
62;dlansy;63;0;1;1;1;300;171;121;7200;7200;1469834481;1.376819e-01;0.000000e+00;3.664271e-02;5.659756e+00
63;dlansy;63;0;1;1;1;300;171;121;7200;7200;1610120709;-3.776547e-01;0.000000e+00;3.744682e-02;5.538221e+00
64;dlansy;63;0;1;1;1;300;171;121;7200;7200;631704567;-4.182928e-01;0.000000e+00;3.696207e-02;5.610855e+00
65;dlansy;63;0;1;1;1;300;171;121;7200;7200;1255179497;-4.129313e-01;0.000000e+00;3.707997e-02;5.593014e+00
66;dlansy;63;0;1;1;1;300;171;121;7200;7200;327254586;9.307665e-02;0.000000e+00;3.750221e-02;5.530042e+00
67;dlansy;63;0;1;1;1;300;171;121;7200;7200;269455306;7.441780e-02;0.000000e+00;3.783540e-02;5.481343e+00
68;dlansy;63;0;1;1;1;300;171;121;7200;7200;352406219;-2.374150e-01;0.000000e+00;3.761258e-02;5.513815e+00
69;dlansy;63;0;1;1;1;300;171;121;7200;7200;160051528;2.807858e-01;0.000000e+00;3.725192e-02;5.567197e+00
70;dlansy;63;0;1;1;1;300;171;121;8100;8100;112805732;-3.496214e-01;0.000000e+00;4.714292e-02;5.567588e+00
71;dlansy;63;0;1;1;1;300;171;121;8100;8100;378409503;2.744957e-01;0.000000e+00;4.642108e-02;5.654164e+00
72;dlansy;63;0;1;1;1;300;171;121;8100;8100;1713258270;1.571881e-01;0.000000e+00;4.729867e-02;5.549256e+00
73;dlansy;63;0;1;1;1;300;171;121;8100;8100;1409959708;4.905056e-01;0.000000e+00;6.262045e-02;4.191481e+00
74;dlansy;63;0;1;1;1;300;171;121;8100;8100;1373226340;9.546876e-03;0.000000e+00;4.734726e-02;5.543560e+00
75;dlansy;63;0;1;1;1;300;171;121;8100;8100;200747796;3.618905e-02;0.000000e+00;4.585554e-02;5.723897e+00
76;dlansy;63;0;1;1;1;300;171;121;8100;8100;1117142618;1.744033e-01;0.000000e+00;4.746043e-02;5.530342e+00
77;dlansy;63;0;1;1;1;300;171;121;8100;8100;150122846;2.422071e-01;0.000000e+00;4.649848e-02;5.644752e+00
78;dlansy;63;0;1;1;1;300;171;121;8100;8100;990892921;3.138195e-01;0.000000e+00;4.766732e-02;5.506339e+00
79;dlansy;63;0;1;1;1;300;171;121;8100;8100;1231192379;-4.633856e-02;0.000000e+00;4.698318e-02;5.586518e+00
80;dlansy;63;0;1;1;1;300;171;121;9000;9000;111537764;1.729012e-01;0.000000e+00;5.774320e-02;5.611674e+00
81;dlansy;63;0;1;1;1;300;171;121;9000;9000;2147469841;2.072774e-01;0.000000e+00;5.725569e-02;5.659455e+00
82;dlansy;63;0;1;1;1;300;171;121;9000;9000;1911165193;1.557539e-01;0.000000e+00;5.661523e-02;5.723478e+00
83;dlansy;63;0;1;1;1;300;171;121;9000;9000;2142757034;-1.699027e-01;0.000000e+00;5.694100e-02;5.690733e+00
84;dlansy;63;0;1;1;1;300;171;121;9000;9000;1869470124;9.513167e-02;0.000000e+00;5.721899e-02;5.663085e+00
85;dlansy;63;0;1;1;1;300;171;121;9000;9000;8936987;3.813653e-01;0.000000e+00;5.633734e-02;5.751709e+00
86;dlansy;63;0;1;1;1;300;171;121;9000;9000;1275373743;-3.952797e-01;0.000000e+00;5.753376e-02;5.632102e+00
87;dlansy;63;0;1;1;1;300;171;121;9000;9000;350322227;4.007014e-01;0.000000e+00;5.620803e-02;5.764941e+00
88;dlansy;63;0;1;1;1;300;171;121;9000;9000;1960709859;4.687312e-02;0.000000e+00;5.668195e-02;5.716740e+00
89;dlansy;63;0;1;1;1;300;171;121;9000;9000;771151432;-3.651100e-01;0.000000e+00;5.637223e-02;5.748150e+00
90;dlansy;63;0;1;1;1;300;171;121;9900;9900;1244316437;2.998675e-01;0.000000e+00;7.458643e-02;5.256715e+00
91;dlansy;63;0;1;1;1;300;171;121;9900;9900;1476153275;-1.389722e-01;0.000000e+00;6.832320e-02;5.738602e+00
92;dlansy;63;0;1;1;1;300;171;121;9900;9900;1139901474;3.395107e-01;0.000000e+00;6.781306e-02;5.781771e+00
93;dlansy;63;0;1;1;1;300;171;121;9900;9900;653468858;-4.940599e-01;0.000000e+00;6.775012e-02;5.787143e+00
94;dlansy;63;0;1;1;1;300;171;121;9900;9900;1239036029;9.508020e-02;0.000000e+00;7.024942e-02;5.581250e+00
95;dlansy;63;0;1;1;1;300;171;121;9900;9900;1605908235;2.745396e-01;0.000000e+00;6.719019e-02;5.835369e+00
96;dlansy;63;0;1;1;1;300;171;121;9900;9900;76065818;-4.585682e-01;0.000000e+00;6.787290e-02;5.776674e+00
97;dlansy;63;0;1;1;1;300;171;121;9900;9900;1789366143;-3.356987e-01;0.000000e+00;7.501683e-02;5.226555e+00
98;dlansy;63;0;1;1;1;300;171;121;9900;9900;1875335928;-1.061454e-01;0.000000e+00;6.846910e-02;5.726373e+00
99;dlansy;63;0;1;1;1;300;171;121;9900;9900;2103318776;1.535754e-01;0.000000e+00;6.777774e-02;5.784784e+00
100;dlansy;63;0;1;1;1;300;171;121;10800;10800;1939964443;-2.643760e-01;0.000000e+00;8.144492e-02;5.729065e+00
101;dlansy;63;0;1;1;1;300;171;121;10800;10800;1432114613;2.725473e-01;0.000000e+00;8.034296e-02;5.807643e+00
102;dlansy;63;0;1;1;1;300;171;121;10800;10800;352118606;3.241933e-01;0.000000e+00;8.007532e-02;5.827054e+00
103;dlansy;63;0;1;1;1;300;171;121;10800;10800;1909002904;2.356442e-01;0.000000e+00;8.051491e-02;5.795240e+00
104;dlansy;63;0;1;1;1;300;171;121;10800;10800;1395235128;-3.021529e-01;0.000000e+00;8.271164e-02;5.641324e+00
105;dlansy;63;0;1;1;1;300;171;121;10800;10800;1351797369;-2.836412e-02;0.000000e+00;8.073634e-02;5.779345e+00
106;dlansy;63;0;1;1;1;300;171;121;10800;10800;1504569917;-3.280447e-01;0.000000e+00;8.082020e-02;5.773349e+00
107;dlansy;63;0;1;1;1;300;171;121;10800;10800;706043324;1.946189e-01;0.000000e+00;8.057096e-02;5.791208e+00
108;dlansy;63;0;1;1;1;300;171;121;10800;10800;159259470;6.319147e-02;0.000000e+00;8.145360e-02;5.728454e+00
109;dlansy;63;0;1;1;1;300;171;121;10800;10800;480298490;3.904790e-01;0.000000e+00;7.998179e-02;5.833868e+00
110;dlansy;63;0;1;1;1;300;171;121;11700;11700;1096689772;-2.987393e-01;0.000000e+00;9.862459e-02;5.552437e+00
111;dlansy;63;0;1;1;1;300;171;121;11700;11700;601385644;-4.403555e-01;0.000000e+00;9.618716e-02;5.693138e+00
112;dlansy;63;0;1;1;1;300;171;121;11700;11700;1544617505;-3.120641e-01;0.000000e+00;9.626078e-02;5.688784e+00
113;dlansy;63;0;1;1;1;300;171;121;11700;11700;1012502954;7.326981e-02;0.000000e+00;1.134512e-01;4.826804e+00
114;dlansy;63;0;1;1;1;300;171;121;11700;11700;2027907669;4.440272e-01;0.000000e+00;9.648611e-02;5.675499e+00
115;dlansy;63;0;1;1;1;300;171;121;11700;11700;722308542;-2.988812e-01;0.000000e+00;9.741066e-02;5.621631e+00
116;dlansy;63;0;1;1;1;300;171;121;11700;11700;933110197;-1.017733e-01;0.000000e+00;9.456862e-02;5.790576e+00
117;dlansy;63;0;1;1;1;300;171;121;11700;11700;740759355;-3.466130e-01;0.000000e+00;9.518868e-02;5.752856e+00
118;dlansy;63;0;1;1;1;300;171;121;11700;11700;1789376348;3.725976e-01;0.000000e+00;9.566875e-02;5.723988e+00
119;dlansy;63;0;1;1;1;300;171;121;11700;11700;1450573622;-2.731221e-01;0.000000e+00;9.739863e-02;5.622326e+00
120;dlansy;63;0;1;1;1;300;171;121;12600;12600;1034949299;2.976161e-01;0.000000e+00;1.126182e-01;5.639324e+00
121;dlansy;63;0;1;1;1;300;171;121;12600;12600;1529195746;1.985016e-01;0.000000e+00;1.119078e-01;5.675123e+00
122;dlansy;63;0;1;1;1;300;171;121;12600;12600;1335354340;-3.384804e-01;0.000000e+00;1.112161e-01;5.710417e+00
123;dlansy;63;0;1;1;1;300;171;121;12600;12600;889023311;-2.963290e-01;0.000000e+00;1.089395e-01;5.829754e+00
124;dlansy;63;0;1;1;1;300;171;121;12600;12600;1447267605;-3.682695e-01;0.000000e+00;1.104299e-01;5.751074e+00
125;dlansy;63;0;1;1;1;300;171;121;12600;12600;745425661;1.637426e-02;0.000000e+00;1.112338e-01;5.709508e+00
126;dlansy;63;0;1;1;1;300;171;121;12600;12600;1308044878;3.002688e-01;0.000000e+00;1.103740e-01;5.753985e+00
127;dlansy;63;0;1;1;1;300;171;121;12600;12600;1569229320;-2.878753e-01;0.000000e+00;1.101917e-01;5.763507e+00
128;dlansy;63;0;1;1;1;300;171;121;12600;12600;1590079444;-6.664395e-02;0.000000e+00;1.093262e-01;5.809132e+00
129;dlansy;63;0;1;1;1;300;171;121;12600;12600;1977648522;-2.996627e-01;0.000000e+00;1.103448e-01;5.755509e+00
130;dlansy;63;0;1;1;1;300;171;121;13500;13500;1402586708;-4.466601e-01;0.000000e+00;1.247516e-01;5.844045e+00
131;dlansy;63;0;1;1;1;300;171;121;13500;13500;1143408282;-3.095740e-01;0.000000e+00;1.288094e-01;5.659943e+00
132;dlansy;63;0;1;1;1;300;171;121;13500;13500;559412924;1.008051e-01;0.000000e+00;1.293890e-01;5.634591e+00
133;dlansy;63;0;1;1;1;300;171;121;13500;13500;1473442062;3.966201e-01;0.000000e+00;1.288576e-01;5.657829e+00
134;dlansy;63;0;1;1;1;300;171;121;13500;13500;238962600;-2.291051e-01;0.000000e+00;1.283736e-01;5.679159e+00
135;dlansy;63;0;1;1;1;300;171;121;13500;13500;1238433452;8.189833e-02;0.000000e+00;1.293590e-01;5.635897e+00
136;dlansy;63;0;1;1;1;300;171;121;13500;13500;1431419379;-4.764616e-02;0.000000e+00;1.336302e-01;5.455759e+00
137;dlansy;63;0;1;1;1;300;171;121;13500;13500;1665947468;1.684246e-01;0.000000e+00;1.284425e-01;5.676113e+00
138;dlansy;63;0;1;1;1;300;171;121;13500;13500;707900973;-1.961373e-01;0.000000e+00;1.281942e-01;5.687106e+00
139;dlansy;63;0;1;1;1;300;171;121;13500;13500;2113903881;4.689267e-01;0.000000e+00;1.279135e-01;5.699587e+00
140;dlansy;63;0;1;1;1;300;171;121;14400;14400;1776808933;-4.926542e-01;0.000000e+00;1.437428e-01;5.770706e+00
141;dlansy;63;0;1;1;1;300;171;121;14400;14400;404158660;-9.802407e-02;0.000000e+00;1.409017e-01;5.887065e+00
142;dlansy;63;0;1;1;1;300;171;121;14400;14400;2058657199;1.886126e-01;0.000000e+00;1.442690e-01;5.749661e+00
143;dlansy;63;0;1;1;1;300;171;121;14400;14400;1642548899;-7.383859e-02;0.000000e+00;1.430409e-01;5.799023e+00
144;dlansy;63;0;1;1;1;300;171;121;14400;14400;260152959;-6.245404e-02;0.000000e+00;1.427198e-01;5.812069e+00
145;dlansy;63;0;1;1;1;300;171;121;14400;14400;824272813;-3.703058e-01;0.000000e+00;1.625079e-01;5.104354e+00
146;dlansy;63;0;1;1;1;300;171;121;14400;14400;2025187190;1.613464e-01;0.000000e+00;1.399406e-01;5.927498e+00
147;dlansy;63;0;1;1;1;300;171;121;14400;14400;1850952926;-3.349140e-01;0.000000e+00;1.414130e-01;5.865780e+00
148;dlansy;63;0;1;1;1;300;171;121;14400;14400;1704365084;2.019839e-01;0.000000e+00;1.455974e-01;5.697201e+00
149;dlansy;63;0;1;1;1;300;171;121;14400;14400;638422090;2.766544e-01;0.000000e+00;1.450874e-01;5.717228e+00
150;dlansy;63;0;1;1;1;300;171;121;15300;15300;1953443376;-2.797945e-01;0.000000e+00;1.621312e-01;5.775700e+00
151;dlansy;63;0;1;1;1;300;171;121;15300;15300;1069755936;-4.205594e-01;0.000000e+00;1.592319e-01;5.880864e+00
152;dlansy;63;0;1;1;1;300;171;121;15300;15300;349517445;3.646355e-01;0.000000e+00;1.594680e-01;5.872157e+00
153;dlansy;63;0;1;1;1;300;171;121;15300;15300;1856669179;9.066373e-03;0.000000e+00;1.611559e-01;5.810653e+00
154;dlansy;63;0;1;1;1;300;171;121;15300;15300;995706887;-2.496970e-01;0.000000e+00;1.607592e-01;5.824993e+00
155;dlansy;63;0;1;1;1;300;171;121;15300;15300;1065103348;-2.655665e-01;0.000000e+00;1.993046e-01;4.698443e+00
156;dlansy;63;0;1;1;1;300;171;121;15300;15300;387451659;9.058696e-02;0.000000e+00;1.585996e-01;5.904308e+00
157;dlansy;63;0;1;1;1;300;171;121;15300;15300;1562402336;1.986549e-01;0.000000e+00;1.580496e-01;5.924858e+00
158;dlansy;63;0;1;1;1;300;171;121;15300;15300;1295166342;3.808523e-01;0.000000e+00;1.622646e-01;5.770952e+00
159;dlansy;63;0;1;1;1;300;171;121;15300;15300;1799878206;-5.773157e-02;0.000000e+00;1.603121e-01;5.841237e+00
160;dlansy;63;0;1;1;1;300;171;121;16200;16200;382697713;-1.152934e-01;0.000000e+00;1.790664e-01;5.862767e+00
161;dlansy;63;0;1;1;1;300;171;121;16200;16200;1070575321;-4.650331e-01;0.000000e+00;2.125714e-01;4.938693e+00
162;dlansy;63;0;1;1;1;300;171;121;16200;16200;296864819;4.331828e-01;0.000000e+00;1.796444e-01;5.843906e+00
163;dlansy;63;0;1;1;1;300;171;121;16200;16200;697517721;4.415959e-01;0.000000e+00;1.794993e-01;5.848628e+00
164;dlansy;63;0;1;1;1;300;171;121;16200;16200;1950955939;-2.032396e-01;0.000000e+00;1.774651e-01;5.915670e+00
165;dlansy;63;0;1;1;1;300;171;121;16200;16200;1797073940;1.460963e-01;0.000000e+00;1.800059e-01;5.832167e+00
166;dlansy;63;0;1;1;1;300;171;121;16200;16200;1065311705;2.132438e-01;0.000000e+00;2.104378e-01;4.988765e+00
167;dlansy;63;0;1;1;1;300;171;121;16200;16200;846811127;3.229169e-01;0.000000e+00;1.784108e-01;5.884313e+00
168;dlansy;63;0;1;1;1;300;171;121;16200;16200;1307565984;1.990850e-01;0.000000e+00;1.788435e-01;5.870074e+00
169;dlansy;63;0;1;1;1;300;171;121;16200;16200;324763920;-1.232803e-01;0.000000e+00;1.788629e-01;5.869438e+00
170;dlansy;63;0;1;1;1;300;171;121;17100;17100;231602422;-5.968142e-02;0.000000e+00;2.055073e-01;5.691809e+00
171;dlansy;63;0;1;1;1;300;171;121;17100;17100;780821396;3.404283e-01;0.000000e+00;2.023012e-01;5.782015e+00
172;dlansy;63;0;1;1;1;300;171;121;17100;17100;711645630;3.779050e-01;0.000000e+00;2.031931e-01;5.756635e+00
173;dlansy;63;0;1;1;1;300;171;121;17100;17100;917679292;-1.487947e-01;0.000000e+00;2.046705e-01;5.715081e+00
174;dlansy;63;0;1;1;1;300;171;121;17100;17100;1253207672;-2.057583e-01;0.000000e+00;2.046023e-01;5.716986e+00
175;dlansy;63;0;1;1;1;300;171;121;17100;17100;1414647625;-2.002110e-01;0.000000e+00;2.045847e-01;5.717477e+00
176;dlansy;63;0;1;1;1;300;171;121;17100;17100;1046741222;-4.981229e-01;0.000000e+00;2.041848e-01;5.728676e+00
177;dlansy;63;0;1;1;1;300;171;121;17100;17100;1896306640;-1.446566e-01;0.000000e+00;1.990030e-01;5.877842e+00
178;dlansy;63;0;1;1;1;300;171;121;17100;17100;1111783898;7.285956e-02;0.000000e+00;2.002863e-01;5.840183e+00
179;dlansy;63;0;1;1;1;300;171;121;17100;17100;1197352298;-2.994312e-01;0.000000e+00;2.129645e-01;5.492504e+00
180;dlansy;63;0;1;1;1;300;171;121;18000;18000;1782280524;-4.406608e-01;0.000000e+00;2.297897e-01;5.640252e+00
181;dlansy;63;0;1;1;1;300;171;121;18000;18000;524688209;-7.231379e-02;0.000000e+00;2.278755e-01;5.687632e+00
182;dlansy;63;0;1;1;1;300;171;121;18000;18000;1566288819;-2.944065e-01;0.000000e+00;2.276542e-01;5.693162e+00
183;dlansy;63;0;1;1;1;300;171;121;18000;18000;2114937732;4.808045e-01;0.000000e+00;2.269272e-01;5.711399e+00
184;dlansy;63;0;1;1;1;300;171;121;18000;18000;1927495994;-2.840220e-01;0.000000e+00;2.252023e-01;5.755144e+00
185;dlansy;63;0;1;1;1;300;171;121;18000;18000;882160379;-1.254201e-02;0.000000e+00;2.235821e-01;5.796850e+00
186;dlansy;63;0;1;1;1;300;171;121;18000;18000;1682085273;9.597039e-02;0.000000e+00;2.249367e-01;5.761940e+00
187;dlansy;63;0;1;1;1;300;171;121;18000;18000;630668850;2.283023e-01;0.000000e+00;2.263533e-01;5.725881e+00
188;dlansy;63;0;1;1;1;300;171;121;18000;18000;1858721860;-5.737603e-03;0.000000e+00;2.472041e-01;5.242924e+00
189;dlansy;63;0;1;1;1;300;171;121;18000;18000;105575579;3.629747e-01;0.000000e+00;2.225216e-01;5.824479e+00
190;dlansy;63;0;1;1;1;300;171;121;18900;18900;2118421993;6.372750e-03;0.000000e+00;2.539086e-01;5.627676e+00
191;dlansy;63;0;1;1;1;300;171;121;18900;18900;452867621;-4.022054e-01;0.000000e+00;2.681525e-01;5.328743e+00
192;dlansy;63;0;1;1;1;300;171;121;18900;18900;1857962504;3.861964e-02;0.000000e+00;2.513155e-01;5.685743e+00
193;dlansy;63;0;1;1;1;300;171;121;18900;18900;213801961;-1.863945e-02;0.000000e+00;2.521959e-01;5.665895e+00
194;dlansy;63;0;1;1;1;300;171;121;18900;18900;648031326;2.911775e-01;0.000000e+00;2.509802e-01;5.693340e+00
195;dlansy;63;0;1;1;1;300;171;121;18900;18900;1737518944;-4.808499e-01;0.000000e+00;2.584209e-01;5.529412e+00
196;dlansy;63;0;1;1;1;300;171;121;18900;18900;110613202;-3.380140e-01;0.000000e+00;2.525822e-01;5.657229e+00
197;dlansy;63;0;1;1;1;300;171;121;18900;18900;982936784;3.457331e-01;0.000000e+00;2.531841e-01;5.643782e+00
198;dlansy;63;0;1;1;1;300;171;121;18900;18900;1486222842;4.200729e-01;0.000000e+00;2.539024e-01;5.627815e+00
199;dlansy;63;0;1;1;1;300;171;121;18900;18900;255789528;4.026002e-01;0.000000e+00;2.525687e-01;5.657531e+00
200;dlansy;63;0;1;1;1;300;171;121;19800;19800;1242608872;3.144040e-01;0.000000e+00;2.833556e-01;5.534527e+00
201;dlansy;63;0;1;1;1;300;171;121;19800;19800;1277849958;-7.731044e-02;0.000000e+00;2.810824e-01;5.579285e+00
202;dlansy;63;0;1;1;1;300;171;121;19800;19800;653448036;2.529461e-01;0.000000e+00;2.747457e-01;5.707966e+00
203;dlansy;63;0;1;1;1;300;171;121;19800;19800;1023457753;4.253499e-01;0.000000e+00;2.748594e-01;5.705606e+00
204;dlansy;63;0;1;1;1;300;171;121;19800;19800;1309383303;3.608416e-01;0.000000e+00;2.716938e-01;5.772083e+00
205;dlansy;63;0;1;1;1;300;171;121;19800;19800;1329132133;-2.386045e-01;0.000000e+00;2.742377e-01;5.718540e+00
206;dlansy;63;0;1;1;1;300;171;121;19800;19800;501772890;8.143046e-02;0.000000e+00;2.794619e-01;5.611638e+00
207;dlansy;63;0;1;1;1;300;171;121;19800;19800;150517567;4.165643e-01;0.000000e+00;2.740734e-01;5.721969e+00
208;dlansy;63;0;1;1;1;300;171;121;19800;19800;1983690368;-5.428046e-02;0.000000e+00;3.185800e-01;4.922591e+00
209;dlansy;63;0;1;1;1;300;171;121;19800;19800;1034514500;3.618715e-01;0.000000e+00;2.820203e-01;5.560732e+00
210;dlansy;63;0;1;1;1;300;171;121;20700;20700;1775473788;2.101964e-01;0.000000e+00;3.110218e-01;5.511005e+00
211;dlansy;63;0;1;1;1;300;171;121;20700;20700;767066249;2.177558e-01;0.000000e+00;3.061562e-01;5.598588e+00
212;dlansy;63;0;1;1;1;300;171;121;20700;20700;739273303;4.744193e-02;0.000000e+00;3.018358e-01;5.678726e+00
213;dlansy;63;0;1;1;1;300;171;121;20700;20700;1415505363;-2.221872e-01;0.000000e+00;3.106900e-01;5.516892e+00
214;dlansy;63;0;1;1;1;300;171;121;20700;20700;552910253;-4.765819e-01;0.000000e+00;3.098003e-01;5.532735e+00
215;dlansy;63;0;1;1;1;300;171;121;20700;20700;1344247686;1.416166e-01;0.000000e+00;3.072947e-01;5.577847e+00
216;dlansy;63;0;1;1;1;300;171;121;20700;20700;661761152;1.085222e-01;0.000000e+00;3.081894e-01;5.561653e+00
217;dlansy;63;0;1;1;1;300;171;121;20700;20700;425245975;-2.107033e-01;0.000000e+00;3.067909e-01;5.587007e+00
218;dlansy;63;0;1;1;1;300;171;121;20700;20700;235649157;3.456401e-01;0.000000e+00;3.022832e-01;5.670322e+00
219;dlansy;63;0;1;1;1;300;171;121;20700;20700;1679895436;3.343596e-01;0.000000e+00;3.056638e-01;5.607609e+00
220;dlansy;63;0;1;1;1;300;171;121;21600;21600;430253414;1.333135e-01;0.000000e+00;3.379984e-01;5.521702e+00
221;dlansy;63;0;1;1;1;300;171;121;21600;21600;677870460;-3.852038e-01;0.000000e+00;3.339123e-01;5.589271e+00
222;dlansy;63;0;1;1;1;300;171;121;21600;21600;496060028;-3.954709e-03;0.000000e+00;3.297938e-01;5.659071e+00
223;dlansy;63;0;1;1;1;300;171;121;21600;21600;1144278050;6.047684e-02;0.000000e+00;3.317695e-01;5.625371e+00
224;dlansy;63;0;1;1;1;300;171;121;21600;21600;1192707556;-3.266376e-02;0.000000e+00;3.296319e-01;5.661849e+00
225;dlansy;63;0;1;1;1;300;171;121;21600;21600;816504794;3.090040e-01;0.000000e+00;3.388598e-01;5.507666e+00
226;dlansy;63;0;1;1;1;300;171;121;21600;21600;655858699;4.306626e-01;0.000000e+00;3.275819e-01;5.697281e+00
227;dlansy;63;0;1;1;1;300;171;121;21600;21600;559301039;-4.152833e-01;0.000000e+00;3.339794e-01;5.588148e+00
228;dlansy;63;0;1;1;1;300;171;121;21600;21600;1186090428;2.236403e-01;0.000000e+00;3.417760e-01;5.460672e+00
229;dlansy;63;0;1;1;1;300;171;121;21600;21600;1473144500;4.867196e-01;0.000000e+00;3.286367e-01;5.678995e+00
230;dlansy;63;0;1;1;1;300;171;121;22500;22500;1498617647;-3.267152e-01;0.000000e+00;3.683309e-01;5.498019e+00
231;dlansy;63;0;1;1;1;300;171;121;22500;22500;1387036159;1.290300e-01;0.000000e+00;3.610167e-01;5.609409e+00
232;dlansy;63;0;1;1;1;300;171;121;22500;22500;1144522535;-1.739663e-01;0.000000e+00;3.654407e-01;5.541500e+00
233;dlansy;63;0;1;1;1;300;171;121;22500;22500;1328104339;-1.340913e-01;0.000000e+00;3.801767e-01;5.326707e+00
234;dlansy;63;0;1;1;1;300;171;121;22500;22500;1113502215;-3.289758e-01;0.000000e+00;3.649752e-01;5.548569e+00
235;dlansy;63;0;1;1;1;300;171;121;22500;22500;777720504;4.192558e-01;0.000000e+00;3.644272e-01;5.556912e+00
236;dlansy;63;0;1;1;1;300;171;121;22500;22500;1722060049;-1.628764e-01;0.000000e+00;3.555070e-01;5.696344e+00
237;dlansy;63;0;1;1;1;300;171;121;22500;22500;328298285;-2.552356e-01;0.000000e+00;3.559067e-01;5.689946e+00
238;dlansy;63;0;1;1;1;300;171;121;22500;22500;136495343;-3.965366e-01;0.000000e+00;3.504181e-01;5.779068e+00
239;dlansy;63;0;1;1;1;300;171;121;22500;22500;402903177;-9.472418e-02;0.000000e+00;3.535394e-01;5.728046e+00
240;dlansy;63;0;1;1;1;300;171;121;23400;23400;1503885238;-2.374089e-01;0.000000e+00;4.252892e-01;5.150221e+00
241;dlansy;63;0;1;1;1;300;171;121;23400;23400;2416949;-1.213255e-01;0.000000e+00;3.787327e-01;5.783323e+00
242;dlansy;63;0;1;1;1;300;171;121;23400;23400;655495367;2.821399e-01;0.000000e+00;3.791824e-01;5.776464e+00
243;dlansy;63;0;1;1;1;300;171;121;23400;23400;1407392292;-1.952502e-01;0.000000e+00;3.956657e-01;5.535819e+00
244;dlansy;63;0;1;1;1;300;171;121;23400;23400;389040743;-4.514458e-01;0.000000e+00;3.898213e-01;5.618814e+00
245;dlansy;63;0;1;1;1;300;171;121;23400;23400;1433102829;-2.060612e-01;0.000000e+00;3.885703e-01;5.636904e+00
246;dlansy;63;0;1;1;1;300;171;121;23400;23400;1402961682;-3.514624e-01;0.000000e+00;3.887202e-01;5.634730e+00
247;dlansy;63;0;1;1;1;300;171;121;23400;23400;1900553541;1.339881e-01;0.000000e+00;3.922220e-01;5.584423e+00
248;dlansy;63;0;1;1;1;300;171;121;23400;23400;337453826;3.793463e-01;0.000000e+00;3.900821e-01;5.615059e+00
249;dlansy;63;0;1;1;1;300;171;121;23400;23400;1780172261;-2.203633e-01;0.000000e+00;3.885258e-01;5.637551e+00
