Id;Function;threads;gpus;P;Q;mtxfmt;nb;norm;m;n;lda;seedA;tsub;time;gflops
0;dlange;63;0;1;1;0;300;171;1800;1800;1800;846930886;0.000000e+00;3.707491e-03;6.991251e+00
1;dlange;63;0;1;1;0;300;171;1800;1800;1800;1681692777;0.000000e+00;3.467355e-03;7.475439e+00
2;dlange;63;0;1;1;0;300;171;1800;1800;1800;1714636915;0.000000e+00;3.343209e-03;7.753030e+00
3;dlange;63;0;1;1;0;300;171;1800;1800;1800;1957747793;0.000000e+00;3.686051e-03;7.031916e+00
4;dlange;63;0;1;1;0;300;171;1800;1800;1800;424238335;0.000000e+00;5.233488e-03;4.952720e+00
5;dlange;63;0;1;1;0;300;171;1800;1800;1800;719885386;0.000000e+00;3.414524e-03;7.591102e+00
6;dlange;63;0;1;1;0;300;171;1800;1800;1800;1649760492;0.000000e+00;3.446535e-03;7.520597e+00
7;dlange;63;0;1;1;0;300;171;1800;1800;1800;596516649;0.000000e+00;3.453469e-03;7.505497e+00
8;dlange;63;0;1;1;0;300;171;1800;1800;1800;1189641421;0.000000e+00;3.730304e-03;6.948495e+00
9;dlange;63;0;1;1;0;300;171;1800;1800;1800;1025202362;0.000000e+00;3.733490e-03;6.942566e+00
10;dlange;63;0;1;1;0;300;171;2700;2700;2700;1350490027;0.000000e+00;7.411936e-03;7.868390e+00
11;dlange;63;0;1;1;0;300;171;2700;2700;2700;783368690;0.000000e+00;7.130442e-03;8.179016e+00
12;dlange;63;0;1;1;0;300;171;2700;2700;2700;1102520059;0.000000e+00;7.257422e-03;8.035911e+00
13;dlange;63;0;1;1;0;300;171;2700;2700;2700;2044897763;0.000000e+00;7.414691e-03;7.865466e+00
14;dlange;63;0;1;1;0;300;171;2700;2700;2700;1967513926;0.000000e+00;7.182590e-03;8.119634e+00
15;dlange;63;0;1;1;0;300;171;2700;2700;2700;1365180540;0.000000e+00;7.334700e-03;7.951245e+00
16;dlange;63;0;1;1;0;300;171;2700;2700;2700;1540383426;0.000000e+00;7.379374e-03;7.903109e+00
17;dlange;63;0;1;1;0;300;171;2700;2700;2700;304089172;0.000000e+00;7.248164e-03;8.046176e+00
18;dlange;63;0;1;1;0;300;171;2700;2700;2700;1303455736;0.000000e+00;7.234919e-03;8.060906e+00
19;dlange;63;0;1;1;0;300;171;2700;2700;2700;35005211;0.000000e+00;7.494983e-03;7.781205e+00
20;dlange;63;0;1;1;0;300;171;3600;3600;3600;521595368;0.000000e+00;1.179545e-02;8.789830e+00
21;dlange;63;0;1;1;0;300;171;3600;3600;3600;294702567;0.000000e+00;1.112290e-02;9.321308e+00
22;dlange;63;0;1;1;0;300;171;3600;3600;3600;1726956429;0.000000e+00;1.146175e-02;9.045742e+00
23;dlange;63;0;1;1;0;300;171;3600;3600;3600;336465782;0.000000e+00;1.139895e-02;9.095577e+00
24;dlange;63;0;1;1;0;300;171;3600;3600;3600;861021530;0.000000e+00;1.123393e-02;9.229180e+00
25;dlange;63;0;1;1;0;300;171;3600;3600;3600;278722862;0.000000e+00;1.133402e-02;9.147678e+00
26;dlange;63;0;1;1;0;300;171;3600;3600;3600;233665123;0.000000e+00;1.182445e-02;8.768275e+00
27;dlange;63;0;1;1;0;300;171;3600;3600;3600;2145174067;0.000000e+00;1.080705e-02;9.593735e+00
28;dlange;63;0;1;1;0;300;171;3600;3600;3600;468703135;0.000000e+00;1.061636e-02;9.766058e+00
29;dlange;63;0;1;1;0;300;171;3600;3600;3600;1101513929;0.000000e+00;1.115512e-02;9.294383e+00
30;dlange;63;0;1;1;0;300;171;4500;4500;4500;1801979802;0.000000e+00;1.753882e-02;9.236655e+00
31;dlange;63;0;1;1;0;300;171;4500;4500;4500;1315634022;0.000000e+00;1.725221e-02;9.390100e+00
32;dlange;63;0;1;1;0;300;171;4500;4500;4500;635723058;0.000000e+00;1.801786e-02;8.991080e+00
33;dlange;63;0;1;1;0;300;171;4500;4500;4500;1369133069;0.000000e+00;1.717688e-02;9.431282e+00
34;dlange;63;0;1;1;0;300;171;4500;4500;4500;1125898167;0.000000e+00;1.730367e-02;9.362175e+00
35;dlange;63;0;1;1;0;300;171;4500;4500;4500;1059961393;0.000000e+00;1.741498e-02;9.302335e+00
36;dlange;63;0;1;1;0;300;171;4500;4500;4500;2089018456;0.000000e+00;1.781161e-02;9.095189e+00
37;dlange;63;0;1;1;0;300;171;4500;4500;4500;628175011;0.000000e+00;1.744954e-02;9.283913e+00
38;dlange;63;0;1;1;0;300;171;4500;4500;4500;1656478042;0.000000e+00;1.772448e-02;9.139901e+00
39;dlange;63;0;1;1;0;300;171;4500;4500;4500;1131176229;0.000000e+00;1.739846e-02;9.311168e+00
40;dlange;63;0;1;1;0;300;171;5400;5400;5400;1653377373;0.000000e+00;2.589495e-02;9.008708e+00
41;dlange;63;0;1;1;0;300;171;5400;5400;5400;859484421;0.000000e+00;2.577834e-02;9.049460e+00
42;dlange;63;0;1;1;0;300;171;5400;5400;5400;1914544919;0.000000e+00;2.560821e-02;9.109578e+00
43;dlange;63;0;1;1;0;300;171;5400;5400;5400;608413784;0.000000e+00;2.575825e-02;9.056517e+00
44;dlange;63;0;1;1;0;300;171;5400;5400;5400;756898537;0.000000e+00;2.545865e-02;9.163095e+00
45;dlange;63;0;1;1;0;300;171;5400;5400;5400;1734575198;0.000000e+00;2.444465e-02;9.543192e+00
46;dlange;63;0;1;1;0;300;171;5400;5400;5400;1973594324;0.000000e+00;2.535934e-02;9.198978e+00
47;dlange;63;0;1;1;0;300;171;5400;5400;5400;149798315;0.000000e+00;2.576150e-02;9.055372e+00
48;dlange;63;0;1;1;0;300;171;5400;5400;5400;2038664370;0.000000e+00;2.495086e-02;9.349576e+00
49;dlange;63;0;1;1;0;300;171;5400;5400;5400;1129566413;0.000000e+00;3.189043e-02;7.315046e+00
50;dlange;63;0;1;1;0;300;171;6300;6300;6300;184803526;0.000000e+00;3.490788e-02;9.095940e+00
51;dlange;63;0;1;1;0;300;171;6300;6300;6300;412776091;0.000000e+00;3.436334e-02;9.240080e+00
52;dlange;63;0;1;1;0;300;171;6300;6300;6300;1424268980;0.000000e+00;3.309942e-02;9.592918e+00
53;dlange;63;0;1;1;0;300;171;6300;6300;6300;1911759956;0.000000e+00;3.442017e-02;9.224825e+00
54;dlange;63;0;1;1;0;300;171;6300;6300;6300;749241873;0.000000e+00;3.385738e-02;9.378163e+00
55;dlange;63;0;1;1;0;300;171;6300;6300;6300;137806862;0.000000e+00;3.408232e-02;9.316266e+00
56;dlange;63;0;1;1;0;300;171;6300;6300;6300;42999170;0.000000e+00;3.579833e-02;8.869687e+00
57;dlange;63;0;1;1;0;300;171;6300;6300;6300;982906996;0.000000e+00;3.378083e-02;9.399413e+00
58;dlange;63;0;1;1;0;300;171;6300;6300;6300;135497281;0.000000e+00;3.368910e-02;9.425007e+00
59;dlange;63;0;1;1;0;300;171;6300;6300;6300;511702305;0.000000e+00;3.335355e-02;9.519826e+00
60;dlange;63;0;1;1;0;300;171;7200;7200;7200;2084420925;0.000000e+00;4.450419e-02;9.318674e+00
61;dlange;63;0;1;1;0;300;171;7200;7200;7200;1937477084;0.000000e+00;4.538721e-02;9.137375e+00
62;dlange;63;0;1;1;0;300;171;7200;7200;7200;1827336327;0.000000e+00;4.427778e-02;9.366324e+00
63;dlange;63;0;1;1;0;300;171;7200;7200;7200;572660336;0.000000e+00;4.363400e-02;9.504514e+00
64;dlange;63;0;1;1;0;300;171;7200;7200;7200;1159126505;0.000000e+00;4.498423e-02;9.219231e+00
65;dlange;63;0;1;1;0;300;171;7200;7200;7200;805750846;0.000000e+00;4.395446e-02;9.435219e+00
66;dlange;63;0;1;1;0;300;171;7200;7200;7200;1632621729;0.000000e+00;4.362284e-02;9.506946e+00
67;dlange;63;0;1;1;0;300;171;7200;7200;7200;1100661313;0.000000e+00;4.399343e-02;9.426863e+00
68;dlange;63;0;1;1;0;300;171;7200;7200;7200;1433925857;0.000000e+00;4.412364e-02;9.399042e+00
69;dlange;63;0;1;1;0;300;171;7200;7200;7200;1141616124;0.000000e+00;4.463044e-02;9.292313e+00
70;dlange;63;0;1;1;0;300;171;8100;8100;8100;84353895;0.000000e+00;5.511502e-02;9.523357e+00
71;dlange;63;0;1;1;0;300;171;8100;8100;8100;939819582;0.000000e+00;5.604549e-02;9.365249e+00
72;dlange;63;0;1;1;0;300;171;8100;8100;8100;2001100545;0.000000e+00;5.457206e-02;9.618109e+00
73;dlange;63;0;1;1;0;300;171;8100;8100;8100;1998898814;0.000000e+00;5.432225e-02;9.662339e+00
74;dlange;63;0;1;1;0;300;171;8100;8100;8100;1548233367;0.000000e+00;5.405891e-02;9.709408e+00
75;dlange;63;0;1;1;0;300;171;8100;8100;8100;610515434;0.000000e+00;5.451045e-02;9.628980e+00
76;dlange;63;0;1;1;0;300;171;8100;8100;8100;1585990364;0.000000e+00;5.381488e-02;9.753437e+00
77;dlange;63;0;1;1;0;300;171;8100;8100;8100;1374344043;0.000000e+00;6.113655e-02;8.585371e+00
78;dlange;63;0;1;1;0;300;171;8100;8100;8100;760313750;0.000000e+00;5.460129e-02;9.612959e+00
79;dlange;63;0;1;1;0;300;171;8100;8100;8100;1477171087;0.000000e+00;5.437188e-02;9.653520e+00
80;dlange;63;0;1;1;0;300;171;9000;9000;9000;356426808;0.000000e+00;6.741629e-02;9.611920e+00
81;dlange;63;0;1;1;0;300;171;9000;9000;9000;945117276;0.000000e+00;6.594882e-02;9.825801e+00
82;dlange;63;0;1;1;0;300;171;9000;9000;9000;1889947178;0.000000e+00;6.590934e-02;9.831687e+00
83;dlange;63;0;1;1;0;300;171;9000;9000;9000;1780695788;0.000000e+00;6.622131e-02;9.785370e+00
84;dlange;63;0;1;1;0;300;171;9000;9000;9000;709393584;0.000000e+00;6.679971e-02;9.700641e+00
85;dlange;63;0;1;1;0;300;171;9000;9000;9000;491705403;0.000000e+00;6.669326e-02;9.716124e+00
86;dlange;63;0;1;1;0;300;171;9000;9000;9000;1918502651;0.000000e+00;6.646017e-02;9.750200e+00
87;dlange;63;0;1;1;0;300;171;9000;9000;9000;752392754;0.000000e+00;6.548693e-02;9.895104e+00
88;dlange;63;0;1;1;0;300;171;9000;9000;9000;1474612399;0.000000e+00;6.820367e-02;9.500955e+00
89;dlange;63;0;1;1;0;300;171;9000;9000;9000;2053999932;0.000000e+00;6.574856e-02;9.855729e+00
90;dlange;63;0;1;1;0;300;171;9900;9900;9900;1264095060;0.000000e+00;8.102595e-02;9.676899e+00
91;dlange;63;0;1;1;0;300;171;9900;9900;9900;1411549676;0.000000e+00;7.993600e-02;9.808847e+00
92;dlange;63;0;1;1;0;300;171;9900;9900;9900;1843993368;0.000000e+00;7.967801e-02;9.840607e+00
93;dlange;63;0;1;1;0;300;171;9900;9900;9900;943947739;0.000000e+00;7.990464e-02;9.812697e+00
94;dlange;63;0;1;1;0;300;171;9900;9900;9900;1984210012;0.000000e+00;8.011697e-02;9.786691e+00
95;dlange;63;0;1;1;0;300;171;9900;9900;9900;855636226;0.000000e+00;8.022950e-02;9.772964e+00
96;dlange;63;0;1;1;0;300;171;9900;9900;9900;1749698586;0.000000e+00;7.980299e-02;9.825196e+00
97;dlange;63;0;1;1;0;300;171;9900;9900;9900;1469348094;0.000000e+00;7.993966e-02;9.808398e+00
98;dlange;63;0;1;1;0;300;171;9900;9900;9900;1956297539;0.000000e+00;8.072857e-02;9.712547e+00
99;dlange;63;0;1;1;0;300;171;9900;9900;9900;1036140795;0.000000e+00;7.986034e-02;9.818140e+00
100;dlange;63;0;1;1;0;300;171;10800;10800;10800;463480570;0.000000e+00;9.399241e-02;9.927610e+00
101;dlange;63;0;1;1;0;300;171;10800;10800;10800;2040651434;0.000000e+00;9.350787e-02;9.979053e+00
102;dlange;63;0;1;1;0;300;171;10800;10800;10800;1975960378;0.000000e+00;1.029643e-01;9.062555e+00
103;dlange;63;0;1;1;0;300;171;10800;10800;10800;317097467;0.000000e+00;9.476194e-02;9.846991e+00
104;dlange;63;0;1;1;0;300;171;10800;10800;10800;1892066601;0.000000e+00;9.672760e-02;9.646884e+00
105;dlange;63;0;1;1;0;300;171;10800;10800;10800;1376710097;0.000000e+00;9.413190e-02;9.912899e+00
106;dlange;63;0;1;1;0;300;171;10800;10800;10800;927612902;0.000000e+00;9.375358e-02;9.952900e+00
107;dlange;63;0;1;1;0;300;171;10800;10800;10800;1330573317;0.000000e+00;9.455871e-02;9.868155e+00
108;dlange;63;0;1;1;0;300;171;10800;10800;10800;603570492;0.000000e+00;9.689052e-02;9.630663e+00
109;dlange;63;0;1;1;0;300;171;10800;10800;10800;1687926652;0.000000e+00;9.371771e-02;9.956710e+00
110;dlange;63;0;1;1;0;300;171;11700;11700;11700;660260756;0.000000e+00;1.122101e-01;9.759547e+00
111;dlange;63;0;1;1;0;300;171;11700;11700;11700;959997301;0.000000e+00;1.116047e-01;9.812488e+00
112;dlange;63;0;1;1;0;300;171;11700;11700;11700;485560280;0.000000e+00;1.134393e-01;9.653799e+00
113;dlange;63;0;1;1;0;300;171;11700;11700;11700;402724286;0.000000e+00;1.114118e-01;9.829483e+00
114;dlange;63;0;1;1;0;300;171;11700;11700;11700;593209441;0.000000e+00;1.119376e-01;9.783309e+00
115;dlange;63;0;1;1;0;300;171;11700;11700;11700;1194953865;0.000000e+00;1.128969e-01;9.700175e+00
116;dlange;63;0;1;1;0;300;171;11700;11700;11700;894429689;0.000000e+00;1.119933e-01;9.778442e+00
117;dlange;63;0;1;1;0;300;171;11700;11700;11700;364228444;0.000000e+00;1.108861e-01;9.876077e+00
118;dlange;63;0;1;1;0;300;171;11700;11700;11700;1947346619;0.000000e+00;1.130988e-01;9.682862e+00
119;dlange;63;0;1;1;0;300;171;11700;11700;11700;221558440;0.000000e+00;1.099649e-01;9.958818e+00
120;dlange;63;0;1;1;0;300;171;12600;12600;12600;270744729;0.000000e+00;1.294002e-01;9.815135e+00
121;dlange;63;0;1;1;0;300;171;12600;12600;12600;1063958031;0.000000e+00;1.444246e-01;8.794068e+00
122;dlange;63;0;1;1;0;300;171;12600;12600;12600;1633108117;0.000000e+00;1.291778e-01;9.832030e+00
123;dlange;63;0;1;1;0;300;171;12600;12600;12600;2114738097;0.000000e+00;1.282011e-01;9.906937e+00
124;dlange;63;0;1;1;0;300;171;12600;12600;12600;2007905771;0.000000e+00;1.285502e-01;9.880032e+00
125;dlange;63;0;1;1;0;300;171;12600;12600;12600;1469834481;0.000000e+00;1.294941e-01;9.808014e+00
126;dlange;63;0;1;1;0;300;171;12600;12600;12600;822890675;0.000000e+00;1.291082e-01;9.837328e+00
127;dlange;63;0;1;1;0;300;171;12600;12600;12600;1610120709;0.000000e+00;1.306187e-01;9.723569e+00
128;dlange;63;0;1;1;0;300;171;12600;12600;12600;791698927;0.000000e+00;1.290719e-01;9.840093e+00
129;dlange;63;0;1;1;0;300;171;12600;12600;12600;631704567;0.000000e+00;1.286197e-01;9.874691e+00
130;dlange;63;0;1;1;0;300;171;13500;13500;13500;498777856;0.000000e+00;1.341558e-01;1.086796e+01
131;dlange;63;0;1;1;0;300;171;13500;13500;13500;1255179497;0.000000e+00;1.495740e-01;9.747685e+00
132;dlange;63;0;1;1;0;300;171;13500;13500;13500;524872353;0.000000e+00;1.496097e-01;9.745359e+00
133;dlange;63;0;1;1;0;300;171;13500;13500;13500;327254586;0.000000e+00;1.472419e-01;9.902075e+00
134;dlange;63;0;1;1;0;300;171;13500;13500;13500;1572276965;0.000000e+00;1.502649e-01;9.702867e+00
135;dlange;63;0;1;1;0;300;171;13500;13500;13500;269455306;0.000000e+00;1.488720e-01;9.793650e+00
136;dlange;63;0;1;1;0;300;171;13500;13500;13500;1703964683;0.000000e+00;1.476932e-01;9.871817e+00
137;dlange;63;0;1;1;0;300;171;13500;13500;13500;352406219;0.000000e+00;1.502878e-01;9.701387e+00
138;dlange;63;0;1;1;0;300;171;13500;13500;13500;1600028624;0.000000e+00;1.496934e-01;9.739905e+00
139;dlange;63;0;1;1;0;300;171;13500;13500;13500;160051528;0.000000e+00;1.484252e-01;9.823127e+00
140;dlange;63;0;1;1;0;300;171;14400;14400;14400;2040332871;0.000000e+00;1.669516e-01;9.936292e+00
141;dlange;63;0;1;1;0;300;171;14400;14400;14400;112805732;0.000000e+00;1.677164e-01;9.890981e+00
142;dlange;63;0;1;1;0;300;171;14400;14400;14400;1120048829;0.000000e+00;1.699945e-01;9.758433e+00
143;dlange;63;0;1;1;0;300;171;14400;14400;14400;378409503;0.000000e+00;1.667046e-01;9.951013e+00
144;dlange;63;0;1;1;0;300;171;14400;14400;14400;515530019;0.000000e+00;1.667349e-01;9.949206e+00
145;dlange;63;0;1;1;0;300;171;14400;14400;14400;1713258270;0.000000e+00;1.680923e-01;9.868863e+00
146;dlange;63;0;1;1;0;300;171;14400;14400;14400;1573363368;0.000000e+00;1.571617e-01;1.055524e+01
147;dlange;63;0;1;1;0;300;171;14400;14400;14400;1409959708;0.000000e+00;1.674587e-01;9.906206e+00
148;dlange;63;0;1;1;0;300;171;14400;14400;14400;2077486715;0.000000e+00;1.677872e-01;9.886809e+00
149;dlange;63;0;1;1;0;300;171;14400;14400;14400;1373226340;0.000000e+00;1.675059e-01;9.903410e+00
150;dlange;63;0;1;1;0;300;171;15300;15300;15300;1631518149;0.000000e+00;1.886318e-01;9.927913e+00
151;dlange;63;0;1;1;0;300;171;15300;15300;15300;200747796;0.000000e+00;1.902538e-01;9.843270e+00
152;dlange;63;0;1;1;0;300;171;15300;15300;15300;289700723;0.000000e+00;1.883642e-01;9.942014e+00
153;dlange;63;0;1;1;0;300;171;15300;15300;15300;1117142618;0.000000e+00;1.943021e-01;9.638190e+00
154;dlange;63;0;1;1;0;300;171;15300;15300;15300;168002245;0.000000e+00;1.896793e-01;9.873087e+00
155;dlange;63;0;1;1;0;300;171;15300;15300;15300;150122846;0.000000e+00;1.893060e-01;9.892556e+00
156;dlange;63;0;1;1;0;300;171;15300;15300;15300;439493451;0.000000e+00;1.887731e-01;9.920481e+00
157;dlange;63;0;1;1;0;300;171;15300;15300;15300;990892921;0.000000e+00;2.054001e-01;9.117425e+00
158;dlange;63;0;1;1;0;300;171;15300;15300;15300;1760243555;0.000000e+00;1.881591e-01;9.952853e+00
159;dlange;63;0;1;1;0;300;171;15300;15300;15300;1231192379;0.000000e+00;1.882728e-01;9.946841e+00
160;dlange;63;0;1;1;0;300;171;16200;16200;16200;1622597488;0.000000e+00;2.259211e-01;9.293154e+00
161;dlange;63;0;1;1;0;300;171;16200;16200;16200;111537764;0.000000e+00;2.162273e-01;9.709781e+00
162;dlange;63;0;1;1;0;300;171;16200;16200;16200;338888228;0.000000e+00;2.170986e-01;9.670814e+00
163;dlange;63;0;1;1;0;300;171;16200;16200;16200;2147469841;0.000000e+00;2.146457e-01;9.781328e+00
164;dlange;63;0;1;1;0;300;171;16200;16200;16200;438792350;0.000000e+00;2.157929e-01;9.729330e+00
165;dlange;63;0;1;1;0;300;171;16200;16200;16200;1911165193;0.000000e+00;2.175686e-01;9.649921e+00
166;dlange;63;0;1;1;0;300;171;16200;16200;16200;269441500;0.000000e+00;2.432218e-01;8.632120e+00
167;dlange;63;0;1;1;0;300;171;16200;16200;16200;2142757034;0.000000e+00;2.141072e-01;9.805928e+00
168;dlange;63;0;1;1;0;300;171;16200;16200;16200;116087764;0.000000e+00;2.153971e-01;9.747209e+00
169;dlange;63;0;1;1;0;300;171;16200;16200;16200;1869470124;0.000000e+00;2.151015e-01;9.760599e+00
170;dlange;63;0;1;1;0;300;171;17100;17100;17100;155324914;0.000000e+00;2.392406e-01;9.777937e+00
171;dlange;63;0;1;1;0;300;171;17100;17100;17100;8936987;0.000000e+00;2.404542e-01;9.728588e+00
172;dlange;63;0;1;1;0;300;171;17100;17100;17100;1982275856;0.000000e+00;2.458307e-01;9.515817e+00
173;dlange;63;0;1;1;0;300;171;17100;17100;17100;1275373743;0.000000e+00;2.417331e-01;9.677119e+00
174;dlange;63;0;1;1;0;300;171;17100;17100;17100;387346491;0.000000e+00;2.453429e-01;9.534739e+00
175;dlange;63;0;1;1;0;300;171;17100;17100;17100;350322227;0.000000e+00;2.406537e-01;9.720523e+00
176;dlange;63;0;1;1;0;300;171;17100;17100;17100;841148365;0.000000e+00;2.481874e-01;9.425460e+00
177;dlange;63;0;1;1;0;300;171;17100;17100;17100;1960709859;0.000000e+00;2.423066e-01;9.654215e+00
178;dlange;63;0;1;1;0;300;171;17100;17100;17100;1760281936;0.000000e+00;2.405200e-01;9.725928e+00
179;dlange;63;0;1;1;0;300;171;17100;17100;17100;771151432;0.000000e+00;2.404904e-01;9.727123e+00
180;dlange;63;0;1;1;0;300;171;18000;18000;18000;1186452551;0.000000e+00;3.016052e-01;8.594017e+00
181;dlange;63;0;1;1;0;300;171;18000;18000;18000;1244316437;0.000000e+00;2.632569e-01;9.845897e+00
182;dlange;63;0;1;1;0;300;171;18000;18000;18000;971899228;0.000000e+00;2.751754e-01;9.419447e+00
183;dlange;63;0;1;1;0;300;171;18000;18000;18000;1476153275;0.000000e+00;2.632013e-01;9.847976e+00
184;dlange;63;0;1;1;0;300;171;18000;18000;18000;213975407;0.000000e+00;2.603161e-01;9.957126e+00
185;dlange;63;0;1;1;0;300;171;18000;18000;18000;1139901474;0.000000e+00;2.641621e-01;9.812155e+00
186;dlange;63;0;1;1;0;300;171;18000;18000;18000;1626276121;0.000000e+00;2.633330e-01;9.843050e+00
187;dlange;63;0;1;1;0;300;171;18000;18000;18000;653468858;0.000000e+00;2.626007e-01;9.870498e+00
188;dlange;63;0;1;1;0;300;171;18000;18000;18000;2130794395;0.000000e+00;2.630588e-01;9.853310e+00
189;dlange;63;0;1;1;0;300;171;18000;18000;18000;1239036029;0.000000e+00;2.652386e-01;9.772333e+00
190;dlange;63;0;1;1;0;300;171;18900;18900;18900;1884661237;0.000000e+00;2.887830e-01;9.895595e+00
191;dlange;63;0;1;1;0;300;171;18900;18900;18900;1605908235;0.000000e+00;2.853138e-01;1.001592e+01
192;dlange;63;0;1;1;0;300;171;18900;18900;18900;1350573793;0.000000e+00;2.848873e-01;1.003092e+01
193;dlange;63;0;1;1;0;300;171;18900;18900;18900;76065818;0.000000e+00;2.852165e-01;1.001934e+01
194;dlange;63;0;1;1;0;300;171;18900;18900;18900;1605894428;0.000000e+00;2.936453e-01;9.731741e+00
195;dlange;63;0;1;1;0;300;171;18900;18900;18900;1789366143;0.000000e+00;2.860028e-01;9.991792e+00
196;dlange;63;0;1;1;0;300;171;18900;18900;18900;1987231011;0.000000e+00;2.859779e-01;9.992660e+00
197;dlange;63;0;1;1;0;300;171;18900;18900;18900;1875335928;0.000000e+00;2.852811e-01;1.001707e+01
198;dlange;63;0;1;1;0;300;171;18900;18900;18900;1784639529;0.000000e+00;2.856662e-01;1.000356e+01
199;dlange;63;0;1;1;0;300;171;18900;18900;18900;2103318776;0.000000e+00;2.873524e-01;9.944862e+00
200;dlange;63;0;1;1;0;300;171;19800;19800;19800;1597322404;0.000000e+00;3.216885e-01;9.749557e+00
201;dlange;63;0;1;1;0;300;171;19800;19800;19800;1939964443;0.000000e+00;3.218479e-01;9.744726e+00
202;dlange;63;0;1;1;0;300;171;19800;19800;19800;2112255763;0.000000e+00;3.187570e-01;9.839219e+00
203;dlange;63;0;1;1;0;300;171;19800;19800;19800;1432114613;0.000000e+00;3.196780e-01;9.810874e+00
204;dlange;63;0;1;1;0;300;171;19800;19800;19800;1067854538;0.000000e+00;3.202672e-01;9.792823e+00
205;dlange;63;0;1;1;0;300;171;19800;19800;19800;352118606;0.000000e+00;3.260921e-01;9.617897e+00
206;dlange;63;0;1;1;0;300;171;19800;19800;19800;1782436840;0.000000e+00;3.203610e-01;9.789955e+00
207;dlange;63;0;1;1;0;300;171;19800;19800;19800;1909002904;0.000000e+00;3.199155e-01;9.803589e+00
208;dlange;63;0;1;1;0;300;171;19800;19800;19800;165344818;0.000000e+00;3.201446e-01;9.796573e+00
209;dlange;63;0;1;1;0;300;171;19800;19800;19800;1395235128;0.000000e+00;3.555580e-01;8.820839e+00
210;dlange;63;0;1;1;0;300;171;20700;20700;20700;532670688;0.000000e+00;3.559438e-01;9.630510e+00
211;dlange;63;0;1;1;0;300;171;20700;20700;20700;1351797369;0.000000e+00;3.486403e-01;9.832255e+00
212;dlange;63;0;1;1;0;300;171;20700;20700;20700;492067917;0.000000e+00;3.565053e-01;9.615341e+00
213;dlange;63;0;1;1;0;300;171;20700;20700;20700;1504569917;0.000000e+00;3.520370e-01;9.737384e+00
214;dlange;63;0;1;1;0;300;171;20700;20700;20700;680466996;0.000000e+00;3.513863e-01;9.755416e+00
215;dlange;63;0;1;1;0;300;171;20700;20700;20700;706043324;0.000000e+00;3.579820e-01;9.575677e+00
216;dlange;63;0;1;1;0;300;171;20700;20700;20700;496987743;0.000000e+00;3.484698e-01;9.837065e+00
217;dlange;63;0;1;1;0;300;171;20700;20700;20700;159259470;0.000000e+00;3.504806e-01;9.780626e+00
218;dlange;63;0;1;1;0;300;171;20700;20700;20700;1359512183;0.000000e+00;3.520540e-01;9.736916e+00
219;dlange;63;0;1;1;0;300;171;20700;20700;20700;480298490;0.000000e+00;3.804433e-01;9.010331e+00
220;dlange;63;0;1;1;0;300;171;21600;21600;21600;1398295499;0.000000e+00;3.842659e-01;9.713275e+00
221;dlange;63;0;1;1;0;300;171;21600;21600;21600;1096689772;0.000000e+00;3.762391e-01;9.920501e+00
222;dlange;63;0;1;1;0;300;171;21600;21600;21600;2086206725;0.000000e+00;3.998287e-01;9.335198e+00
223;dlange;63;0;1;1;0;300;171;21600;21600;21600;601385644;0.000000e+00;3.779698e-01;9.875075e+00
224;dlange;63;0;1;1;0;300;171;21600;21600;21600;1172755590;0.000000e+00;3.781712e-01;9.869815e+00
225;dlange;63;0;1;1;0;300;171;21600;21600;21600;1544617505;0.000000e+00;3.868051e-01;9.649512e+00
226;dlange;63;0;1;1;0;300;171;21600;21600;21600;243268139;0.000000e+00;3.760111e-01;9.926514e+00
227;dlange;63;0;1;1;0;300;171;21600;21600;21600;1012502954;0.000000e+00;3.886969e-01;9.602546e+00
228;dlange;63;0;1;1;0;300;171;21600;21600;21600;1272469786;0.000000e+00;3.763786e-01;9.916824e+00
229;dlange;63;0;1;1;0;300;171;21600;21600;21600;2027907669;0.000000e+00;3.785075e-01;9.861046e+00
230;dlange;63;0;1;1;0;300;171;22500;22500;22500;968338082;0.000000e+00;3.985948e-01;1.016070e+01
231;dlange;63;0;1;1;0;300;171;22500;22500;22500;722308542;0.000000e+00;4.256301e-01;9.515305e+00
232;dlange;63;0;1;1;0;300;171;22500;22500;22500;1820388464;0.000000e+00;4.134396e-01;9.795868e+00
233;dlange;63;0;1;1;0;300;171;22500;22500;22500;933110197;0.000000e+00;4.141366e-01;9.779383e+00
234;dlange;63;0;1;1;0;300;171;22500;22500;22500;6939507;0.000000e+00;4.140687e-01;9.780985e+00
235;dlange;63;0;1;1;0;300;171;22500;22500;22500;740759355;0.000000e+00;4.125207e-01;9.817689e+00
236;dlange;63;0;1;1;0;300;171;22500;22500;22500;1285228804;0.000000e+00;4.154470e-01;9.748535e+00
237;dlange;63;0;1;1;0;300;171;22500;22500;22500;1789376348;0.000000e+00;4.150851e-01;9.757035e+00
238;dlange;63;0;1;1;0;300;171;22500;22500;22500;502278611;0.000000e+00;4.146102e-01;9.768210e+00
239;dlange;63;0;1;1;0;300;171;22500;22500;22500;1450573622;0.000000e+00;4.328234e-01;9.357165e+00
240;dlange;63;0;1;1;0;300;171;23400;23400;23400;1037127828;0.000000e+00;4.478399e-01;9.781353e+00
241;dlange;63;0;1;1;0;300;171;23400;23400;23400;1034949299;0.000000e+00;4.557756e-01;9.611045e+00
242;dlange;63;0;1;1;0;300;171;23400;23400;23400;654887343;0.000000e+00;4.480341e-01;9.777113e+00
243;dlange;63;0;1;1;0;300;171;23400;23400;23400;1529195746;0.000000e+00;4.490341e-01;9.755340e+00
244;dlange;63;0;1;1;0;300;171;23400;23400;23400;392035568;0.000000e+00;4.505901e-01;9.721651e+00
245;dlange;63;0;1;1;0;300;171;23400;23400;23400;1335354340;0.000000e+00;4.486739e-01;9.763172e+00
246;dlange;63;0;1;1;0;300;171;23400;23400;23400;87755422;0.000000e+00;4.517556e-01;9.696570e+00
247;dlange;63;0;1;1;0;300;171;23400;23400;23400;889023311;0.000000e+00;5.014449e-01;8.735715e+00
248;dlange;63;0;1;1;0;300;171;23400;23400;23400;1494613810;0.000000e+00;4.508508e-01;9.716031e+00
249;dlange;63;0;1;1;0;300;171;23400;23400;23400;1447267605;0.000000e+00;4.475326e-01;9.788068e+00
