Id;Function;threads;gpus;P;Q;mtxfmt;nb;transA;transB;m;n;k;lda;ldb;ldc;alpha;beta;seedA;seedB;seedC;tsub;time;gflops
0;dgemm;64;0;1;1;0;720;111;111;720;720;720;720;720;720;4.892778e-01;-1.846424e-01;1649760492;596516649;1189641421;0.000000e+00;2.482899e-02;3.006549e+01
1;dgemm;64;0;1;1;0;720;111;111;720;720;720;720;720;720;-2.410269e-01;4.000452e-01;783368690;1102520059;2044897763;0.000000e+00;2.454097e-02;3.041835e+01
2;dgemm;64;0;1;1;0;720;111;111;720;720;720;720;720;720;4.141058e-01;-3.017109e-01;1540383426;304089172;1303455736;0.000000e+00;2.448494e-02;3.048797e+01
3;dgemm;64;0;1;1;0;720;111;111;720;720;720;720;720;720;-3.054879e-01;-1.757242e-01;294702567;1726956429;336465782;0.000000e+00;2.460855e-02;3.033482e+01
4;dgemm;64;0;1;1;0;720;111;111;720;720;720;720;720;720;4.797187e-01;2.821215e-01;233665123;2145174067;468703135;0.000000e+00;2.453051e-02;3.043133e+01
5;dgemm;64;0;1;1;0;720;111;111;720;720;720;720;720;720;3.112590e-01;3.332689e-02;1315634022;635723058;1369133069;0.000000e+00;2.519574e-02;2.962786e+01
6;dgemm;64;0;1;1;0;720;111;111;720;720;720;720;720;720;-2.396071e-01;2.196488e-02;2089018456;628175011;1656478042;0.000000e+00;2.587828e-02;2.884643e+01
7;dgemm;64;0;1;1;0;720;111;111;720;720;720;720;720;720;5.576077e-02;-4.098657e-01;859484421;1914544919;608413784;0.000000e+00;2.502621e-02;2.982856e+01
8;dgemm;64;0;1;1;0;720;111;111;720;720;720;720;720;720;-2.172434e-01;3.304604e-01;1973594324;149798315;2038664370;0.000000e+00;2.506411e-02;2.978346e+01
9;dgemm;64;0;1;1;0;720;111;111;720;720;720;720;720;720;1.632813e-02;3.212047e-02;412776091;1424268980;1911759956;0.000000e+00;2.521274e-02;2.960788e+01
10;dgemm;64;0;1;1;0;720;111;111;1440;1440;1440;1440;1440;1440;1.752074e-01;-2.459049e-03;42999170;982906996;135497281;0.000000e+00;5.272700e-02;1.132620e+02
11;dgemm;64;0;1;1;0;720;111;111;1440;1440;1440;1440;1440;1440;-4.932447e-01;-1.333755e-01;1937477084;1827336327;572660336;0.000000e+00;5.224973e-02;1.142966e+02
12;dgemm;64;0;1;1;0;720;111;111;1440;1440;1440;1440;1440;1440;-1.501402e-01;2.390371e-01;1632621729;1100661313;1433925857;0.000000e+00;5.062394e-02;1.179673e+02
13;dgemm;64;0;1;1;0;720;111;111;1440;1440;1440;1440;1440;1440;2.189649e-01;-2.465265e-01;939819582;2001100545;1998898814;0.000000e+00;5.064404e-02;1.179205e+02
14;dgemm;64;0;1;1;0;720;111;111;1440;1440;1440;1440;1440;1440;-2.416937e-01;-1.401268e-01;1585990364;1374344043;760313750;0.000000e+00;5.288646e-02;1.129205e+02
15;dgemm;64;0;1;1;0;720;111;111;1440;1440;1440;1440;1440;1440;3.187297e-01;-1.733443e-01;945117276;1889947178;1780695788;0.000000e+00;5.017614e-02;1.190201e+02
16;dgemm;64;0;1;1;0;720;111;111;1440;1440;1440;1440;1440;1440;-4.132594e-01;7.699516e-02;1918502651;752392754;1474612399;0.000000e+00;5.024462e-02;1.188579e+02
17;dgemm;64;0;1;1;0;720;111;111;1440;1440;1440;1440;1440;1440;-1.543593e-01;-4.222437e-01;1411549676;1843993368;943947739;0.000000e+00;5.050709e-02;1.182402e+02
18;dgemm;64;0;1;1;0;720;111;111;1440;1440;1440;1440;1440;1440;1.866877e-01;-3.211111e-01;1749698586;1469348094;1956297539;0.000000e+00;4.967637e-02;1.202175e+02
19;dgemm;64;0;1;1;0;720;111;111;1440;1440;1440;1440;1440;1440;-3.490223e-01;-4.443388e-01;2040651434;1975960378;317097467;0.000000e+00;5.112766e-02;1.168050e+02
20;dgemm;64;0;1;1;0;720;111;111;2160;2160;2160;2160;2160;2160;-1.054364e-01;2.030082e-01;927612902;1330573317;603570492;0.000000e+00;7.990468e-02;2.522429e+02
21;dgemm;64;0;1;1;0;720;111;111;2160;2160;2160;2160;2160;2160;-4.352839e-01;1.623906e-01;959997301;485560280;402724286;0.000000e+00;7.836166e-02;2.572099e+02
22;dgemm;64;0;1;1;0;720;111;111;2160;2160;2160;2160;2160;2160;4.667617e-01;1.036922e-01;894429689;364228444;1947346619;0.000000e+00;7.836681e-02;2.571930e+02
23;dgemm;64;0;1;1;0;720;111;111;2160;2160;2160;2160;2160;2160;4.665847e-01;3.770548e-01;1063958031;1633108117;2114738097;0.000000e+00;7.911839e-02;2.547498e+02
24;dgemm;64;0;1;1;0;720;111;111;2160;2160;2160;2160;2160;2160;-4.980996e-01;2.856491e-01;822890675;1610120709;791698927;0.000000e+00;8.022869e-02;2.512243e+02
25;dgemm;64;0;1;1;0;720;111;111;2160;2160;2160;2160;2160;2160;3.592840e-01;-4.182928e-01;1255179497;524872353;327254586;0.000000e+00;7.745216e-02;2.602302e+02
26;dgemm;64;0;1;1;0;720;111;111;2160;2160;2160;2160;2160;2160;9.307665e-02;3.296821e-01;1703964683;352406219;1600028624;0.000000e+00;8.039344e-02;2.507094e+02
27;dgemm;64;0;1;1;0;720;111;111;2160;2160;2160;2160;2160;2160;-4.719053e-01;2.807858e-01;112805732;1120048829;378409503;0.000000e+00;7.641515e-02;2.637617e+02
28;dgemm;64;0;1;1;0;720;111;111;2160;2160;2160;2160;2160;2160;2.744957e-01;-3.785920e-02;1573363368;1409959708;2077486715;0.000000e+00;8.029592e-02;2.510139e+02
29;dgemm;64;0;1;1;0;720;111;111;2160;2160;2160;2160;2160;2160;1.799312e-01;9.546876e-03;200747796;289700723;1117142618;0.000000e+00;7.673403e-02;2.626656e+02
30;dgemm;64;0;1;1;0;720;111;111;2880;2880;2880;2880;2880;2880;1.744033e-01;3.861393e-01;439493451;990892921;1760243555;0.000000e+00;1.207111e-01;3.957859e+02
31;dgemm;64;0;1;1;0;720;111;111;2880;2880;2880;2880;2880;2880;3.018442e-01;-4.633856e-02;111537764;338888228;2147469841;0.000000e+00;1.086154e-01;4.398617e+02
32;dgemm;64;0;1;1;0;720;111;111;2880;2880;2880;2880;2880;2880;2.072774e-01;1.109783e-01;269441500;2142757034;116087764;0.000000e+00;1.075591e-01;4.441812e+02
33;dgemm;64;0;1;1;0;720;111;111;2880;2880;2880;2880;2880;2880;-2.366607e-01;9.513167e-02;8936987;1982275856;1275373743;0.000000e+00;1.235855e-01;3.865806e+02
34;dgemm;64;0;1;1;0;720;111;111;2880;2880;2880;2880;2880;2880;-3.952797e-01;-4.960891e-01;841148365;1960709859;1760281936;0.000000e+00;1.113445e-01;4.290804e+02
35;dgemm;64;0;1;1;0;720;111;111;2880;2880;2880;2880;2880;2880;-2.607432e-01;-3.651100e-01;1244316437;971899228;1476153275;0.000000e+00;1.153411e-01;4.142128e+02
36;dgemm;64;0;1;1;0;720;111;111;2880;2880;2880;2880;2880;2880;-1.389722e-01;-8.843738e-02;1626276121;653468858;2130794395;0.000000e+00;1.079838e-01;4.424342e+02
37;dgemm;64;0;1;1;0;720;111;111;2880;2880;2880;2880;2880;2880;9.367129e-02;9.508020e-02;1605908235;1350573793;76065818;0.000000e+00;1.061280e-01;4.501710e+02
38;dgemm;64;0;1;1;0;720;111;111;2880;2880;2880;2880;2880;2880;-4.585682e-01;3.268176e-01;1987231011;1875335928;1784639529;0.000000e+00;1.137133e-01;4.201422e+02
39;dgemm;64;0;1;1;0;720;111;111;2880;2880;2880;2880;2880;2880;-6.830955e-02;1.535754e-01;1939964443;2112255763;1432114613;0.000000e+00;1.074427e-01;4.446625e+02
40;dgemm;64;0;1;1;0;720;111;111;3600;3600;3600;3600;3600;3600;2.725473e-01;1.883941e-01;1782436840;1909002904;165344818;0.000000e+00;1.344871e-01;6.938360e+02
41;dgemm;64;0;1;1;0;720;111;111;3600;3600;3600;3600;3600;3600;2.191162e-01;-3.021529e-01;1351797369;492067917;1504569917;0.000000e+00;1.345907e-01;6.933018e+02
42;dgemm;64;0;1;1;0;720;111;111;3600;3600;3600;3600;3600;3600;-3.280447e-01;-3.223358e-01;496987743;159259470;1359512183;0.000000e+00;1.358232e-01;6.870109e+02
43;dgemm;64;0;1;1;0;720;111;111;3600;3600;3600;3600;3600;3600;-4.513911e-01;3.904790e-01;1096689772;2086206725;601385644;0.000000e+00;1.362788e-01;6.847142e+02
44;dgemm;64;0;1;1;0;720;111;111;3600;3600;3600;3600;3600;3600;-4.403555e-01;9.074247e-02;243268139;1012502954;1272469786;0.000000e+00;1.327196e-01;7.030765e+02
45;dgemm;64;0;1;1;0;720;111;111;3600;3600;3600;3600;3600;3600;1.908228e-02;4.440272e-01;722308542;1820388464;933110197;0.000000e+00;1.327364e-01;7.029871e+02
46;dgemm;64;0;1;1;0;720;111;111;3600;3600;3600;3600;3600;3600;-1.017733e-01;4.140073e-01;1285228804;1789376348;502278611;0.000000e+00;1.360150e-01;6.860422e+02
47;dgemm;64;0;1;1;0;720;111;111;3600;3600;3600;3600;3600;3600;-2.659684e-01;-2.731221e-01;1034949299;654887343;1529195746;0.000000e+00;1.343154e-01;6.947230e+02
48;dgemm;64;0;1;1;0;720;111;111;3600;3600;3600;3600;3600;3600;1.985016e-01;4.068633e-01;87755422;889023311;1494613810;0.000000e+00;1.342093e-01;6.952720e+02
49;dgemm;64;0;1;1;0;720;111;111;3600;3600;3600;3600;3600;3600;-4.302884e-01;-3.682695e-01;745425661;396473730;1308044878;0.000000e+00;1.348649e-01;6.918926e+02
50;dgemm;64;0;1;1;0;720;111;111;4320;4320;4320;4320;4320;4320;3.002688e-01;4.210193e-01;705178736;1590079444;434248626;0.000000e+00;1.631090e-01;9.885609e+02
51;dgemm;64;0;1;1;0;720;111;111;4320;4320;4320;4320;4320;4320;-3.696050e-01;-2.996627e-01;1402586708;552473416;1143408282;0.000000e+00;1.632565e-01;9.876674e+02
52;dgemm;64;0;1;1;0;720;111;111;4320;4320;4320;4320;4320;4320;-3.095740e-01;-1.111416e-01;1884167637;1473442062;201305624;0.000000e+00;1.612897e-01;9.997113e+02
53;dgemm;64;0;1;1;0;720;111;111;4320;4320;4320;4320;4320;4320;3.214526e-01;-2.291051e-01;1238433452;1273911899;1431419379;0.000000e+00;1.654356e-01;9.746583e+02
54;dgemm;64;0;1;1;0;720;111;111;4320;4320;4320;4320;4320;4320;-4.764616e-02;-2.823082e-01;619290071;707900973;407487131;0.000000e+00;1.614790e-01;9.985395e+02
55;dgemm;64;0;1;1;0;720;111;111;4320;4320;4320;4320;4320;4320;-2.829039e-01;4.689267e-01;1776808933;711845894;404158660;0.000000e+00;1.648124e-01;9.783433e+02
56;dgemm;64;0;1;1;0;720;111;111;4320;4320;4320;4320;4320;4320;-9.802407e-02;-3.473849e-01;1973387981;1642548899;1501252996;0.000000e+00;1.618376e-01;9.963270e+02
57;dgemm;64;0;1;1;0;720;111;111;4320;4320;4320;4320;4320;4320;-2.998149e-02;-6.245404e-02;824272813;1662739668;2025187190;0.000000e+00;1.659665e-01;9.715405e+02
58;dgemm;64;0;1;1;0;720;111;111;4320;4320;4320;4320;4320;4320;1.613464e-01;1.651206e-01;437116466;1704365084;1176911340;0.000000e+00;1.647648e-01;9.786263e+02
59;dgemm;64;0;1;1;0;720;111;111;4320;4320;4320;4320;4320;4320;-9.329343e-02;2.766544e-01;1953443376;1876855542;1069755936;0.000000e+00;1.661635e-01;9.703882e+02
60;dgemm;64;0;1;1;0;720;111;111;5040;5040;5040;5040;5040;5040;-4.205594e-01;1.129006e-01;588219756;1856669179;1057418418;0.000000e+00;2.004130e-01;1.277602e+03
61;dgemm;64;0;1;1;0;720;111;111;5040;5040;5040;5040;5040;5040;1.349872e-02;-2.496970e-01;1065103348;625032172;387451659;0.000000e+00;2.017653e-01;1.269039e+03
62;dgemm;64;0;1;1;0;720;111;111;5040;5040;5040;5040;5040;5040;9.058696e-02;7.370132e-02;298625210;1295166342;1057467587;0.000000e+00;1.991801e-01;1.285511e+03
63;dgemm;64;0;1;1;0;720;111;111;5040;5040;5040;5040;5040;5040;-3.018314e-02;-5.773157e-02;382697713;476667372;1070575321;0.000000e+00;1.986453e-01;1.288972e+03
64;dgemm;64;0;1;1;0;720;111;111;5040;5040;5040;5040;5040;5040;-4.650331e-01;-1.058972e-01;774044599;697517721;2001229904;0.000000e+00;2.021199e-01;1.266813e+03
65;dgemm;64;0;1;1;0;720;111;111;5040;5040;5040;5040;5040;5040;4.801672e-01;-2.032396e-01;1797073940;1756915667;1065311705;0.000000e+00;1.997769e-01;1.281670e+03
66;dgemm;64;0;1;1;0;720;111;111;5040;5040;5040;5040;5040;5040;2.132438e-01;1.658781e-01;1414829150;1307565984;555996658;0.000000e+00;2.015545e-01;1.270366e+03
67;dgemm;64;0;1;1;0;720;111;111;5040;5040;5040;5040;5040;5040;1.800331e-01;-1.232803e-01;231602422;1389867269;780821396;0.000000e+00;2.005308e-01;1.276852e+03
68;dgemm;64;0;1;1;0;720;111;111;5040;5040;5040;5040;5040;5040;3.404283e-01;-1.210446e-01;195740084;917679292;2006811972;0.000000e+00;2.039556e-01;1.255411e+03
69;dgemm;64;0;1;1;0;720;111;111;5040;5040;5040;5040;5040;5040;1.960490e-01;-2.057583e-01;1414647625;1635905385;1046741222;0.000000e+00;2.039313e-01;1.255561e+03
70;dgemm;64;0;1;1;0;720;111;111;5760;5760;5760;5760;5760;5760;-4.981229e-01;1.797563e-01;1343606042;1111783898;446340713;0.000000e+00;2.446407e-01;1.562316e+03
71;dgemm;64;0;1;1;0;720;111;111;5760;5760;5760;5760;5760;5760;1.449892e-01;-2.994312e-01;1782280524;846942590;524688209;0.000000e+00;2.458056e-01;1.554911e+03
72;dgemm;64;0;1;1;0;720;111;111;5760;5760;5760;5760;5760;5760;-7.231379e-02;2.098748e-01;1371499336;2114937732;726371155;0.000000e+00;2.487754e-01;1.536349e+03
73;dgemm;64;0;1;1;0;720;111;111;5760;5760;5760;5760;5760;5760;-2.503210e-01;-2.840220e-01;882160379;11614769;1682085273;0.000000e+00;2.457929e-01;1.554992e+03
74;dgemm;64;0;1;1;0;720;111;111;5760;5760;5760;5760;5760;5760;9.597039e-02;1.728868e-01;246247255;1858721860;1548348142;0.000000e+00;2.425551e-01;1.575749e+03
75;dgemm;64;0;1;1;0;720;111;111;5760;5760;5760;5760;5760;5760;-7.244259e-02;3.629747e-01;2118421993;1520223205;452867621;0.000000e+00;2.463641e-01;1.551386e+03
76;dgemm;64;0;1;1;0;720;111;111;5760;5760;5760;5760;5760;5760;-4.022054e-01;3.532503e-01;201690613;213801961;822262754;0.000000e+00;2.435684e-01;1.569194e+03
77;dgemm;64;0;1;1;0;720;111;111;5760;5760;5760;5760;5760;5760;-4.352033e-02;2.911775e-01;1737518944;282828202;110613202;0.000000e+00;2.412098e-01;1.584537e+03
78;dgemm;64;0;1;1;0;720;111;111;5760;5760;5760;5760;5760;5760;-3.380140e-01;-1.158719e-01;1676902021;1486222842;950390868;0.000000e+00;2.435799e-01;1.569119e+03
79;dgemm;64;0;1;1;0;720;111;111;5760;5760;5760;5760;5760;5760;-3.254125e-01;4.026002e-01;1242608872;1137949908;1277849958;0.000000e+00;2.474458e-01;1.544605e+03
80;dgemm;64;0;1;1;0;720;111;111;6480;6480;6480;6480;6480;6480;-7.731044e-02;2.584243e-01;1908518808;1023457753;364686248;0.000000e+00;4.000214e-01;1.360416e+03
81;dgemm;64;0;1;1;0;720;111;111;6480;6480;6480;6480;6480;6480;-3.124503e-01;3.608416e-01;1329132133;1280321648;501772890;0.000000e+00;3.996665e-01;1.361624e+03
82;dgemm;64;0;1;1;0;720;111;111;6480;6480;6480;6480;6480;6480;8.143046e-02;2.072399e-01;212251746;1983690368;364319529;0.000000e+00;4.074649e-01;1.335564e+03
83;dgemm;64;0;1;1;0;720;111;111;6480;6480;6480;6480;6480;6480;2.429254e-01;3.618715e-01;1775473788;624549797;767066249;0.000000e+00;3.980586e-01;1.367124e+03
84;dgemm;64;0;1;1;0;720;111;111;6480;6480;6480;6480;6480;6480;2.177558e-01;-2.828171e-01;1750003033;1415505363;78012497;0.000000e+00;3.987589e-01;1.364723e+03
85;dgemm;64;0;1;1;0;720;111;111;6480;6480;6480;6480;6480;6480;3.155647e-01;-4.765819e-01;1344247686;1795519125;661761152;0.000000e+00;3.989371e-01;1.364114e+03
86;dgemm;64;0;1;1;0;720;111;111;6480;6480;6480;6480;6480;6480;1.085222e-01;-8.764404e-02;1315209188;235649157;1448703729;0.000000e+00;3.959749e-01;1.374318e+03
87;dgemm;64;0;1;1;0;720;111;111;6480;6480;6480;6480;6480;6480;5.964717e-02;3.343596e-01;430253414;861543921;677870460;0.000000e+00;4.001516e-01;1.359973e+03
88;dgemm;64;0;1;1;0;720;111;111;6480;6480;6480;6480;6480;6480;-3.852038e-01;-3.449149e-01;828388027;1144278050;332266748;0.000000e+00;3.963952e-01;1.372861e+03
89;dgemm;64;0;1;1;0;720;111;111;6480;6480;6480;6480;6480;6480;-2.132347e-01;-3.266376e-02;816504794;820697697;655858699;0.000000e+00;3.964288e-01;1.372745e+03
90;dgemm;64;0;1;1;0;720;111;111;7200;7200;7200;7200;7200;7200;4.306626e-01;3.748097e-01;1395132002;1186090428;1974806403;0.000000e+00;5.119281e-01;1.458205e+03
91;dgemm;64;0;1;1;0;720;111;111;7200;7200;7200;7200;7200;7200;-2.001786e-01;4.867196e-01;1498617647;669908538;1387036159;0.000000e+00;5.092511e-01;1.465870e+03
92;dgemm;64;0;1;1;0;720;111;111;7200;7200;7200;7200;7200;7200;1.290300e-01;2.190988e-01;1812282134;1328104339;1380171692;0.000000e+00;5.041393e-01;1.480733e+03
93;dgemm;64;0;1;1;0;720;111;111;7200;7200;7200;7200;7200;7200;1.972368e-02;-3.289758e-01;777720504;1543755629;1722060049;0.000000e+00;5.098317e-01;1.464201e+03
94;dgemm;64;0;1;1;0;720;111;111;7200;7200;7200;7200;7200;7200;-1.628764e-01;-1.178982e-01;70636429;136495343;1472576335;0.000000e+00;5.103235e-01;1.462790e+03
95;dgemm;64;0;1;1;0;720;111;111;7200;7200;7200;7200;7200;7200;-3.497582e-01;-9.472418e-02;1503885238;1219407971;2416949;0.000000e+00;5.089411e-01;1.466763e+03
96;dgemm;64;0;1;1;0;720;111;111;7200;7200;7200;7200;7200;7200;-1.213255e-01;-3.664051e-01;561717988;1407392292;1841585795;0.000000e+00;5.090626e-01;1.466413e+03
97;dgemm;64;0;1;1;0;720;111;111;7200;7200;7200;7200;7200;7200;3.538300e-01;-4.514458e-01;1433102829;1887658390;1402961682;0.000000e+00;5.100238e-01;1.463649e+03
98;dgemm;64;0;1;1;0;720;111;111;7200;7200;7200;7200;7200;7200;-3.514624e-01;-2.320307e-01;400000569;337453826;1081174232;0.000000e+00;5.104206e-01;1.462512e+03
99;dgemm;64;0;1;1;0;720;111;111;7200;7200;7200;7200;7200;7200;-1.551027e-01;-2.203633e-01;1941690360;410409117;847228023;0.000000e+00;5.063391e-01;1.474300e+03
100;dgemm;64;0;1;1;0;720;111;111;7920;7920;7920;7920;7920;7920;-4.226583e-01;4.233893e-01;1175526309;1586903190;2002495425;0.000000e+00;6.434940e-01;1.544049e+03
101;dgemm;64;0;1;1;0;720;111;111;7920;7920;7920;7920;7920;7920;-1.821509e-01;-3.376510e-01;1184214677;2004504234;1061730690;0.000000e+00;6.266962e-01;1.585435e+03
102;dgemm;64;0;1;1;0;720;111;111;7920;7920;7920;7920;7920;7920;2.025557e-01;-1.309258e-02;1717226057;1748349614;1276673168;0.000000e+00;6.283790e-01;1.581189e+03
103;dgemm;64;0;1;1;0;720;111;111;7920;7920;7920;7920;7920;7920;-3.323793e-03;1.208180e-01;2009726312;696947386;1877565100;0.000000e+00;6.313841e-01;1.573664e+03
104;dgemm;64;0;1;1;0;720;111;111;7920;7920;7920;7920;7920;7920;4.408419e-02;7.007474e-02;1630634994;1665204916;1707056552;0.000000e+00;6.407567e-01;1.550645e+03
105;dgemm;64;0;1;1;0;720;111;111;7920;7920;7920;7920;7920;7920;1.985130e-01;3.083112e-01;1010528946;358532290;1708302647;0.000000e+00;6.375464e-01;1.558453e+03
106;dgemm;64;0;1;1;0;720;111;111;7920;7920;7920;7920;7920;7920;3.496171e-01;-4.343253e-02;1426819080;885799631;1314218593;0.000000e+00;6.348433e-01;1.565089e+03
107;dgemm;64;0;1;1;0;720;111;111;7920;7920;7920;7920;7920;7920;1.482571e-01;2.268525e-01;1156541312;318561886;1243439214;0.000000e+00;6.350664e-01;1.564539e+03
108;dgemm;64;0;1;1;0;720;111;111;7920;7920;7920;7920;7920;7920;1.954537e-01;3.390887e-01;1112720090;1788014412;1106059479;0.000000e+00;6.361156e-01;1.561959e+03
109;dgemm;64;0;1;1;0;720;111;111;7920;7920;7920;7920;7920;7920;-2.432179e-01;-3.632344e-01;1095966189;104152274;1748806355;0.000000e+00;6.332624e-01;1.568996e+03
110;dgemm;64;0;1;1;0;720;111;111;8640;8640;8640;8640;8640;8640;-3.111498e-01;-3.768885e-01;970925433;309198987;887077888;0.000000e+00;8.301197e-01;1.553927e+03
111;dgemm;64;0;1;1;0;720;111;111;8640;8640;8640;8640;8640;8640;-3.455352e-01;1.438218e-01;37487770;1541027284;1232056856;0.000000e+00;8.289231e-01;1.556170e+03
112;dgemm;64;0;1;1;0;720;111;111;8640;8640;8640;8640;8640;8640;1.670465e-01;-4.374846e-01;959372260;1025125849;2137100237;0.000000e+00;8.324637e-01;1.549551e+03
113;dgemm;64;0;1;1;0;720;111;111;8640;8640;8640;8640;8640;8640;-2.602701e-01;3.620021e-01;1376035217;1282648518;478034945;0.000000e+00;8.295688e-01;1.554959e+03
114;dgemm;64;0;1;1;0;720;111;111;8640;8640;8640;8640;8640;8640;-1.751029e-01;-3.004013e-01;1983228458;1584710873;993967637;0.000000e+00;8.378107e-01;1.539662e+03
115;dgemm;64;0;1;1;0;720;111;111;8640;8640;8640;8640;8640;8640;2.320915e-01;4.447722e-01;2045826607;2037770478;1930772757;0.000000e+00;8.231426e-01;1.567098e+03
116;dgemm;64;0;1;1;0;720;111;111;8640;8640;8640;8640;8640;8640;3.200980e-01;-3.080142e-01;1152645729;470591100;1025533459;0.000000e+00;8.253687e-01;1.562871e+03
117;dgemm;64;0;1;1;0;720;111;111;8640;8640;8640;8640;8640;8640;1.877797e-02;2.363318e-01;1899058025;2077211388;394633074;0.000000e+00;8.327649e-01;1.548991e+03
118;dgemm;64;0;1;1;0;720;111;111;8640;8640;8640;8640;8640;8640;-2.785742e-03;-2.859474e-01;1645933681;1943003493;553160358;0.000000e+00;8.303373e-01;1.553519e+03
119;dgemm;64;0;1;1;0;720;111;111;8640;8640;8640;8640;8640;8640;2.686058e-01;-6.080735e-02;712633417;864101839;1204275569;0.000000e+00;8.300703e-01;1.554019e+03
120;dgemm;64;0;1;1;0;720;111;111;9360;9360;9360;9360;9360;9360;4.783358e-01;4.252657e-01;410228794;1026413173;773319847;0.000000e+00;1.053560e+00;1.556676e+03
121;dgemm;64;0;1;1;0;720;111;111;9360;9360;9360;9360;9360;9360;1.787239e-01;-3.216067e-01;452456682;1302539390;1858504292;0.000000e+00;1.051284e+00;1.560046e+03
122;dgemm;64;0;1;1;0;720;111;111;9360;9360;9360;9360;9360;9360;2.809763e-01;2.009583e-01;427355115;1388391521;1272796157;0.000000e+00;1.034409e+00;1.585497e+03
123;dgemm;64;0;1;1;0;720;111;111;9360;9360;9360;9360;9360;9360;-2.961404e-01;8.005670e-02;126401947;1204462951;1210359231;0.000000e+00;1.036311e+00;1.582587e+03
124;dgemm;64;0;1;1;0;720;111;111;9360;9360;9360;9360;9360;9360;1.614373e-01;-3.844182e-01;738393740;19485054;1983614030;0.000000e+00;1.042204e+00;1.573639e+03
125;dgemm;64;0;1;1;0;720;111;111;9360;9360;9360;9360;9360;9360;3.696719e-01;1.644219e-01;1905241081;2004187516;371653516;0.000000e+00;1.041296e+00;1.575009e+03
126;dgemm;64;0;1;1;0;720;111;111;9360;9360;9360;9360;9360;9360;3.044324e-01;-3.241417e-01;1707746139;1372261796;2073785404;0.000000e+00;1.040640e+00;1.576003e+03
127;dgemm;64;0;1;1;0;720;111;111;9360;9360;9360;9360;9360;9360;-4.052477e-01;-2.374666e-01;1894519218;786039021;1931513970;0.000000e+00;1.035187e+00;1.584305e+03
128;dgemm;64;0;1;1;0;720;111;111;9360;9360;9360;9360;9360;9360;1.781820e-01;-4.328520e-01;586235379;2032894977;262692685;0.000000e+00;1.046008e+00;1.567915e+03
129;dgemm;64;0;1;1;0;720;111;111;9360;9360;9360;9360;9360;9360;-2.751129e-01;3.889478e-01;1543324176;1985433483;395279207;0.000000e+00;1.043962e+00;1.570988e+03
0;dgemm;64;0;1;1;0;720;111;111;10080;10080;10080;10080;10080;10080;4.892778e-01;-1.846424e-01;1649760492;596516649;1189641421;0.000000e+00;1.324948e+00;1.546012e+03
1;dgemm;64;0;1;1;0;720;111;111;10080;10080;10080;10080;10080;10080;-2.410269e-01;4.000452e-01;783368690;1102520059;2044897763;0.000000e+00;1.312843e+00;1.560266e+03
2;dgemm;64;0;1;1;0;720;111;111;10080;10080;10080;10080;10080;10080;4.141058e-01;-3.017109e-01;1540383426;304089172;1303455736;0.000000e+00;1.327976e+00;1.542486e+03
3;dgemm;64;0;1;1;0;720;111;111;10080;10080;10080;10080;10080;10080;-3.054879e-01;-1.757242e-01;294702567;1726956429;336465782;0.000000e+00;1.334593e+00;1.534838e+03
4;dgemm;64;0;1;1;0;720;111;111;10080;10080;10080;10080;10080;10080;4.797187e-01;2.821215e-01;233665123;2145174067;468703135;0.000000e+00;1.312620e+00;1.560532e+03
5;dgemm;64;0;1;1;0;720;111;111;10080;10080;10080;10080;10080;10080;3.112590e-01;3.332689e-02;1315634022;635723058;1369133069;0.000000e+00;1.313342e+00;1.559674e+03
6;dgemm;64;0;1;1;0;720;111;111;10080;10080;10080;10080;10080;10080;-2.396071e-01;2.196488e-02;2089018456;628175011;1656478042;0.000000e+00;1.329462e+00;1.540762e+03
7;dgemm;64;0;1;1;0;720;111;111;10080;10080;10080;10080;10080;10080;5.576077e-02;-4.098657e-01;859484421;1914544919;608413784;0.000000e+00;1.346726e+00;1.521011e+03
8;dgemm;64;0;1;1;0;720;111;111;10080;10080;10080;10080;10080;10080;-2.172434e-01;3.304604e-01;1973594324;149798315;2038664370;0.000000e+00;1.318226e+00;1.553895e+03
9;dgemm;64;0;1;1;0;720;111;111;10080;10080;10080;10080;10080;10080;1.632813e-02;3.212047e-02;412776091;1424268980;1911759956;0.000000e+00;1.339724e+00;1.528961e+03
10;dgemm;64;0;1;1;0;720;111;111;12240;12240;12240;12240;12240;12240;1.752074e-01;-2.459049e-03;42999170;982906996;135497281;0.000000e+00;2.275559e+00;1.611707e+03
11;dgemm;64;0;1;1;0;720;111;111;12240;12240;12240;12240;12240;12240;-4.932447e-01;-1.333755e-01;1937477084;1827336327;572660336;0.000000e+00;2.284676e+00;1.605276e+03
12;dgemm;64;0;1;1;0;720;111;111;12240;12240;12240;12240;12240;12240;-1.501402e-01;2.390371e-01;1632621729;1100661313;1433925857;0.000000e+00;2.283441e+00;1.606144e+03
13;dgemm;64;0;1;1;0;720;111;111;12240;12240;12240;12240;12240;12240;2.189649e-01;-2.465265e-01;939819582;2001100545;1998898814;0.000000e+00;2.281390e+00;1.607588e+03
14;dgemm;64;0;1;1;0;720;111;111;12240;12240;12240;12240;12240;12240;-2.416937e-01;-1.401268e-01;1585990364;1374344043;760313750;0.000000e+00;2.269574e+00;1.615958e+03
15;dgemm;64;0;1;1;0;720;111;111;12240;12240;12240;12240;12240;12240;3.187297e-01;-1.733443e-01;945117276;1889947178;1780695788;0.000000e+00;2.275541e+00;1.611720e+03
16;dgemm;64;0;1;1;0;720;111;111;12240;12240;12240;12240;12240;12240;-4.132594e-01;7.699516e-02;1918502651;752392754;1474612399;0.000000e+00;2.285860e+00;1.604444e+03
17;dgemm;64;0;1;1;0;720;111;111;12240;12240;12240;12240;12240;12240;-1.543593e-01;-4.222437e-01;1411549676;1843993368;943947739;0.000000e+00;2.290339e+00;1.601307e+03
18;dgemm;64;0;1;1;0;720;111;111;12240;12240;12240;12240;12240;12240;1.866877e-01;-3.211111e-01;1749698586;1469348094;1956297539;0.000000e+00;2.269725e+00;1.615850e+03
19;dgemm;64;0;1;1;0;720;111;111;12240;12240;12240;12240;12240;12240;-3.490223e-01;-4.443388e-01;2040651434;1975960378;317097467;0.000000e+00;2.284539e+00;1.605372e+03
20;dgemm;64;0;1;1;0;720;111;111;14400;14400;14400;14400;14400;14400;-1.054364e-01;2.030082e-01;927612902;1330573317;603570492;0.000000e+00;3.684210e+00;1.620963e+03
21;dgemm;64;0;1;1;0;720;111;111;14400;14400;14400;14400;14400;14400;-4.352839e-01;1.623906e-01;959997301;485560280;402724286;0.000000e+00;3.683802e+00;1.621142e+03
22;dgemm;64;0;1;1;0;720;111;111;14400;14400;14400;14400;14400;14400;4.667617e-01;1.036922e-01;894429689;364228444;1947346619;0.000000e+00;3.694675e+00;1.616371e+03
23;dgemm;64;0;1;1;0;720;111;111;14400;14400;14400;14400;14400;14400;4.665847e-01;3.770548e-01;1063958031;1633108117;2114738097;0.000000e+00;3.693745e+00;1.616778e+03
24;dgemm;64;0;1;1;0;720;111;111;14400;14400;14400;14400;14400;14400;-4.980996e-01;2.856491e-01;822890675;1610120709;791698927;0.000000e+00;3.688708e+00;1.618986e+03
25;dgemm;64;0;1;1;0;720;111;111;14400;14400;14400;14400;14400;14400;3.592840e-01;-4.182928e-01;1255179497;524872353;327254586;0.000000e+00;3.696422e+00;1.615608e+03
26;dgemm;64;0;1;1;0;720;111;111;14400;14400;14400;14400;14400;14400;9.307665e-02;3.296821e-01;1703964683;352406219;1600028624;0.000000e+00;3.690526e+00;1.618189e+03
27;dgemm;64;0;1;1;0;720;111;111;14400;14400;14400;14400;14400;14400;-4.719053e-01;2.807858e-01;112805732;1120048829;378409503;0.000000e+00;3.685498e+00;1.620396e+03
28;dgemm;64;0;1;1;0;720;111;111;14400;14400;14400;14400;14400;14400;2.744957e-01;-3.785920e-02;1573363368;1409959708;2077486715;0.000000e+00;3.690612e+00;1.618151e+03
29;dgemm;64;0;1;1;0;720;111;111;14400;14400;14400;14400;14400;14400;1.799312e-01;9.546876e-03;200747796;289700723;1117142618;0.000000e+00;3.682062e+00;1.621909e+03
30;dgemm;64;0;1;1;0;720;111;111;16560;16560;16560;16560;16560;16560;1.744033e-01;3.861393e-01;439493451;990892921;1760243555;0.000000e+00;5.560576e+00;1.633395e+03
31;dgemm;64;0;1;1;0;720;111;111;16560;16560;16560;16560;16560;16560;3.018442e-01;-4.633856e-02;111537764;338888228;2147469841;0.000000e+00;5.610982e+00;1.618721e+03
32;dgemm;64;0;1;1;0;720;111;111;16560;16560;16560;16560;16560;16560;2.072774e-01;1.109783e-01;269441500;2142757034;116087764;0.000000e+00;5.609343e+00;1.619194e+03
33;dgemm;64;0;1;1;0;720;111;111;16560;16560;16560;16560;16560;16560;-2.366607e-01;9.513167e-02;8936987;1982275856;1275373743;0.000000e+00;5.588255e+00;1.625305e+03
34;dgemm;64;0;1;1;0;720;111;111;16560;16560;16560;16560;16560;16560;-3.952797e-01;-4.960891e-01;841148365;1960709859;1760281936;0.000000e+00;5.608922e+00;1.619316e+03
35;dgemm;64;0;1;1;0;720;111;111;16560;16560;16560;16560;16560;16560;-2.607432e-01;-3.651100e-01;1244316437;971899228;1476153275;0.000000e+00;5.621701e+00;1.615635e+03
36;dgemm;64;0;1;1;0;720;111;111;16560;16560;16560;16560;16560;16560;-1.389722e-01;-8.843738e-02;1626276121;653468858;2130794395;0.000000e+00;5.610477e+00;1.618867e+03
37;dgemm;64;0;1;1;0;720;111;111;16560;16560;16560;16560;16560;16560;9.367129e-02;9.508020e-02;1605908235;1350573793;76065818;0.000000e+00;5.567452e+00;1.631378e+03
38;dgemm;64;0;1;1;0;720;111;111;16560;16560;16560;16560;16560;16560;-4.585682e-01;3.268176e-01;1987231011;1875335928;1784639529;0.000000e+00;5.615808e+00;1.617330e+03
39;dgemm;64;0;1;1;0;720;111;111;16560;16560;16560;16560;16560;16560;-6.830955e-02;1.535754e-01;1939964443;2112255763;1432114613;0.000000e+00;5.605864e+00;1.620199e+03
40;dgemm;64;0;1;1;0;720;111;111;18720;18720;18720;18720;18720;18720;2.725473e-01;1.883941e-01;1782436840;1909002904;165344818;0.000000e+00;7.966450e+00;1.646959e+03
41;dgemm;64;0;1;1;0;720;111;111;18720;18720;18720;18720;18720;18720;2.191162e-01;-3.021529e-01;1351797369;492067917;1504569917;0.000000e+00;7.979076e+00;1.644352e+03
42;dgemm;64;0;1;1;0;720;111;111;18720;18720;18720;18720;18720;18720;-3.280447e-01;-3.223358e-01;496987743;159259470;1359512183;0.000000e+00;8.001222e+00;1.639801e+03
43;dgemm;64;0;1;1;0;720;111;111;18720;18720;18720;18720;18720;18720;-4.513911e-01;3.904790e-01;1096689772;2086206725;601385644;0.000000e+00;7.990737e+00;1.641953e+03
44;dgemm;64;0;1;1;0;720;111;111;18720;18720;18720;18720;18720;18720;-4.403555e-01;9.074247e-02;243268139;1012502954;1272469786;0.000000e+00;8.030484e+00;1.633826e+03
45;dgemm;64;0;1;1;0;720;111;111;18720;18720;18720;18720;18720;18720;1.908228e-02;4.440272e-01;722308542;1820388464;933110197;0.000000e+00;7.972106e+00;1.645790e+03
46;dgemm;64;0;1;1;0;720;111;111;18720;18720;18720;18720;18720;18720;-1.017733e-01;4.140073e-01;1285228804;1789376348;502278611;0.000000e+00;7.940567e+00;1.652327e+03
47;dgemm;64;0;1;1;0;720;111;111;18720;18720;18720;18720;18720;18720;-2.659684e-01;-2.731221e-01;1034949299;654887343;1529195746;0.000000e+00;7.953262e+00;1.649690e+03
48;dgemm;64;0;1;1;0;720;111;111;18720;18720;18720;18720;18720;18720;1.985016e-01;4.068633e-01;87755422;889023311;1494613810;0.000000e+00;8.028824e+00;1.634164e+03
49;dgemm;64;0;1;1;0;720;111;111;18720;18720;18720;18720;18720;18720;-4.302884e-01;-3.682695e-01;745425661;396473730;1308044878;0.000000e+00;8.005948e+00;1.638833e+03
50;dgemm;64;0;1;1;0;720;111;111;20880;20880;20880;20880;20880;20880;3.002688e-01;4.210193e-01;705178736;1590079444;434248626;0.000000e+00;1.104472e+01;1.648416e+03
51;dgemm;64;0;1;1;0;720;111;111;20880;20880;20880;20880;20880;20880;-3.696050e-01;-2.996627e-01;1402586708;552473416;1143408282;0.000000e+00;1.111963e+01;1.637311e+03
52;dgemm;64;0;1;1;0;720;111;111;20880;20880;20880;20880;20880;20880;-3.095740e-01;-1.111416e-01;1884167637;1473442062;201305624;0.000000e+00;1.111664e+01;1.637751e+03
53;dgemm;64;0;1;1;0;720;111;111;20880;20880;20880;20880;20880;20880;3.214526e-01;-2.291051e-01;1238433452;1273911899;1431419379;0.000000e+00;1.111536e+01;1.637940e+03
54;dgemm;64;0;1;1;0;720;111;111;20880;20880;20880;20880;20880;20880;-4.764616e-02;-2.823082e-01;619290071;707900973;407487131;0.000000e+00;1.115290e+01;1.632426e+03
55;dgemm;64;0;1;1;0;720;111;111;20880;20880;20880;20880;20880;20880;-2.829039e-01;4.689267e-01;1776808933;711845894;404158660;0.000000e+00;1.114635e+01;1.633386e+03
56;dgemm;64;0;1;1;0;720;111;111;20880;20880;20880;20880;20880;20880;-9.802407e-02;-3.473849e-01;1973387981;1642548899;1501252996;0.000000e+00;1.106347e+01;1.645621e+03
57;dgemm;64;0;1;1;0;720;111;111;20880;20880;20880;20880;20880;20880;-2.998149e-02;-6.245404e-02;824272813;1662739668;2025187190;0.000000e+00;1.112033e+01;1.637207e+03
58;dgemm;64;0;1;1;0;720;111;111;20880;20880;20880;20880;20880;20880;1.613464e-01;1.651206e-01;437116466;1704365084;1176911340;0.000000e+00;1.114461e+01;1.633641e+03
59;dgemm;64;0;1;1;0;720;111;111;20880;20880;20880;20880;20880;20880;-9.329343e-02;2.766544e-01;1953443376;1876855542;1069755936;0.000000e+00;1.109708e+01;1.640638e+03
60;dgemm;64;0;1;1;0;720;111;111;23040;23040;23040;23040;23040;23040;-4.205594e-01;1.129006e-01;588219756;1856669179;1057418418;0.000000e+00;1.487948e+01;1.643954e+03
61;dgemm;64;0;1;1;0;720;111;111;23040;23040;23040;23040;23040;23040;1.349872e-02;-2.496970e-01;1065103348;625032172;387451659;0.000000e+00;1.476249e+01;1.656983e+03
62;dgemm;64;0;1;1;0;720;111;111;23040;23040;23040;23040;23040;23040;9.058696e-02;7.370132e-02;298625210;1295166342;1057467587;0.000000e+00;1.489331e+01;1.642427e+03
63;dgemm;64;0;1;1;0;720;111;111;23040;23040;23040;23040;23040;23040;-3.018314e-02;-5.773157e-02;382697713;476667372;1070575321;0.000000e+00;1.489172e+01;1.642603e+03
64;dgemm;64;0;1;1;0;720;111;111;23040;23040;23040;23040;23040;23040;-4.650331e-01;-1.058972e-01;774044599;697517721;2001229904;0.000000e+00;1.491384e+01;1.640167e+03
65;dgemm;64;0;1;1;0;720;111;111;23040;23040;23040;23040;23040;23040;4.801672e-01;-2.032396e-01;1797073940;1756915667;1065311705;0.000000e+00;1.491303e+01;1.640255e+03
66;dgemm;64;0;1;1;0;720;111;111;23040;23040;23040;23040;23040;23040;2.132438e-01;1.658781e-01;1414829150;1307565984;555996658;0.000000e+00;1.489828e+01;1.641880e+03
67;dgemm;64;0;1;1;0;720;111;111;23040;23040;23040;23040;23040;23040;1.800331e-01;-1.232803e-01;231602422;1389867269;780821396;0.000000e+00;1.487089e+01;1.644903e+03
68;dgemm;64;0;1;1;0;720;111;111;23040;23040;23040;23040;23040;23040;3.404283e-01;-1.210446e-01;195740084;917679292;2006811972;0.000000e+00;1.486741e+01;1.645289e+03
69;dgemm;64;0;1;1;0;720;111;111;23040;23040;23040;23040;23040;23040;1.960490e-01;-2.057583e-01;1414647625;1635905385;1046741222;0.000000e+00;1.494601e+01;1.636636e+03
70;dgemm;64;0;1;1;0;720;111;111;25200;25200;25200;25200;25200;25200;-4.981229e-01;1.797563e-01;1343606042;1111783898;446340713;0.000000e+00;1.941347e+01;1.648650e+03
71;dgemm;64;0;1;1;0;720;111;111;25200;25200;25200;25200;25200;25200;1.449892e-01;-2.994312e-01;1782280524;846942590;524688209;0.000000e+00;1.948528e+01;1.642574e+03
72;dgemm;64;0;1;1;0;720;111;111;25200;25200;25200;25200;25200;25200;-7.231379e-02;2.098748e-01;1371499336;2114937732;726371155;0.000000e+00;1.945710e+01;1.644953e+03
73;dgemm;64;0;1;1;0;720;111;111;25200;25200;25200;25200;25200;25200;-2.503210e-01;-2.840220e-01;882160379;11614769;1682085273;0.000000e+00;1.924793e+01;1.662829e+03
74;dgemm;64;0;1;1;0;720;111;111;25200;25200;25200;25200;25200;25200;9.597039e-02;1.728868e-01;246247255;1858721860;1548348142;0.000000e+00;1.947678e+01;1.643291e+03
75;dgemm;64;0;1;1;0;720;111;111;25200;25200;25200;25200;25200;25200;-7.244259e-02;3.629747e-01;2118421993;1520223205;452867621;0.000000e+00;1.953889e+01;1.638067e+03
76;dgemm;64;0;1;1;0;720;111;111;25200;25200;25200;25200;25200;25200;-4.022054e-01;3.532503e-01;201690613;213801961;822262754;0.000000e+00;1.936315e+01;1.652934e+03
77;dgemm;64;0;1;1;0;720;111;111;25200;25200;25200;25200;25200;25200;-4.352033e-02;2.911775e-01;1737518944;282828202;110613202;0.000000e+00;1.950442e+01;1.640963e+03
78;dgemm;64;0;1;1;0;720;111;111;25200;25200;25200;25200;25200;25200;-3.380140e-01;-1.158719e-01;1676902021;1486222842;950390868;0.000000e+00;1.930794e+01;1.657661e+03
79;dgemm;64;0;1;1;0;720;111;111;25200;25200;25200;25200;25200;25200;-3.254125e-01;4.026002e-01;1242608872;1137949908;1277849958;0.000000e+00;1.950630e+01;1.640804e+03
80;dgemm;64;0;1;1;0;720;111;111;27360;27360;27360;27360;27360;27360;-7.731044e-02;2.584243e-01;1908518808;1023457753;364686248;0.000000e+00;2.461977e+01;1.663774e+03
81;dgemm;64;0;1;1;0;720;111;111;27360;27360;27360;27360;27360;27360;-3.124503e-01;3.608416e-01;1329132133;1280321648;501772890;0.000000e+00;2.477407e+01;1.653412e+03
82;dgemm;64;0;1;1;0;720;111;111;27360;27360;27360;27360;27360;27360;8.143046e-02;2.072399e-01;212251746;1983690368;364319529;0.000000e+00;2.463636e+01;1.662653e+03
83;dgemm;64;0;1;1;0;720;111;111;27360;27360;27360;27360;27360;27360;2.429254e-01;3.618715e-01;1775473788;624549797;767066249;0.000000e+00;2.483205e+01;1.649551e+03
84;dgemm;64;0;1;1;0;720;111;111;27360;27360;27360;27360;27360;27360;2.177558e-01;-2.828171e-01;1750003033;1415505363;78012497;0.000000e+00;2.441695e+01;1.677594e+03
85;dgemm;64;0;1;1;0;720;111;111;27360;27360;27360;27360;27360;27360;3.155647e-01;-4.765819e-01;1344247686;1795519125;661761152;0.000000e+00;2.460777e+01;1.664585e+03
86;dgemm;64;0;1;1;0;720;111;111;27360;27360;27360;27360;27360;27360;1.085222e-01;-8.764404e-02;1315209188;235649157;1448703729;0.000000e+00;2.482839e+01;1.649794e+03
87;dgemm;64;0;1;1;0;720;111;111;27360;27360;27360;27360;27360;27360;5.964717e-02;3.343596e-01;430253414;861543921;677870460;0.000000e+00;2.470637e+01;1.657942e+03
88;dgemm;64;0;1;1;0;720;111;111;27360;27360;27360;27360;27360;27360;-3.852038e-01;-3.449149e-01;828388027;1144278050;332266748;0.000000e+00;2.457066e+01;1.667099e+03
89;dgemm;64;0;1;1;0;720;111;111;27360;27360;27360;27360;27360;27360;-2.132347e-01;-3.266376e-02;816504794;820697697;655858699;0.000000e+00;2.456493e+01;1.667488e+03
