Id;Function;threads;gpus;P;Q;mtxfmt;nb;side;uplo;trans;diag;m;n;lda;ldb;alpha;seedA;seedB;tsub;time;gflops
0;dtrsm;36;0;1;1;0;720;141;121;111;131;720;720;720;720;4.254358e-01;1957747793;424238335;0.000000e+00;6.252050e-03;5.978301e+01
1;dtrsm;36;0;1;1;0;720;141;121;111;131;720;720;720;720;-1.846424e-01;1649760492;596516649;0.000000e+00;1.140213e-02;3.278040e+01
2;dtrsm;36;0;1;1;0;720;141;121;111;131;720;720;720;720;-3.517510e-01;1025202362;1350490027;0.000000e+00;1.172805e-02;3.186945e+01
3;dtrsm;36;0;1;1;0;720;141;121;111;131;720;720;720;720;-4.247478e-01;1102520059;2044897763;0.000000e+00;9.110928e-03;4.102397e+01
4;dtrsm;36;0;1;1;0;720;141;121;111;131;720;720;720;720;4.141058e-01;1365180540;1540383426;0.000000e+00;8.274078e-03;4.517318e+01
5;dtrsm;36;0;1;1;0;720;141;121;111;131;720;720;720;720;4.499299e-01;1303455736;35005211;0.000000e+00;8.516073e-03;4.388952e+01
6;dtrsm;36;0;1;1;0;720;141;121;111;131;720;720;720;720;-1.757242e-01;294702567;1726956429;0.000000e+00;8.085012e-03;4.622954e+01
7;dtrsm;36;0;1;1;0;720;141;121;111;131;720;720;720;720;4.401991e-01;861021530;278722862;0.000000e+00;7.584095e-03;4.928293e+01
8;dtrsm;36;0;1;1;0;720;141;121;111;131;720;720;720;720;-3.098429e-01;2145174067;468703135;0.000000e+00;7.637978e-03;4.893526e+01
9;dtrsm;36;0;1;1;0;720;141;121;111;131;720;720;720;720;3.112590e-01;1801979802;1315634022;0.000000e+00;9.425163e-03;3.965623e+01
10;dtrsm;36;0;1;1;0;720;141;121;111;131;1440;1440;1440;1440;-3.123134e-01;1369133069;1125898167;0.000000e+00;2.853799e-02;1.047046e+02
11;dtrsm;36;0;1;1;0;720;141;121;111;131;1440;1440;1440;1440;2.196488e-02;2089018456;628175011;0.000000e+00;2.861190e-02;1.044341e+02
12;dtrsm;36;0;1;1;0;720;141;121;111;131;1440;1440;1440;1440;-8.299381e-02;1131176229;1653377373;0.000000e+00;3.134990e-02;9.531315e+01
13;dtrsm;36;0;1;1;0;720;141;121;111;131;1440;1440;1440;1440;1.651013e-01;1914544919;608413784;0.000000e+00;2.498102e-02;1.196131e+02
14;dtrsm;36;0;1;1;0;720;141;121;111;131;1440;1440;1440;1440;-2.172434e-01;1734575198;1973594324;0.000000e+00;3.090787e-02;9.667627e+01
15;dtrsm;36;0;1;1;0;720;141;121;111;131;1440;1440;1440;1440;4.926079e-01;2038664370;1129566413;0.000000e+00;2.822495e-02;1.058658e+02
16;dtrsm;36;0;1;1;0;720;141;121;111;131;1440;1440;1440;1440;3.212047e-02;412776091;1424268980;0.000000e+00;3.149796e-02;9.486513e+01
17;dtrsm;36;0;1;1;0;720;141;121;111;131;1440;1440;1440;1440;7.179686e-02;749241873;137806862;0.000000e+00;2.874994e-02;1.039326e+02
18;dtrsm;36;0;1;1;0;720;141;121;111;131;1440;1440;1440;1440;2.019681e-01;982906996;135497281;0.000000e+00;2.919197e-02;1.023589e+02
19;dtrsm;36;0;1;1;0;720;141;121;111;131;1440;1440;1440;1440;-4.932447e-01;2084420925;1937477084;0.000000e+00;2.942991e-02;1.015313e+02
20;dtrsm;36;0;1;1;0;720;141;121;111;131;2160;2160;2160;2160;-3.694056e-01;572660336;1159126505;0.000000e+00;4.163408e-02;2.421661e+02
21;dtrsm;36;0;1;1;0;720;141;121;111;131;2160;2160;2160;2160;2.390371e-01;1632621729;1100661313;0.000000e+00;4.367208e-02;2.308651e+02
22;dtrsm;36;0;1;1;0;720;141;121;111;131;2160;2160;2160;2160;7.019839e-02;1141616124;84353895;0.000000e+00;4.921985e-02;2.048434e+02
23;dtrsm;36;0;1;1;0;720;141;121;111;131;2160;2160;2160;2160;-4.916174e-01;2001100545;1998898814;0.000000e+00;4.510689e-02;2.235216e+02
24;dtrsm;36;0;1;1;0;720;141;121;111;131;2160;2160;2160;2160;-2.416937e-01;610515434;1585990364;0.000000e+00;4.886603e-02;2.063266e+02
25;dtrsm;36;0;1;1;0;720;141;121;111;131;2160;2160;2160;2160;-3.772229e-02;760313750;1477171087;0.000000e+00;4.712200e-02;2.139629e+02
26;dtrsm;36;0;1;1;0;720;141;121;111;131;2160;2160;2160;2160;-1.733443e-01;945117276;1889947178;0.000000e+00;4.778719e-02;2.109846e+02
27;dtrsm;36;0;1;1;0;720;141;121;111;131;2160;2160;2160;2160;3.414286e-01;709393584;491705403;0.000000e+00;4.490805e-02;2.245112e+02
28;dtrsm;36;0;1;1;0;720;141;121;111;131;2160;2160;2160;2160;-2.237386e-01;752392754;1474612399;0.000000e+00;4.531097e-02;2.225148e+02
29;dtrsm;36;0;1;1;0;720;141;121;111;131;2160;2160;2160;2160;-1.543593e-01;1264095060;1411549676;0.000000e+00;4.555392e-02;2.213281e+02
30;dtrsm;36;0;1;1;0;720;141;121;111;131;2880;2880;2880;2880;3.886879e-01;943947739;1984210012;0.000000e+00;6.516099e-02;3.667250e+02
31;dtrsm;36;0;1;1;0;720;141;121;111;131;2880;2880;2880;2880;-3.211111e-01;1749698586;1469348094;0.000000e+00;6.437302e-02;3.712140e+02
32;dtrsm;36;0;1;1;0;720;141;121;111;131;2880;2880;2880;2880;-2.187391e-01;1036140795;463480570;0.000000e+00;6.913590e-02;3.456405e+02
33;dtrsm;36;0;1;1;0;720;141;121;111;131;2880;2880;2880;2880;3.797349e-01;1975960378;317097467;0.000000e+00;6.843090e-02;3.492014e+02
34;dtrsm;36;0;1;1;0;720;141;121;111;131;2880;2880;2880;2880;-1.054364e-01;1376710097;927612902;0.000000e+00;6.463313e-02;3.697201e+02
35;dtrsm;36;0;1;1;0;720;141;121;111;131;2880;2880;2880;2880;-4.388869e-03;603570492;1687926652;0.000000e+00;6.597996e-02;3.621731e+02
36;dtrsm;36;0;1;1;0;720;141;121;111;131;2880;2880;2880;2880;1.623906e-01;959997301;485560280;0.000000e+00;6.250906e-02;3.822832e+02
37;dtrsm;36;0;1;1;0;720;141;121;111;131;2880;2880;2880;2880;6.417844e-02;593209441;1194953865;0.000000e+00;6.435704e-02;3.713062e+02
38;dtrsm;36;0;1;1;0;720;141;121;111;131;2880;2880;2880;2880;-1.382589e-02;364228444;1947346619;0.000000e+00;6.056690e-02;3.945417e+02
39;dtrsm;36;0;1;1;0;720;141;121;111;131;2880;2880;2880;2880;4.665847e-01;270744729;1063958031;0.000000e+00;6.429601e-02;3.716586e+02
40;dtrsm;36;0;1;1;0;720;141;121;111;131;3600;3600;3600;3600;2.509115e-01;2114738097;2007905771;0.000000e+00;7.956910e-02;5.865211e+02
41;dtrsm;36;0;1;1;0;720;141;121;111;131;3600;3600;3600;3600;2.856491e-01;822890675;1610120709;0.000000e+00;8.292007e-02;5.628186e+02
42;dtrsm;36;0;1;1;0;720;141;121;111;131;3600;3600;3600;3600;-3.776547e-01;631704567;498777856;0.000000e+00;8.028603e-02;5.812837e+02
43;dtrsm;36;0;1;1;0;720;141;121;111;131;3600;3600;3600;3600;2.300707e-02;524872353;327254586;0.000000e+00;7.947612e-02;5.872073e+02
44;dtrsm;36;0;1;1;0;720;141;121;111;131;3600;3600;3600;3600;9.307665e-02;269455306;1703964683;0.000000e+00;8.264208e-02;5.647118e+02
45;dtrsm;36;0;1;1;0;720;141;121;111;131;3600;3600;3600;3600;-1.289308e-01;1600028624;160051528;0.000000e+00;8.207011e-02;5.686474e+02
46;dtrsm;36;0;1;1;0;720;141;121;111;131;3600;3600;3600;3600;2.807858e-01;112805732;1120048829;0.000000e+00;8.255911e-02;5.652794e+02
47;dtrsm;36;0;1;1;0;720;141;121;111;131;3600;3600;3600;3600;2.084955e-01;515530019;1713258270;0.000000e+00;7.927704e-02;5.886819e+02
48;dtrsm;36;0;1;1;0;720;141;121;111;131;3600;3600;3600;3600;1.571881e-01;1409959708;2077486715;0.000000e+00;8.277583e-02;5.637994e+02
49;dtrsm;36;0;1;1;0;720;141;121;111;131;3600;3600;3600;3600;1.799312e-01;1631518149;200747796;0.000000e+00;8.676600e-02;5.378715e+02
50;dtrsm;36;0;1;1;0;720;141;121;111;131;4320;4320;4320;4320;3.618905e-02;1117142618;168002245;0.000000e+00;1.033990e-01;7.798934e+02
51;dtrsm;36;0;1;1;0;720;141;121;111;131;4320;4320;4320;4320;3.861393e-01;439493451;990892921;0.000000e+00;1.048138e-01;7.693664e+02
52;dtrsm;36;0;1;1;0;720;141;121;111;131;4320;4320;4320;4320;3.138195e-01;1231192379;1622597488;0.000000e+00;1.079550e-01;7.469802e+02
53;dtrsm;36;0;1;1;0;720;141;121;111;131;4320;4320;4320;4320;3.358679e-01;338888228;2147469841;0.000000e+00;1.022670e-01;7.885262e+02
54;dtrsm;36;0;1;1;0;720;141;121;111;131;4320;4320;4320;4320;2.072774e-01;1911165193;269441500;0.000000e+00;1.027942e-01;7.844825e+02
55;dtrsm;36;0;1;1;0;720;141;121;111;131;4320;4320;4320;4320;-2.810129e-01;116087764;1869470124;0.000000e+00;1.052210e-01;7.663889e+02
56;dtrsm;36;0;1;1;0;720;141;121;111;131;4320;4320;4320;4320;9.513167e-02;8936987;1982275856;0.000000e+00;1.052949e-01;7.658509e+02
57;dtrsm;36;0;1;1;0;720;141;121;111;131;4320;4320;4320;4320;-4.094893e-01;387346491;350322227;0.000000e+00;1.060510e-01;7.603913e+02
58;dtrsm;36;0;1;1;0;720;141;121;111;131;4320;4320;4320;4320;4.007014e-01;1960709859;1760281936;0.000000e+00;1.066520e-01;7.561060e+02
59;dtrsm;36;0;1;1;0;720;141;121;111;131;4320;4320;4320;4320;-2.607432e-01;1186452551;1244316437;0.000000e+00;1.024251e-01;7.873093e+02
60;dtrsm;36;0;1;1;0;720;141;121;111;131;5040;5040;5040;5040;2.998675e-01;1476153275;213975407;0.000000e+00;1.345630e-01;9.515951e+02
61;dtrsm;36;0;1;1;0;720;141;121;111;131;5040;5040;5040;5040;-8.843738e-02;1626276121;653468858;0.000000e+00;1.365290e-01;9.378923e+02
62;dtrsm;36;0;1;1;0;720;141;121;111;131;5040;5040;5040;5040;-4.940599e-01;1239036029;1884661237;0.000000e+00;1.404440e-01;9.117472e+02
63;dtrsm;36;0;1;1;0;720;141;121;111;131;5040;5040;5040;5040;3.076514e-01;1350573793;76065818;0.000000e+00;1.343889e-01;9.528275e+02
64;dtrsm;36;0;1;1;0;720;141;121;111;131;5040;5040;5040;5040;-4.585682e-01;1789366143;1987231011;0.000000e+00;1.364009e-01;9.387726e+02
65;dtrsm;36;0;1;1;0;720;141;121;111;131;5040;5040;5040;5040;-4.578138e-01;1784639529;2103318776;0.000000e+00;1.387720e-01;9.227327e+02
66;dtrsm;36;0;1;1;0;720;141;121;111;131;5040;5040;5040;5040;1.535754e-01;1939964443;2112255763;0.000000e+00;1.355000e-01;9.450148e+02
67;dtrsm;36;0;1;1;0;720;141;121;111;131;5040;5040;5040;5040;-2.471817e-02;1067854538;352118606;0.000000e+00;1.364841e-01;9.382003e+02
68;dtrsm;36;0;1;1;0;720;141;121;111;131;5040;5040;5040;5040;3.241933e-01;1909002904;165344818;0.000000e+00;1.377871e-01;9.293284e+02
69;dtrsm;36;0;1;1;0;720;141;121;111;131;5040;5040;5040;5040;2.191162e-01;532670688;1351797369;0.000000e+00;1.342089e-01;9.541055e+02
70;dtrsm;36;0;1;1;0;720;141;121;111;131;5760;5760;5760;5760;-2.836412e-02;1504569917;680466996;0.000000e+00;1.713011e-01;1.115790e+03
71;dtrsm;36;0;1;1;0;720;141;121;111;131;5760;5760;5760;5760;-3.223358e-01;496987743;159259470;0.000000e+00;1.768990e-01;1.080482e+03
72;dtrsm;36;0;1;1;0;720;141;121;111;131;5760;5760;5760;5760;6.319147e-02;480298490;1398295499;0.000000e+00;1.722989e-01;1.109329e+03
73;dtrsm;36;0;1;1;0;720;141;121;111;131;5760;5760;5760;5760;6.321520e-03;2086206725;601385644;0.000000e+00;1.708770e-01;1.118560e+03
74;dtrsm;36;0;1;1;0;720;141;121;111;131;5760;5760;5760;5760;-4.403555e-01;1544617505;243268139;0.000000e+00;1.724169e-01;1.108570e+03
75;dtrsm;36;0;1;1;0;720;141;121;111;131;5760;5760;5760;5760;-3.357130e-01;1272469786;2027907669;0.000000e+00;1.720121e-01;1.111179e+03
76;dtrsm;36;0;1;1;0;720;141;121;111;131;5760;5760;5760;5760;4.440272e-01;722308542;1820388464;0.000000e+00;1.710441e-01;1.117467e+03
77;dtrsm;36;0;1;1;0;720;141;121;111;131;5760;5760;5760;5760;2.770102e-02;6939507;740759355;0.000000e+00;1.746879e-01;1.094158e+03
78;dtrsm;36;0;1;1;0;720;141;121;111;131;5760;5760;5760;5760;-3.466130e-01;1789376348;502278611;0.000000e+00;1.732609e-01;1.103169e+03
79;dtrsm;36;0;1;1;0;720;141;121;111;131;5760;5760;5760;5760;-2.659684e-01;1037127828;1034949299;0.000000e+00;1.703711e-01;1.121882e+03
80;dtrsm;36;0;1;1;0;720;141;121;111;131;6480;6480;6480;6480;2.976161e-01;1529195746;392035568;0.000000e+00;2.174609e-01;1.251443e+03
81;dtrsm;36;0;1;1;0;720;141;121;111;131;6480;6480;6480;6480;4.068633e-01;87755422;889023311;0.000000e+00;2.162521e-01;1.258438e+03
82;dtrsm;36;0;1;1;0;720;141;121;111;131;6480;6480;6480;6480;-2.963290e-01;1447267605;1369321801;0.000000e+00;2.162380e-01;1.258520e+03
83;dtrsm;36;0;1;1;0;720;141;121;111;131;6480;6480;6480;6480;-5.780017e-02;396473730;1308044878;0.000000e+00;2.159300e-01;1.260315e+03
84;dtrsm;36;0;1;1;0;720;141;121;111;131;6480;6480;6480;6480;3.002688e-01;1569229320;705178736;0.000000e+00;2.167740e-01;1.255408e+03
85;dtrsm;36;0;1;1;0;720;141;121;111;131;6480;6480;6480;6480;-1.667948e-01;434248626;1977648522;0.000000e+00;2.161570e-01;1.258992e+03
86;dtrsm;36;0;1;1;0;720;141;121;111;131;6480;6480;6480;6480;-2.996627e-01;1402586708;552473416;0.000000e+00;2.203081e-01;1.235269e+03
87;dtrsm;36;0;1;1;0;720;141;121;111;131;6480;6480;6480;6480;-1.582027e-01;188213258;559412924;0.000000e+00;2.165880e-01;1.256486e+03
88;dtrsm;36;0;1;1;0;720;141;121;111;131;6480;6480;6480;6480;1.008051e-01;1473442062;201305624;0.000000e+00;2.174811e-01;1.251326e+03
89;dtrsm;36;0;1;1;0;720;141;121;111;131;6480;6480;6480;6480;3.214526e-01;776532036;1238433452;0.000000e+00;2.195120e-01;1.239749e+03
90;dtrsm;36;0;1;1;0;720;141;121;111;131;7200;7200;7200;7200;8.189833e-02;1431419379;620145550;0.000000e+00;2.739420e-01;1.362697e+03
91;dtrsm;36;0;1;1;0;720;141;121;111;131;7200;7200;7200;7200;-2.823082e-01;619290071;707900973;0.000000e+00;2.771330e-01;1.347006e+03
92;dtrsm;36;0;1;1;0;720;141;121;111;131;7200;7200;7200;7200;-1.961373e-01;2113903881;7684930;0.000000e+00;2.795570e-01;1.335326e+03
93;dtrsm;36;0;1;1;0;720;141;121;111;131;7200;7200;7200;7200;-1.271150e-01;711845894;404158660;0.000000e+00;2.674601e-01;1.395722e+03
94;dtrsm;36;0;1;1;0;720;141;121;111;131;7200;7200;7200;7200;-9.802407e-02;2058657199;1973387981;0.000000e+00;2.809210e-01;1.328843e+03
95;dtrsm;36;0;1;1;0;720;141;121;111;131;7200;7200;7200;7200;4.591011e-01;1501252996;260152959;0.000000e+00;2.680521e-01;1.392639e+03
96;dtrsm;36;0;1;1;0;720;141;121;111;131;7200;7200;7200;7200;-6.245404e-02;824272813;1662739668;0.000000e+00;2.770529e-01;1.347396e+03
97;dtrsm;36;0;1;1;0;720;141;121;111;131;7200;7200;7200;7200;-7.182229e-02;1967681095;1850952926;0.000000e+00;2.718041e-01;1.373415e+03
98;dtrsm;36;0;1;1;0;720;141;121;111;131;7200;7200;7200;7200;-3.349140e-01;1704365084;1176911340;0.000000e+00;2.714140e-01;1.375389e+03
99;dtrsm;36;0;1;1;0;720;141;121;111;131;7200;7200;7200;7200;-9.329343e-02;1943327684;1953443376;0.000000e+00;2.792580e-01;1.336756e+03
100;dtrsm;36;0;1;1;0;720;141;121;111;131;7920;7920;7920;7920;-2.797945e-01;1069755936;1237379107;0.000000e+00;3.460710e-01;1.435705e+03
101;dtrsm;36;0;1;1;0;720;141;121;111;131;7920;7920;7920;7920;1.129006e-01;588219756;1856669179;0.000000e+00;3.480861e-01;1.427393e+03
102;dtrsm;36;0;1;1;0;720;141;121;111;131;7920;7920;7920;7920;9.066373e-03;995706887;1823089412;0.000000e+00;3.430679e-01;1.448273e+03
103;dtrsm;36;0;1;1;0;720;141;121;111;131;7920;7920;7920;7920;3.229936e-01;625032172;387451659;0.000000e+00;3.430071e-01;1.448529e+03
104;dtrsm;36;0;1;1;0;720;141;121;111;131;7920;7920;7920;7920;9.058696e-02;1562402336;298625210;0.000000e+00;3.494029e-01;1.422014e+03
105;dtrsm;36;0;1;1;0;720;141;121;111;131;7920;7920;7920;7920;1.272494e-01;1057467587;1799878206;0.000000e+00;3.525450e-01;1.409340e+03
106;dtrsm;36;0;1;1;0;720;141;121;111;131;7920;7920;7920;7920;-5.773157e-02;382697713;476667372;0.000000e+00;3.510609e-01;1.415298e+03
107;dtrsm;36;0;1;1;0;720;141;121;111;131;7920;7920;7920;7920;4.200124e-01;260401255;296864819;0.000000e+00;3.406019e-01;1.458758e+03
108;dtrsm;36;0;1;1;0;720;141;121;111;131;7920;7920;7920;7920;4.331828e-01;697517721;2001229904;0.000000e+00;3.493259e-01;1.422327e+03
109;dtrsm;36;0;1;1;0;720;141;121;111;131;7920;7920;7920;7920;4.801672e-01;1335939811;1797073940;0.000000e+00;3.506479e-01;1.416965e+03
110;dtrsm;36;0;1;1;0;720;141;121;111;131;8640;8640;8640;8640;1.460963e-01;1065311705;719346228;0.000000e+00;4.448609e-01;1.449997e+03
111;dtrsm;36;0;1;1;0;720;141;121;111;131;8640;8640;8640;8640;1.658781e-01;1414829150;1307565984;0.000000e+00;4.412680e-01;1.461804e+03
112;dtrsm;36;0;1;1;0;720;141;121;111;131;8640;8640;8640;8640;1.990850e-01;324763920;155789224;0.000000e+00;4.429839e-01;1.456142e+03
113;dtrsm;36;0;1;1;0;720;141;121;111;131;8640;8640;8640;8640;-2.025622e-01;1389867269;780821396;0.000000e+00;4.425061e-01;1.457714e+03
114;dtrsm;36;0;1;1;0;720;141;121;111;131;8640;8640;8640;8640;3.404283e-01;711645630;195740084;0.000000e+00;4.443750e-01;1.451583e+03
115;dtrsm;36;0;1;1;0;720;141;121;111;131;8640;8640;8640;8640;-2.362496e-02;2006811972;1253207672;0.000000e+00;4.470930e-01;1.442758e+03
116;dtrsm;36;0;1;1;0;720;141;121;111;131;8640;8640;8640;8640;-2.057583e-01;1414647625;1635905385;0.000000e+00;4.429820e-01;1.456148e+03
117;dtrsm;36;0;1;1;0;720;141;121;111;131;8640;8640;8640;8640;-4.760512e-01;337739299;1896306640;0.000000e+00;4.454770e-01;1.447992e+03
118;dtrsm;36;0;1;1;0;720;141;121;111;131;8640;8640;8640;8640;-1.446566e-01;1111783898;446340713;0.000000e+00;4.457750e-01;1.447024e+03
119;dtrsm;36;0;1;1;0;720;141;121;111;131;8640;8640;8640;8640;1.449892e-01;915256190;1782280524;0.000000e+00;4.391260e-01;1.468934e+03
120;dtrsm;36;0;1;1;0;720;141;121;111;131;9360;9360;9360;9360;-4.406608e-01;524688209;700108581;0.000000e+00;5.537930e-01;1.480903e+03
121;dtrsm;36;0;1;1;0;720;141;121;111;131;9360;9360;9360;9360;2.098748e-01;1371499336;2114937732;0.000000e+00;5.576560e-01;1.470644e+03
122;dtrsm;36;0;1;1;0;720;141;121;111;131;9360;9360;9360;9360;4.808045e-01;1927495994;292218004;0.000000e+00;5.536661e-01;1.481242e+03
123;dtrsm;36;0;1;1;0;720;141;121;111;131;9360;9360;9360;9360;2.025248e-01;11614769;1682085273;0.000000e+00;5.578680e-01;1.470085e+03
124;dtrsm;36;0;1;1;0;720;141;121;111;131;9360;9360;9360;9360;9.597039e-02;630668850;246247255;0.000000e+00;5.555160e-01;1.476309e+03
125;dtrsm;36;0;1;1;0;720;141;121;111;131;9360;9360;9360;9360;3.188758e-01;1548348142;105575579;0.000000e+00;5.573430e-01;1.471470e+03
126;dtrsm;36;0;1;1;0;720;141;121;111;131;9360;9360;9360;9360;3.629747e-01;2118421993;1520223205;0.000000e+00;5.549991e-01;1.477684e+03
127;dtrsm;36;0;1;1;0;720;141;121;111;131;9360;9360;9360;9360;1.081347e-02;1017679567;1857962504;0.000000e+00;5.584271e-01;1.468613e+03
128;dtrsm;36;0;1;1;0;720;141;121;111;131;9360;9360;9360;9360;3.861964e-02;213801961;822262754;0.000000e+00;5.609870e-01;1.461912e+03
129;dtrsm;36;0;1;1;0;720;141;121;111;131;9360;9360;9360;9360;-4.352033e-02;1411154259;1737518944;0.000000e+00;5.679929e-01;1.443880e+03
0;dtrsm;36;0;1;1;0;720;141;121;111;131;10080;10080;10080;10080;4.254358e-01;1957747793;424238335;0.000000e+00;6.107621e-01;1.677075e+03
1;dtrsm;36;0;1;1;0;720;141;121;111;131;10080;10080;10080;10080;-1.846424e-01;1649760492;596516649;0.000000e+00;6.149950e-01;1.665532e+03
2;dtrsm;36;0;1;1;0;720;141;121;111;131;10080;10080;10080;10080;-3.517510e-01;1025202362;1350490027;0.000000e+00;6.371059e-01;1.607730e+03
3;dtrsm;36;0;1;1;0;720;141;121;111;131;10080;10080;10080;10080;-4.247478e-01;1102520059;2044897763;0.000000e+00;6.409800e-01;1.598013e+03
4;dtrsm;36;0;1;1;0;720;141;121;111;131;10080;10080;10080;10080;4.141058e-01;1365180540;1540383426;0.000000e+00;6.422698e-01;1.594803e+03
5;dtrsm;36;0;1;1;0;720;141;121;111;131;10080;10080;10080;10080;4.499299e-01;1303455736;35005211;0.000000e+00;6.434021e-01;1.591997e+03
6;dtrsm;36;0;1;1;0;720;141;121;111;131;10080;10080;10080;10080;-1.757242e-01;294702567;1726956429;0.000000e+00;6.493940e-01;1.577308e+03
7;dtrsm;36;0;1;1;0;720;141;121;111;131;10080;10080;10080;10080;4.401991e-01;861021530;278722862;0.000000e+00;6.434741e-01;1.591819e+03
8;dtrsm;36;0;1;1;0;720;141;121;111;131;10080;10080;10080;10080;-3.098429e-01;2145174067;468703135;0.000000e+00;6.502290e-01;1.575282e+03
9;dtrsm;36;0;1;1;0;720;141;121;111;131;10080;10080;10080;10080;3.112590e-01;1801979802;1315634022;0.000000e+00;6.482282e-01;1.580144e+03
10;dtrsm;36;0;1;1;0;720;141;121;111;131;12240;12240;12240;12240;-3.123134e-01;1369133069;1125898167;0.000000e+00;1.133977e+00;1.617244e+03
11;dtrsm;36;0;1;1;0;720;141;121;111;131;12240;12240;12240;12240;2.196488e-02;2089018456;628175011;0.000000e+00;1.134200e+00;1.616926e+03
12;dtrsm;36;0;1;1;0;720;141;121;111;131;12240;12240;12240;12240;-8.299381e-02;1131176229;1653377373;0.000000e+00;1.136053e+00;1.614288e+03
13;dtrsm;36;0;1;1;0;720;141;121;111;131;12240;12240;12240;12240;1.651013e-01;1914544919;608413784;0.000000e+00;1.138507e+00;1.610809e+03
14;dtrsm;36;0;1;1;0;720;141;121;111;131;12240;12240;12240;12240;-2.172434e-01;1734575198;1973594324;0.000000e+00;1.133064e+00;1.618547e+03
15;dtrsm;36;0;1;1;0;720;141;121;111;131;12240;12240;12240;12240;4.926079e-01;2038664370;1129566413;0.000000e+00;1.135671e+00;1.614832e+03
16;dtrsm;36;0;1;1;0;720;141;121;111;131;12240;12240;12240;12240;3.212047e-02;412776091;1424268980;0.000000e+00;1.135051e+00;1.615713e+03
17;dtrsm;36;0;1;1;0;720;141;121;111;131;12240;12240;12240;12240;7.179686e-02;749241873;137806862;0.000000e+00;1.135449e+00;1.615147e+03
18;dtrsm;36;0;1;1;0;720;141;121;111;131;12240;12240;12240;12240;2.019681e-01;982906996;135497281;0.000000e+00;1.137035e+00;1.612894e+03
19;dtrsm;36;0;1;1;0;720;141;121;111;131;12240;12240;12240;12240;-4.932447e-01;2084420925;1937477084;0.000000e+00;1.132345e+00;1.619575e+03
20;dtrsm;36;0;1;1;0;720;141;121;111;131;14400;14400;14400;14400;-3.694056e-01;572660336;1159126505;0.000000e+00;1.835938e+00;1.626521e+03
21;dtrsm;36;0;1;1;0;720;141;121;111;131;14400;14400;14400;14400;2.390371e-01;1632621729;1100661313;0.000000e+00;1.829751e+00;1.632021e+03
22;dtrsm;36;0;1;1;0;720;141;121;111;131;14400;14400;14400;14400;7.019839e-02;1141616124;84353895;0.000000e+00;1.828820e+00;1.632851e+03
23;dtrsm;36;0;1;1;0;720;141;121;111;131;14400;14400;14400;14400;-4.916174e-01;2001100545;1998898814;0.000000e+00;1.833278e+00;1.628881e+03
24;dtrsm;36;0;1;1;0;720;141;121;111;131;14400;14400;14400;14400;-2.416937e-01;610515434;1585990364;0.000000e+00;1.835175e+00;1.627197e+03
25;dtrsm;36;0;1;1;0;720;141;121;111;131;14400;14400;14400;14400;-3.772229e-02;760313750;1477171087;0.000000e+00;1.831425e+00;1.630529e+03
26;dtrsm;36;0;1;1;0;720;141;121;111;131;14400;14400;14400;14400;-1.733443e-01;945117276;1889947178;0.000000e+00;1.834970e+00;1.627379e+03
27;dtrsm;36;0;1;1;0;720;141;121;111;131;14400;14400;14400;14400;3.414286e-01;709393584;491705403;0.000000e+00;1.824264e+00;1.636930e+03
28;dtrsm;36;0;1;1;0;720;141;121;111;131;14400;14400;14400;14400;-2.237386e-01;752392754;1474612399;0.000000e+00;1.838289e+00;1.624441e+03
29;dtrsm;36;0;1;1;0;720;141;121;111;131;14400;14400;14400;14400;-1.543593e-01;1264095060;1411549676;0.000000e+00;1.837127e+00;1.625468e+03
30;dtrsm;36;0;1;1;0;720;141;121;111;131;16560;16560;16560;16560;3.886879e-01;943947739;1984210012;0.000000e+00;2.762934e+00;1.643754e+03
31;dtrsm;36;0;1;1;0;720;141;121;111;131;16560;16560;16560;16560;-3.211111e-01;1749698586;1469348094;0.000000e+00;2.771554e+00;1.638641e+03
32;dtrsm;36;0;1;1;0;720;141;121;111;131;16560;16560;16560;16560;-2.187391e-01;1036140795;463480570;0.000000e+00;2.775535e+00;1.636291e+03
33;dtrsm;36;0;1;1;0;720;141;121;111;131;16560;16560;16560;16560;3.797349e-01;1975960378;317097467;0.000000e+00;2.765674e+00;1.642125e+03
34;dtrsm;36;0;1;1;0;720;141;121;111;131;16560;16560;16560;16560;-1.054364e-01;1376710097;927612902;0.000000e+00;2.770020e+00;1.639549e+03
35;dtrsm;36;0;1;1;0;720;141;121;111;131;16560;16560;16560;16560;-4.388869e-03;603570492;1687926652;0.000000e+00;2.784112e+00;1.631250e+03
36;dtrsm;36;0;1;1;0;720;141;121;111;131;16560;16560;16560;16560;1.623906e-01;959997301;485560280;0.000000e+00;2.782221e+00;1.632359e+03
37;dtrsm;36;0;1;1;0;720;141;121;111;131;16560;16560;16560;16560;6.417844e-02;593209441;1194953865;0.000000e+00;2.778723e+00;1.634414e+03
38;dtrsm;36;0;1;1;0;720;141;121;111;131;16560;16560;16560;16560;-1.382589e-02;364228444;1947346619;0.000000e+00;2.772403e+00;1.638139e+03
39;dtrsm;36;0;1;1;0;720;141;121;111;131;16560;16560;16560;16560;4.665847e-01;270744729;1063958031;0.000000e+00;2.774284e+00;1.637029e+03
40;dtrsm;36;0;1;1;0;720;141;121;111;131;18720;18720;18720;18720;2.509115e-01;2114738097;2007905771;0.000000e+00;3.998810e+00;1.640627e+03
41;dtrsm;36;0;1;1;0;720;141;121;111;131;18720;18720;18720;18720;2.856491e-01;822890675;1610120709;0.000000e+00;3.992278e+00;1.643312e+03
42;dtrsm;36;0;1;1;0;720;141;121;111;131;18720;18720;18720;18720;-3.776547e-01;631704567;498777856;0.000000e+00;3.995504e+00;1.641985e+03
43;dtrsm;36;0;1;1;0;720;141;121;111;131;18720;18720;18720;18720;2.300707e-02;524872353;327254586;0.000000e+00;4.004075e+00;1.638470e+03
44;dtrsm;36;0;1;1;0;720;141;121;111;131;18720;18720;18720;18720;9.307665e-02;269455306;1703964683;0.000000e+00;3.995254e+00;1.642088e+03
45;dtrsm;36;0;1;1;0;720;141;121;111;131;18720;18720;18720;18720;-1.289308e-01;1600028624;160051528;0.000000e+00;3.993502e+00;1.642808e+03
46;dtrsm;36;0;1;1;0;720;141;121;111;131;18720;18720;18720;18720;2.807858e-01;112805732;1120048829;0.000000e+00;3.990291e+00;1.644130e+03
47;dtrsm;36;0;1;1;0;720;141;121;111;131;18720;18720;18720;18720;2.084955e-01;515530019;1713258270;0.000000e+00;3.994418e+00;1.642431e+03
48;dtrsm;36;0;1;1;0;720;141;121;111;131;18720;18720;18720;18720;1.571881e-01;1409959708;2077486715;0.000000e+00;4.001838e+00;1.639386e+03
49;dtrsm;36;0;1;1;0;720;141;121;111;131;18720;18720;18720;18720;1.799312e-01;1631518149;200747796;0.000000e+00;3.989270e+00;1.644551e+03
50;dtrsm;36;0;1;1;0;720;141;121;111;131;20880;20880;20880;20880;3.618905e-02;1117142618;168002245;0.000000e+00;5.526572e+00;1.647238e+03
51;dtrsm;36;0;1;1;0;720;141;121;111;131;20880;20880;20880;20880;3.861393e-01;439493451;990892921;0.000000e+00;5.528332e+00;1.646714e+03
52;dtrsm;36;0;1;1;0;720;141;121;111;131;20880;20880;20880;20880;3.138195e-01;1231192379;1622597488;0.000000e+00;5.523619e+00;1.648119e+03
53;dtrsm;36;0;1;1;0;720;141;121;111;131;20880;20880;20880;20880;3.358679e-01;338888228;2147469841;0.000000e+00;5.528371e+00;1.646702e+03
54;dtrsm;36;0;1;1;0;720;141;121;111;131;20880;20880;20880;20880;2.072774e-01;1911165193;269441500;0.000000e+00;5.519141e+00;1.649456e+03
55;dtrsm;36;0;1;1;0;720;141;121;111;131;20880;20880;20880;20880;-2.810129e-01;116087764;1869470124;0.000000e+00;5.522077e+00;1.648579e+03
56;dtrsm;36;0;1;1;0;720;141;121;111;131;20880;20880;20880;20880;9.513167e-02;8936987;1982275856;0.000000e+00;5.519622e+00;1.649312e+03
57;dtrsm;36;0;1;1;0;720;141;121;111;131;20880;20880;20880;20880;-4.094893e-01;387346491;350322227;0.000000e+00;5.520669e+00;1.649000e+03
58;dtrsm;36;0;1;1;0;720;141;121;111;131;20880;20880;20880;20880;4.007014e-01;1960709859;1760281936;0.000000e+00;5.525524e+00;1.647551e+03
59;dtrsm;36;0;1;1;0;720;141;121;111;131;20880;20880;20880;20880;-2.607432e-01;1186452551;1244316437;0.000000e+00;5.522407e+00;1.648481e+03
60;dtrsm;36;0;1;1;0;720;141;121;111;131;23040;23040;23040;23040;2.998675e-01;1476153275;213975407;0.000000e+00;7.387955e+00;1.655549e+03
61;dtrsm;36;0;1;1;0;720;141;121;111;131;23040;23040;23040;23040;-8.843738e-02;1626276121;653468858;0.000000e+00;7.379923e+00;1.657351e+03
62;dtrsm;36;0;1;1;0;720;141;121;111;131;23040;23040;23040;23040;-4.940599e-01;1239036029;1884661237;0.000000e+00;7.387641e+00;1.655619e+03
63;dtrsm;36;0;1;1;0;720;141;121;111;131;23040;23040;23040;23040;3.076514e-01;1350573793;76065818;0.000000e+00;7.375834e+00;1.658270e+03
64;dtrsm;36;0;1;1;0;720;141;121;111;131;23040;23040;23040;23040;-4.585682e-01;1789366143;1987231011;0.000000e+00;7.392234e+00;1.654591e+03
65;dtrsm;36;0;1;1;0;720;141;121;111;131;23040;23040;23040;23040;-4.578138e-01;1784639529;2103318776;0.000000e+00;7.386585e+00;1.655856e+03
66;dtrsm;36;0;1;1;0;720;141;121;111;131;23040;23040;23040;23040;1.535754e-01;1939964443;2112255763;0.000000e+00;7.401746e+00;1.652464e+03
67;dtrsm;36;0;1;1;0;720;141;121;111;131;23040;23040;23040;23040;-2.471817e-02;1067854538;352118606;0.000000e+00;7.395761e+00;1.653802e+03
68;dtrsm;36;0;1;1;0;720;141;121;111;131;23040;23040;23040;23040;3.241933e-01;1909002904;165344818;0.000000e+00;7.408610e+00;1.650933e+03
69;dtrsm;36;0;1;1;0;720;141;121;111;131;23040;23040;23040;23040;2.191162e-01;532670688;1351797369;0.000000e+00;7.397604e+00;1.653390e+03
70;dtrsm;36;0;1;1;0;720;141;121;111;131;25200;25200;25200;25200;-2.836412e-02;1504569917;680466996;0.000000e+00;9.671879e+00;1.654657e+03
71;dtrsm;36;0;1;1;0;720;141;121;111;131;25200;25200;25200;25200;-3.223358e-01;496987743;159259470;0.000000e+00;9.664172e+00;1.655977e+03
72;dtrsm;36;0;1;1;0;720;141;121;111;131;25200;25200;25200;25200;6.319147e-02;480298490;1398295499;0.000000e+00;9.690223e+00;1.651525e+03
73;dtrsm;36;0;1;1;0;720;141;121;111;131;25200;25200;25200;25200;6.321520e-03;2086206725;601385644;0.000000e+00;9.682903e+00;1.652773e+03
74;dtrsm;36;0;1;1;0;720;141;121;111;131;25200;25200;25200;25200;-4.403555e-01;1544617505;243268139;0.000000e+00;9.656122e+00;1.657357e+03
75;dtrsm;36;0;1;1;0;720;141;121;111;131;25200;25200;25200;25200;-3.357130e-01;1272469786;2027907669;0.000000e+00;9.674381e+00;1.654229e+03
76;dtrsm;36;0;1;1;0;720;141;121;111;131;25200;25200;25200;25200;4.440272e-01;722308542;1820388464;0.000000e+00;9.661730e+00;1.656395e+03
77;dtrsm;36;0;1;1;0;720;141;121;111;131;25200;25200;25200;25200;2.770102e-02;6939507;740759355;0.000000e+00;9.669014e+00;1.655147e+03
78;dtrsm;36;0;1;1;0;720;141;121;111;131;25200;25200;25200;25200;-3.466130e-01;1789376348;502278611;0.000000e+00;9.654597e+00;1.657619e+03
79;dtrsm;36;0;1;1;0;720;141;121;111;131;25200;25200;25200;25200;-2.659684e-01;1037127828;1034949299;0.000000e+00;9.663459e+00;1.656099e+03
80;dtrsm;36;0;1;1;0;720;141;121;111;131;27360;27360;27360;27360;2.976161e-01;1529195746;392035568;0.000000e+00;1.233828e+01;1.660005e+03
81;dtrsm;36;0;1;1;0;720;141;121;111;131;27360;27360;27360;27360;4.068633e-01;87755422;889023311;0.000000e+00;1.232827e+01;1.661353e+03
82;dtrsm;36;0;1;1;0;720;141;121;111;131;27360;27360;27360;27360;-2.963290e-01;1447267605;1369321801;0.000000e+00;1.233216e+01;1.660829e+03
83;dtrsm;36;0;1;1;0;720;141;121;111;131;27360;27360;27360;27360;-5.780017e-02;396473730;1308044878;0.000000e+00;1.233962e+01;1.659826e+03
84;dtrsm;36;0;1;1;0;720;141;121;111;131;27360;27360;27360;27360;3.002688e-01;1569229320;705178736;0.000000e+00;1.235015e+01;1.658410e+03
85;dtrsm;36;0;1;1;0;720;141;121;111;131;27360;27360;27360;27360;-1.667948e-01;434248626;1977648522;0.000000e+00;1.234284e+01;1.659392e+03
86;dtrsm;36;0;1;1;0;720;141;121;111;131;27360;27360;27360;27360;-2.996627e-01;1402586708;552473416;0.000000e+00;1.234551e+01;1.659034e+03
87;dtrsm;36;0;1;1;0;720;141;121;111;131;27360;27360;27360;27360;-1.582027e-01;188213258;559412924;0.000000e+00;1.233881e+01;1.659935e+03
88;dtrsm;36;0;1;1;0;720;141;121;111;131;27360;27360;27360;27360;1.008051e-01;1473442062;201305624;0.000000e+00;1.235385e+01;1.657914e+03
89;dtrsm;36;0;1;1;0;720;141;121;111;131;27360;27360;27360;27360;3.214526e-01;776532036;1238433452;0.000000e+00;1.233298e+01;1.660719e+03
