Id;Function;threads;gpus;P;Q;mtxfmt;nb;transA;transB;m;n;k;lda;ldb;ldc;alpha;beta;seedA;seedB;seedC;tsub;time;gflops
0;dgemm;36;0;1;1;0;720;111;111;720;720;720;720;720;720;4.892778e-01;-1.846424e-01;1649760492;596516649;1189641421;0.000000e+00;2.160096e-02;3.455846e+01
1;dgemm;36;0;1;1;0;720;111;111;720;720;720;720;720;720;-2.410269e-01;4.000452e-01;783368690;1102520059;2044897763;0.000000e+00;2.207303e-02;3.381937e+01
2;dgemm;36;0;1;1;0;720;111;111;720;720;720;720;720;720;4.141058e-01;-3.017109e-01;1540383426;304089172;1303455736;0.000000e+00;2.213001e-02;3.373229e+01
3;dgemm;36;0;1;1;0;720;111;111;720;720;720;720;720;720;-3.054879e-01;-1.757242e-01;294702567;1726956429;336465782;0.000000e+00;1.823115e-02;4.094617e+01
4;dgemm;36;0;1;1;0;720;111;111;720;720;720;720;720;720;4.797187e-01;2.821215e-01;233665123;2145174067;468703135;0.000000e+00;2.156520e-02;3.461577e+01
5;dgemm;36;0;1;1;0;720;111;111;720;720;720;720;720;720;3.112590e-01;3.332689e-02;1315634022;635723058;1369133069;0.000000e+00;2.250004e-02;3.317754e+01
6;dgemm;36;0;1;1;0;720;111;111;720;720;720;720;720;720;-2.396071e-01;2.196488e-02;2089018456;628175011;1656478042;0.000000e+00;2.300620e-02;3.244760e+01
7;dgemm;36;0;1;1;0;720;111;111;720;720;720;720;720;720;5.576077e-02;-4.098657e-01;859484421;1914544919;608413784;0.000000e+00;2.132797e-02;3.500080e+01
8;dgemm;36;0;1;1;0;720;111;111;720;720;720;720;720;720;-2.172434e-01;3.304604e-01;1973594324;149798315;2038664370;0.000000e+00;2.010798e-02;3.712436e+01
9;dgemm;36;0;1;1;0;720;111;111;720;720;720;720;720;720;1.632813e-02;3.212047e-02;412776091;1424268980;1911759956;0.000000e+00;2.368689e-02;3.151516e+01
10;dgemm;36;0;1;1;0;720;111;111;1440;1440;1440;1440;1440;1440;1.752074e-01;-2.459049e-03;42999170;982906996;135497281;0.000000e+00;3.352380e-02;1.781412e+02
11;dgemm;36;0;1;1;0;720;111;111;1440;1440;1440;1440;1440;1440;-4.932447e-01;-1.333755e-01;1937477084;1827336327;572660336;0.000000e+00;3.378010e-02;1.767895e+02
12;dgemm;36;0;1;1;0;720;111;111;1440;1440;1440;1440;1440;1440;-1.501402e-01;2.390371e-01;1632621729;1100661313;1433925857;0.000000e+00;3.302097e-02;1.808538e+02
13;dgemm;36;0;1;1;0;720;111;111;1440;1440;1440;1440;1440;1440;2.189649e-01;-2.465265e-01;939819582;2001100545;1998898814;0.000000e+00;3.412819e-02;1.749864e+02
14;dgemm;36;0;1;1;0;720;111;111;1440;1440;1440;1440;1440;1440;-2.416937e-01;-1.401268e-01;1585990364;1374344043;760313750;0.000000e+00;3.595805e-02;1.660815e+02
15;dgemm;36;0;1;1;0;720;111;111;1440;1440;1440;1440;1440;1440;3.187297e-01;-1.733443e-01;945117276;1889947178;1780695788;0.000000e+00;3.193998e-02;1.869747e+02
16;dgemm;36;0;1;1;0;720;111;111;1440;1440;1440;1440;1440;1440;-4.132594e-01;7.699516e-02;1918502651;752392754;1474612399;0.000000e+00;3.416705e-02;1.747873e+02
17;dgemm;36;0;1;1;0;720;111;111;1440;1440;1440;1440;1440;1440;-1.543593e-01;-4.222437e-01;1411549676;1843993368;943947739;0.000000e+00;3.826380e-02;1.560736e+02
18;dgemm;36;0;1;1;0;720;111;111;1440;1440;1440;1440;1440;1440;1.866877e-01;-3.211111e-01;1749698586;1469348094;1956297539;0.000000e+00;3.249407e-02;1.837864e+02
19;dgemm;36;0;1;1;0;720;111;111;1440;1440;1440;1440;1440;1440;-3.490223e-01;-4.443388e-01;2040651434;1975960378;317097467;0.000000e+00;3.098679e-02;1.927263e+02
20;dgemm;36;0;1;1;0;720;111;111;2160;2160;2160;2160;2160;2160;-1.054364e-01;2.030082e-01;927612902;1330573317;603570492;0.000000e+00;5.688596e-02;3.543123e+02
21;dgemm;36;0;1;1;0;720;111;111;2160;2160;2160;2160;2160;2160;-4.352839e-01;1.623906e-01;959997301;485560280;402724286;0.000000e+00;5.199409e-02;3.876478e+02
22;dgemm;36;0;1;1;0;720;111;111;2160;2160;2160;2160;2160;2160;4.667617e-01;1.036922e-01;894429689;364228444;1947346619;0.000000e+00;5.233407e-02;3.851295e+02
23;dgemm;36;0;1;1;0;720;111;111;2160;2160;2160;2160;2160;2160;4.665847e-01;3.770548e-01;1063958031;1633108117;2114738097;0.000000e+00;4.640698e-02;4.343181e+02
24;dgemm;36;0;1;1;0;720;111;111;2160;2160;2160;2160;2160;2160;-4.980996e-01;2.856491e-01;822890675;1610120709;791698927;0.000000e+00;4.640484e-02;4.343382e+02
25;dgemm;36;0;1;1;0;720;111;111;2160;2160;2160;2160;2160;2160;3.592840e-01;-4.182928e-01;1255179497;524872353;327254586;0.000000e+00;5.178499e-02;3.892130e+02
26;dgemm;36;0;1;1;0;720;111;111;2160;2160;2160;2160;2160;2160;9.307665e-02;3.296821e-01;1703964683;352406219;1600028624;0.000000e+00;5.210686e-02;3.868088e+02
27;dgemm;36;0;1;1;0;720;111;111;2160;2160;2160;2160;2160;2160;-4.719053e-01;2.807858e-01;112805732;1120048829;378409503;0.000000e+00;4.474211e-02;4.504793e+02
28;dgemm;36;0;1;1;0;720;111;111;2160;2160;2160;2160;2160;2160;2.744957e-01;-3.785920e-02;1573363368;1409959708;2077486715;0.000000e+00;5.223298e-02;3.858748e+02
29;dgemm;36;0;1;1;0;720;111;111;2160;2160;2160;2160;2160;2160;1.799312e-01;9.546876e-03;200747796;289700723;1117142618;0.000000e+00;5.142188e-02;3.919614e+02
30;dgemm;36;0;1;1;0;720;111;111;2880;2880;2880;2880;2880;2880;1.744033e-01;3.861393e-01;439493451;990892921;1760243555;0.000000e+00;5.910182e-02;8.083633e+02
31;dgemm;36;0;1;1;0;720;111;111;2880;2880;2880;2880;2880;2880;3.018442e-01;-4.633856e-02;111537764;338888228;2147469841;0.000000e+00;6.375289e-02;7.493895e+02
32;dgemm;36;0;1;1;0;720;111;111;2880;2880;2880;2880;2880;2880;2.072774e-01;1.109783e-01;269441500;2142757034;116087764;0.000000e+00;6.170583e-02;7.742501e+02
33;dgemm;36;0;1;1;0;720;111;111;2880;2880;2880;2880;2880;2880;-2.366607e-01;9.513167e-02;8936987;1982275856;1275373743;0.000000e+00;6.054688e-02;7.890704e+02
34;dgemm;36;0;1;1;0;720;111;111;2880;2880;2880;2880;2880;2880;-3.952797e-01;-4.960891e-01;841148365;1960709859;1760281936;0.000000e+00;6.362581e-02;7.508862e+02
35;dgemm;36;0;1;1;0;720;111;111;2880;2880;2880;2880;2880;2880;-2.607432e-01;-3.651100e-01;1244316437;971899228;1476153275;0.000000e+00;6.560397e-02;7.282447e+02
36;dgemm;36;0;1;1;0;720;111;111;2880;2880;2880;2880;2880;2880;-1.389722e-01;-8.843738e-02;1626276121;653468858;2130794395;0.000000e+00;6.526780e-02;7.319956e+02
37;dgemm;36;0;1;1;0;720;111;111;2880;2880;2880;2880;2880;2880;9.367129e-02;9.508020e-02;1605908235;1350573793;76065818;0.000000e+00;6.538796e-02;7.306504e+02
38;dgemm;36;0;1;1;0;720;111;111;2880;2880;2880;2880;2880;2880;-4.585682e-01;3.268176e-01;1987231011;1875335928;1784639529;0.000000e+00;6.469512e-02;7.384752e+02
39;dgemm;36;0;1;1;0;720;111;111;2880;2880;2880;2880;2880;2880;-6.830955e-02;1.535754e-01;1939964443;2112255763;1432114613;0.000000e+00;6.385517e-02;7.481891e+02
40;dgemm;36;0;1;1;0;720;111;111;3600;3600;3600;3600;3600;3600;2.725473e-01;1.883941e-01;1782436840;1909002904;165344818;0.000000e+00;8.562207e-02;1.089812e+03
41;dgemm;36;0;1;1;0;720;111;111;3600;3600;3600;3600;3600;3600;2.191162e-01;-3.021529e-01;1351797369;492067917;1504569917;0.000000e+00;9.195089e-02;1.014803e+03
42;dgemm;36;0;1;1;0;720;111;111;3600;3600;3600;3600;3600;3600;-3.280447e-01;-3.223358e-01;496987743;159259470;1359512183;0.000000e+00;8.401608e-02;1.110644e+03
43;dgemm;36;0;1;1;0;720;111;111;3600;3600;3600;3600;3600;3600;-4.513911e-01;3.904790e-01;1096689772;2086206725;601385644;0.000000e+00;8.016706e-02;1.163969e+03
44;dgemm;36;0;1;1;0;720;111;111;3600;3600;3600;3600;3600;3600;-4.403555e-01;9.074247e-02;243268139;1012502954;1272469786;0.000000e+00;9.098220e-02;1.025607e+03
45;dgemm;36;0;1;1;0;720;111;111;3600;3600;3600;3600;3600;3600;1.908228e-02;4.440272e-01;722308542;1820388464;933110197;0.000000e+00;8.688021e-02;1.074031e+03
46;dgemm;36;0;1;1;0;720;111;111;3600;3600;3600;3600;3600;3600;-1.017733e-01;4.140073e-01;1285228804;1789376348;502278611;0.000000e+00;8.281112e-02;1.126805e+03
47;dgemm;36;0;1;1;0;720;111;111;3600;3600;3600;3600;3600;3600;-2.659684e-01;-2.731221e-01;1034949299;654887343;1529195746;0.000000e+00;8.738899e-02;1.067778e+03
48;dgemm;36;0;1;1;0;720;111;111;3600;3600;3600;3600;3600;3600;1.985016e-01;4.068633e-01;87755422;889023311;1494613810;0.000000e+00;9.324193e-02;1.000751e+03
49;dgemm;36;0;1;1;0;720;111;111;3600;3600;3600;3600;3600;3600;-4.302884e-01;-3.682695e-01;745425661;396473730;1308044878;0.000000e+00;9.055686e-02;1.030424e+03
50;dgemm;36;0;1;1;0;720;111;111;4320;4320;4320;4320;4320;4320;3.002688e-01;4.210193e-01;705178736;1590079444;434248626;0.000000e+00;1.223631e-01;1.317743e+03
51;dgemm;36;0;1;1;0;720;111;111;4320;4320;4320;4320;4320;4320;-3.696050e-01;-2.996627e-01;1402586708;552473416;1143408282;0.000000e+00;1.285832e-01;1.253999e+03
52;dgemm;36;0;1;1;0;720;111;111;4320;4320;4320;4320;4320;4320;-3.095740e-01;-1.111416e-01;1884167637;1473442062;201305624;0.000000e+00;1.240220e-01;1.300117e+03
53;dgemm;36;0;1;1;0;720;111;111;4320;4320;4320;4320;4320;4320;3.214526e-01;-2.291051e-01;1238433452;1273911899;1431419379;0.000000e+00;1.237440e-01;1.303038e+03
54;dgemm;36;0;1;1;0;720;111;111;4320;4320;4320;4320;4320;4320;-4.764616e-02;-2.823082e-01;619290071;707900973;407487131;0.000000e+00;1.233921e-01;1.306754e+03
55;dgemm;36;0;1;1;0;720;111;111;4320;4320;4320;4320;4320;4320;-2.829039e-01;4.689267e-01;1776808933;711845894;404158660;0.000000e+00;1.245580e-01;1.294523e+03
56;dgemm;36;0;1;1;0;720;111;111;4320;4320;4320;4320;4320;4320;-9.802407e-02;-3.473849e-01;1973387981;1642548899;1501252996;0.000000e+00;1.251459e-01;1.288441e+03
57;dgemm;36;0;1;1;0;720;111;111;4320;4320;4320;4320;4320;4320;-2.998149e-02;-6.245404e-02;824272813;1662739668;2025187190;0.000000e+00;1.222410e-01;1.319059e+03
58;dgemm;36;0;1;1;0;720;111;111;4320;4320;4320;4320;4320;4320;1.613464e-01;1.651206e-01;437116466;1704365084;1176911340;0.000000e+00;1.244299e-01;1.295855e+03
59;dgemm;36;0;1;1;0;720;111;111;4320;4320;4320;4320;4320;4320;-9.329343e-02;2.766544e-01;1953443376;1876855542;1069755936;0.000000e+00;1.229711e-01;1.311228e+03
60;dgemm;36;0;1;1;0;720;111;111;5040;5040;5040;5040;5040;5040;-4.205594e-01;1.129006e-01;588219756;1856669179;1057418418;0.000000e+00;1.929829e-01;1.326792e+03
61;dgemm;36;0;1;1;0;720;111;111;5040;5040;5040;5040;5040;5040;1.349872e-02;-2.496970e-01;1065103348;625032172;387451659;0.000000e+00;1.888700e-01;1.355685e+03
62;dgemm;36;0;1;1;0;720;111;111;5040;5040;5040;5040;5040;5040;9.058696e-02;7.370132e-02;298625210;1295166342;1057467587;0.000000e+00;1.903701e-01;1.345002e+03
63;dgemm;36;0;1;1;0;720;111;111;5040;5040;5040;5040;5040;5040;-3.018314e-02;-5.773157e-02;382697713;476667372;1070575321;0.000000e+00;1.892638e-01;1.352864e+03
64;dgemm;36;0;1;1;0;720;111;111;5040;5040;5040;5040;5040;5040;-4.650331e-01;-1.058972e-01;774044599;697517721;2001229904;0.000000e+00;1.908920e-01;1.341325e+03
65;dgemm;36;0;1;1;0;720;111;111;5040;5040;5040;5040;5040;5040;4.801672e-01;-2.032396e-01;1797073940;1756915667;1065311705;0.000000e+00;1.893361e-01;1.352347e+03
66;dgemm;36;0;1;1;0;720;111;111;5040;5040;5040;5040;5040;5040;2.132438e-01;1.658781e-01;1414829150;1307565984;555996658;0.000000e+00;1.924551e-01;1.330431e+03
67;dgemm;36;0;1;1;0;720;111;111;5040;5040;5040;5040;5040;5040;1.800331e-01;-1.232803e-01;231602422;1389867269;780821396;0.000000e+00;1.898918e-01;1.348389e+03
68;dgemm;36;0;1;1;0;720;111;111;5040;5040;5040;5040;5040;5040;3.404283e-01;-1.210446e-01;195740084;917679292;2006811972;0.000000e+00;1.912401e-01;1.338883e+03
69;dgemm;36;0;1;1;0;720;111;111;5040;5040;5040;5040;5040;5040;1.960490e-01;-2.057583e-01;1414647625;1635905385;1046741222;0.000000e+00;1.930029e-01;1.326654e+03
70;dgemm;36;0;1;1;0;720;111;111;5760;5760;5760;5760;5760;5760;-4.981229e-01;1.797563e-01;1343606042;1111783898;446340713;0.000000e+00;2.797749e-01;1.366119e+03
71;dgemm;36;0;1;1;0;720;111;111;5760;5760;5760;5760;5760;5760;1.449892e-01;-2.994312e-01;1782280524;846942590;524688209;0.000000e+00;2.790260e-01;1.369786e+03
72;dgemm;36;0;1;1;0;720;111;111;5760;5760;5760;5760;5760;5760;-7.231379e-02;2.098748e-01;1371499336;2114937732;726371155;0.000000e+00;2.794340e-01;1.367786e+03
73;dgemm;36;0;1;1;0;720;111;111;5760;5760;5760;5760;5760;5760;-2.503210e-01;-2.840220e-01;882160379;11614769;1682085273;0.000000e+00;2.802451e-01;1.363828e+03
74;dgemm;36;0;1;1;0;720;111;111;5760;5760;5760;5760;5760;5760;9.597039e-02;1.728868e-01;246247255;1858721860;1548348142;0.000000e+00;2.807751e-01;1.361253e+03
75;dgemm;36;0;1;1;0;720;111;111;5760;5760;5760;5760;5760;5760;-7.244259e-02;3.629747e-01;2118421993;1520223205;452867621;0.000000e+00;2.809842e-01;1.360240e+03
76;dgemm;36;0;1;1;0;720;111;111;5760;5760;5760;5760;5760;5760;-4.022054e-01;3.532503e-01;201690613;213801961;822262754;0.000000e+00;2.837701e-01;1.346886e+03
77;dgemm;36;0;1;1;0;720;111;111;5760;5760;5760;5760;5760;5760;-4.352033e-02;2.911775e-01;1737518944;282828202;110613202;0.000000e+00;2.753968e-01;1.387837e+03
78;dgemm;36;0;1;1;0;720;111;111;5760;5760;5760;5760;5760;5760;-3.380140e-01;-1.158719e-01;1676902021;1486222842;950390868;0.000000e+00;2.832711e-01;1.349259e+03
79;dgemm;36;0;1;1;0;720;111;111;5760;5760;5760;5760;5760;5760;-3.254125e-01;4.026002e-01;1242608872;1137949908;1277849958;0.000000e+00;2.846489e-01;1.342728e+03
80;dgemm;36;0;1;1;0;720;111;111;6480;6480;6480;6480;6480;6480;-7.731044e-02;2.584243e-01;1908518808;1023457753;364686248;0.000000e+00;3.971009e-01;1.370421e+03
81;dgemm;36;0;1;1;0;720;111;111;6480;6480;6480;6480;6480;6480;-3.124503e-01;3.608416e-01;1329132133;1280321648;501772890;0.000000e+00;3.859251e-01;1.410107e+03
82;dgemm;36;0;1;1;0;720;111;111;6480;6480;6480;6480;6480;6480;8.143046e-02;2.072399e-01;212251746;1983690368;364319529;0.000000e+00;3.912430e-01;1.390940e+03
83;dgemm;36;0;1;1;0;720;111;111;6480;6480;6480;6480;6480;6480;2.429254e-01;3.618715e-01;1775473788;624549797;767066249;0.000000e+00;3.923888e-01;1.386878e+03
84;dgemm;36;0;1;1;0;720;111;111;6480;6480;6480;6480;6480;6480;2.177558e-01;-2.828171e-01;1750003033;1415505363;78012497;0.000000e+00;3.909409e-01;1.392015e+03
85;dgemm;36;0;1;1;0;720;111;111;6480;6480;6480;6480;6480;6480;3.155647e-01;-4.765819e-01;1344247686;1795519125;661761152;0.000000e+00;3.896971e-01;1.396458e+03
86;dgemm;36;0;1;1;0;720;111;111;6480;6480;6480;6480;6480;6480;1.085222e-01;-8.764404e-02;1315209188;235649157;1448703729;0.000000e+00;3.916790e-01;1.389392e+03
87;dgemm;36;0;1;1;0;720;111;111;6480;6480;6480;6480;6480;6480;5.964717e-02;3.343596e-01;430253414;861543921;677870460;0.000000e+00;3.897228e-01;1.396366e+03
88;dgemm;36;0;1;1;0;720;111;111;6480;6480;6480;6480;6480;6480;-3.852038e-01;-3.449149e-01;828388027;1144278050;332266748;0.000000e+00;3.918090e-01;1.388931e+03
89;dgemm;36;0;1;1;0;720;111;111;6480;6480;6480;6480;6480;6480;-2.132347e-01;-3.266376e-02;816504794;820697697;655858699;0.000000e+00;3.896110e-01;1.396766e+03
90;dgemm;36;0;1;1;0;720;111;111;7200;7200;7200;7200;7200;7200;4.306626e-01;3.748097e-01;1395132002;1186090428;1974806403;0.000000e+00;5.414259e-01;1.378759e+03
91;dgemm;36;0;1;1;0;720;111;111;7200;7200;7200;7200;7200;7200;-2.001786e-01;4.867196e-01;1498617647;669908538;1387036159;0.000000e+00;5.350809e-01;1.395109e+03
92;dgemm;36;0;1;1;0;720;111;111;7200;7200;7200;7200;7200;7200;1.290300e-01;2.190988e-01;1812282134;1328104339;1380171692;0.000000e+00;5.331180e-01;1.400245e+03
93;dgemm;36;0;1;1;0;720;111;111;7200;7200;7200;7200;7200;7200;1.972368e-02;-3.289758e-01;777720504;1543755629;1722060049;0.000000e+00;5.382578e-01;1.386874e+03
94;dgemm;36;0;1;1;0;720;111;111;7200;7200;7200;7200;7200;7200;-1.628764e-01;-1.178982e-01;70636429;136495343;1472576335;0.000000e+00;5.347700e-01;1.395920e+03
95;dgemm;36;0;1;1;0;720;111;111;7200;7200;7200;7200;7200;7200;-3.497582e-01;-9.472418e-02;1503885238;1219407971;2416949;0.000000e+00;5.365150e-01;1.391380e+03
96;dgemm;36;0;1;1;0;720;111;111;7200;7200;7200;7200;7200;7200;-1.213255e-01;-3.664051e-01;561717988;1407392292;1841585795;0.000000e+00;5.340800e-01;1.397723e+03
97;dgemm;36;0;1;1;0;720;111;111;7200;7200;7200;7200;7200;7200;3.538300e-01;-4.514458e-01;1433102829;1887658390;1402961682;0.000000e+00;5.383809e-01;1.386557e+03
98;dgemm;36;0;1;1;0;720;111;111;7200;7200;7200;7200;7200;7200;-3.514624e-01;-2.320307e-01;400000569;337453826;1081174232;0.000000e+00;5.377719e-01;1.388127e+03
99;dgemm;36;0;1;1;0;720;111;111;7200;7200;7200;7200;7200;7200;-1.551027e-01;-2.203633e-01;1941690360;410409117;847228023;0.000000e+00;5.423229e-01;1.376479e+03
100;dgemm;36;0;1;1;0;720;111;111;7920;7920;7920;7920;7920;7920;-4.226583e-01;4.233893e-01;1175526309;1586903190;2002495425;0.000000e+00;7.116270e-01;1.396218e+03
101;dgemm;36;0;1;1;0;720;111;111;7920;7920;7920;7920;7920;7920;-1.821509e-01;-3.376510e-01;1184214677;2004504234;1061730690;0.000000e+00;7.074950e-01;1.404372e+03
102;dgemm;36;0;1;1;0;720;111;111;7920;7920;7920;7920;7920;7920;2.025557e-01;-1.309258e-02;1717226057;1748349614;1276673168;0.000000e+00;7.091808e-01;1.401034e+03
103;dgemm;36;0;1;1;0;720;111;111;7920;7920;7920;7920;7920;7920;-3.323793e-03;1.208180e-01;2009726312;696947386;1877565100;0.000000e+00;7.091930e-01;1.401010e+03
104;dgemm;36;0;1;1;0;720;111;111;7920;7920;7920;7920;7920;7920;4.408419e-02;7.007474e-02;1630634994;1665204916;1707056552;0.000000e+00;7.100201e-01;1.399378e+03
105;dgemm;36;0;1;1;0;720;111;111;7920;7920;7920;7920;7920;7920;1.985130e-01;3.083112e-01;1010528946;358532290;1708302647;0.000000e+00;7.074430e-01;1.404475e+03
106;dgemm;36;0;1;1;0;720;111;111;7920;7920;7920;7920;7920;7920;3.496171e-01;-4.343253e-02;1426819080;885799631;1314218593;0.000000e+00;7.077801e-01;1.403806e+03
107;dgemm;36;0;1;1;0;720;111;111;7920;7920;7920;7920;7920;7920;1.482571e-01;2.268525e-01;1156541312;318561886;1243439214;0.000000e+00;7.096839e-01;1.400040e+03
108;dgemm;36;0;1;1;0;720;111;111;7920;7920;7920;7920;7920;7920;1.954537e-01;3.390887e-01;1112720090;1788014412;1106059479;0.000000e+00;7.122560e-01;1.394985e+03
109;dgemm;36;0;1;1;0;720;111;111;7920;7920;7920;7920;7920;7920;-2.432179e-01;-3.632344e-01;1095966189;104152274;1748806355;0.000000e+00;7.108569e-01;1.397730e+03
110;dgemm;36;0;1;1;0;720;111;111;8640;8640;8640;8640;8640;8640;-3.111498e-01;-3.768885e-01;970925433;309198987;887077888;0.000000e+00;9.183249e-01;1.404672e+03
111;dgemm;36;0;1;1;0;720;111;111;8640;8640;8640;8640;8640;8640;-3.455352e-01;1.438218e-01;37487770;1541027284;1232056856;0.000000e+00;9.210281e-01;1.400549e+03
112;dgemm;36;0;1;1;0;720;111;111;8640;8640;8640;8640;8640;8640;1.670465e-01;-4.374846e-01;959372260;1025125849;2137100237;0.000000e+00;9.168859e-01;1.406876e+03
113;dgemm;36;0;1;1;0;720;111;111;8640;8640;8640;8640;8640;8640;-2.602701e-01;3.620021e-01;1376035217;1282648518;478034945;0.000000e+00;9.226649e-01;1.398065e+03
114;dgemm;36;0;1;1;0;720;111;111;8640;8640;8640;8640;8640;8640;-1.751029e-01;-3.004013e-01;1983228458;1584710873;993967637;0.000000e+00;9.182448e-01;1.404794e+03
115;dgemm;36;0;1;1;0;720;111;111;8640;8640;8640;8640;8640;8640;2.320915e-01;4.447722e-01;2045826607;2037770478;1930772757;0.000000e+00;9.173810e-01;1.406117e+03
116;dgemm;36;0;1;1;0;720;111;111;8640;8640;8640;8640;8640;8640;3.200980e-01;-3.080142e-01;1152645729;470591100;1025533459;0.000000e+00;9.222109e-01;1.398753e+03
117;dgemm;36;0;1;1;0;720;111;111;8640;8640;8640;8640;8640;8640;1.877797e-02;2.363318e-01;1899058025;2077211388;394633074;0.000000e+00;9.174790e-01;1.405967e+03
118;dgemm;36;0;1;1;0;720;111;111;8640;8640;8640;8640;8640;8640;-2.785742e-03;-2.859474e-01;1645933681;1943003493;553160358;0.000000e+00;9.197700e-01;1.402465e+03
119;dgemm;36;0;1;1;0;720;111;111;8640;8640;8640;8640;8640;8640;2.686058e-01;-6.080735e-02;712633417;864101839;1204275569;0.000000e+00;9.168401e-01;1.406947e+03
120;dgemm;36;0;1;1;0;720;111;111;9360;9360;9360;9360;9360;9360;4.783358e-01;4.252657e-01;410228794;1026413173;773319847;0.000000e+00;1.162035e+00;1.411362e+03
121;dgemm;36;0;1;1;0;720;111;111;9360;9360;9360;9360;9360;9360;1.787239e-01;-3.216067e-01;452456682;1302539390;1858504292;0.000000e+00;1.163701e+00;1.409341e+03
122;dgemm;36;0;1;1;0;720;111;111;9360;9360;9360;9360;9360;9360;2.809763e-01;2.009583e-01;427355115;1388391521;1272796157;0.000000e+00;1.158884e+00;1.415199e+03
123;dgemm;36;0;1;1;0;720;111;111;9360;9360;9360;9360;9360;9360;-2.961404e-01;8.005670e-02;126401947;1204462951;1210359231;0.000000e+00;1.158970e+00;1.415094e+03
124;dgemm;36;0;1;1;0;720;111;111;9360;9360;9360;9360;9360;9360;1.614373e-01;-3.844182e-01;738393740;19485054;1983614030;0.000000e+00;1.158590e+00;1.415558e+03
125;dgemm;36;0;1;1;0;720;111;111;9360;9360;9360;9360;9360;9360;3.696719e-01;1.644219e-01;1905241081;2004187516;371653516;0.000000e+00;1.161479e+00;1.412037e+03
126;dgemm;36;0;1;1;0;720;111;111;9360;9360;9360;9360;9360;9360;3.044324e-01;-3.241417e-01;1707746139;1372261796;2073785404;0.000000e+00;1.159515e+00;1.414429e+03
127;dgemm;36;0;1;1;0;720;111;111;9360;9360;9360;9360;9360;9360;-4.052477e-01;-2.374666e-01;1894519218;786039021;1931513970;0.000000e+00;1.158587e+00;1.415562e+03
128;dgemm;36;0;1;1;0;720;111;111;9360;9360;9360;9360;9360;9360;1.781820e-01;-4.328520e-01;586235379;2032894977;262692685;0.000000e+00;1.161976e+00;1.411433e+03
129;dgemm;36;0;1;1;0;720;111;111;9360;9360;9360;9360;9360;9360;-2.751129e-01;3.889478e-01;1543324176;1985433483;395279207;0.000000e+00;1.160081e+00;1.413739e+03
0;dgemm;36;0;1;1;0;720;111;111;10080;10080;10080;10080;10080;10080;4.892778e-01;-1.846424e-01;1649760492;596516649;1189641421;0.000000e+00;1.271298e+00;1.611255e+03
1;dgemm;36;0;1;1;0;720;111;111;10080;10080;10080;10080;10080;10080;-2.410269e-01;4.000452e-01;783368690;1102520059;2044897763;0.000000e+00;1.297479e+00;1.578742e+03
2;dgemm;36;0;1;1;0;720;111;111;10080;10080;10080;10080;10080;10080;4.141058e-01;-3.017109e-01;1540383426;304089172;1303455736;0.000000e+00;1.296466e+00;1.579976e+03
3;dgemm;36;0;1;1;0;720;111;111;10080;10080;10080;10080;10080;10080;-3.054879e-01;-1.757242e-01;294702567;1726956429;336465782;0.000000e+00;1.295664e+00;1.580954e+03
4;dgemm;36;0;1;1;0;720;111;111;10080;10080;10080;10080;10080;10080;4.797187e-01;2.821215e-01;233665123;2145174067;468703135;0.000000e+00;1.300625e+00;1.574924e+03
5;dgemm;36;0;1;1;0;720;111;111;10080;10080;10080;10080;10080;10080;3.112590e-01;3.332689e-02;1315634022;635723058;1369133069;0.000000e+00;1.303276e+00;1.571720e+03
6;dgemm;36;0;1;1;0;720;111;111;10080;10080;10080;10080;10080;10080;-2.396071e-01;2.196488e-02;2089018456;628175011;1656478042;0.000000e+00;1.299151e+00;1.576710e+03
7;dgemm;36;0;1;1;0;720;111;111;10080;10080;10080;10080;10080;10080;5.576077e-02;-4.098657e-01;859484421;1914544919;608413784;0.000000e+00;1.299152e+00;1.576709e+03
8;dgemm;36;0;1;1;0;720;111;111;10080;10080;10080;10080;10080;10080;-2.172434e-01;3.304604e-01;1973594324;149798315;2038664370;0.000000e+00;1.303228e+00;1.571778e+03
9;dgemm;36;0;1;1;0;720;111;111;10080;10080;10080;10080;10080;10080;1.632813e-02;3.212047e-02;412776091;1424268980;1911759956;0.000000e+00;1.301354e+00;1.574041e+03
10;dgemm;36;0;1;1;0;720;111;111;12240;12240;12240;12240;12240;12240;1.752074e-01;-2.459049e-03;42999170;982906996;135497281;0.000000e+00;2.312846e+00;1.585724e+03
11;dgemm;36;0;1;1;0;720;111;111;12240;12240;12240;12240;12240;12240;-4.932447e-01;-1.333755e-01;1937477084;1827336327;572660336;0.000000e+00;2.307485e+00;1.589408e+03
12;dgemm;36;0;1;1;0;720;111;111;12240;12240;12240;12240;12240;12240;-1.501402e-01;2.390371e-01;1632621729;1100661313;1433925857;0.000000e+00;2.315201e+00;1.584111e+03
13;dgemm;36;0;1;1;0;720;111;111;12240;12240;12240;12240;12240;12240;2.189649e-01;-2.465265e-01;939819582;2001100545;1998898814;0.000000e+00;2.310408e+00;1.587397e+03
14;dgemm;36;0;1;1;0;720;111;111;12240;12240;12240;12240;12240;12240;-2.416937e-01;-1.401268e-01;1585990364;1374344043;760313750;0.000000e+00;2.314013e+00;1.584924e+03
15;dgemm;36;0;1;1;0;720;111;111;12240;12240;12240;12240;12240;12240;3.187297e-01;-1.733443e-01;945117276;1889947178;1780695788;0.000000e+00;2.319119e+00;1.581435e+03
16;dgemm;36;0;1;1;0;720;111;111;12240;12240;12240;12240;12240;12240;-4.132594e-01;7.699516e-02;1918502651;752392754;1474612399;0.000000e+00;2.318416e+00;1.581914e+03
17;dgemm;36;0;1;1;0;720;111;111;12240;12240;12240;12240;12240;12240;-1.543593e-01;-4.222437e-01;1411549676;1843993368;943947739;0.000000e+00;2.315309e+00;1.584037e+03
18;dgemm;36;0;1;1;0;720;111;111;12240;12240;12240;12240;12240;12240;1.866877e-01;-3.211111e-01;1749698586;1469348094;1956297539;0.000000e+00;2.321462e+00;1.579838e+03
19;dgemm;36;0;1;1;0;720;111;111;12240;12240;12240;12240;12240;12240;-3.490223e-01;-4.443388e-01;2040651434;1975960378;317097467;0.000000e+00;2.323120e+00;1.578711e+03
20;dgemm;36;0;1;1;0;720;111;111;14400;14400;14400;14400;14400;14400;-1.054364e-01;2.030082e-01;927612902;1330573317;603570492;0.000000e+00;3.765882e+00;1.585809e+03
21;dgemm;36;0;1;1;0;720;111;111;14400;14400;14400;14400;14400;14400;-4.352839e-01;1.623906e-01;959997301;485560280;402724286;0.000000e+00;3.766551e+00;1.585527e+03
22;dgemm;36;0;1;1;0;720;111;111;14400;14400;14400;14400;14400;14400;4.667617e-01;1.036922e-01;894429689;364228444;1947346619;0.000000e+00;3.761974e+00;1.587456e+03
23;dgemm;36;0;1;1;0;720;111;111;14400;14400;14400;14400;14400;14400;4.665847e-01;3.770548e-01;1063958031;1633108117;2114738097;0.000000e+00;3.790875e+00;1.575353e+03
24;dgemm;36;0;1;1;0;720;111;111;14400;14400;14400;14400;14400;14400;-4.980996e-01;2.856491e-01;822890675;1610120709;791698927;0.000000e+00;3.791631e+00;1.575039e+03
25;dgemm;36;0;1;1;0;720;111;111;14400;14400;14400;14400;14400;14400;3.592840e-01;-4.182928e-01;1255179497;524872353;327254586;0.000000e+00;3.792758e+00;1.574571e+03
26;dgemm;36;0;1;1;0;720;111;111;14400;14400;14400;14400;14400;14400;9.307665e-02;3.296821e-01;1703964683;352406219;1600028624;0.000000e+00;3.794890e+00;1.573687e+03
27;dgemm;36;0;1;1;0;720;111;111;14400;14400;14400;14400;14400;14400;-4.719053e-01;2.807858e-01;112805732;1120048829;378409503;0.000000e+00;3.797178e+00;1.572739e+03
28;dgemm;36;0;1;1;0;720;111;111;14400;14400;14400;14400;14400;14400;2.744957e-01;-3.785920e-02;1573363368;1409959708;2077486715;0.000000e+00;3.800284e+00;1.571453e+03
29;dgemm;36;0;1;1;0;720;111;111;14400;14400;14400;14400;14400;14400;1.799312e-01;9.546876e-03;200747796;289700723;1117142618;0.000000e+00;3.801517e+00;1.570943e+03
30;dgemm;36;0;1;1;0;720;111;111;16560;16560;16560;16560;16560;16560;1.744033e-01;3.861393e-01;439493451;990892921;1760243555;0.000000e+00;5.746352e+00;1.580588e+03
31;dgemm;36;0;1;1;0;720;111;111;16560;16560;16560;16560;16560;16560;3.018442e-01;-4.633856e-02;111537764;338888228;2147469841;0.000000e+00;5.735667e+00;1.583533e+03
32;dgemm;36;0;1;1;0;720;111;111;16560;16560;16560;16560;16560;16560;2.072774e-01;1.109783e-01;269441500;2142757034;116087764;0.000000e+00;5.744533e+00;1.581089e+03
33;dgemm;36;0;1;1;0;720;111;111;16560;16560;16560;16560;16560;16560;-2.366607e-01;9.513167e-02;8936987;1982275856;1275373743;0.000000e+00;5.738572e+00;1.582731e+03
34;dgemm;36;0;1;1;0;720;111;111;16560;16560;16560;16560;16560;16560;-3.952797e-01;-4.960891e-01;841148365;1960709859;1760281936;0.000000e+00;5.735556e+00;1.583563e+03
35;dgemm;36;0;1;1;0;720;111;111;16560;16560;16560;16560;16560;16560;-2.607432e-01;-3.651100e-01;1244316437;971899228;1476153275;0.000000e+00;5.736798e+00;1.583221e+03
36;dgemm;36;0;1;1;0;720;111;111;16560;16560;16560;16560;16560;16560;-1.389722e-01;-8.843738e-02;1626276121;653468858;2130794395;0.000000e+00;5.732068e+00;1.584527e+03
37;dgemm;36;0;1;1;0;720;111;111;16560;16560;16560;16560;16560;16560;9.367129e-02;9.508020e-02;1605908235;1350573793;76065818;0.000000e+00;5.756112e+00;1.577908e+03
38;dgemm;36;0;1;1;0;720;111;111;16560;16560;16560;16560;16560;16560;-4.585682e-01;3.268176e-01;1987231011;1875335928;1784639529;0.000000e+00;5.744202e+00;1.581180e+03
39;dgemm;36;0;1;1;0;720;111;111;16560;16560;16560;16560;16560;16560;-6.830955e-02;1.535754e-01;1939964443;2112255763;1432114613;0.000000e+00;5.724515e+00;1.586618e+03
40;dgemm;36;0;1;1;0;720;111;111;18720;18720;18720;18720;18720;18720;2.725473e-01;1.883941e-01;1782436840;1909002904;165344818;0.000000e+00;8.231198e+00;1.593986e+03
41;dgemm;36;0;1;1;0;720;111;111;18720;18720;18720;18720;18720;18720;2.191162e-01;-3.021529e-01;1351797369;492067917;1504569917;0.000000e+00;8.226180e+00;1.594958e+03
42;dgemm;36;0;1;1;0;720;111;111;18720;18720;18720;18720;18720;18720;-3.280447e-01;-3.223358e-01;496987743;159259470;1359512183;0.000000e+00;8.224525e+00;1.595279e+03
43;dgemm;36;0;1;1;0;720;111;111;18720;18720;18720;18720;18720;18720;-4.513911e-01;3.904790e-01;1096689772;2086206725;601385644;0.000000e+00;8.226356e+00;1.594924e+03
44;dgemm;36;0;1;1;0;720;111;111;18720;18720;18720;18720;18720;18720;-4.403555e-01;9.074247e-02;243268139;1012502954;1272469786;0.000000e+00;8.220724e+00;1.596017e+03
45;dgemm;36;0;1;1;0;720;111;111;18720;18720;18720;18720;18720;18720;1.908228e-02;4.440272e-01;722308542;1820388464;933110197;0.000000e+00;8.231614e+00;1.593905e+03
46;dgemm;36;0;1;1;0;720;111;111;18720;18720;18720;18720;18720;18720;-1.017733e-01;4.140073e-01;1285228804;1789376348;502278611;0.000000e+00;8.321340e+00;1.576719e+03
47;dgemm;36;0;1;1;0;720;111;111;18720;18720;18720;18720;18720;18720;-2.659684e-01;-2.731221e-01;1034949299;654887343;1529195746;0.000000e+00;8.234482e+00;1.593350e+03
48;dgemm;36;0;1;1;0;720;111;111;18720;18720;18720;18720;18720;18720;1.985016e-01;4.068633e-01;87755422;889023311;1494613810;0.000000e+00;8.231489e+00;1.593930e+03
49;dgemm;36;0;1;1;0;720;111;111;18720;18720;18720;18720;18720;18720;-4.302884e-01;-3.682695e-01;745425661;396473730;1308044878;0.000000e+00;8.224017e+00;1.595378e+03
50;dgemm;36;0;1;1;0;720;111;111;20880;20880;20880;20880;20880;20880;3.002688e-01;4.210193e-01;705178736;1590079444;434248626;0.000000e+00;1.145386e+01;1.589533e+03
51;dgemm;36;0;1;1;0;720;111;111;20880;20880;20880;20880;20880;20880;-3.696050e-01;-2.996627e-01;1402586708;552473416;1143408282;0.000000e+00;1.148309e+01;1.585487e+03
52;dgemm;36;0;1;1;0;720;111;111;20880;20880;20880;20880;20880;20880;-3.095740e-01;-1.111416e-01;1884167637;1473442062;201305624;0.000000e+00;1.148892e+01;1.584682e+03
53;dgemm;36;0;1;1;0;720;111;111;20880;20880;20880;20880;20880;20880;3.214526e-01;-2.291051e-01;1238433452;1273911899;1431419379;0.000000e+00;1.148066e+01;1.585823e+03
54;dgemm;36;0;1;1;0;720;111;111;20880;20880;20880;20880;20880;20880;-4.764616e-02;-2.823082e-01;619290071;707900973;407487131;0.000000e+00;1.150043e+01;1.583096e+03
55;dgemm;36;0;1;1;0;720;111;111;20880;20880;20880;20880;20880;20880;-2.829039e-01;4.689267e-01;1776808933;711845894;404158660;0.000000e+00;1.174546e+01;1.550070e+03
56;dgemm;36;0;1;1;0;720;111;111;20880;20880;20880;20880;20880;20880;-9.802407e-02;-3.473849e-01;1973387981;1642548899;1501252996;0.000000e+00;1.174007e+01;1.550782e+03
57;dgemm;36;0;1;1;0;720;111;111;20880;20880;20880;20880;20880;20880;-2.998149e-02;-6.245404e-02;824272813;1662739668;2025187190;0.000000e+00;1.173179e+01;1.551877e+03
58;dgemm;36;0;1;1;0;720;111;111;20880;20880;20880;20880;20880;20880;1.613464e-01;1.651206e-01;437116466;1704365084;1176911340;0.000000e+00;1.171885e+01;1.553590e+03
59;dgemm;36;0;1;1;0;720;111;111;20880;20880;20880;20880;20880;20880;-9.329343e-02;2.766544e-01;1953443376;1876855542;1069755936;0.000000e+00;1.181592e+01;1.540827e+03
60;dgemm;36;0;1;1;0;720;111;111;23040;23040;23040;23040;23040;23040;-4.205594e-01;1.129006e-01;588219756;1856669179;1057418418;0.000000e+00;1.581515e+01;1.546693e+03
61;dgemm;36;0;1;1;0;720;111;111;23040;23040;23040;23040;23040;23040;1.349872e-02;-2.496970e-01;1065103348;625032172;387451659;0.000000e+00;1.581611e+01;1.546599e+03
62;dgemm;36;0;1;1;0;720;111;111;23040;23040;23040;23040;23040;23040;9.058696e-02;7.370132e-02;298625210;1295166342;1057467587;0.000000e+00;1.579813e+01;1.548360e+03
63;dgemm;36;0;1;1;0;720;111;111;23040;23040;23040;23040;23040;23040;-3.018314e-02;-5.773157e-02;382697713;476667372;1070575321;0.000000e+00;1.581865e+01;1.546351e+03
64;dgemm;36;0;1;1;0;720;111;111;23040;23040;23040;23040;23040;23040;-4.650331e-01;-1.058972e-01;774044599;697517721;2001229904;0.000000e+00;1.580996e+01;1.547201e+03
65;dgemm;36;0;1;1;0;720;111;111;23040;23040;23040;23040;23040;23040;4.801672e-01;-2.032396e-01;1797073940;1756915667;1065311705;0.000000e+00;1.555898e+01;1.572158e+03
66;dgemm;36;0;1;1;0;720;111;111;23040;23040;23040;23040;23040;23040;2.132438e-01;1.658781e-01;1414829150;1307565984;555996658;0.000000e+00;1.556643e+01;1.571405e+03
67;dgemm;36;0;1;1;0;720;111;111;23040;23040;23040;23040;23040;23040;1.800331e-01;-1.232803e-01;231602422;1389867269;780821396;0.000000e+00;1.556506e+01;1.571544e+03
68;dgemm;36;0;1;1;0;720;111;111;23040;23040;23040;23040;23040;23040;3.404283e-01;-1.210446e-01;195740084;917679292;2006811972;0.000000e+00;1.552382e+01;1.575720e+03
69;dgemm;36;0;1;1;0;720;111;111;23040;23040;23040;23040;23040;23040;1.960490e-01;-2.057583e-01;1414647625;1635905385;1046741222;0.000000e+00;1.550548e+01;1.577583e+03
70;dgemm;36;0;1;1;0;720;111;111;25200;25200;25200;25200;25200;25200;-4.981229e-01;1.797563e-01;1343606042;1111783898;446340713;0.000000e+00;1.997233e+01;1.602518e+03
71;dgemm;36;0;1;1;0;720;111;111;25200;25200;25200;25200;25200;25200;1.449892e-01;-2.994312e-01;1782280524;846942590;524688209;0.000000e+00;1.997112e+01;1.602615e+03
72;dgemm;36;0;1;1;0;720;111;111;25200;25200;25200;25200;25200;25200;-7.231379e-02;2.098748e-01;1371499336;2114937732;726371155;0.000000e+00;1.999131e+01;1.600996e+03
73;dgemm;36;0;1;1;0;720;111;111;25200;25200;25200;25200;25200;25200;-2.503210e-01;-2.840220e-01;882160379;11614769;1682085273;0.000000e+00;1.999414e+01;1.600769e+03
74;dgemm;36;0;1;1;0;720;111;111;25200;25200;25200;25200;25200;25200;9.597039e-02;1.728868e-01;246247255;1858721860;1548348142;0.000000e+00;1.998667e+01;1.601368e+03
75;dgemm;36;0;1;1;0;720;111;111;25200;25200;25200;25200;25200;25200;-7.244259e-02;3.629747e-01;2118421993;1520223205;452867621;0.000000e+00;2.007207e+01;1.594555e+03
76;dgemm;36;0;1;1;0;720;111;111;25200;25200;25200;25200;25200;25200;-4.022054e-01;3.532503e-01;201690613;213801961;822262754;0.000000e+00;2.013316e+01;1.589716e+03
77;dgemm;36;0;1;1;0;720;111;111;25200;25200;25200;25200;25200;25200;-4.352033e-02;2.911775e-01;1737518944;282828202;110613202;0.000000e+00;2.058424e+01;1.554880e+03
78;dgemm;36;0;1;1;0;720;111;111;25200;25200;25200;25200;25200;25200;-3.380140e-01;-1.158719e-01;1676902021;1486222842;950390868;0.000000e+00;1.998240e+01;1.601710e+03
79;dgemm;36;0;1;1;0;720;111;111;25200;25200;25200;25200;25200;25200;-3.254125e-01;4.026002e-01;1242608872;1137949908;1277849958;0.000000e+00;2.016371e+01;1.587308e+03
80;dgemm;36;0;1;1;0;720;111;111;27360;27360;27360;27360;27360;27360;-7.731044e-02;2.584243e-01;1908518808;1023457753;364686248;0.000000e+00;2.515895e+01;1.628118e+03
81;dgemm;36;0;1;1;0;720;111;111;27360;27360;27360;27360;27360;27360;-3.124503e-01;3.608416e-01;1329132133;1280321648;501772890;0.000000e+00;2.515912e+01;1.628107e+03
82;dgemm;36;0;1;1;0;720;111;111;27360;27360;27360;27360;27360;27360;8.143046e-02;2.072399e-01;212251746;1983690368;364319529;0.000000e+00;2.514968e+01;1.628718e+03
83;dgemm;36;0;1;1;0;720;111;111;27360;27360;27360;27360;27360;27360;2.429254e-01;3.618715e-01;1775473788;624549797;767066249;0.000000e+00;2.515682e+01;1.628255e+03
84;dgemm;36;0;1;1;0;720;111;111;27360;27360;27360;27360;27360;27360;2.177558e-01;-2.828171e-01;1750003033;1415505363;78012497;0.000000e+00;2.520213e+01;1.625328e+03
85;dgemm;36;0;1;1;0;720;111;111;27360;27360;27360;27360;27360;27360;3.155647e-01;-4.765819e-01;1344247686;1795519125;661761152;0.000000e+00;2.517468e+01;1.627100e+03
86;dgemm;36;0;1;1;0;720;111;111;27360;27360;27360;27360;27360;27360;1.085222e-01;-8.764404e-02;1315209188;235649157;1448703729;0.000000e+00;2.517660e+01;1.626976e+03
87;dgemm;36;0;1;1;0;720;111;111;27360;27360;27360;27360;27360;27360;5.964717e-02;3.343596e-01;430253414;861543921;677870460;0.000000e+00;2.519463e+01;1.625812e+03
88;dgemm;36;0;1;1;0;720;111;111;27360;27360;27360;27360;27360;27360;-3.852038e-01;-3.449149e-01;828388027;1144278050;332266748;0.000000e+00;2.580422e+01;1.587404e+03
89;dgemm;36;0;1;1;0;720;111;111;27360;27360;27360;27360;27360;27360;-2.132347e-01;-3.266376e-02;816504794;820697697;655858699;0.000000e+00;2.576364e+01;1.589904e+03
