Id;Function;threads;gpus;P;Q;mtxfmt;nb;uplo;n;lda;seedA;tsub;time;gflops
0;dpotrf;36;0;1;1;0;720;121;720;720;846930886;0.000000e+00;4.545927e-03;2.742572e+01
1;dpotrf;36;0;1;1;0;720;121;720;720;1681692777;0.000000e+00;1.346302e-02;9.260576e+00
2;dpotrf;36;0;1;1;0;720;121;720;720;1714636915;0.000000e+00;3.633022e-03;3.431725e+01
3;dpotrf;36;0;1;1;0;720;121;720;720;1957747793;0.000000e+00;1.426911e-02;8.737426e+00
4;dpotrf;36;0;1;1;0;720;121;720;720;424238335;0.000000e+00;3.557205e-03;3.504867e+01
5;dpotrf;36;0;1;1;0;720;121;720;720;719885386;0.000000e+00;1.333189e-02;9.351661e+00
6;dpotrf;36;0;1;1;0;720;121;720;720;1649760492;0.000000e+00;3.528833e-03;3.533046e+01
7;dpotrf;36;0;1;1;0;720;121;720;720;596516649;0.000000e+00;1.198506e-02;1.040256e+01
8;dpotrf;36;0;1;1;0;720;121;720;720;1189641421;0.000000e+00;3.432989e-03;3.631684e+01
9;dpotrf;36;0;1;1;0;720;121;720;720;1025202362;0.000000e+00;1.456904e-02;8.557550e+00
10;dpotrf;36;0;1;1;0;720;121;1440;1440;1350490027;0.000000e+00;2.075601e-02;4.800370e+01
11;dpotrf;36;0;1;1;0;720;121;1440;1440;783368690;0.000000e+00;2.389407e-02;4.169926e+01
12;dpotrf;36;0;1;1;0;720;121;1440;1440;1102520059;0.000000e+00;2.189112e-02;4.551458e+01
13;dpotrf;36;0;1;1;0;720;121;1440;1440;2044897763;0.000000e+00;2.077007e-02;4.797119e+01
14;dpotrf;36;0;1;1;0;720;121;1440;1440;1967513926;0.000000e+00;2.225685e-02;4.476667e+01
15;dpotrf;36;0;1;1;0;720;121;1440;1440;1365180540;0.000000e+00;1.982808e-02;5.025020e+01
16;dpotrf;36;0;1;1;0;720;121;1440;1440;1540383426;0.000000e+00;2.314186e-02;4.305466e+01
17;dpotrf;36;0;1;1;0;720;121;1440;1440;304089172;0.000000e+00;2.613091e-02;3.812974e+01
18;dpotrf;36;0;1;1;0;720;121;1440;1440;1303455736;0.000000e+00;2.423310e-02;4.111587e+01
19;dpotrf;36;0;1;1;0;720;121;1440;1440;35005211;0.000000e+00;2.302814e-02;4.326729e+01
20;dpotrf;36;0;1;1;0;720;121;2160;2160;521595368;0.000000e+00;4.418802e-02;7.607413e+01
21;dpotrf;36;0;1;1;0;720;121;2160;2160;294702567;0.000000e+00;4.583001e-02;7.334856e+01
22;dpotrf;36;0;1;1;0;720;121;2160;2160;1726956429;0.000000e+00;4.863191e-02;6.912263e+01
23;dpotrf;36;0;1;1;0;720;121;2160;2160;336465782;0.000000e+00;4.649401e-02;7.230104e+01
24;dpotrf;36;0;1;1;0;720;121;2160;2160;861021530;0.000000e+00;4.393482e-02;7.651255e+01
25;dpotrf;36;0;1;1;0;720;121;2160;2160;278722862;0.000000e+00;4.669189e-02;7.199462e+01
26;dpotrf;36;0;1;1;0;720;121;2160;2160;233665123;0.000000e+00;4.573798e-02;7.349614e+01
27;dpotrf;36;0;1;1;0;720;121;2160;2160;2145174067;0.000000e+00;4.082990e-02;8.233097e+01
28;dpotrf;36;0;1;1;0;720;121;2160;2160;468703135;0.000000e+00;3.628707e-02;9.263810e+01
29;dpotrf;36;0;1;1;0;720;121;2160;2160;1101513929;0.000000e+00;4.092717e-02;8.213529e+01
30;dpotrf;36;0;1;1;0;720;121;2880;2880;1801979802;0.000000e+00;6.213808e-02;1.282108e+02
31;dpotrf;36;0;1;1;0;720;121;2880;2880;1315634022;0.000000e+00;6.377101e-02;1.249278e+02
32;dpotrf;36;0;1;1;0;720;121;2880;2880;635723058;0.000000e+00;6.273079e-02;1.269994e+02
33;dpotrf;36;0;1;1;0;720;121;2880;2880;1369133069;0.000000e+00;7.982302e-02;9.980544e+01
34;dpotrf;36;0;1;1;0;720;121;2880;2880;1125898167;0.000000e+00;6.220078e-02;1.280815e+02
35;dpotrf;36;0;1;1;0;720;121;2880;2880;1059961393;0.000000e+00;5.364394e-02;1.485120e+02
36;dpotrf;36;0;1;1;0;720;121;2880;2880;2089018456;0.000000e+00;6.054997e-02;1.315735e+02
37;dpotrf;36;0;1;1;0;720;121;2880;2880;628175011;0.000000e+00;6.279397e-02;1.268716e+02
38;dpotrf;36;0;1;1;0;720;121;2880;2880;1656478042;0.000000e+00;7.313204e-02;1.089368e+02
39;dpotrf;36;0;1;1;0;720;121;2880;2880;1131176229;0.000000e+00;6.292605e-02;1.266053e+02
40;dpotrf;36;0;1;1;0;720;121;3600;3600;1653377373;0.000000e+00;8.137703e-02;1.911901e+02
41;dpotrf;36;0;1;1;0;720;121;3600;3600;859484421;0.000000e+00;7.481503e-02;2.079593e+02
42;dpotrf;36;0;1;1;0;720;121;3600;3600;1914544919;0.000000e+00;8.457613e-02;1.839583e+02
43;dpotrf;36;0;1;1;0;720;121;3600;3600;608413784;0.000000e+00;8.213806e-02;1.894186e+02
44;dpotrf;36;0;1;1;0;720;121;3600;3600;756898537;0.000000e+00;7.653785e-02;2.032783e+02
45;dpotrf;36;0;1;1;0;720;121;3600;3600;1734575198;0.000000e+00;7.929802e-02;1.962026e+02
46;dpotrf;36;0;1;1;0;720;121;3600;3600;1973594324;0.000000e+00;8.716702e-02;1.784904e+02
47;dpotrf;36;0;1;1;0;720;121;3600;3600;149798315;0.000000e+00;8.801317e-02;1.767745e+02
48;dpotrf;36;0;1;1;0;720;121;3600;3600;2038664370;0.000000e+00;8.036494e-02;1.935979e+02
49;dpotrf;36;0;1;1;0;720;121;3600;3600;1129566413;0.000000e+00;8.418417e-02;1.848148e+02
50;dpotrf;36;0;1;1;0;720;121;4320;4320;184803526;0.000000e+00;1.089530e-01;2.467411e+02
51;dpotrf;36;0;1;1;0;720;121;4320;4320;412776091;0.000000e+00;1.055191e-01;2.547709e+02
52;dpotrf;36;0;1;1;0;720;121;4320;4320;1424268980;0.000000e+00;1.028361e-01;2.614177e+02
53;dpotrf;36;0;1;1;0;720;121;4320;4320;1911759956;0.000000e+00;9.910393e-02;2.712626e+02
54;dpotrf;36;0;1;1;0;720;121;4320;4320;749241873;0.000000e+00;9.997392e-02;2.689020e+02
55;dpotrf;36;0;1;1;0;720;121;4320;4320;137806862;0.000000e+00;9.577584e-02;2.806886e+02
56;dpotrf;36;0;1;1;0;720;121;4320;4320;42999170;0.000000e+00;9.761691e-02;2.753948e+02
57;dpotrf;36;0;1;1;0;720;121;4320;4320;982906996;0.000000e+00;9.697604e-02;2.772147e+02
58;dpotrf;36;0;1;1;0;720;121;4320;4320;135497281;0.000000e+00;1.046588e-01;2.568649e+02
59;dpotrf;36;0;1;1;0;720;121;4320;4320;511702305;0.000000e+00;1.001830e-01;2.683408e+02
60;dpotrf;36;0;1;1;0;720;121;5040;5040;2084420925;0.000000e+00;1.138840e-01;3.748323e+02
61;dpotrf;36;0;1;1;0;720;121;5040;5040;1937477084;0.000000e+00;1.114328e-01;3.830775e+02
62;dpotrf;36;0;1;1;0;720;121;5040;5040;1827336327;0.000000e+00;1.206830e-01;3.537152e+02
63;dpotrf;36;0;1;1;0;720;121;5040;5040;572660336;0.000000e+00;1.176031e-01;3.629786e+02
64;dpotrf;36;0;1;1;0;720;121;5040;5040;1159126505;0.000000e+00;1.156962e-01;3.689611e+02
65;dpotrf;36;0;1;1;0;720;121;5040;5040;805750846;0.000000e+00;1.266730e-01;3.369889e+02
66;dpotrf;36;0;1;1;0;720;121;5040;5040;1632621729;0.000000e+00;1.148000e-01;3.718414e+02
67;dpotrf;36;0;1;1;0;720;121;5040;5040;1100661313;0.000000e+00;1.225080e-01;3.484456e+02
68;dpotrf;36;0;1;1;0;720;121;5040;5040;1433925857;0.000000e+00;1.286559e-01;3.317950e+02
69;dpotrf;36;0;1;1;0;720;121;5040;5040;1141616124;0.000000e+00;1.220620e-01;3.497190e+02
70;dpotrf;36;0;1;1;0;720;121;5760;5760;84353895;0.000000e+00;1.444271e-01;4.411748e+02
71;dpotrf;36;0;1;1;0;720;121;5760;5760;939819582;0.000000e+00;1.343958e-01;4.741038e+02
72;dpotrf;36;0;1;1;0;720;121;5760;5760;2001100545;0.000000e+00;1.386430e-01;4.595801e+02
73;dpotrf;36;0;1;1;0;720;121;5760;5760;1998898814;0.000000e+00;1.301360e-01;4.896230e+02
74;dpotrf;36;0;1;1;0;720;121;5760;5760;1548233367;0.000000e+00;1.357179e-01;4.694856e+02
75;dpotrf;36;0;1;1;0;720;121;5760;5760;610515434;0.000000e+00;1.422541e-01;4.479138e+02
76;dpotrf;36;0;1;1;0;720;121;5760;5760;1585990364;0.000000e+00;1.459820e-01;4.364755e+02
77;dpotrf;36;0;1;1;0;720;121;5760;5760;1374344043;0.000000e+00;1.490378e-01;4.275262e+02
78;dpotrf;36;0;1;1;0;720;121;5760;5760;760313750;0.000000e+00;1.286278e-01;4.953641e+02
79;dpotrf;36;0;1;1;0;720;121;5760;5760;1477171087;0.000000e+00;1.445060e-01;4.409339e+02
80;dpotrf;36;0;1;1;0;720;121;6480;6480;356426808;0.000000e+00;1.568699e-01;5.783153e+02
81;dpotrf;36;0;1;1;0;720;121;6480;6480;945117276;0.000000e+00;1.622849e-01;5.590187e+02
82;dpotrf;36;0;1;1;0;720;121;6480;6480;1889947178;0.000000e+00;1.647589e-01;5.506243e+02
83;dpotrf;36;0;1;1;0;720;121;6480;6480;1780695788;0.000000e+00;1.583290e-01;5.729857e+02
84;dpotrf;36;0;1;1;0;720;121;6480;6480;709393584;0.000000e+00;1.589551e-01;5.707289e+02
85;dpotrf;36;0;1;1;0;720;121;6480;6480;491705403;0.000000e+00;1.628518e-01;5.570725e+02
86;dpotrf;36;0;1;1;0;720;121;6480;6480;1918502651;0.000000e+00;1.606810e-01;5.645985e+02
87;dpotrf;36;0;1;1;0;720;121;6480;6480;752392754;0.000000e+00;1.639040e-01;5.534965e+02
88;dpotrf;36;0;1;1;0;720;121;6480;6480;1474612399;0.000000e+00;1.514699e-01;5.989324e+02
89;dpotrf;36;0;1;1;0;720;121;6480;6480;2053999932;0.000000e+00;1.754909e-01;5.169515e+02
90;dpotrf;36;0;1;1;0;720;121;7200;7200;1264095060;0.000000e+00;1.864350e-01;6.674816e+02
91;dpotrf;36;0;1;1;0;720;121;7200;7200;1411549676;0.000000e+00;1.838419e-01;6.768962e+02
92;dpotrf;36;0;1;1;0;720;121;7200;7200;1843993368;0.000000e+00;1.999750e-01;6.222873e+02
93;dpotrf;36;0;1;1;0;720;121;7200;7200;943947739;0.000000e+00;1.897092e-01;6.559615e+02
94;dpotrf;36;0;1;1;0;720;121;7200;7200;1984210012;0.000000e+00;1.807709e-01;6.883959e+02
95;dpotrf;36;0;1;1;0;720;121;7200;7200;855636226;0.000000e+00;1.954582e-01;6.366678e+02
96;dpotrf;36;0;1;1;0;720;121;7200;7200;1749698586;0.000000e+00;1.820009e-01;6.837435e+02
97;dpotrf;36;0;1;1;0;720;121;7200;7200;1469348094;0.000000e+00;1.931050e-01;6.444263e+02
98;dpotrf;36;0;1;1;0;720;121;7200;7200;1956297539;0.000000e+00;2.071850e-01;6.006318e+02
99;dpotrf;36;0;1;1;0;720;121;7200;7200;1036140795;0.000000e+00;1.939850e-01;6.415029e+02
100;dpotrf;36;0;1;1;0;720;121;7920;7920;463480570;0.000000e+00;2.368989e-01;6.991550e+02
101;dpotrf;36;0;1;1;0;720;121;7920;7920;2040651434;0.000000e+00;2.135930e-01;7.754423e+02
102;dpotrf;36;0;1;1;0;720;121;7920;7920;1975960378;0.000000e+00;2.145550e-01;7.719654e+02
103;dpotrf;36;0;1;1;0;720;121;7920;7920;317097467;0.000000e+00;2.210920e-01;7.491410e+02
104;dpotrf;36;0;1;1;0;720;121;7920;7920;1892066601;0.000000e+00;2.191219e-01;7.558762e+02
105;dpotrf;36;0;1;1;0;720;121;7920;7920;1376710097;0.000000e+00;2.172520e-01;7.623822e+02
106;dpotrf;36;0;1;1;0;720;121;7920;7920;927612902;0.000000e+00;2.131031e-01;7.772252e+02
107;dpotrf;36;0;1;1;0;720;121;7920;7920;1330573317;0.000000e+00;2.301331e-01;7.197100e+02
108;dpotrf;36;0;1;1;0;720;121;7920;7920;603570492;0.000000e+00;2.313111e-01;7.160446e+02
109;dpotrf;36;0;1;1;0;720;121;7920;7920;1687926652;0.000000e+00;2.214420e-01;7.479569e+02
110;dpotrf;36;0;1;1;0;720;121;8640;8640;660260756;0.000000e+00;2.468021e-01;8.712575e+02
111;dpotrf;36;0;1;1;0;720;121;8640;8640;959997301;0.000000e+00;2.651689e-01;8.109102e+02
112;dpotrf;36;0;1;1;0;720;121;8640;8640;485560280;0.000000e+00;2.401788e-01;8.952837e+02
113;dpotrf;36;0;1;1;0;720;121;8640;8640;402724286;0.000000e+00;2.548499e-01;8.437444e+02
114;dpotrf;36;0;1;1;0;720;121;8640;8640;593209441;0.000000e+00;2.502801e-01;8.591500e+02
115;dpotrf;36;0;1;1;0;720;121;8640;8640;1194953865;0.000000e+00;2.569869e-01;8.367283e+02
116;dpotrf;36;0;1;1;0;720;121;8640;8640;894429689;0.000000e+00;2.675169e-01;8.037930e+02
117;dpotrf;36;0;1;1;0;720;121;8640;8640;364228444;0.000000e+00;2.536061e-01;8.478826e+02
118;dpotrf;36;0;1;1;0;720;121;8640;8640;1947346619;0.000000e+00;2.435610e-01;8.828513e+02
119;dpotrf;36;0;1;1;0;720;121;8640;8640;221558440;0.000000e+00;2.474890e-01;8.688394e+02
120;dpotrf;36;0;1;1;0;720;121;9360;9360;270744729;0.000000e+00;2.914169e-01;9.381260e+02
121;dpotrf;36;0;1;1;0;720;121;9360;9360;1063958031;0.000000e+00;2.928522e-01;9.335282e+02
122;dpotrf;36;0;1;1;0;720;121;9360;9360;1633108117;0.000000e+00;2.865670e-01;9.540030e+02
123;dpotrf;36;0;1;1;0;720;121;9360;9360;2114738097;0.000000e+00;2.922900e-01;9.353238e+02
124;dpotrf;36;0;1;1;0;720;121;9360;9360;2007905771;0.000000e+00;2.873189e-01;9.515062e+02
125;dpotrf;36;0;1;1;0;720;121;9360;9360;1469834481;0.000000e+00;2.966340e-01;9.216266e+02
126;dpotrf;36;0;1;1;0;720;121;9360;9360;822890675;0.000000e+00;2.812231e-01;9.721314e+02
127;dpotrf;36;0;1;1;0;720;121;9360;9360;1610120709;0.000000e+00;2.864070e-01;9.545359e+02
128;dpotrf;36;0;1;1;0;720;121;9360;9360;791698927;0.000000e+00;2.892489e-01;9.451573e+02
129;dpotrf;36;0;1;1;0;720;121;9360;9360;631704567;0.000000e+00;2.823019e-01;9.684163e+02
0;dpotrf;36;0;1;1;0;720;121;10080;10080;846930886;0.000000e+00;3.168321e-01;1.077695e+03
1;dpotrf;36;0;1;1;0;720;121;10080;10080;1681692777;0.000000e+00;3.150339e-01;1.083846e+03
2;dpotrf;36;0;1;1;0;720;121;10080;10080;1714636915;0.000000e+00;3.287601e-01;1.038594e+03
3;dpotrf;36;0;1;1;0;720;121;10080;10080;1957747793;0.000000e+00;3.261199e-01;1.047002e+03
4;dpotrf;36;0;1;1;0;720;121;10080;10080;424238335;0.000000e+00;3.203719e-01;1.065787e+03
5;dpotrf;36;0;1;1;0;720;121;10080;10080;719885386;0.000000e+00;3.360581e-01;1.016039e+03
6;dpotrf;36;0;1;1;0;720;121;10080;10080;1649760492;0.000000e+00;3.178780e-01;1.074149e+03
7;dpotrf;36;0;1;1;0;720;121;10080;10080;596516649;0.000000e+00;3.463080e-01;9.859672e+02
8;dpotrf;36;0;1;1;0;720;121;10080;10080;1189641421;0.000000e+00;3.368301e-01;1.013711e+03
9;dpotrf;36;0;1;1;0;720;121;10080;10080;1025202362;0.000000e+00;3.429301e-01;9.956791e+02
10;dpotrf;36;0;1;1;0;720;121;12240;12240;1350490027;0.000000e+00;4.829021e-01;1.265952e+03
11;dpotrf;36;0;1;1;0;720;121;12240;12240;783368690;0.000000e+00;4.772420e-01;1.280966e+03
12;dpotrf;36;0;1;1;0;720;121;12240;12240;1102520059;0.000000e+00;4.787140e-01;1.277027e+03
13;dpotrf;36;0;1;1;0;720;121;12240;12240;2044897763;0.000000e+00;4.761348e-01;1.283945e+03
14;dpotrf;36;0;1;1;0;720;121;12240;12240;1967513926;0.000000e+00;4.670322e-01;1.308969e+03
15;dpotrf;36;0;1;1;0;720;121;12240;12240;1365180540;0.000000e+00;4.731259e-01;1.292110e+03
16;dpotrf;36;0;1;1;0;720;121;12240;12240;1540383426;0.000000e+00;4.726009e-01;1.293545e+03
17;dpotrf;36;0;1;1;0;720;121;12240;12240;304089172;0.000000e+00;4.705520e-01;1.299178e+03
18;dpotrf;36;0;1;1;0;720;121;12240;12240;1303455736;0.000000e+00;4.672668e-01;1.308312e+03
19;dpotrf;36;0;1;1;0;720;121;12240;12240;35005211;0.000000e+00;4.718671e-01;1.295557e+03
20;dpotrf;36;0;1;1;0;720;121;14400;14400;521595368;0.000000e+00;7.080879e-01;1.405802e+03
21;dpotrf;36;0;1;1;0;720;121;14400;14400;294702567;0.000000e+00;7.137520e-01;1.394646e+03
22;dpotrf;36;0;1;1;0;720;121;14400;14400;1726956429;0.000000e+00;7.143111e-01;1.393555e+03
23;dpotrf;36;0;1;1;0;720;121;14400;14400;336465782;0.000000e+00;7.030070e-01;1.415963e+03
24;dpotrf;36;0;1;1;0;720;121;14400;14400;861021530;0.000000e+00;7.215829e-01;1.379511e+03
25;dpotrf;36;0;1;1;0;720;121;14400;14400;278722862;0.000000e+00;7.158041e-01;1.390648e+03
26;dpotrf;36;0;1;1;0;720;121;14400;14400;233665123;0.000000e+00;7.105091e-01;1.401012e+03
27;dpotrf;36;0;1;1;0;720;121;14400;14400;2145174067;0.000000e+00;7.134211e-01;1.395293e+03
28;dpotrf;36;0;1;1;0;720;121;14400;14400;468703135;0.000000e+00;7.076600e-01;1.406653e+03
29;dpotrf;36;0;1;1;0;720;121;14400;14400;1101513929;0.000000e+00;7.139130e-01;1.394332e+03
30;dpotrf;36;0;1;1;0;720;121;16560;16560;1801979802;0.000000e+00;1.043402e+00;1.450933e+03
31;dpotrf;36;0;1;1;0;720;121;16560;16560;1315634022;0.000000e+00;1.063072e+00;1.424087e+03
32;dpotrf;36;0;1;1;0;720;121;16560;16560;635723058;0.000000e+00;1.036371e+00;1.460777e+03
33;dpotrf;36;0;1;1;0;720;121;16560;16560;1369133069;0.000000e+00;1.050816e+00;1.440696e+03
34;dpotrf;36;0;1;1;0;720;121;16560;16560;1125898167;0.000000e+00;1.032800e+00;1.465828e+03
35;dpotrf;36;0;1;1;0;720;121;16560;16560;1059961393;0.000000e+00;1.035548e+00;1.461938e+03
36;dpotrf;36;0;1;1;0;720;121;16560;16560;2089018456;0.000000e+00;1.051053e+00;1.440371e+03
37;dpotrf;36;0;1;1;0;720;121;16560;16560;628175011;0.000000e+00;1.060959e+00;1.426923e+03
38;dpotrf;36;0;1;1;0;720;121;16560;16560;1656478042;0.000000e+00;1.038356e+00;1.457984e+03
39;dpotrf;36;0;1;1;0;720;121;16560;16560;1131176229;0.000000e+00;1.055460e+00;1.434357e+03
40;dpotrf;36;0;1;1;0;720;121;18720;18720;1653377373;0.000000e+00;1.469616e+00;1.488083e+03
41;dpotrf;36;0;1;1;0;720;121;18720;18720;859484421;0.000000e+00;1.468784e+00;1.488926e+03
42;dpotrf;36;0;1;1;0;720;121;18720;18720;1914544919;0.000000e+00;1.475146e+00;1.482505e+03
43;dpotrf;36;0;1;1;0;720;121;18720;18720;608413784;0.000000e+00;1.470778e+00;1.486908e+03
44;dpotrf;36;0;1;1;0;720;121;18720;18720;756898537;0.000000e+00;1.460220e+00;1.497659e+03
45;dpotrf;36;0;1;1;0;720;121;18720;18720;1734575198;0.000000e+00;1.461949e+00;1.495887e+03
46;dpotrf;36;0;1;1;0;720;121;18720;18720;1973594324;0.000000e+00;1.457903e+00;1.500039e+03
47;dpotrf;36;0;1;1;0;720;121;18720;18720;149798315;0.000000e+00;1.474971e+00;1.482681e+03
48;dpotrf;36;0;1;1;0;720;121;18720;18720;2038664370;0.000000e+00;1.459413e+00;1.498487e+03
49;dpotrf;36;0;1;1;0;720;121;18720;18720;1129566413;0.000000e+00;1.472027e+00;1.485646e+03
50;dpotrf;36;0;1;1;0;720;121;20880;20880;184803526;0.000000e+00;1.985023e+00;1.528748e+03
51;dpotrf;36;0;1;1;0;720;121;20880;20880;412776091;0.000000e+00;2.004340e+00;1.514014e+03
52;dpotrf;36;0;1;1;0;720;121;20880;20880;1424268980;0.000000e+00;1.991218e+00;1.523992e+03
53;dpotrf;36;0;1;1;0;720;121;20880;20880;1911759956;0.000000e+00;1.994834e+00;1.521229e+03
54;dpotrf;36;0;1;1;0;720;121;20880;20880;749241873;0.000000e+00;2.003120e+00;1.514937e+03
55;dpotrf;36;0;1;1;0;720;121;20880;20880;137806862;0.000000e+00;1.985741e+00;1.528195e+03
56;dpotrf;36;0;1;1;0;720;121;20880;20880;42999170;0.000000e+00;1.994912e+00;1.521170e+03
57;dpotrf;36;0;1;1;0;720;121;20880;20880;982906996;0.000000e+00;1.984845e+00;1.528885e+03
58;dpotrf;36;0;1;1;0;720;121;20880;20880;135497281;0.000000e+00;1.998149e+00;1.518706e+03
59;dpotrf;36;0;1;1;0;720;121;20880;20880;511702305;0.000000e+00;2.001304e+00;1.516311e+03
60;dpotrf;36;0;1;1;0;720;121;23040;23040;2084420925;0.000000e+00;2.629396e+00;1.550595e+03
61;dpotrf;36;0;1;1;0;720;121;23040;23040;1937477084;0.000000e+00;2.640633e+00;1.543997e+03
62;dpotrf;36;0;1;1;0;720;121;23040;23040;1827336327;0.000000e+00;2.633559e+00;1.548144e+03
63;dpotrf;36;0;1;1;0;720;121;23040;23040;572660336;0.000000e+00;2.629896e+00;1.550300e+03
64;dpotrf;36;0;1;1;0;720;121;23040;23040;1159126505;0.000000e+00;2.647795e+00;1.539820e+03
65;dpotrf;36;0;1;1;0;720;121;23040;23040;805750846;0.000000e+00;2.620884e+00;1.555631e+03
66;dpotrf;36;0;1;1;0;720;121;23040;23040;1632621729;0.000000e+00;2.644310e+00;1.541850e+03
67;dpotrf;36;0;1;1;0;720;121;23040;23040;1100661313;0.000000e+00;2.622377e+00;1.554745e+03
68;dpotrf;36;0;1;1;0;720;121;23040;23040;1433925857;0.000000e+00;2.646599e+00;1.540516e+03
69;dpotrf;36;0;1;1;0;720;121;23040;23040;1141616124;0.000000e+00;2.635958e+00;1.546735e+03
70;dpotrf;36;0;1;1;0;720;121;25200;25200;84353895;0.000000e+00;3.410002e+00;1.564414e+03
71;dpotrf;36;0;1;1;0;720;121;25200;25200;939819582;0.000000e+00;3.382340e+00;1.577208e+03
72;dpotrf;36;0;1;1;0;720;121;25200;25200;2001100545;0.000000e+00;3.395130e+00;1.571266e+03
73;dpotrf;36;0;1;1;0;720;121;25200;25200;1998898814;0.000000e+00;3.416541e+00;1.561420e+03
74;dpotrf;36;0;1;1;0;720;121;25200;25200;1548233367;0.000000e+00;3.388710e+00;1.574243e+03
75;dpotrf;36;0;1;1;0;720;121;25200;25200;610515434;0.000000e+00;3.403902e+00;1.567217e+03
76;dpotrf;36;0;1;1;0;720;121;25200;25200;1585990364;0.000000e+00;3.419701e+00;1.559977e+03
77;dpotrf;36;0;1;1;0;720;121;25200;25200;1374344043;0.000000e+00;3.390691e+00;1.573323e+03
78;dpotrf;36;0;1;1;0;720;121;25200;25200;760313750;0.000000e+00;3.394913e+00;1.571367e+03
79;dpotrf;36;0;1;1;0;720;121;25200;25200;1477171087;0.000000e+00;3.407947e+00;1.565357e+03
80;dpotrf;36;0;1;1;0;720;121;27360;27360;356426808;0.000000e+00;4.304074e+00;1.586248e+03
81;dpotrf;36;0;1;1;0;720;121;27360;27360;945117276;0.000000e+00;4.305467e+00;1.585735e+03
82;dpotrf;36;0;1;1;0;720;121;27360;27360;1889947178;0.000000e+00;4.315414e+00;1.582080e+03
83;dpotrf;36;0;1;1;0;720;121;27360;27360;1780695788;0.000000e+00;4.310179e+00;1.584001e+03
84;dpotrf;36;0;1;1;0;720;121;27360;27360;709393584;0.000000e+00;4.310836e+00;1.583760e+03
85;dpotrf;36;0;1;1;0;720;121;27360;27360;491705403;0.000000e+00;4.316553e+00;1.581662e+03
86;dpotrf;36;0;1;1;0;720;121;27360;27360;1918502651;0.000000e+00;4.308738e+00;1.584531e+03
87;dpotrf;36;0;1;1;0;720;121;27360;27360;752392754;0.000000e+00;4.328576e+00;1.577269e+03
88;dpotrf;36;0;1;1;0;720;121;27360;27360;1474612399;0.000000e+00;4.314268e+00;1.582500e+03
89;dpotrf;36;0;1;1;0;720;121;27360;27360;2053999932;0.000000e+00;4.320717e+00;1.580138e+03
