Id;Function;threads;gpus;P;Q;mtxfmt;nb;transA;transB;m;n;k;lda;ldb;ldc;alpha;beta;seedA;seedB;seedC;tsub;time;gflops
0;dgemm;36;0;1;1;0;720;111;111;720;720;720;720;720;720;4.892778e-01;-1.846424e-01;1649760492;596516649;1189641421;0.000000e+00;1.738309e-02;4.294381e+01
1;dgemm;36;0;1;1;0;720;111;111;720;720;720;720;720;720;-2.410269e-01;4.000452e-01;783368690;1102520059;2044897763;0.000000e+00;1.680994e-02;4.440800e+01
2;dgemm;36;0;1;1;0;720;111;111;720;720;720;720;720;720;4.141058e-01;-3.017109e-01;1540383426;304089172;1303455736;0.000000e+00;1.743629e-02;4.281277e+01
3;dgemm;36;0;1;1;0;720;111;111;720;720;720;720;720;720;-3.054879e-01;-1.757242e-01;294702567;1726956429;336465782;0.000000e+00;1.643938e-02;4.540902e+01
4;dgemm;36;0;1;1;0;720;111;111;720;720;720;720;720;720;4.797187e-01;2.821215e-01;233665123;2145174067;468703135;0.000000e+00;1.734975e-02;4.302632e+01
5;dgemm;36;0;1;1;0;720;111;111;720;720;720;720;720;720;3.112590e-01;3.332689e-02;1315634022;635723058;1369133069;0.000000e+00;1.544972e-02;4.831778e+01
6;dgemm;36;0;1;1;0;720;111;111;720;720;720;720;720;720;-2.396071e-01;2.196488e-02;2089018456;628175011;1656478042;0.000000e+00;1.454190e-02;5.133414e+01
7;dgemm;36;0;1;1;0;720;111;111;720;720;720;720;720;720;5.576077e-02;-4.098657e-01;859484421;1914544919;608413784;0.000000e+00;1.458697e-02;5.117555e+01
8;dgemm;36;0;1;1;0;720;111;111;720;720;720;720;720;720;-2.172434e-01;3.304604e-01;1973594324;149798315;2038664370;0.000000e+00;1.521259e-02;4.907093e+01
9;dgemm;36;0;1;1;0;720;111;111;720;720;720;720;720;720;1.632813e-02;3.212047e-02;412776091;1424268980;1911759956;0.000000e+00;1.556808e-02;4.795043e+01
10;dgemm;36;0;1;1;0;720;111;111;1440;1440;1440;1440;1440;1440;1.752074e-01;-2.459049e-03;42999170;982906996;135497281;0.000000e+00;2.942527e-02;2.029537e+02
11;dgemm;36;0;1;1;0;720;111;111;1440;1440;1440;1440;1440;1440;-4.932447e-01;-1.333755e-01;1937477084;1827336327;572660336;0.000000e+00;2.780605e-02;2.147723e+02
12;dgemm;36;0;1;1;0;720;111;111;1440;1440;1440;1440;1440;1440;-1.501402e-01;2.390371e-01;1632621729;1100661313;1433925857;0.000000e+00;2.762843e-02;2.161530e+02
13;dgemm;36;0;1;1;0;720;111;111;1440;1440;1440;1440;1440;1440;2.189649e-01;-2.465265e-01;939819582;2001100545;1998898814;0.000000e+00;2.817210e-02;2.119816e+02
14;dgemm;36;0;1;1;0;720;111;111;1440;1440;1440;1440;1440;1440;-2.416937e-01;-1.401268e-01;1585990364;1374344043;760313750;0.000000e+00;2.662950e-02;2.242614e+02
15;dgemm;36;0;1;1;0;720;111;111;1440;1440;1440;1440;1440;1440;3.187297e-01;-1.733443e-01;945117276;1889947178;1780695788;0.000000e+00;2.686724e-02;2.222769e+02
16;dgemm;36;0;1;1;0;720;111;111;1440;1440;1440;1440;1440;1440;-4.132594e-01;7.699516e-02;1918502651;752392754;1474612399;0.000000e+00;2.720204e-02;2.195412e+02
17;dgemm;36;0;1;1;0;720;111;111;1440;1440;1440;1440;1440;1440;-1.543593e-01;-4.222437e-01;1411549676;1843993368;943947739;0.000000e+00;2.646290e-02;2.256732e+02
18;dgemm;36;0;1;1;0;720;111;111;1440;1440;1440;1440;1440;1440;1.866877e-01;-3.211111e-01;1749698586;1469348094;1956297539;0.000000e+00;2.667202e-02;2.239039e+02
19;dgemm;36;0;1;1;0;720;111;111;1440;1440;1440;1440;1440;1440;-3.490223e-01;-4.443388e-01;2040651434;1975960378;317097467;0.000000e+00;2.658230e-02;2.246596e+02
20;dgemm;36;0;1;1;0;720;111;111;2160;2160;2160;2160;2160;2160;-1.054364e-01;2.030082e-01;927612902;1330573317;603570492;0.000000e+00;4.157517e-02;4.847940e+02
21;dgemm;36;0;1;1;0;720;111;111;2160;2160;2160;2160;2160;2160;-4.352839e-01;1.623906e-01;959997301;485560280;402724286;0.000000e+00;3.988957e-02;5.052798e+02
22;dgemm;36;0;1;1;0;720;111;111;2160;2160;2160;2160;2160;2160;4.667617e-01;1.036922e-01;894429689;364228444;1947346619;0.000000e+00;3.976125e-02;5.069104e+02
23;dgemm;36;0;1;1;0;720;111;111;2160;2160;2160;2160;2160;2160;4.665847e-01;3.770548e-01;1063958031;1633108117;2114738097;0.000000e+00;3.979117e-02;5.065292e+02
24;dgemm;36;0;1;1;0;720;111;111;2160;2160;2160;2160;2160;2160;-4.980996e-01;2.856491e-01;822890675;1610120709;791698927;0.000000e+00;3.995921e-02;5.043991e+02
25;dgemm;36;0;1;1;0;720;111;111;2160;2160;2160;2160;2160;2160;3.592840e-01;-4.182928e-01;1255179497;524872353;327254586;0.000000e+00;3.958477e-02;5.091704e+02
26;dgemm;36;0;1;1;0;720;111;111;2160;2160;2160;2160;2160;2160;9.307665e-02;3.296821e-01;1703964683;352406219;1600028624;0.000000e+00;4.041220e-02;4.987453e+02
27;dgemm;36;0;1;1;0;720;111;111;2160;2160;2160;2160;2160;2160;-4.719053e-01;2.807858e-01;112805732;1120048829;378409503;0.000000e+00;4.035871e-02;4.994062e+02
28;dgemm;36;0;1;1;0;720;111;111;2160;2160;2160;2160;2160;2160;2.744957e-01;-3.785920e-02;1573363368;1409959708;2077486715;0.000000e+00;4.010628e-02;5.025495e+02
29;dgemm;36;0;1;1;0;720;111;111;2160;2160;2160;2160;2160;2160;1.799312e-01;9.546876e-03;200747796;289700723;1117142618;0.000000e+00;3.983384e-02;5.059866e+02
30;dgemm;36;0;1;1;0;720;111;111;2880;2880;2880;2880;2880;2880;1.744033e-01;3.861393e-01;439493451;990892921;1760243555;0.000000e+00;5.602759e-02;8.527181e+02
31;dgemm;36;0;1;1;0;720;111;111;2880;2880;2880;2880;2880;2880;3.018442e-01;-4.633856e-02;111537764;338888228;2147469841;0.000000e+00;5.759176e-02;8.295586e+02
32;dgemm;36;0;1;1;0;720;111;111;2880;2880;2880;2880;2880;2880;2.072774e-01;1.109783e-01;269441500;2142757034;116087764;0.000000e+00;5.608926e-02;8.517806e+02
33;dgemm;36;0;1;1;0;720;111;111;2880;2880;2880;2880;2880;2880;-2.366607e-01;9.513167e-02;8936987;1982275856;1275373743;0.000000e+00;5.433969e-02;8.792053e+02
34;dgemm;36;0;1;1;0;720;111;111;2880;2880;2880;2880;2880;2880;-3.952797e-01;-4.960891e-01;841148365;1960709859;1760281936;0.000000e+00;5.519333e-02;8.656072e+02
35;dgemm;36;0;1;1;0;720;111;111;2880;2880;2880;2880;2880;2880;-2.607432e-01;-3.651100e-01;1244316437;971899228;1476153275;0.000000e+00;5.507900e-02;8.674040e+02
36;dgemm;36;0;1;1;0;720;111;111;2880;2880;2880;2880;2880;2880;-1.389722e-01;-8.843738e-02;1626276121;653468858;2130794395;0.000000e+00;5.467939e-02;8.737431e+02
37;dgemm;36;0;1;1;0;720;111;111;2880;2880;2880;2880;2880;2880;9.367129e-02;9.508020e-02;1605908235;1350573793;76065818;0.000000e+00;5.510810e-02;8.669460e+02
38;dgemm;36;0;1;1;0;720;111;111;2880;2880;2880;2880;2880;2880;-4.585682e-01;3.268176e-01;1987231011;1875335928;1784639529;0.000000e+00;5.444179e-02;8.775564e+02
39;dgemm;36;0;1;1;0;720;111;111;2880;2880;2880;2880;2880;2880;-6.830955e-02;1.535754e-01;1939964443;2112255763;1432114613;0.000000e+00;5.442147e-02;8.778841e+02
40;dgemm;36;0;1;1;0;720;111;111;3600;3600;3600;3600;3600;3600;2.725473e-01;1.883941e-01;1782436840;1909002904;165344818;0.000000e+00;8.052051e-02;1.158860e+03
41;dgemm;36;0;1;1;0;720;111;111;3600;3600;3600;3600;3600;3600;2.191162e-01;-3.021529e-01;1351797369;492067917;1504569917;0.000000e+00;7.935296e-02;1.175911e+03
42;dgemm;36;0;1;1;0;720;111;111;3600;3600;3600;3600;3600;3600;-3.280447e-01;-3.223358e-01;496987743;159259470;1359512183;0.000000e+00;8.053571e-02;1.158641e+03
43;dgemm;36;0;1;1;0;720;111;111;3600;3600;3600;3600;3600;3600;-4.513911e-01;3.904790e-01;1096689772;2086206725;601385644;0.000000e+00;8.488868e-02;1.099228e+03
44;dgemm;36;0;1;1;0;720;111;111;3600;3600;3600;3600;3600;3600;-4.403555e-01;9.074247e-02;243268139;1012502954;1272469786;0.000000e+00;8.052759e-02;1.158758e+03
45;dgemm;36;0;1;1;0;720;111;111;3600;3600;3600;3600;3600;3600;1.908228e-02;4.440272e-01;722308542;1820388464;933110197;0.000000e+00;7.975585e-02;1.169971e+03
46;dgemm;36;0;1;1;0;720;111;111;3600;3600;3600;3600;3600;3600;-1.017733e-01;4.140073e-01;1285228804;1789376348;502278611;0.000000e+00;7.944335e-02;1.174573e+03
47;dgemm;36;0;1;1;0;720;111;111;3600;3600;3600;3600;3600;3600;-2.659684e-01;-2.731221e-01;1034949299;654887343;1529195746;0.000000e+00;8.014200e-02;1.164333e+03
48;dgemm;36;0;1;1;0;720;111;111;3600;3600;3600;3600;3600;3600;1.985016e-01;4.068633e-01;87755422;889023311;1494613810;0.000000e+00;8.012906e-02;1.164521e+03
49;dgemm;36;0;1;1;0;720;111;111;3600;3600;3600;3600;3600;3600;-4.302884e-01;-3.682695e-01;745425661;396473730;1308044878;0.000000e+00;8.008088e-02;1.165222e+03
50;dgemm;36;0;1;1;0;720;111;111;4320;4320;4320;4320;4320;4320;3.002688e-01;4.210193e-01;705178736;1590079444;434248626;0.000000e+00;1.131183e-01;1.425438e+03
51;dgemm;36;0;1;1;0;720;111;111;4320;4320;4320;4320;4320;4320;-3.696050e-01;-2.996627e-01;1402586708;552473416;1143408282;0.000000e+00;1.129602e-01;1.427434e+03
52;dgemm;36;0;1;1;0;720;111;111;4320;4320;4320;4320;4320;4320;-3.095740e-01;-1.111416e-01;1884167637;1473442062;201305624;0.000000e+00;1.133577e-01;1.422428e+03
53;dgemm;36;0;1;1;0;720;111;111;4320;4320;4320;4320;4320;4320;3.214526e-01;-2.291051e-01;1238433452;1273911899;1431419379;0.000000e+00;1.125535e-01;1.432591e+03
54;dgemm;36;0;1;1;0;720;111;111;4320;4320;4320;4320;4320;4320;-4.764616e-02;-2.823082e-01;619290071;707900973;407487131;0.000000e+00;1.114214e-01;1.447147e+03
55;dgemm;36;0;1;1;0;720;111;111;4320;4320;4320;4320;4320;4320;-2.829039e-01;4.689267e-01;1776808933;711845894;404158660;0.000000e+00;1.122515e-01;1.436445e+03
56;dgemm;36;0;1;1;0;720;111;111;4320;4320;4320;4320;4320;4320;-9.802407e-02;-3.473849e-01;1973387981;1642548899;1501252996;0.000000e+00;1.122324e-01;1.436689e+03
57;dgemm;36;0;1;1;0;720;111;111;4320;4320;4320;4320;4320;4320;-2.998149e-02;-6.245404e-02;824272813;1662739668;2025187190;0.000000e+00;1.125453e-01;1.432696e+03
58;dgemm;36;0;1;1;0;720;111;111;4320;4320;4320;4320;4320;4320;1.613464e-01;1.651206e-01;437116466;1704365084;1176911340;0.000000e+00;1.122926e-01;1.435919e+03
59;dgemm;36;0;1;1;0;720;111;111;4320;4320;4320;4320;4320;4320;-9.329343e-02;2.766544e-01;1953443376;1876855542;1069755936;0.000000e+00;1.120589e-01;1.438914e+03
60;dgemm;36;0;1;1;0;720;111;111;5040;5040;5040;5040;5040;5040;-4.205594e-01;1.129006e-01;588219756;1856669179;1057418418;0.000000e+00;1.846332e-01;1.386794e+03
61;dgemm;36;0;1;1;0;720;111;111;5040;5040;5040;5040;5040;5040;1.349872e-02;-2.496970e-01;1065103348;625032172;387451659;0.000000e+00;1.840872e-01;1.390907e+03
62;dgemm;36;0;1;1;0;720;111;111;5040;5040;5040;5040;5040;5040;9.058696e-02;7.370132e-02;298625210;1295166342;1057467587;0.000000e+00;1.803416e-01;1.419795e+03
63;dgemm;36;0;1;1;0;720;111;111;5040;5040;5040;5040;5040;5040;-3.018314e-02;-5.773157e-02;382697713;476667372;1070575321;0.000000e+00;1.819699e-01;1.407091e+03
64;dgemm;36;0;1;1;0;720;111;111;5040;5040;5040;5040;5040;5040;-4.650331e-01;-1.058972e-01;774044599;697517721;2001229904;0.000000e+00;1.804687e-01;1.418795e+03
65;dgemm;36;0;1;1;0;720;111;111;5040;5040;5040;5040;5040;5040;4.801672e-01;-2.032396e-01;1797073940;1756915667;1065311705;0.000000e+00;1.816091e-01;1.409886e+03
66;dgemm;36;0;1;1;0;720;111;111;5040;5040;5040;5040;5040;5040;2.132438e-01;1.658781e-01;1414829150;1307565984;555996658;0.000000e+00;1.823206e-01;1.404384e+03
67;dgemm;36;0;1;1;0;720;111;111;5040;5040;5040;5040;5040;5040;1.800331e-01;-1.232803e-01;231602422;1389867269;780821396;0.000000e+00;1.819405e-01;1.407318e+03
68;dgemm;36;0;1;1;0;720;111;111;5040;5040;5040;5040;5040;5040;3.404283e-01;-1.210446e-01;195740084;917679292;2006811972;0.000000e+00;1.838888e-01;1.392408e+03
69;dgemm;36;0;1;1;0;720;111;111;5040;5040;5040;5040;5040;5040;1.960490e-01;-2.057583e-01;1414647625;1635905385;1046741222;0.000000e+00;1.839555e-01;1.391902e+03
70;dgemm;36;0;1;1;0;720;111;111;5760;5760;5760;5760;5760;5760;-4.981229e-01;1.797563e-01;1343606042;1111783898;446340713;0.000000e+00;2.630846e-01;1.452787e+03
71;dgemm;36;0;1;1;0;720;111;111;5760;5760;5760;5760;5760;5760;1.449892e-01;-2.994312e-01;1782280524;846942590;524688209;0.000000e+00;2.619912e-01;1.458850e+03
72;dgemm;36;0;1;1;0;720;111;111;5760;5760;5760;5760;5760;5760;-7.231379e-02;2.098748e-01;1371499336;2114937732;726371155;0.000000e+00;2.621667e-01;1.457874e+03
73;dgemm;36;0;1;1;0;720;111;111;5760;5760;5760;5760;5760;5760;-2.503210e-01;-2.840220e-01;882160379;11614769;1682085273;0.000000e+00;2.636714e-01;1.449554e+03
74;dgemm;36;0;1;1;0;720;111;111;5760;5760;5760;5760;5760;5760;9.597039e-02;1.728868e-01;246247255;1858721860;1548348142;0.000000e+00;2.587884e-01;1.476905e+03
75;dgemm;36;0;1;1;0;720;111;111;5760;5760;5760;5760;5760;5760;-7.244259e-02;3.629747e-01;2118421993;1520223205;452867621;0.000000e+00;2.658220e-01;1.437826e+03
76;dgemm;36;0;1;1;0;720;111;111;5760;5760;5760;5760;5760;5760;-4.022054e-01;3.532503e-01;201690613;213801961;822262754;0.000000e+00;2.645077e-01;1.444971e+03
77;dgemm;36;0;1;1;0;720;111;111;5760;5760;5760;5760;5760;5760;-4.352033e-02;2.911775e-01;1737518944;282828202;110613202;0.000000e+00;2.603082e-01;1.468282e+03
78;dgemm;36;0;1;1;0;720;111;111;5760;5760;5760;5760;5760;5760;-3.380140e-01;-1.158719e-01;1676902021;1486222842;950390868;0.000000e+00;2.630818e-01;1.452803e+03
79;dgemm;36;0;1;1;0;720;111;111;5760;5760;5760;5760;5760;5760;-3.254125e-01;4.026002e-01;1242608872;1137949908;1277849958;0.000000e+00;2.629724e-01;1.453407e+03
80;dgemm;36;0;1;1;0;720;111;111;6480;6480;6480;6480;6480;6480;-7.731044e-02;2.584243e-01;1908518808;1023457753;364686248;0.000000e+00;3.621702e-01;1.502596e+03
81;dgemm;36;0;1;1;0;720;111;111;6480;6480;6480;6480;6480;6480;-3.124503e-01;3.608416e-01;1329132133;1280321648;501772890;0.000000e+00;3.663507e-01;1.485450e+03
82;dgemm;36;0;1;1;0;720;111;111;6480;6480;6480;6480;6480;6480;8.143046e-02;2.072399e-01;212251746;1983690368;364319529;0.000000e+00;3.640991e-01;1.494636e+03
83;dgemm;36;0;1;1;0;720;111;111;6480;6480;6480;6480;6480;6480;2.429254e-01;3.618715e-01;1775473788;624549797;767066249;0.000000e+00;3.672429e-01;1.481841e+03
84;dgemm;36;0;1;1;0;720;111;111;6480;6480;6480;6480;6480;6480;2.177558e-01;-2.828171e-01;1750003033;1415505363;78012497;0.000000e+00;3.600211e-01;1.511566e+03
85;dgemm;36;0;1;1;0;720;111;111;6480;6480;6480;6480;6480;6480;3.155647e-01;-4.765819e-01;1344247686;1795519125;661761152;0.000000e+00;3.715168e-01;1.464794e+03
86;dgemm;36;0;1;1;0;720;111;111;6480;6480;6480;6480;6480;6480;1.085222e-01;-8.764404e-02;1315209188;235649157;1448703729;0.000000e+00;3.586441e-01;1.517369e+03
87;dgemm;36;0;1;1;0;720;111;111;6480;6480;6480;6480;6480;6480;5.964717e-02;3.343596e-01;430253414;861543921;677870460;0.000000e+00;3.713077e-01;1.465619e+03
88;dgemm;36;0;1;1;0;720;111;111;6480;6480;6480;6480;6480;6480;-3.852038e-01;-3.449149e-01;828388027;1144278050;332266748;0.000000e+00;3.658643e-01;1.487425e+03
89;dgemm;36;0;1;1;0;720;111;111;6480;6480;6480;6480;6480;6480;-2.132347e-01;-3.266376e-02;816504794;820697697;655858699;0.000000e+00;3.590663e-01;1.515585e+03
90;dgemm;36;0;1;1;0;720;111;111;7200;7200;7200;7200;7200;7200;4.306626e-01;3.748097e-01;1395132002;1186090428;1974806403;0.000000e+00;4.991778e-01;1.495451e+03
91;dgemm;36;0;1;1;0;720;111;111;7200;7200;7200;7200;7200;7200;-2.001786e-01;4.867196e-01;1498617647;669908538;1387036159;0.000000e+00;4.936189e-01;1.512292e+03
92;dgemm;36;0;1;1;0;720;111;111;7200;7200;7200;7200;7200;7200;1.290300e-01;2.190988e-01;1812282134;1328104339;1380171692;0.000000e+00;4.882689e-01;1.528862e+03
93;dgemm;36;0;1;1;0;720;111;111;7200;7200;7200;7200;7200;7200;1.972368e-02;-3.289758e-01;777720504;1543755629;1722060049;0.000000e+00;5.006232e-01;1.491133e+03
94;dgemm;36;0;1;1;0;720;111;111;7200;7200;7200;7200;7200;7200;-1.628764e-01;-1.178982e-01;70636429;136495343;1472576335;0.000000e+00;5.152680e-01;1.448753e+03
95;dgemm;36;0;1;1;0;720;111;111;7200;7200;7200;7200;7200;7200;-3.497582e-01;-9.472418e-02;1503885238;1219407971;2416949;0.000000e+00;4.982110e-01;1.498353e+03
96;dgemm;36;0;1;1;0;720;111;111;7200;7200;7200;7200;7200;7200;-1.213255e-01;-3.664051e-01;561717988;1407392292;1841585795;0.000000e+00;5.079058e-01;1.469753e+03
97;dgemm;36;0;1;1;0;720;111;111;7200;7200;7200;7200;7200;7200;3.538300e-01;-4.514458e-01;1433102829;1887658390;1402961682;0.000000e+00;4.858535e-01;1.536463e+03
98;dgemm;36;0;1;1;0;720;111;111;7200;7200;7200;7200;7200;7200;-3.514624e-01;-2.320307e-01;400000569;337453826;1081174232;0.000000e+00;4.885873e-01;1.527866e+03
99;dgemm;36;0;1;1;0;720;111;111;7200;7200;7200;7200;7200;7200;-1.551027e-01;-2.203633e-01;1941690360;410409117;847228023;0.000000e+00;4.934315e-01;1.512867e+03
100;dgemm;36;0;1;1;0;720;111;111;7920;7920;7920;7920;7920;7920;-4.226583e-01;4.233893e-01;1175526309;1586903190;2002495425;0.000000e+00;6.646594e-01;1.494880e+03
101;dgemm;36;0;1;1;0;720;111;111;7920;7920;7920;7920;7920;7920;-1.821509e-01;-3.376510e-01;1184214677;2004504234;1061730690;0.000000e+00;6.727440e-01;1.476916e+03
102;dgemm;36;0;1;1;0;720;111;111;7920;7920;7920;7920;7920;7920;2.025557e-01;-1.309258e-02;1717226057;1748349614;1276673168;0.000000e+00;6.814539e-01;1.458039e+03
103;dgemm;36;0;1;1;0;720;111;111;7920;7920;7920;7920;7920;7920;-3.323793e-03;1.208180e-01;2009726312;696947386;1877565100;0.000000e+00;6.810811e-01;1.458837e+03
104;dgemm;36;0;1;1;0;720;111;111;7920;7920;7920;7920;7920;7920;4.408419e-02;7.007474e-02;1630634994;1665204916;1707056552;0.000000e+00;6.722290e-01;1.478047e+03
105;dgemm;36;0;1;1;0;720;111;111;7920;7920;7920;7920;7920;7920;1.985130e-01;3.083112e-01;1010528946;358532290;1708302647;0.000000e+00;6.871196e-01;1.446016e+03
106;dgemm;36;0;1;1;0;720;111;111;7920;7920;7920;7920;7920;7920;3.496171e-01;-4.343253e-02;1426819080;885799631;1314218593;0.000000e+00;6.797569e-01;1.461679e+03
107;dgemm;36;0;1;1;0;720;111;111;7920;7920;7920;7920;7920;7920;1.482571e-01;2.268525e-01;1156541312;318561886;1243439214;0.000000e+00;6.837802e-01;1.453078e+03
108;dgemm;36;0;1;1;0;720;111;111;7920;7920;7920;7920;7920;7920;1.954537e-01;3.390887e-01;1112720090;1788014412;1106059479;0.000000e+00;6.789807e-01;1.463350e+03
109;dgemm;36;0;1;1;0;720;111;111;7920;7920;7920;7920;7920;7920;-2.432179e-01;-3.632344e-01;1095966189;104152274;1748806355;0.000000e+00;6.749947e-01;1.471991e+03
110;dgemm;36;0;1;1;0;720;111;111;8640;8640;8640;8640;8640;8640;-3.111498e-01;-3.768885e-01;970925433;309198987;887077888;0.000000e+00;8.555500e-01;1.507738e+03
111;dgemm;36;0;1;1;0;720;111;111;8640;8640;8640;8640;8640;8640;-3.455352e-01;1.438218e-01;37487770;1541027284;1232056856;0.000000e+00;8.550880e-01;1.508552e+03
112;dgemm;36;0;1;1;0;720;111;111;8640;8640;8640;8640;8640;8640;1.670465e-01;-4.374846e-01;959372260;1025125849;2137100237;0.000000e+00;8.460997e-01;1.524578e+03
113;dgemm;36;0;1;1;0;720;111;111;8640;8640;8640;8640;8640;8640;-2.602701e-01;3.620021e-01;1376035217;1282648518;478034945;0.000000e+00;8.498404e-01;1.517868e+03
114;dgemm;36;0;1;1;0;720;111;111;8640;8640;8640;8640;8640;8640;-1.751029e-01;-3.004013e-01;1983228458;1584710873;993967637;0.000000e+00;8.460399e-01;1.524686e+03
115;dgemm;36;0;1;1;0;720;111;111;8640;8640;8640;8640;8640;8640;2.320915e-01;4.447722e-01;2045826607;2037770478;1930772757;0.000000e+00;8.438000e-01;1.528733e+03
116;dgemm;36;0;1;1;0;720;111;111;8640;8640;8640;8640;8640;8640;3.200980e-01;-3.080142e-01;1152645729;470591100;1025533459;0.000000e+00;8.525481e-01;1.513047e+03
117;dgemm;36;0;1;1;0;720;111;111;8640;8640;8640;8640;8640;8640;1.877797e-02;2.363318e-01;1899058025;2077211388;394633074;0.000000e+00;8.478709e-01;1.521393e+03
118;dgemm;36;0;1;1;0;720;111;111;8640;8640;8640;8640;8640;8640;-2.785742e-03;-2.859474e-01;1645933681;1943003493;553160358;0.000000e+00;8.462764e-01;1.524260e+03
119;dgemm;36;0;1;1;0;720;111;111;8640;8640;8640;8640;8640;8640;2.686058e-01;-6.080735e-02;712633417;864101839;1204275569;0.000000e+00;8.456033e-01;1.525473e+03
120;dgemm;36;0;1;1;0;720;111;111;9360;9360;9360;9360;9360;9360;4.783358e-01;4.252657e-01;410228794;1026413173;773319847;0.000000e+00;1.134773e+00;1.445269e+03
121;dgemm;36;0;1;1;0;720;111;111;9360;9360;9360;9360;9360;9360;1.787239e-01;-3.216067e-01;452456682;1302539390;1858504292;0.000000e+00;1.099863e+00;1.491142e+03
122;dgemm;36;0;1;1;0;720;111;111;9360;9360;9360;9360;9360;9360;2.809763e-01;2.009583e-01;427355115;1388391521;1272796157;0.000000e+00;1.110589e+00;1.476741e+03
123;dgemm;36;0;1;1;0;720;111;111;9360;9360;9360;9360;9360;9360;-2.961404e-01;8.005670e-02;126401947;1204462951;1210359231;0.000000e+00;1.100547e+00;1.490215e+03
124;dgemm;36;0;1;1;0;720;111;111;9360;9360;9360;9360;9360;9360;1.614373e-01;-3.844182e-01;738393740;19485054;1983614030;0.000000e+00;1.097676e+00;1.494113e+03
125;dgemm;36;0;1;1;0;720;111;111;9360;9360;9360;9360;9360;9360;3.696719e-01;1.644219e-01;1905241081;2004187516;371653516;0.000000e+00;1.119009e+00;1.465628e+03
126;dgemm;36;0;1;1;0;720;111;111;9360;9360;9360;9360;9360;9360;3.044324e-01;-3.241417e-01;1707746139;1372261796;2073785404;0.000000e+00;1.099602e+00;1.491496e+03
127;dgemm;36;0;1;1;0;720;111;111;9360;9360;9360;9360;9360;9360;-4.052477e-01;-2.374666e-01;1894519218;786039021;1931513970;0.000000e+00;1.119789e+00;1.464608e+03
128;dgemm;36;0;1;1;0;720;111;111;9360;9360;9360;9360;9360;9360;1.781820e-01;-4.328520e-01;586235379;2032894977;262692685;0.000000e+00;1.105077e+00;1.484107e+03
129;dgemm;36;0;1;1;0;720;111;111;9360;9360;9360;9360;9360;9360;-2.751129e-01;3.889478e-01;1543324176;1985433483;395279207;0.000000e+00;1.105444e+00;1.483614e+03
0;dgemm;36;0;1;1;0;720;111;111;10080;10080;10080;10080;10080;10080;4.892778e-01;-1.846424e-01;1649760492;596516649;1189641421;0.000000e+00;1.323510e+00;1.547691e+03
1;dgemm;36;0;1;1;0;720;111;111;10080;10080;10080;10080;10080;10080;-2.410269e-01;4.000452e-01;783368690;1102520059;2044897763;0.000000e+00;1.343241e+00;1.524958e+03
2;dgemm;36;0;1;1;0;720;111;111;10080;10080;10080;10080;10080;10080;4.141058e-01;-3.017109e-01;1540383426;304089172;1303455736;0.000000e+00;1.340381e+00;1.528211e+03
3;dgemm;36;0;1;1;0;720;111;111;10080;10080;10080;10080;10080;10080;-3.054879e-01;-1.757242e-01;294702567;1726956429;336465782;0.000000e+00;1.358408e+00;1.507930e+03
4;dgemm;36;0;1;1;0;720;111;111;10080;10080;10080;10080;10080;10080;4.797187e-01;2.821215e-01;233665123;2145174067;468703135;0.000000e+00;1.367712e+00;1.497673e+03
5;dgemm;36;0;1;1;0;720;111;111;10080;10080;10080;10080;10080;10080;3.112590e-01;3.332689e-02;1315634022;635723058;1369133069;0.000000e+00;1.334190e+00;1.535303e+03
6;dgemm;36;0;1;1;0;720;111;111;10080;10080;10080;10080;10080;10080;-2.396071e-01;2.196488e-02;2089018456;628175011;1656478042;0.000000e+00;1.356028e+00;1.510578e+03
7;dgemm;36;0;1;1;0;720;111;111;10080;10080;10080;10080;10080;10080;5.576077e-02;-4.098657e-01;859484421;1914544919;608413784;0.000000e+00;1.369391e+00;1.495837e+03
8;dgemm;36;0;1;1;0;720;111;111;10080;10080;10080;10080;10080;10080;-2.172434e-01;3.304604e-01;1973594324;149798315;2038664370;0.000000e+00;1.341791e+00;1.526605e+03
9;dgemm;36;0;1;1;0;720;111;111;10080;10080;10080;10080;10080;10080;1.632813e-02;3.212047e-02;412776091;1424268980;1911759956;0.000000e+00;1.361203e+00;1.504834e+03
10;dgemm;36;0;1;1;0;720;111;111;12240;12240;12240;12240;12240;12240;1.752074e-01;-2.459049e-03;42999170;982906996;135497281;0.000000e+00;2.648311e+00;1.384858e+03
11;dgemm;36;0;1;1;0;720;111;111;12240;12240;12240;12240;12240;12240;-4.932447e-01;-1.333755e-01;1937477084;1827336327;572660336;0.000000e+00;2.651754e+00;1.383060e+03
12;dgemm;36;0;1;1;0;720;111;111;12240;12240;12240;12240;12240;12240;-1.501402e-01;2.390371e-01;1632621729;1100661313;1433925857;0.000000e+00;2.614712e+00;1.402654e+03
13;dgemm;36;0;1;1;0;720;111;111;12240;12240;12240;12240;12240;12240;2.189649e-01;-2.465265e-01;939819582;2001100545;1998898814;0.000000e+00;2.619883e+00;1.399885e+03
14;dgemm;36;0;1;1;0;720;111;111;12240;12240;12240;12240;12240;12240;-2.416937e-01;-1.401268e-01;1585990364;1374344043;760313750;0.000000e+00;2.593358e+00;1.414203e+03
15;dgemm;36;0;1;1;0;720;111;111;12240;12240;12240;12240;12240;12240;3.187297e-01;-1.733443e-01;945117276;1889947178;1780695788;0.000000e+00;2.603804e+00;1.408530e+03
16;dgemm;36;0;1;1;0;720;111;111;12240;12240;12240;12240;12240;12240;-4.132594e-01;7.699516e-02;1918502651;752392754;1474612399;0.000000e+00;2.670426e+00;1.373389e+03
17;dgemm;36;0;1;1;0;720;111;111;12240;12240;12240;12240;12240;12240;-1.543593e-01;-4.222437e-01;1411549676;1843993368;943947739;0.000000e+00;2.619354e+00;1.400168e+03
18;dgemm;36;0;1;1;0;720;111;111;12240;12240;12240;12240;12240;12240;1.866877e-01;-3.211111e-01;1749698586;1469348094;1956297539;0.000000e+00;2.589704e+00;1.416198e+03
19;dgemm;36;0;1;1;0;720;111;111;12240;12240;12240;12240;12240;12240;-3.490223e-01;-4.443388e-01;2040651434;1975960378;317097467;0.000000e+00;2.615379e+00;1.402296e+03
20;dgemm;36;0;1;1;0;720;111;111;14400;14400;14400;14400;14400;14400;-1.054364e-01;2.030082e-01;927612902;1330573317;603570492;0.000000e+00;4.257424e+00;1.402719e+03
21;dgemm;36;0;1;1;0;720;111;111;14400;14400;14400;14400;14400;14400;-4.352839e-01;1.623906e-01;959997301;485560280;402724286;0.000000e+00;4.255681e+00;1.403293e+03
22;dgemm;36;0;1;1;0;720;111;111;14400;14400;14400;14400;14400;14400;4.667617e-01;1.036922e-01;894429689;364228444;1947346619;0.000000e+00;4.268641e+00;1.399033e+03
23;dgemm;36;0;1;1;0;720;111;111;14400;14400;14400;14400;14400;14400;4.665847e-01;3.770548e-01;1063958031;1633108117;2114738097;0.000000e+00;4.340892e+00;1.375747e+03
24;dgemm;36;0;1;1;0;720;111;111;14400;14400;14400;14400;14400;14400;-4.980996e-01;2.856491e-01;822890675;1610120709;791698927;0.000000e+00;4.214303e+00;1.417071e+03
25;dgemm;36;0;1;1;0;720;111;111;14400;14400;14400;14400;14400;14400;3.592840e-01;-4.182928e-01;1255179497;524872353;327254586;0.000000e+00;4.294103e+00;1.390737e+03
26;dgemm;36;0;1;1;0;720;111;111;14400;14400;14400;14400;14400;14400;9.307665e-02;3.296821e-01;1703964683;352406219;1600028624;0.000000e+00;4.249622e+00;1.405294e+03
27;dgemm;36;0;1;1;0;720;111;111;14400;14400;14400;14400;14400;14400;-4.719053e-01;2.807858e-01;112805732;1120048829;378409503;0.000000e+00;4.270297e+00;1.398490e+03
28;dgemm;36;0;1;1;0;720;111;111;14400;14400;14400;14400;14400;14400;2.744957e-01;-3.785920e-02;1573363368;1409959708;2077486715;0.000000e+00;4.265626e+00;1.400022e+03
29;dgemm;36;0;1;1;0;720;111;111;14400;14400;14400;14400;14400;14400;1.799312e-01;9.546876e-03;200747796;289700723;1117142618;0.000000e+00;4.302524e+00;1.388015e+03
30;dgemm;36;0;1;1;0;720;111;111;16560;16560;16560;16560;16560;16560;1.744033e-01;3.861393e-01;439493451;990892921;1760243555;0.000000e+00;6.495097e+00;1.398381e+03
31;dgemm;36;0;1;1;0;720;111;111;16560;16560;16560;16560;16560;16560;3.018442e-01;-4.633856e-02;111537764;338888228;2147469841;0.000000e+00;6.528429e+00;1.391241e+03
32;dgemm;36;0;1;1;0;720;111;111;16560;16560;16560;16560;16560;16560;2.072774e-01;1.109783e-01;269441500;2142757034;116087764;0.000000e+00;6.595331e+00;1.377128e+03
33;dgemm;36;0;1;1;0;720;111;111;16560;16560;16560;16560;16560;16560;-2.366607e-01;9.513167e-02;8936987;1982275856;1275373743;0.000000e+00;6.597190e+00;1.376740e+03
34;dgemm;36;0;1;1;0;720;111;111;16560;16560;16560;16560;16560;16560;-3.952797e-01;-4.960891e-01;841148365;1960709859;1760281936;0.000000e+00;6.522707e+00;1.392461e+03
35;dgemm;36;0;1;1;0;720;111;111;16560;16560;16560;16560;16560;16560;-2.607432e-01;-3.651100e-01;1244316437;971899228;1476153275;0.000000e+00;6.606329e+00;1.374836e+03
36;dgemm;36;0;1;1;0;720;111;111;16560;16560;16560;16560;16560;16560;-1.389722e-01;-8.843738e-02;1626276121;653468858;2130794395;0.000000e+00;6.565610e+00;1.383362e+03
37;dgemm;36;0;1;1;0;720;111;111;16560;16560;16560;16560;16560;16560;9.367129e-02;9.508020e-02;1605908235;1350573793;76065818;0.000000e+00;6.622461e+00;1.371487e+03
38;dgemm;36;0;1;1;0;720;111;111;16560;16560;16560;16560;16560;16560;-4.585682e-01;3.268176e-01;1987231011;1875335928;1784639529;0.000000e+00;6.593800e+00;1.377448e+03
39;dgemm;36;0;1;1;0;720;111;111;16560;16560;16560;16560;16560;16560;-6.830955e-02;1.535754e-01;1939964443;2112255763;1432114613;0.000000e+00;6.603848e+00;1.375352e+03
40;dgemm;36;0;1;1;0;720;111;111;18720;18720;18720;18720;18720;18720;2.725473e-01;1.883941e-01;1782436840;1909002904;165344818;0.000000e+00;9.612745e+00;1.364898e+03
41;dgemm;36;0;1;1;0;720;111;111;18720;18720;18720;18720;18720;18720;2.191162e-01;-3.021529e-01;1351797369;492067917;1504569917;0.000000e+00;9.681030e+00;1.355270e+03
42;dgemm;36;0;1;1;0;720;111;111;18720;18720;18720;18720;18720;18720;-3.280447e-01;-3.223358e-01;496987743;159259470;1359512183;0.000000e+00;9.550094e+00;1.373852e+03
43;dgemm;36;0;1;1;0;720;111;111;18720;18720;18720;18720;18720;18720;-4.513911e-01;3.904790e-01;1096689772;2086206725;601385644;0.000000e+00;9.485762e+00;1.383169e+03
44;dgemm;36;0;1;1;0;720;111;111;18720;18720;18720;18720;18720;18720;-4.403555e-01;9.074247e-02;243268139;1012502954;1272469786;0.000000e+00;9.559004e+00;1.372571e+03
45;dgemm;36;0;1;1;0;720;111;111;18720;18720;18720;18720;18720;18720;1.908228e-02;4.440272e-01;722308542;1820388464;933110197;0.000000e+00;9.514873e+00;1.378937e+03
46;dgemm;36;0;1;1;0;720;111;111;18720;18720;18720;18720;18720;18720;-1.017733e-01;4.140073e-01;1285228804;1789376348;502278611;0.000000e+00;9.530702e+00;1.376647e+03
47;dgemm;36;0;1;1;0;720;111;111;18720;18720;18720;18720;18720;18720;-2.659684e-01;-2.731221e-01;1034949299;654887343;1529195746;0.000000e+00;9.508547e+00;1.379855e+03
48;dgemm;36;0;1;1;0;720;111;111;18720;18720;18720;18720;18720;18720;1.985016e-01;4.068633e-01;87755422;889023311;1494613810;0.000000e+00;9.538036e+00;1.375589e+03
49;dgemm;36;0;1;1;0;720;111;111;18720;18720;18720;18720;18720;18720;-4.302884e-01;-3.682695e-01;745425661;396473730;1308044878;0.000000e+00;9.456610e+00;1.387433e+03
50;dgemm;36;0;1;1;0;720;111;111;20880;20880;20880;20880;20880;20880;3.002688e-01;4.210193e-01;705178736;1590079444;434248626;0.000000e+00;1.326929e+01;1.372063e+03
51;dgemm;36;0;1;1;0;720;111;111;20880;20880;20880;20880;20880;20880;-3.696050e-01;-2.996627e-01;1402586708;552473416;1143408282;0.000000e+00;1.329367e+01;1.369546e+03
52;dgemm;36;0;1;1;0;720;111;111;20880;20880;20880;20880;20880;20880;-3.095740e-01;-1.111416e-01;1884167637;1473442062;201305624;0.000000e+00;1.342102e+01;1.356550e+03
53;dgemm;36;0;1;1;0;720;111;111;20880;20880;20880;20880;20880;20880;3.214526e-01;-2.291051e-01;1238433452;1273911899;1431419379;0.000000e+00;1.326374e+01;1.372637e+03
54;dgemm;36;0;1;1;0;720;111;111;20880;20880;20880;20880;20880;20880;-4.764616e-02;-2.823082e-01;619290071;707900973;407487131;0.000000e+00;1.323642e+01;1.375470e+03
55;dgemm;36;0;1;1;0;720;111;111;20880;20880;20880;20880;20880;20880;-2.829039e-01;4.689267e-01;1776808933;711845894;404158660;0.000000e+00;1.330172e+01;1.368717e+03
56;dgemm;36;0;1;1;0;720;111;111;20880;20880;20880;20880;20880;20880;-9.802407e-02;-3.473849e-01;1973387981;1642548899;1501252996;0.000000e+00;1.312329e+01;1.387327e+03
57;dgemm;36;0;1;1;0;720;111;111;20880;20880;20880;20880;20880;20880;-2.998149e-02;-6.245404e-02;824272813;1662739668;2025187190;0.000000e+00;1.326199e+01;1.372818e+03
58;dgemm;36;0;1;1;0;720;111;111;20880;20880;20880;20880;20880;20880;1.613464e-01;1.651206e-01;437116466;1704365084;1176911340;0.000000e+00;1.325935e+01;1.373091e+03
59;dgemm;36;0;1;1;0;720;111;111;20880;20880;20880;20880;20880;20880;-9.329343e-02;2.766544e-01;1953443376;1876855542;1069755936;0.000000e+00;1.333357e+01;1.365447e+03
60;dgemm;36;0;1;1;0;720;111;111;23040;23040;23040;23040;23040;23040;-4.205594e-01;1.129006e-01;588219756;1856669179;1057418418;0.000000e+00;1.771594e+01;1.380744e+03
61;dgemm;36;0;1;1;0;720;111;111;23040;23040;23040;23040;23040;23040;1.349872e-02;-2.496970e-01;1065103348;625032172;387451659;0.000000e+00;1.756215e+01;1.392835e+03
62;dgemm;36;0;1;1;0;720;111;111;23040;23040;23040;23040;23040;23040;9.058696e-02;7.370132e-02;298625210;1295166342;1057467587;0.000000e+00;1.761503e+01;1.388654e+03
63;dgemm;36;0;1;1;0;720;111;111;23040;23040;23040;23040;23040;23040;-3.018314e-02;-5.773157e-02;382697713;476667372;1070575321;0.000000e+00;1.755523e+01;1.393384e+03
64;dgemm;36;0;1;1;0;720;111;111;23040;23040;23040;23040;23040;23040;-4.650331e-01;-1.058972e-01;774044599;697517721;2001229904;0.000000e+00;1.761462e+01;1.388687e+03
65;dgemm;36;0;1;1;0;720;111;111;23040;23040;23040;23040;23040;23040;4.801672e-01;-2.032396e-01;1797073940;1756915667;1065311705;0.000000e+00;1.768022e+01;1.383534e+03
66;dgemm;36;0;1;1;0;720;111;111;23040;23040;23040;23040;23040;23040;2.132438e-01;1.658781e-01;1414829150;1307565984;555996658;0.000000e+00;1.755003e+01;1.393797e+03
67;dgemm;36;0;1;1;0;720;111;111;23040;23040;23040;23040;23040;23040;1.800331e-01;-1.232803e-01;231602422;1389867269;780821396;0.000000e+00;1.760727e+01;1.389266e+03
68;dgemm;36;0;1;1;0;720;111;111;23040;23040;23040;23040;23040;23040;3.404283e-01;-1.210446e-01;195740084;917679292;2006811972;0.000000e+00;1.752457e+01;1.395822e+03
69;dgemm;36;0;1;1;0;720;111;111;23040;23040;23040;23040;23040;23040;1.960490e-01;-2.057583e-01;1414647625;1635905385;1046741222;0.000000e+00;1.751983e+01;1.396199e+03
70;dgemm;36;0;1;1;0;720;111;111;25200;25200;25200;25200;25200;25200;-4.981229e-01;1.797563e-01;1343606042;1111783898;446340713;0.000000e+00;2.311560e+01;1.384607e+03
71;dgemm;36;0;1;1;0;720;111;111;25200;25200;25200;25200;25200;25200;1.449892e-01;-2.994312e-01;1782280524;846942590;524688209;0.000000e+00;2.313026e+01;1.383729e+03
72;dgemm;36;0;1;1;0;720;111;111;25200;25200;25200;25200;25200;25200;-7.231379e-02;2.098748e-01;1371499336;2114937732;726371155;0.000000e+00;2.311778e+01;1.384476e+03
73;dgemm;36;0;1;1;0;720;111;111;25200;25200;25200;25200;25200;25200;-2.503210e-01;-2.840220e-01;882160379;11614769;1682085273;0.000000e+00;2.321865e+01;1.378462e+03
74;dgemm;36;0;1;1;0;720;111;111;25200;25200;25200;25200;25200;25200;9.597039e-02;1.728868e-01;246247255;1858721860;1548348142;0.000000e+00;2.303143e+01;1.389667e+03
75;dgemm;36;0;1;1;0;720;111;111;25200;25200;25200;25200;25200;25200;-7.244259e-02;3.629747e-01;2118421993;1520223205;452867621;0.000000e+00;2.313225e+01;1.383610e+03
76;dgemm;36;0;1;1;0;720;111;111;25200;25200;25200;25200;25200;25200;-4.022054e-01;3.532503e-01;201690613;213801961;822262754;0.000000e+00;2.305986e+01;1.387954e+03
77;dgemm;36;0;1;1;0;720;111;111;25200;25200;25200;25200;25200;25200;-4.352033e-02;2.911775e-01;1737518944;282828202;110613202;0.000000e+00;2.308940e+01;1.386178e+03
78;dgemm;36;0;1;1;0;720;111;111;25200;25200;25200;25200;25200;25200;-3.380140e-01;-1.158719e-01;1676902021;1486222842;950390868;0.000000e+00;2.309392e+01;1.385907e+03
79;dgemm;36;0;1;1;0;720;111;111;25200;25200;25200;25200;25200;25200;-3.254125e-01;4.026002e-01;1242608872;1137949908;1277849958;0.000000e+00;2.312059e+01;1.384308e+03
80;dgemm;36;0;1;1;0;720;111;111;27360;27360;27360;27360;27360;27360;-7.731044e-02;2.584243e-01;1908518808;1023457753;364686248;0.000000e+00;2.962733e+01;1.382566e+03
81;dgemm;36;0;1;1;0;720;111;111;27360;27360;27360;27360;27360;27360;-3.124503e-01;3.608416e-01;1329132133;1280321648;501772890;0.000000e+00;2.948258e+01;1.389354e+03
82;dgemm;36;0;1;1;0;720;111;111;27360;27360;27360;27360;27360;27360;8.143046e-02;2.072399e-01;212251746;1983690368;364319529;0.000000e+00;2.938745e+01;1.393851e+03
83;dgemm;36;0;1;1;0;720;111;111;27360;27360;27360;27360;27360;27360;2.429254e-01;3.618715e-01;1775473788;624549797;767066249;0.000000e+00;2.946240e+01;1.390305e+03
84;dgemm;36;0;1;1;0;720;111;111;27360;27360;27360;27360;27360;27360;2.177558e-01;-2.828171e-01;1750003033;1415505363;78012497;0.000000e+00;2.953840e+01;1.386728e+03
85;dgemm;36;0;1;1;0;720;111;111;27360;27360;27360;27360;27360;27360;3.155647e-01;-4.765819e-01;1344247686;1795519125;661761152;0.000000e+00;2.940353e+01;1.393089e+03
86;dgemm;36;0;1;1;0;720;111;111;27360;27360;27360;27360;27360;27360;1.085222e-01;-8.764404e-02;1315209188;235649157;1448703729;0.000000e+00;2.932446e+01;1.396845e+03
87;dgemm;36;0;1;1;0;720;111;111;27360;27360;27360;27360;27360;27360;5.964717e-02;3.343596e-01;430253414;861543921;677870460;0.000000e+00;2.960919e+01;1.383413e+03
88;dgemm;36;0;1;1;0;720;111;111;27360;27360;27360;27360;27360;27360;-3.852038e-01;-3.449149e-01;828388027;1144278050;332266748;0.000000e+00;2.945785e+01;1.390520e+03
89;dgemm;36;0;1;1;0;720;111;111;27360;27360;27360;27360;27360;27360;-2.132347e-01;-3.266376e-02;816504794;820697697;655858699;0.000000e+00;2.942580e+01;1.392035e+03
