Id;Function;threads;gpus;P;Q;mtxfmt;nb;uplo;n;lda;seedA;tsub;time;gflops
0;dpoinv;36;0;1;1;0;720;121;720;720;846930886;0.000000e+00;1.250696e-02;2.988473e+01
1;dpoinv;36;0;1;1;0;720;121;720;720;1681692777;0.000000e+00;9.024858e-03;4.141529e+01
2;dpoinv;36;0;1;1;0;720;121;720;720;1714636915;0.000000e+00;8.833885e-03;4.231062e+01
3;dpoinv;36;0;1;1;0;720;121;720;720;1957747793;0.000000e+00;8.662939e-03;4.314553e+01
4;dpoinv;36;0;1;1;0;720;121;720;720;424238335;0.000000e+00;1.964593e-02;1.902517e+01
5;dpoinv;36;0;1;1;0;720;121;720;720;719885386;0.000000e+00;8.384943e-03;4.457599e+01
6;dpoinv;36;0;1;1;0;720;121;720;720;1649760492;0.000000e+00;1.523399e-02;2.453507e+01
7;dpoinv;36;0;1;1;0;720;121;720;720;596516649;0.000000e+00;8.158922e-03;4.581084e+01
8;dpoinv;36;0;1;1;0;720;121;720;720;1189641421;0.000000e+00;1.579499e-02;2.366365e+01
9;dpoinv;36;0;1;1;0;720;121;720;720;1025202362;0.000000e+00;8.029938e-03;4.654670e+01
10;dpoinv;36;0;1;1;0;720;121;1440;1440;1350490027;0.000000e+00;4.851890e-02;6.158547e+01
11;dpoinv;36;0;1;1;0;720;121;1440;1440;783368690;0.000000e+00;4.947186e-02;6.039917e+01
12;dpoinv;36;0;1;1;0;720;121;1440;1440;1102520059;0.000000e+00;5.495286e-02;5.437495e+01
13;dpoinv;36;0;1;1;0;720;121;1440;1440;2044897763;0.000000e+00;5.806279e-02;5.146255e+01
14;dpoinv;36;0;1;1;0;720;121;1440;1440;1967513926;0.000000e+00;5.328918e-02;5.607253e+01
15;dpoinv;36;0;1;1;0;720;121;1440;1440;1365180540;0.000000e+00;4.385996e-02;6.812727e+01
16;dpoinv;36;0;1;1;0;720;121;1440;1440;1540383426;0.000000e+00;4.192090e-02;7.127850e+01
17;dpoinv;36;0;1;1;0;720;121;1440;1440;304089172;0.000000e+00;3.909993e-02;7.642108e+01
18;dpoinv;36;0;1;1;0;720;121;1440;1440;1303455736;0.000000e+00;3.865099e-02;7.730873e+01
19;dpoinv;36;0;1;1;0;720;121;1440;1440;35005211;0.000000e+00;4.934001e-02;6.056057e+01
20;dpoinv;36;0;1;1;0;720;121;2160;2160;521595368;0.000000e+00;1.125081e-01;8.961459e+01
21;dpoinv;36;0;1;1;0;720;121;2160;2160;294702567;0.000000e+00;1.204491e-01;8.370645e+01
22;dpoinv;36;0;1;1;0;720;121;2160;2160;1726956429;0.000000e+00;1.105330e-01;9.121587e+01
23;dpoinv;36;0;1;1;0;720;121;2160;2160;336465782;0.000000e+00;1.024070e-01;9.845387e+01
24;dpoinv;36;0;1;1;0;720;121;2160;2160;861021530;0.000000e+00;1.032600e-01;9.764052e+01
25;dpoinv;36;0;1;1;0;720;121;2160;2160;278722862;0.000000e+00;1.069100e-01;9.430703e+01
26;dpoinv;36;0;1;1;0;720;121;2160;2160;233665123;0.000000e+00;9.540701e-02;1.056774e+02
27;dpoinv;36;0;1;1;0;720;121;2160;2160;2145174067;0.000000e+00;9.698701e-02;1.039558e+02
28;dpoinv;36;0;1;1;0;720;121;2160;2160;468703135;0.000000e+00;9.958601e-02;1.012428e+02
29;dpoinv;36;0;1;1;0;720;121;2160;2160;1101513929;0.000000e+00;1.010439e-01;9.978197e+01
30;dpoinv;36;0;1;1;0;720;121;2880;2880;1801979802;0.000000e+00;1.454980e-01;1.642371e+02
31;dpoinv;36;0;1;1;0;720;121;2880;2880;1315634022;0.000000e+00;1.262569e-01;1.892662e+02
32;dpoinv;36;0;1;1;0;720;121;2880;2880;635723058;0.000000e+00;1.445901e-01;1.652683e+02
33;dpoinv;36;0;1;1;0;720;121;2880;2880;1369133069;0.000000e+00;1.414759e-01;1.689063e+02
34;dpoinv;36;0;1;1;0;720;121;2880;2880;1125898167;0.000000e+00;1.333439e-01;1.792070e+02
35;dpoinv;36;0;1;1;0;720;121;2880;2880;1059961393;0.000000e+00;1.376860e-01;1.735555e+02
36;dpoinv;36;0;1;1;0;720;121;2880;2880;2089018456;0.000000e+00;1.386991e-01;1.722879e+02
37;dpoinv;36;0;1;1;0;720;121;2880;2880;628175011;0.000000e+00;1.416922e-01;1.686485e+02
38;dpoinv;36;0;1;1;0;720;121;2880;2880;1656478042;0.000000e+00;1.312618e-01;1.820496e+02
39;dpoinv;36;0;1;1;0;720;121;2880;2880;1131176229;0.000000e+00;1.330490e-01;1.796043e+02
40;dpoinv;36;0;1;1;0;720;121;3600;3600;1653377373;0.000000e+00;1.656780e-01;2.816847e+02
41;dpoinv;36;0;1;1;0;720;121;3600;3600;859484421;0.000000e+00;1.670139e-01;2.794316e+02
42;dpoinv;36;0;1;1;0;720;121;3600;3600;1914544919;0.000000e+00;1.695230e-01;2.752958e+02
43;dpoinv;36;0;1;1;0;720;121;3600;3600;608413784;0.000000e+00;1.707201e-01;2.733654e+02
44;dpoinv;36;0;1;1;0;720;121;3600;3600;756898537;0.000000e+00;1.790321e-01;2.606737e+02
45;dpoinv;36;0;1;1;0;720;121;3600;3600;1734575198;0.000000e+00;1.616390e-01;2.887235e+02
46;dpoinv;36;0;1;1;0;720;121;3600;3600;1973594324;0.000000e+00;1.630080e-01;2.862987e+02
47;dpoinv;36;0;1;1;0;720;121;3600;3600;149798315;0.000000e+00;1.588449e-01;2.938020e+02
48;dpoinv;36;0;1;1;0;720;121;3600;3600;2038664370;0.000000e+00;1.536429e-01;3.037496e+02
49;dpoinv;36;0;1;1;0;720;121;3600;3600;1129566413;0.000000e+00;1.677110e-01;2.782701e+02
50;dpoinv;36;0;1;1;0;720;121;4320;4320;184803526;0.000000e+00;1.860859e-01;4.333494e+02
51;dpoinv;36;0;1;1;0;720;121;4320;4320;412776091;0.000000e+00;1.996419e-01;4.039243e+02
52;dpoinv;36;0;1;1;0;720;121;4320;4320;1424268980;0.000000e+00;1.987438e-01;4.057496e+02
53;dpoinv;36;0;1;1;0;720;121;4320;4320;1911759956;0.000000e+00;1.971731e-01;4.089819e+02
54;dpoinv;36;0;1;1;0;720;121;4320;4320;749241873;0.000000e+00;1.884890e-01;4.278247e+02
55;dpoinv;36;0;1;1;0;720;121;4320;4320;137806862;0.000000e+00;1.972191e-01;4.088865e+02
56;dpoinv;36;0;1;1;0;720;121;4320;4320;42999170;0.000000e+00;2.084730e-01;3.868139e+02
57;dpoinv;36;0;1;1;0;720;121;4320;4320;982906996;0.000000e+00;1.709540e-01;4.717072e+02
58;dpoinv;36;0;1;1;0;720;121;4320;4320;135497281;0.000000e+00;1.929421e-01;4.179503e+02
59;dpoinv;36;0;1;1;0;720;121;4320;4320;511702305;0.000000e+00;1.806669e-01;4.463475e+02
60;dpoinv;36;0;1;1;0;720;121;5040;5040;2084420925;0.000000e+00;2.083931e-01;6.144612e+02
61;dpoinv;36;0;1;1;0;720;121;5040;5040;1937477084;0.000000e+00;2.027678e-01;6.315078e+02
62;dpoinv;36;0;1;1;0;720;121;5040;5040;1827336327;0.000000e+00;2.166650e-01;5.910020e+02
63;dpoinv;36;0;1;1;0;720;121;5040;5040;572660336;0.000000e+00;2.164500e-01;5.915892e+02
64;dpoinv;36;0;1;1;0;720;121;5040;5040;1159126505;0.000000e+00;2.065558e-01;6.199266e+02
65;dpoinv;36;0;1;1;0;720;121;5040;5040;805750846;0.000000e+00;2.080791e-01;6.153884e+02
66;dpoinv;36;0;1;1;0;720;121;5040;5040;1632621729;0.000000e+00;2.104721e-01;6.083916e+02
67;dpoinv;36;0;1;1;0;720;121;5040;5040;1100661313;0.000000e+00;2.008271e-01;6.376104e+02
68;dpoinv;36;0;1;1;0;720;121;5040;5040;1433925857;0.000000e+00;1.977849e-01;6.474178e+02
69;dpoinv;36;0;1;1;0;720;121;5040;5040;1141616124;0.000000e+00;2.022529e-01;6.331157e+02
70;dpoinv;36;0;1;1;0;720;121;5760;5760;84353895;0.000000e+00;2.298748e-01;8.314792e+02
71;dpoinv;36;0;1;1;0;720;121;5760;5760;939819582;0.000000e+00;2.101059e-01;9.097134e+02
72;dpoinv;36;0;1;1;0;720;121;5760;5760;2001100545;0.000000e+00;2.205331e-01;8.667004e+02
73;dpoinv;36;0;1;1;0;720;121;5760;5760;1998898814;0.000000e+00;2.157750e-01;8.858123e+02
74;dpoinv;36;0;1;1;0;720;121;5760;5760;1548233367;0.000000e+00;2.295201e-01;8.327644e+02
75;dpoinv;36;0;1;1;0;720;121;5760;5760;610515434;0.000000e+00;2.308140e-01;8.280961e+02
76;dpoinv;36;0;1;1;0;720;121;5760;5760;1585990364;0.000000e+00;2.352071e-01;8.126293e+02
77;dpoinv;36;0;1;1;0;720;121;5760;5760;1374344043;0.000000e+00;2.325780e-01;8.218152e+02
78;dpoinv;36;0;1;1;0;720;121;5760;5760;760313750;0.000000e+00;2.314460e-01;8.258347e+02
79;dpoinv;36;0;1;1;0;720;121;5760;5760;1477171087;0.000000e+00;2.194879e-01;8.708278e+02
80;dpoinv;36;0;1;1;0;720;121;6480;6480;356426808;0.000000e+00;2.514911e-01;1.082105e+03
81;dpoinv;36;0;1;1;0;720;121;6480;6480;945117276;0.000000e+00;2.584281e-01;1.053058e+03
82;dpoinv;36;0;1;1;0;720;121;6480;6480;1889947178;0.000000e+00;2.579272e-01;1.055103e+03
83;dpoinv;36;0;1;1;0;720;121;6480;6480;1780695788;0.000000e+00;2.581480e-01;1.054201e+03
84;dpoinv;36;0;1;1;0;720;121;6480;6480;709393584;0.000000e+00;2.591650e-01;1.050064e+03
85;dpoinv;36;0;1;1;0;720;121;6480;6480;491705403;0.000000e+00;2.595370e-01;1.048559e+03
86;dpoinv;36;0;1;1;0;720;121;6480;6480;1918502651;0.000000e+00;2.615860e-01;1.040346e+03
87;dpoinv;36;0;1;1;0;720;121;6480;6480;752392754;0.000000e+00;2.676580e-01;1.016744e+03
88;dpoinv;36;0;1;1;0;720;121;6480;6480;1474612399;0.000000e+00;2.580740e-01;1.054503e+03
89;dpoinv;36;0;1;1;0;720;121;6480;6480;2053999932;0.000000e+00;2.587950e-01;1.051565e+03
90;dpoinv;36;0;1;1;0;720;121;7200;7200;1264095060;0.000000e+00;3.086939e-01;1.209288e+03
91;dpoinv;36;0;1;1;0;720;121;7200;7200;1411549676;0.000000e+00;3.085518e-01;1.209845e+03
92;dpoinv;36;0;1;1;0;720;121;7200;7200;1843993368;0.000000e+00;3.118699e-01;1.196973e+03
93;dpoinv;36;0;1;1;0;720;121;7200;7200;943947739;0.000000e+00;3.154981e-01;1.183208e+03
94;dpoinv;36;0;1;1;0;720;121;7200;7200;1984210012;0.000000e+00;3.146350e-01;1.186454e+03
95;dpoinv;36;0;1;1;0;720;121;7200;7200;855636226;0.000000e+00;3.081398e-01;1.211463e+03
96;dpoinv;36;0;1;1;0;720;121;7200;7200;1749698586;0.000000e+00;3.166051e-01;1.179071e+03
97;dpoinv;36;0;1;1;0;720;121;7200;7200;1469348094;0.000000e+00;3.105271e-01;1.202149e+03
98;dpoinv;36;0;1;1;0;720;121;7200;7200;1956297539;0.000000e+00;3.147509e-01;1.186017e+03
99;dpoinv;36;0;1;1;0;720;121;7200;7200;1036140795;0.000000e+00;3.171639e-01;1.176993e+03
100;dpoinv;36;0;1;1;0;720;121;7920;7920;463480570;0.000000e+00;3.881490e-01;1.280065e+03
101;dpoinv;36;0;1;1;0;720;121;7920;7920;2040651434;0.000000e+00;3.965991e-01;1.252791e+03
102;dpoinv;36;0;1;1;0;720;121;7920;7920;1975960378;0.000000e+00;3.888369e-01;1.277800e+03
103;dpoinv;36;0;1;1;0;720;121;7920;7920;317097467;0.000000e+00;3.872740e-01;1.282957e+03
104;dpoinv;36;0;1;1;0;720;121;7920;7920;1892066601;0.000000e+00;3.919320e-01;1.267709e+03
105;dpoinv;36;0;1;1;0;720;121;7920;7920;1376710097;0.000000e+00;3.949380e-01;1.258060e+03
106;dpoinv;36;0;1;1;0;720;121;7920;7920;927612902;0.000000e+00;3.907831e-01;1.271436e+03
107;dpoinv;36;0;1;1;0;720;121;7920;7920;1330573317;0.000000e+00;3.886280e-01;1.278487e+03
108;dpoinv;36;0;1;1;0;720;121;7920;7920;603570492;0.000000e+00;3.898449e-01;1.274496e+03
109;dpoinv;36;0;1;1;0;720;121;7920;7920;1687926652;0.000000e+00;3.963292e-01;1.253644e+03
110;dpoinv;36;0;1;1;0;720;121;8640;8640;660260756;0.000000e+00;4.875629e-01;1.323003e+03
111;dpoinv;36;0;1;1;0;720;121;8640;8640;959997301;0.000000e+00;4.867980e-01;1.325082e+03
112;dpoinv;36;0;1;1;0;720;121;8640;8640;485560280;0.000000e+00;4.826789e-01;1.336390e+03
113;dpoinv;36;0;1;1;0;720;121;8640;8640;402724286;0.000000e+00;4.854741e-01;1.328695e+03
114;dpoinv;36;0;1;1;0;720;121;8640;8640;593209441;0.000000e+00;4.842238e-01;1.332126e+03
115;dpoinv;36;0;1;1;0;720;121;8640;8640;1194953865;0.000000e+00;4.830859e-01;1.335264e+03
116;dpoinv;36;0;1;1;0;720;121;8640;8640;894429689;0.000000e+00;4.880521e-01;1.321677e+03
117;dpoinv;36;0;1;1;0;720;121;8640;8640;364228444;0.000000e+00;4.797559e-01;1.344532e+03
118;dpoinv;36;0;1;1;0;720;121;8640;8640;1947346619;0.000000e+00;4.796731e-01;1.344764e+03
119;dpoinv;36;0;1;1;0;720;121;8640;8640;221558440;0.000000e+00;4.819160e-01;1.338506e+03
120;dpoinv;36;0;1;1;0;720;121;9360;9360;270744729;0.000000e+00;5.985780e-01;1.370103e+03
121;dpoinv;36;0;1;1;0;720;121;9360;9360;1063958031;0.000000e+00;6.023819e-01;1.361451e+03
122;dpoinv;36;0;1;1;0;720;121;9360;9360;1633108117;0.000000e+00;5.976350e-01;1.372265e+03
123;dpoinv;36;0;1;1;0;720;121;9360;9360;2114738097;0.000000e+00;6.027861e-01;1.360538e+03
124;dpoinv;36;0;1;1;0;720;121;9360;9360;2007905771;0.000000e+00;5.950222e-01;1.378291e+03
125;dpoinv;36;0;1;1;0;720;121;9360;9360;1469834481;0.000000e+00;6.032729e-01;1.359440e+03
126;dpoinv;36;0;1;1;0;720;121;9360;9360;822890675;0.000000e+00;5.991859e-01;1.368713e+03
127;dpoinv;36;0;1;1;0;720;121;9360;9360;1610120709;0.000000e+00;6.062460e-01;1.352773e+03
128;dpoinv;36;0;1;1;0;720;121;9360;9360;791698927;0.000000e+00;6.016290e-01;1.363155e+03
129;dpoinv;36;0;1;1;0;720;121;9360;9360;631704567;0.000000e+00;6.007929e-01;1.365052e+03
0;dpoinv;36;0;1;1;0;720;121;10080;10080;846930886;0.000000e+00;6.331911e-01;1.617670e+03
1;dpoinv;36;0;1;1;0;720;121;10080;10080;1681692777;0.000000e+00;6.358061e-01;1.611017e+03
2;dpoinv;36;0;1;1;0;720;121;10080;10080;1714636915;0.000000e+00;6.623101e-01;1.546548e+03
3;dpoinv;36;0;1;1;0;720;121;10080;10080;1957747793;0.000000e+00;6.741610e-01;1.519361e+03
4;dpoinv;36;0;1;1;0;720;121;10080;10080;424238335;0.000000e+00;6.772060e-01;1.512530e+03
5;dpoinv;36;0;1;1;0;720;121;10080;10080;719885386;0.000000e+00;6.787050e-01;1.509189e+03
6;dpoinv;36;0;1;1;0;720;121;10080;10080;1649760492;0.000000e+00;6.700258e-01;1.528738e+03
7;dpoinv;36;0;1;1;0;720;121;10080;10080;596516649;0.000000e+00;6.738789e-01;1.519997e+03
8;dpoinv;36;0;1;1;0;720;121;10080;10080;1189641421;0.000000e+00;6.806090e-01;1.504967e+03
9;dpoinv;36;0;1;1;0;720;121;10080;10080;1025202362;0.000000e+00;6.789031e-01;1.508749e+03
10;dpoinv;36;0;1;1;0;720;121;12240;12240;1350490027;0.000000e+00;1.167106e+00;1.571337e+03
11;dpoinv;36;0;1;1;0;720;121;12240;12240;783368690;0.000000e+00;1.165594e+00;1.573376e+03
12;dpoinv;36;0;1;1;0;720;121;12240;12240;1102520059;0.000000e+00;1.175939e+00;1.559534e+03
13;dpoinv;36;0;1;1;0;720;121;12240;12240;2044897763;0.000000e+00;1.165873e+00;1.572999e+03
14;dpoinv;36;0;1;1;0;720;121;12240;12240;1967513926;0.000000e+00;1.170949e+00;1.566180e+03
15;dpoinv;36;0;1;1;0;720;121;12240;12240;1365180540;0.000000e+00;1.167669e+00;1.570580e+03
16;dpoinv;36;0;1;1;0;720;121;12240;12240;1540383426;0.000000e+00;1.163283e+00;1.576502e+03
17;dpoinv;36;0;1;1;0;720;121;12240;12240;304089172;0.000000e+00;1.171426e+00;1.565542e+03
18;dpoinv;36;0;1;1;0;720;121;12240;12240;1303455736;0.000000e+00;1.162155e+00;1.578031e+03
19;dpoinv;36;0;1;1;0;720;121;12240;12240;35005211;0.000000e+00;1.161491e+00;1.578934e+03
20;dpoinv;36;0;1;1;0;720;121;14400;14400;521595368;0.000000e+00;1.874830e+00;1.592780e+03
21;dpoinv;36;0;1;1;0;720;121;14400;14400;294702567;0.000000e+00;1.868436e+00;1.598230e+03
22;dpoinv;36;0;1;1;0;720;121;14400;14400;1726956429;0.000000e+00;1.887530e+00;1.582063e+03
23;dpoinv;36;0;1;1;0;720;121;14400;14400;336465782;0.000000e+00;1.895534e+00;1.575383e+03
24;dpoinv;36;0;1;1;0;720;121;14400;14400;861021530;0.000000e+00;1.893005e+00;1.577487e+03
25;dpoinv;36;0;1;1;0;720;121;14400;14400;278722862;0.000000e+00;1.896592e+00;1.574504e+03
26;dpoinv;36;0;1;1;0;720;121;14400;14400;233665123;0.000000e+00;1.891444e+00;1.578789e+03
27;dpoinv;36;0;1;1;0;720;121;14400;14400;2145174067;0.000000e+00;1.893373e+00;1.577181e+03
28;dpoinv;36;0;1;1;0;720;121;14400;14400;468703135;0.000000e+00;1.888084e+00;1.581599e+03
29;dpoinv;36;0;1;1;0;720;121;14400;14400;1101513929;0.000000e+00;1.891731e+00;1.578550e+03
30;dpoinv;36;0;1;1;0;720;121;16560;16560;1801979802;0.000000e+00;2.846345e+00;1.595584e+03
31;dpoinv;36;0;1;1;0;720;121;16560;16560;1315634022;0.000000e+00;2.848661e+00;1.594287e+03
32;dpoinv;36;0;1;1;0;720;121;16560;16560;635723058;0.000000e+00;2.850389e+00;1.593320e+03
33;dpoinv;36;0;1;1;0;720;121;16560;16560;1369133069;0.000000e+00;2.843362e+00;1.597258e+03
34;dpoinv;36;0;1;1;0;720;121;16560;16560;1125898167;0.000000e+00;2.848494e+00;1.594380e+03
35;dpoinv;36;0;1;1;0;720;121;16560;16560;1059961393;0.000000e+00;2.842554e+00;1.597712e+03
36;dpoinv;36;0;1;1;0;720;121;16560;16560;2089018456;0.000000e+00;2.825489e+00;1.607362e+03
37;dpoinv;36;0;1;1;0;720;121;16560;16560;628175011;0.000000e+00;2.821253e+00;1.609775e+03
38;dpoinv;36;0;1;1;0;720;121;16560;16560;1656478042;0.000000e+00;2.819691e+00;1.610667e+03
39;dpoinv;36;0;1;1;0;720;121;16560;16560;1131176229;0.000000e+00;2.826844e+00;1.606591e+03
40;dpoinv;36;0;1;1;0;720;121;18720;18720;1653377373;0.000000e+00;4.047321e+00;1.620963e+03
41;dpoinv;36;0;1;1;0;720;121;18720;18720;859484421;0.000000e+00;4.037943e+00;1.624728e+03
42;dpoinv;36;0;1;1;0;720;121;18720;18720;1914544919;0.000000e+00;4.042213e+00;1.623011e+03
43;dpoinv;36;0;1;1;0;720;121;18720;18720;608413784;0.000000e+00;4.038896e+00;1.624344e+03
44;dpoinv;36;0;1;1;0;720;121;18720;18720;756898537;0.000000e+00;4.105257e+00;1.598087e+03
45;dpoinv;36;0;1;1;0;720;121;18720;18720;1734575198;0.000000e+00;4.104934e+00;1.598213e+03
46;dpoinv;36;0;1;1;0;720;121;18720;18720;1973594324;0.000000e+00;4.108550e+00;1.596806e+03
47;dpoinv;36;0;1;1;0;720;121;18720;18720;149798315;0.000000e+00;4.122324e+00;1.591471e+03
48;dpoinv;36;0;1;1;0;720;121;18720;18720;2038664370;0.000000e+00;4.107224e+00;1.597322e+03
49;dpoinv;36;0;1;1;0;720;121;18720;18720;1129566413;0.000000e+00;4.111691e+00;1.595586e+03
50;dpoinv;36;0;1;1;0;720;121;20880;20880;184803526;0.000000e+00;5.675514e+00;1.604010e+03
51;dpoinv;36;0;1;1;0;720;121;20880;20880;412776091;0.000000e+00;5.675296e+00;1.604072e+03
52;dpoinv;36;0;1;1;0;720;121;20880;20880;1424268980;0.000000e+00;5.699315e+00;1.597311e+03
53;dpoinv;36;0;1;1;0;720;121;20880;20880;1911759956;0.000000e+00;5.694007e+00;1.598800e+03
54;dpoinv;36;0;1;1;0;720;121;20880;20880;749241873;0.000000e+00;5.685909e+00;1.601078e+03
55;dpoinv;36;0;1;1;0;720;121;20880;20880;137806862;0.000000e+00;5.690408e+00;1.599812e+03
56;dpoinv;36;0;1;1;0;720;121;20880;20880;42999170;0.000000e+00;5.685092e+00;1.601308e+03
57;dpoinv;36;0;1;1;0;720;121;20880;20880;982906996;0.000000e+00;5.702920e+00;1.596302e+03
58;dpoinv;36;0;1;1;0;720;121;20880;20880;135497281;0.000000e+00;5.684796e+00;1.601391e+03
59;dpoinv;36;0;1;1;0;720;121;20880;20880;511702305;0.000000e+00;5.704972e+00;1.595728e+03
60;dpoinv;36;0;1;1;0;720;121;23040;23040;2084420925;0.000000e+00;7.619770e+00;1.605183e+03
61;dpoinv;36;0;1;1;0;720;121;23040;23040;1937477084;0.000000e+00;7.624464e+00;1.604194e+03
62;dpoinv;36;0;1;1;0;720;121;23040;23040;1827336327;0.000000e+00;7.606935e+00;1.607891e+03
63;dpoinv;36;0;1;1;0;720;121;23040;23040;572660336;0.000000e+00;7.613079e+00;1.606593e+03
64;dpoinv;36;0;1;1;0;720;121;23040;23040;1159126505;0.000000e+00;7.609463e+00;1.607357e+03
65;dpoinv;36;0;1;1;0;720;121;23040;23040;805750846;0.000000e+00;7.623688e+00;1.604358e+03
66;dpoinv;36;0;1;1;0;720;121;23040;23040;1632621729;0.000000e+00;7.593568e+00;1.610721e+03
67;dpoinv;36;0;1;1;0;720;121;23040;23040;1100661313;0.000000e+00;7.604926e+00;1.608316e+03
68;dpoinv;36;0;1;1;0;720;121;23040;23040;1433925857;0.000000e+00;7.534054e+00;1.623445e+03
69;dpoinv;36;0;1;1;0;720;121;23040;23040;1141616124;0.000000e+00;7.529183e+00;1.624495e+03
70;dpoinv;36;0;1;1;0;720;121;25200;25200;84353895;0.000000e+00;9.824608e+00;1.628935e+03
71;dpoinv;36;0;1;1;0;720;121;25200;25200;939819582;0.000000e+00;9.827329e+00;1.628484e+03
72;dpoinv;36;0;1;1;0;720;121;25200;25200;2001100545;0.000000e+00;9.824067e+00;1.629024e+03
73;dpoinv;36;0;1;1;0;720;121;25200;25200;1998898814;0.000000e+00;9.815628e+00;1.630425e+03
74;dpoinv;36;0;1;1;0;720;121;25200;25200;1548233367;0.000000e+00;9.816264e+00;1.630319e+03
75;dpoinv;36;0;1;1;0;720;121;25200;25200;610515434;0.000000e+00;9.851404e+00;1.624504e+03
76;dpoinv;36;0;1;1;0;720;121;25200;25200;1585990364;0.000000e+00;9.826774e+00;1.628575e+03
77;dpoinv;36;0;1;1;0;720;121;25200;25200;1374344043;0.000000e+00;9.814439e+00;1.630622e+03
78;dpoinv;36;0;1;1;0;720;121;25200;25200;760313750;0.000000e+00;9.821275e+00;1.629487e+03
79;dpoinv;36;0;1;1;0;720;121;25200;25200;1477171087;0.000000e+00;9.805555e+00;1.632100e+03
80;dpoinv;36;0;1;1;0;720;121;27360;27360;356426808;0.000000e+00;1.253231e+01;1.634305e+03
81;dpoinv;36;0;1;1;0;720;121;27360;27360;945117276;0.000000e+00;1.249743e+01;1.638866e+03
82;dpoinv;36;0;1;1;0;720;121;27360;27360;1889947178;0.000000e+00;1.251436e+01;1.636648e+03
83;dpoinv;36;0;1;1;0;720;121;27360;27360;1780695788;0.000000e+00;1.255487e+01;1.631368e+03
84;dpoinv;36;0;1;1;0;720;121;27360;27360;709393584;0.000000e+00;1.250645e+01;1.637684e+03
85;dpoinv;36;0;1;1;0;720;121;27360;27360;491705403;0.000000e+00;1.251869e+01;1.636083e+03
86;dpoinv;36;0;1;1;0;720;121;27360;27360;1918502651;0.000000e+00;1.255038e+01;1.631951e+03
87;dpoinv;36;0;1;1;0;720;121;27360;27360;752392754;0.000000e+00;1.251188e+01;1.636974e+03
88;dpoinv;36;0;1;1;0;720;121;27360;27360;1474612399;0.000000e+00;1.253585e+01;1.633843e+03
89;dpoinv;36;0;1;1;0;720;121;27360;27360;2053999932;0.000000e+00;1.251572e+01;1.636472e+03
