Id;Function;threads;gpus;P;Q;mtxfmt;nb;uplo;n;nrhs;lda;ldb;seedA;seedB;tsub;time;gflops
0;dposv;36;0;1;1;1;720;121;720;1;720;720;1681692777;1714636915;0.000000e+00;9.532155e-03;1.318822e+01
1;dposv;36;0;1;1;1;720;121;720;1;720;720;1957747793;424238335;0.000000e+00;9.472164e-03;1.327174e+01
2;dposv;36;0;1;1;1;720;121;720;1;720;720;719885386;1649760492;0.000000e+00;8.456594e-03;1.486557e+01
3;dposv;36;0;1;1;1;720;121;720;1;720;720;596516649;1189641421;0.000000e+00;9.673420e-03;1.299562e+01
4;dposv;36;0;1;1;1;720;121;720;1;720;720;1025202362;1350490027;0.000000e+00;9.754042e-03;1.288821e+01
5;dposv;36;0;1;1;1;720;121;720;1;720;720;783368690;1102520059;0.000000e+00;9.859786e-03;1.274998e+01
6;dposv;36;0;1;1;1;720;121;720;1;720;720;2044897763;1967513926;0.000000e+00;8.522805e-03;1.475009e+01
7;dposv;36;0;1;1;1;720;121;720;1;720;720;1365180540;1540383426;0.000000e+00;9.137824e-03;1.375734e+01
8;dposv;36;0;1;1;1;720;121;720;1;720;720;304089172;1303455736;0.000000e+00;9.123025e-03;1.377965e+01
9;dposv;36;0;1;1;1;720;121;720;1;720;720;35005211;521595368;0.000000e+00;9.145626e-03;1.374560e+01
10;dposv;36;0;1;1;1;720;121;1440;1;1440;1440;294702567;1726956429;0.000000e+00;2.262400e-02;4.422349e+01
11;dposv;36;0;1;1;1;720;121;1440;1;1440;1440;336465782;861021530;0.000000e+00;2.677896e-02;3.736188e+01
12;dposv;36;0;1;1;1;720;121;1440;1;1440;1440;278722862;233665123;0.000000e+00;2.172342e-02;4.605684e+01
13;dposv;36;0;1;1;1;720;121;1440;1;1440;1440;2145174067;468703135;0.000000e+00;2.219092e-02;4.508656e+01
14;dposv;36;0;1;1;1;720;121;1440;1;1440;1440;1101513929;1801979802;0.000000e+00;2.005754e-02;4.988210e+01
15;dposv;36;0;1;1;1;720;121;1440;1;1440;1440;1315634022;635723058;0.000000e+00;2.618782e-02;3.820524e+01
16;dposv;36;0;1;1;1;720;121;1440;1;1440;1440;1369133069;1125898167;0.000000e+00;2.116293e-02;4.727665e+01
17;dposv;36;0;1;1;1;720;121;1440;1;1440;1440;1059961393;2089018456;0.000000e+00;2.178340e-02;4.593004e+01
18;dposv;36;0;1;1;1;720;121;1440;1;1440;1440;628175011;1656478042;0.000000e+00;2.075632e-02;4.820278e+01
19;dposv;36;0;1;1;1;720;121;1440;1;1440;1440;1131176229;1653377373;0.000000e+00;2.672459e-02;3.743789e+01
20;dposv;36;0;1;1;1;720;121;2160;1;2160;2160;859484421;1914544919;0.000000e+00;4.608983e-02;7.313753e+01
21;dposv;36;0;1;1;1;720;121;2160;1;2160;2160;608413784;756898537;0.000000e+00;4.906456e-02;6.870328e+01
22;dposv;36;0;1;1;1;720;121;2160;1;2160;2160;1734575198;1973594324;0.000000e+00;3.793771e-02;8.885345e+01
23;dposv;36;0;1;1;1;720;121;2160;1;2160;2160;149798315;2038664370;0.000000e+00;3.914188e-02;8.611994e+01
24;dposv;36;0;1;1;1;720;121;2160;1;2160;2160;1129566413;184803526;0.000000e+00;4.012080e-02;8.401867e+01
25;dposv;36;0;1;1;1;720;121;2160;1;2160;2160;412776091;1424268980;0.000000e+00;3.971613e-02;8.487475e+01
26;dposv;36;0;1;1;1;720;121;2160;1;2160;2160;1911759956;749241873;0.000000e+00;3.669111e-02;9.187230e+01
27;dposv;36;0;1;1;1;720;121;2160;1;2160;2160;137806862;42999170;0.000000e+00;4.500246e-02;7.490472e+01
28;dposv;36;0;1;1;1;720;121;2160;1;2160;2160;982906996;135497281;0.000000e+00;3.853687e-02;8.747198e+01
29;dposv;36;0;1;1;1;720;121;2160;1;2160;2160;511702305;2084420925;0.000000e+00;3.771874e-02;8.936928e+01
30;dposv;36;0;1;1;1;720;121;2880;1;2880;2880;1937477084;1827336327;0.000000e+00;5.732721e-02;1.392595e+02
31;dposv;36;0;1;1;1;720;121;2880;1;2880;2880;572660336;1159126505;0.000000e+00;5.564158e-02;1.434783e+02
32;dposv;36;0;1;1;1;720;121;2880;1;2880;2880;805750846;1632621729;0.000000e+00;5.545647e-02;1.439573e+02
33;dposv;36;0;1;1;1;720;121;2880;1;2880;2880;1100661313;1433925857;0.000000e+00;5.598809e-02;1.425903e+02
34;dposv;36;0;1;1;1;720;121;2880;1;2880;2880;1141616124;84353895;0.000000e+00;5.605335e-02;1.424243e+02
35;dposv;36;0;1;1;1;720;121;2880;1;2880;2880;939819582;2001100545;0.000000e+00;5.575835e-02;1.431778e+02
36;dposv;36;0;1;1;1;720;121;2880;1;2880;2880;1998898814;1548233367;0.000000e+00;5.511157e-02;1.448581e+02
37;dposv;36;0;1;1;1;720;121;2880;1;2880;2880;610515434;1585990364;0.000000e+00;5.458690e-02;1.462505e+02
38;dposv;36;0;1;1;1;720;121;2880;1;2880;2880;1374344043;760313750;0.000000e+00;5.453647e-02;1.463857e+02
39;dposv;36;0;1;1;1;720;121;2880;1;2880;2880;1477171087;356426808;0.000000e+00;5.491570e-02;1.453748e+02
40;dposv;36;0;1;1;1;720;121;3600;1;3600;3600;945117276;1889947178;0.000000e+00;7.346680e-02;2.121285e+02
41;dposv;36;0;1;1;1;720;121;3600;1;3600;3600;1780695788;709393584;0.000000e+00;7.378647e-02;2.112094e+02
42;dposv;36;0;1;1;1;720;121;3600;1;3600;3600;491705403;1918502651;0.000000e+00;7.379783e-02;2.111769e+02
43;dposv;36;0;1;1;1;720;121;3600;1;3600;3600;752392754;1474612399;0.000000e+00;7.340259e-02;2.123141e+02
44;dposv;36;0;1;1;1;720;121;3600;1;3600;3600;2053999932;1264095060;0.000000e+00;7.292523e-02;2.137038e+02
45;dposv;36;0;1;1;1;720;121;3600;1;3600;3600;1411549676;1843993368;0.000000e+00;7.416166e-02;2.101409e+02
46;dposv;36;0;1;1;1;720;121;3600;1;3600;3600;943947739;1984210012;0.000000e+00;7.356520e-02;2.118447e+02
47;dposv;36;0;1;1;1;720;121;3600;1;3600;3600;855636226;1749698586;0.000000e+00;7.397343e-02;2.106757e+02
48;dposv;36;0;1;1;1;720;121;3600;1;3600;3600;1469348094;1956297539;0.000000e+00;7.352007e-02;2.119748e+02
49;dposv;36;0;1;1;1;720;121;3600;1;3600;3600;1036140795;463480570;0.000000e+00;7.455293e-02;2.090381e+02
50;dposv;36;0;1;1;1;720;121;4320;1;4320;4320;2040651434;1975960378;0.000000e+00;9.145335e-02;2.943633e+02
51;dposv;36;0;1;1;1;720;121;4320;1;4320;4320;317097467;1892066601;0.000000e+00;9.257524e-02;2.907960e+02
52;dposv;36;0;1;1;1;720;121;4320;1;4320;4320;1376710097;927612902;0.000000e+00;9.142126e-02;2.944667e+02
53;dposv;36;0;1;1;1;720;121;4320;1;4320;4320;1330573317;603570492;0.000000e+00;9.116521e-02;2.952937e+02
54;dposv;36;0;1;1;1;720;121;4320;1;4320;4320;1687926652;660260756;0.000000e+00;9.208231e-02;2.923527e+02
55;dposv;36;0;1;1;1;720;121;4320;1;4320;4320;959997301;485560280;0.000000e+00;9.242401e-02;2.912718e+02
56;dposv;36;0;1;1;1;720;121;4320;1;4320;4320;402724286;593209441;0.000000e+00;9.294801e-02;2.896298e+02
57;dposv;36;0;1;1;1;720;121;4320;1;4320;4320;1194953865;894429689;0.000000e+00;9.163316e-02;2.937857e+02
58;dposv;36;0;1;1;1;720;121;4320;1;4320;4320;364228444;1947346619;0.000000e+00;9.212395e-02;2.922206e+02
59;dposv;36;0;1;1;1;720;121;4320;1;4320;4320;221558440;270744729;0.000000e+00;9.209363e-02;2.923168e+02
60;dposv;36;0;1;1;1;720;121;5040;1;5040;5040;1063958031;1633108117;0.000000e+00;1.113544e-01;3.838033e+02
61;dposv;36;0;1;1;1;720;121;5040;1;5040;5040;2114738097;2007905771;0.000000e+00;1.121235e-01;3.811708e+02
62;dposv;36;0;1;1;1;720;121;5040;1;5040;5040;1469834481;822890675;0.000000e+00;1.111332e-01;3.845674e+02
63;dposv;36;0;1;1;1;720;121;5040;1;5040;5040;1610120709;791698927;0.000000e+00;1.109654e-01;3.851489e+02
64;dposv;36;0;1;1;1;720;121;5040;1;5040;5040;631704567;498777856;0.000000e+00;1.109873e-01;3.850728e+02
65;dposv;36;0;1;1;1;720;121;5040;1;5040;5040;1255179497;524872353;0.000000e+00;1.118239e-01;3.821919e+02
66;dposv;36;0;1;1;1;720;121;5040;1;5040;5040;327254586;1572276965;0.000000e+00;1.102690e-01;3.875812e+02
67;dposv;36;0;1;1;1;720;121;5040;1;5040;5040;269455306;1703964683;0.000000e+00;1.123377e-01;3.804437e+02
68;dposv;36;0;1;1;1;720;121;5040;1;5040;5040;352406219;1600028624;0.000000e+00;1.104087e-01;3.870910e+02
69;dposv;36;0;1;1;1;720;121;5040;1;5040;5040;160051528;2040332871;0.000000e+00;1.112636e-01;3.841166e+02
70;dposv;36;0;1;1;1;720;121;5760;1;5760;5760;112805732;1120048829;0.000000e+00;1.312149e-01;4.861028e+02
71;dposv;36;0;1;1;1;720;121;5760;1;5760;5760;378409503;515530019;0.000000e+00;1.318336e-01;4.838216e+02
72;dposv;36;0;1;1;1;720;121;5760;1;5760;5760;1713258270;1573363368;0.000000e+00;1.313766e-01;4.855047e+02
73;dposv;36;0;1;1;1;720;121;5760;1;5760;5760;1409959708;2077486715;0.000000e+00;1.311782e-01;4.862388e+02
74;dposv;36;0;1;1;1;720;121;5760;1;5760;5760;1373226340;1631518149;0.000000e+00;1.332139e-01;4.788083e+02
75;dposv;36;0;1;1;1;720;121;5760;1;5760;5760;200747796;289700723;0.000000e+00;1.319468e-01;4.834065e+02
76;dposv;36;0;1;1;1;720;121;5760;1;5760;5760;1117142618;168002245;0.000000e+00;1.345549e-01;4.740364e+02
77;dposv;36;0;1;1;1;720;121;5760;1;5760;5760;150122846;439493451;0.000000e+00;1.322558e-01;4.822771e+02
78;dposv;36;0;1;1;1;720;121;5760;1;5760;5760;990892921;1760243555;0.000000e+00;1.312245e-01;4.860672e+02
79;dposv;36;0;1;1;1;720;121;5760;1;5760;5760;1231192379;1622597488;0.000000e+00;1.331153e-01;4.791631e+02
80;dposv;36;0;1;1;1;720;121;6480;1;6480;6480;111537764;338888228;0.000000e+00;1.550573e-01;5.856173e+02
81;dposv;36;0;1;1;1;720;121;6480;1;6480;6480;2147469841;438792350;0.000000e+00;1.541596e-01;5.890274e+02
82;dposv;36;0;1;1;1;720;121;6480;1;6480;6480;1911165193;269441500;0.000000e+00;1.544886e-01;5.877732e+02
83;dposv;36;0;1;1;1;720;121;6480;1;6480;6480;2142757034;116087764;0.000000e+00;1.534097e-01;5.919069e+02
84;dposv;36;0;1;1;1;720;121;6480;1;6480;6480;1869470124;155324914;0.000000e+00;1.552974e-01;5.847120e+02
85;dposv;36;0;1;1;1;720;121;6480;1;6480;6480;8936987;1982275856;0.000000e+00;1.538810e-01;5.900941e+02
86;dposv;36;0;1;1;1;720;121;6480;1;6480;6480;1275373743;387346491;0.000000e+00;1.550335e-01;5.857071e+02
87;dposv;36;0;1;1;1;720;121;6480;1;6480;6480;350322227;841148365;0.000000e+00;1.552045e-01;5.850618e+02
88;dposv;36;0;1;1;1;720;121;6480;1;6480;6480;1960709859;1760281936;0.000000e+00;1.538610e-01;5.901706e+02
89;dposv;36;0;1;1;1;720;121;6480;1;6480;6480;771151432;1186452551;0.000000e+00;1.545852e-01;5.874059e+02
90;dposv;36;0;1;1;1;720;121;7200;1;7200;7200;1244316437;971899228;0.000000e+00;1.826382e-01;6.819251e+02
91;dposv;36;0;1;1;1;720;121;7200;1;7200;7200;1476153275;213975407;0.000000e+00;1.783165e-01;6.984523e+02
92;dposv;36;0;1;1;1;720;121;7200;1;7200;7200;1139901474;1626276121;0.000000e+00;1.770608e-01;7.034060e+02
93;dposv;36;0;1;1;1;720;121;7200;1;7200;7200;653468858;2130794395;0.000000e+00;1.775988e-01;7.012750e+02
94;dposv;36;0;1;1;1;720;121;7200;1;7200;7200;1239036029;1884661237;0.000000e+00;1.825074e-01;6.824138e+02
95;dposv;36;0;1;1;1;720;121;7200;1;7200;7200;1605908235;1350573793;0.000000e+00;1.770485e-01;7.034549e+02
96;dposv;36;0;1;1;1;720;121;7200;1;7200;7200;76065818;1605894428;0.000000e+00;1.812292e-01;6.872269e+02
97;dposv;36;0;1;1;1;720;121;7200;1;7200;7200;1789366143;1987231011;0.000000e+00;1.788105e-01;6.965229e+02
98;dposv;36;0;1;1;1;720;121;7200;1;7200;7200;1875335928;1784639529;0.000000e+00;1.820964e-01;6.839541e+02
99;dposv;36;0;1;1;1;720;121;7200;1;7200;7200;2103318776;1597322404;0.000000e+00;1.776473e-01;7.010834e+02
100;dposv;36;0;1;1;1;720;121;7920;1;7920;7920;1939964443;2112255763;0.000000e+00;2.078455e-01;7.974889e+02
101;dposv;36;0;1;1;1;720;121;7920;1;7920;7920;1432114613;1067854538;0.000000e+00;2.093851e-01;7.916252e+02
102;dposv;36;0;1;1;1;720;121;7920;1;7920;7920;352118606;1782436840;0.000000e+00;2.068543e-01;8.013104e+02
103;dposv;36;0;1;1;1;720;121;7920;1;7920;7920;1909002904;165344818;0.000000e+00;2.078060e-01;7.976406e+02
104;dposv;36;0;1;1;1;720;121;7920;1;7920;7920;1395235128;532670688;0.000000e+00;2.073603e-01;7.993552e+02
105;dposv;36;0;1;1;1;720;121;7920;1;7920;7920;1351797369;492067917;0.000000e+00;2.074302e-01;7.990857e+02
106;dposv;36;0;1;1;1;720;121;7920;1;7920;7920;1504569917;680466996;0.000000e+00;2.084434e-01;7.952015e+02
107;dposv;36;0;1;1;1;720;121;7920;1;7920;7920;706043324;496987743;0.000000e+00;2.080353e-01;7.967617e+02
108;dposv;36;0;1;1;1;720;121;7920;1;7920;7920;159259470;1359512183;0.000000e+00;2.109800e-01;7.856410e+02
109;dposv;36;0;1;1;1;720;121;7920;1;7920;7920;480298490;1398295499;0.000000e+00;2.097007e-01;7.904337e+02
110;dposv;36;0;1;1;1;720;121;8640;1;8640;8640;1096689772;2086206725;0.000000e+00;2.425254e-01;8.872370e+02
111;dposv;36;0;1;1;1;720;121;8640;1;8640;8640;601385644;1172755590;0.000000e+00;2.364945e-01;9.098626e+02
112;dposv;36;0;1;1;1;720;121;8640;1;8640;8640;1544617505;243268139;0.000000e+00;2.374231e-01;9.063037e+02
113;dposv;36;0;1;1;1;720;121;8640;1;8640;8640;1012502954;1272469786;0.000000e+00;2.366044e-01;9.094400e+02
114;dposv;36;0;1;1;1;720;121;8640;1;8640;8640;2027907669;968338082;0.000000e+00;2.455805e-01;8.761993e+02
115;dposv;36;0;1;1;1;720;121;8640;1;8640;8640;722308542;1820388464;0.000000e+00;2.441834e-01;8.812125e+02
116;dposv;36;0;1;1;1;720;121;8640;1;8640;8640;933110197;6939507;0.000000e+00;2.383681e-01;9.027109e+02
117;dposv;36;0;1;1;1;720;121;8640;1;8640;8640;740759355;1285228804;0.000000e+00;2.439735e-01;8.819706e+02
118;dposv;36;0;1;1;1;720;121;8640;1;8640;8640;1789376348;502278611;0.000000e+00;2.426333e-01;8.868422e+02
119;dposv;36;0;1;1;1;720;121;8640;1;8640;8640;1450573622;1037127828;0.000000e+00;2.441705e-01;8.812591e+02
120;dposv;36;0;1;1;1;720;121;9360;1;9360;9360;1034949299;654887343;0.000000e+00;2.808615e-01;9.740068e+02
121;dposv;36;0;1;1;1;720;121;9360;1;9360;9360;1529195746;392035568;0.000000e+00;2.764149e-01;9.896753e+02
122;dposv;36;0;1;1;1;720;121;9360;1;9360;9360;1335354340;87755422;0.000000e+00;2.744697e-01;9.966893e+02
123;dposv;36;0;1;1;1;720;121;9360;1;9360;9360;889023311;1494613810;0.000000e+00;2.776414e-01;9.853031e+02
124;dposv;36;0;1;1;1;720;121;9360;1;9360;9360;1447267605;1369321801;0.000000e+00;2.730570e-01;1.001846e+03
125;dposv;36;0;1;1;1;720;121;9360;1;9360;9360;745425661;396473730;0.000000e+00;2.743213e-01;9.972284e+02
126;dposv;36;0;1;1;1;720;121;9360;1;9360;9360;1308044878;1346811305;0.000000e+00;2.763758e-01;9.898151e+02
127;dposv;36;0;1;1;1;720;121;9360;1;9360;9360;1569229320;705178736;0.000000e+00;2.797302e-01;9.779457e+02
128;dposv;36;0;1;1;1;720;121;9360;1;9360;9360;1590079444;434248626;0.000000e+00;2.799790e-01;9.770766e+02
129;dposv;36;0;1;1;1;720;121;9360;1;9360;9360;1977648522;1470503465;0.000000e+00;2.719352e-01;1.005979e+03
0;dposv;36;0;1;1;1;720;121;10080;1;10080;10080;1681692777;1714636915;0.000000e+00;3.241246e-01;1.054075e+03
1;dposv;36;0;1;1;1;720;121;10080;1;10080;10080;1957747793;424238335;0.000000e+00;3.131355e-01;1.091066e+03
2;dposv;36;0;1;1;1;720;121;10080;1;10080;10080;719885386;1649760492;0.000000e+00;3.164110e-01;1.079771e+03
3;dposv;36;0;1;1;1;720;121;10080;1;10080;10080;596516649;1189641421;0.000000e+00;3.185372e-01;1.072564e+03
4;dposv;36;0;1;1;1;720;121;10080;1;10080;10080;1025202362;1350490027;0.000000e+00;3.152583e-01;1.083719e+03
5;dposv;36;0;1;1;1;720;121;10080;1;10080;10080;783368690;1102520059;0.000000e+00;3.172010e-01;1.077082e+03
6;dposv;36;0;1;1;1;720;121;10080;1;10080;10080;2044897763;1967513926;0.000000e+00;3.174071e-01;1.076383e+03
7;dposv;36;0;1;1;1;720;121;10080;1;10080;10080;1365180540;1540383426;0.000000e+00;3.172360e-01;1.076963e+03
8;dposv;36;0;1;1;1;720;121;10080;1;10080;10080;304089172;1303455736;0.000000e+00;3.210728e-01;1.064094e+03
9;dposv;36;0;1;1;1;720;121;10080;1;10080;10080;35005211;521595368;0.000000e+00;3.228176e-01;1.058342e+03
10;dposv;36;0;1;1;1;720;121;12240;1;12240;12240;294702567;1726956429;0.000000e+00;5.012725e-01;1.220155e+03
11;dposv;36;0;1;1;1;720;121;12240;1;12240;12240;336465782;861021530;0.000000e+00;5.022460e-01;1.217790e+03
12;dposv;36;0;1;1;1;720;121;12240;1;12240;12240;278722862;233665123;0.000000e+00;4.928211e-01;1.241080e+03
13;dposv;36;0;1;1;1;720;121;12240;1;12240;12240;2145174067;468703135;0.000000e+00;4.922747e-01;1.242458e+03
14;dposv;36;0;1;1;1;720;121;12240;1;12240;12240;1101513929;1801979802;0.000000e+00;4.917045e-01;1.243898e+03
15;dposv;36;0;1;1;1;720;121;12240;1;12240;12240;1315634022;635723058;0.000000e+00;4.842442e-01;1.263062e+03
16;dposv;36;0;1;1;1;720;121;12240;1;12240;12240;1369133069;1125898167;0.000000e+00;4.892963e-01;1.250020e+03
17;dposv;36;0;1;1;1;720;121;12240;1;12240;12240;1059961393;2089018456;0.000000e+00;4.949100e-01;1.235842e+03
18;dposv;36;0;1;1;1;720;121;12240;1;12240;12240;628175011;1656478042;0.000000e+00;5.015496e-01;1.219481e+03
19;dposv;36;0;1;1;1;720;121;12240;1;12240;12240;1131176229;1653377373;0.000000e+00;5.016556e-01;1.219224e+03
20;dposv;36;0;1;1;1;720;121;14400;1;14400;14400;859484421;1914544919;0.000000e+00;7.542811e-01;1.320259e+03
21;dposv;36;0;1;1;1;720;121;14400;1;14400;14400;608413784;756898537;0.000000e+00;7.377577e-01;1.349829e+03
22;dposv;36;0;1;1;1;720;121;14400;1;14400;14400;1734575198;1973594324;0.000000e+00;7.596521e-01;1.310924e+03
23;dposv;36;0;1;1;1;720;121;14400;1;14400;14400;149798315;2038664370;0.000000e+00;7.527338e-01;1.322973e+03
24;dposv;36;0;1;1;1;720;121;14400;1;14400;14400;1129566413;184803526;0.000000e+00;7.575596e-01;1.314545e+03
25;dposv;36;0;1;1;1;720;121;14400;1;14400;14400;412776091;1424268980;0.000000e+00;7.516279e-01;1.324919e+03
26;dposv;36;0;1;1;1;720;121;14400;1;14400;14400;1911759956;749241873;0.000000e+00;7.522400e-01;1.323841e+03
27;dposv;36;0;1;1;1;720;121;14400;1;14400;14400;137806862;42999170;0.000000e+00;7.570187e-01;1.315485e+03
28;dposv;36;0;1;1;1;720;121;14400;1;14400;14400;982906996;135497281;0.000000e+00;7.464115e-01;1.334179e+03
29;dposv;36;0;1;1;1;720;121;14400;1;14400;14400;511702305;2084420925;0.000000e+00;7.515078e-01;1.325131e+03
30;dposv;36;0;1;1;1;720;121;16560;1;16560;16560;1937477084;1827336327;0.000000e+00;1.112673e+00;1.361096e+03
31;dposv;36;0;1;1;1;720;121;16560;1;16560;16560;572660336;1159126505;0.000000e+00;1.088413e+00;1.391434e+03
32;dposv;36;0;1;1;1;720;121;16560;1;16560;16560;805750846;1632621729;0.000000e+00;1.089856e+00;1.389592e+03
33;dposv;36;0;1;1;1;720;121;16560;1;16560;16560;1100661313;1433925857;0.000000e+00;1.096356e+00;1.381353e+03
34;dposv;36;0;1;1;1;720;121;16560;1;16560;16560;1141616124;84353895;0.000000e+00;1.086807e+00;1.393490e+03
35;dposv;36;0;1;1;1;720;121;16560;1;16560;16560;939819582;2001100545;0.000000e+00;1.115619e+00;1.357502e+03
36;dposv;36;0;1;1;1;720;121;16560;1;16560;16560;1998898814;1548233367;0.000000e+00;1.088123e+00;1.391805e+03
37;dposv;36;0;1;1;1;720;121;16560;1;16560;16560;610515434;1585990364;0.000000e+00;1.104300e+00;1.371417e+03
38;dposv;36;0;1;1;1;720;121;16560;1;16560;16560;1374344043;760313750;0.000000e+00;1.094605e+00;1.383563e+03
39;dposv;36;0;1;1;1;720;121;16560;1;16560;16560;1477171087;356426808;0.000000e+00;1.120760e+00;1.351276e+03
40;dposv;36;0;1;1;1;720;121;18720;1;18720;18720;945117276;1889947178;0.000000e+00;1.561945e+00;1.400569e+03
41;dposv;36;0;1;1;1;720;121;18720;1;18720;18720;1780695788;709393584;0.000000e+00;1.566539e+00;1.396461e+03
42;dposv;36;0;1;1;1;720;121;18720;1;18720;18720;491705403;1918502651;0.000000e+00;1.531237e+00;1.428657e+03
43;dposv;36;0;1;1;1;720;121;18720;1;18720;18720;752392754;1474612399;0.000000e+00;1.575973e+00;1.388102e+03
44;dposv;36;0;1;1;1;720;121;18720;1;18720;18720;2053999932;1264095060;0.000000e+00;1.543452e+00;1.417350e+03
45;dposv;36;0;1;1;1;720;121;18720;1;18720;18720;1411549676;1843993368;0.000000e+00;1.542444e+00;1.418276e+03
46;dposv;36;0;1;1;1;720;121;18720;1;18720;18720;943947739;1984210012;0.000000e+00;1.561835e+00;1.400667e+03
47;dposv;36;0;1;1;1;720;121;18720;1;18720;18720;855636226;1749698586;0.000000e+00;1.567105e+00;1.395957e+03
48;dposv;36;0;1;1;1;720;121;18720;1;18720;18720;1469348094;1956297539;0.000000e+00;1.551166e+00;1.410302e+03
49;dposv;36;0;1;1;1;720;121;18720;1;18720;18720;1036140795;463480570;0.000000e+00;1.550378e+00;1.411019e+03
50;dposv;36;0;1;1;1;720;121;20880;1;20880;20880;2040651434;1975960378;0.000000e+00;2.097389e+00;1.447262e+03
51;dposv;36;0;1;1;1;720;121;20880;1;20880;20880;317097467;1892066601;0.000000e+00;2.126558e+00;1.427411e+03
52;dposv;36;0;1;1;1;720;121;20880;1;20880;20880;1376710097;927612902;0.000000e+00;2.143619e+00;1.416050e+03
53;dposv;36;0;1;1;1;720;121;20880;1;20880;20880;1330573317;603570492;0.000000e+00;2.104180e+00;1.442591e+03
54;dposv;36;0;1;1;1;720;121;20880;1;20880;20880;1687926652;660260756;0.000000e+00;2.127561e+00;1.426738e+03
55;dposv;36;0;1;1;1;720;121;20880;1;20880;20880;959997301;485560280;0.000000e+00;2.141868e+00;1.417208e+03
56;dposv;36;0;1;1;1;720;121;20880;1;20880;20880;402724286;593209441;0.000000e+00;2.132104e+00;1.423698e+03
57;dposv;36;0;1;1;1;720;121;20880;1;20880;20880;1194953865;894429689;0.000000e+00;2.116889e+00;1.433931e+03
58;dposv;36;0;1;1;1;720;121;20880;1;20880;20880;364228444;1947346619;0.000000e+00;2.100029e+00;1.445443e+03
59;dposv;36;0;1;1;1;720;121;20880;1;20880;20880;221558440;270744729;0.000000e+00;2.133738e+00;1.422608e+03
60;dposv;36;0;1;1;1;720;121;23040;1;23040;23040;1063958031;1633108117;0.000000e+00;2.778460e+00;1.467788e+03
61;dposv;36;0;1;1;1;720;121;23040;1;23040;23040;2114738097;2007905771;0.000000e+00;2.803479e+00;1.454689e+03
62;dposv;36;0;1;1;1;720;121;23040;1;23040;23040;1469834481;822890675;0.000000e+00;2.773565e+00;1.470379e+03
63;dposv;36;0;1;1;1;720;121;23040;1;23040;23040;1610120709;791698927;0.000000e+00;2.789089e+00;1.462194e+03
64;dposv;36;0;1;1;1;720;121;23040;1;23040;23040;631704567;498777856;0.000000e+00;2.803601e+00;1.454626e+03
65;dposv;36;0;1;1;1;720;121;23040;1;23040;23040;1255179497;524872353;0.000000e+00;2.813623e+00;1.449445e+03
66;dposv;36;0;1;1;1;720;121;23040;1;23040;23040;327254586;1572276965;0.000000e+00;2.785596e+00;1.464028e+03
67;dposv;36;0;1;1;1;720;121;23040;1;23040;23040;269455306;1703964683;0.000000e+00;2.829330e+00;1.441398e+03
68;dposv;36;0;1;1;1;720;121;23040;1;23040;23040;352406219;1600028624;0.000000e+00;2.783008e+00;1.465390e+03
69;dposv;36;0;1;1;1;720;121;23040;1;23040;23040;160051528;2040332871;0.000000e+00;2.770542e+00;1.471983e+03
70;dposv;36;0;1;1;1;720;121;25200;1;25200;25200;112805732;1120048829;0.000000e+00;3.609351e+00;1.478361e+03
71;dposv;36;0;1;1;1;720;121;25200;1;25200;25200;378409503;515530019;0.000000e+00;3.621265e+00;1.473497e+03
72;dposv;36;0;1;1;1;720;121;25200;1;25200;25200;1713258270;1573363368;0.000000e+00;3.640381e+00;1.465760e+03
73;dposv;36;0;1;1;1;720;121;25200;1;25200;25200;1409959708;2077486715;0.000000e+00;3.614261e+00;1.476352e+03
74;dposv;36;0;1;1;1;720;121;25200;1;25200;25200;1373226340;1631518149;0.000000e+00;3.638855e+00;1.466374e+03
75;dposv;36;0;1;1;1;720;121;25200;1;25200;25200;200747796;289700723;0.000000e+00;3.650375e+00;1.461747e+03
76;dposv;36;0;1;1;1;720;121;25200;1;25200;25200;1117142618;168002245;0.000000e+00;3.659561e+00;1.458077e+03
77;dposv;36;0;1;1;1;720;121;25200;1;25200;25200;150122846;439493451;0.000000e+00;3.617805e+00;1.474906e+03
78;dposv;36;0;1;1;1;720;121;25200;1;25200;25200;990892921;1760243555;0.000000e+00;3.673817e+00;1.452419e+03
79;dposv;36;0;1;1;1;720;121;25200;1;25200;25200;1231192379;1622597488;0.000000e+00;3.640022e+00;1.465904e+03
80;dposv;36;0;1;1;1;720;121;27360;1;27360;27360;111537764;338888228;0.000000e+00;4.711618e+00;1.449359e+03
81;dposv;36;0;1;1;1;720;121;27360;1;27360;27360;2147469841;438792350;0.000000e+00;4.697893e+00;1.453593e+03
82;dposv;36;0;1;1;1;720;121;27360;1;27360;27360;1911165193;269441500;0.000000e+00;4.642574e+00;1.470914e+03
83;dposv;36;0;1;1;1;720;121;27360;1;27360;27360;2142757034;116087764;0.000000e+00;4.618990e+00;1.478424e+03
84;dposv;36;0;1;1;1;720;121;27360;1;27360;27360;1869470124;155324914;0.000000e+00;4.722981e+00;1.445872e+03
85;dposv;36;0;1;1;1;720;121;27360;1;27360;27360;8936987;1982275856;0.000000e+00;4.633882e+00;1.473673e+03
86;dposv;36;0;1;1;1;720;121;27360;1;27360;27360;1275373743;387346491;0.000000e+00;4.670164e+00;1.462224e+03
87;dposv;36;0;1;1;1;720;121;27360;1;27360;27360;350322227;841148365;0.000000e+00;4.621038e+00;1.477769e+03
88;dposv;36;0;1;1;1;720;121;27360;1;27360;27360;1960709859;1760281936;0.000000e+00;4.681746e+00;1.458607e+03
89;dposv;36;0;1;1;1;720;121;27360;1;27360;27360;771151432;1186452551;0.000000e+00;4.649580e+00;1.468698e+03
