Id;Function;threads;gpus;P;Q;mtxfmt;nb;norm;uplo;n;lda;seedA;bump;tsub;time;gflops
0;dlansy;36;0;1;1;0;1024;171;121;1024;1024;1681692777;4.254358e-01;0.000000e+00;2.932072e-03;1.431889e+00
1;dlansy;36;0;1;1;0;1024;171;121;1024;1024;1957747793;4.892778e-01;0.000000e+00;1.956224e-03;2.146175e+00
2;dlansy;36;0;1;1;0;1024;171;121;1024;1024;719885386;3.777180e-01;0.000000e+00;2.429008e-03;1.728442e+00
3;dlansy;36;0;1;1;0;1024;171;121;1024;1024;596516649;-3.517510e-01;0.000000e+00;2.433062e-03;1.725563e+00
4;dlansy;36;0;1;1;0;1024;171;121;1024;1024;1025202362;4.000452e-01;0.000000e+00;2.722025e-03;1.542381e+00
5;dlansy;36;0;1;1;0;1024;171;121;1024;1024;783368690;3.744478e-01;0.000000e+00;3.758907e-03;1.116920e+00
6;dlansy;36;0;1;1;0;1024;171;121;1024;1024;2044897763;4.141058e-01;0.000000e+00;1.768112e-03;2.374510e+00
7;dlansy;36;0;1;1;0;1024;171;121;1024;1024;1365180540;-1.381986e-01;0.000000e+00;2.107143e-03;1.992461e+00
8;dlansy;36;0;1;1;0;1024;171;121;1024;1024;304089172;2.200654e-01;0.000000e+00;2.894163e-03;1.450644e+00
9;dlansy;36;0;1;1;0;1024;171;121;1024;1024;35005211;-1.757242e-01;0.000000e+00;2.033949e-03;2.064162e+00
10;dlansy;36;0;1;1;0;1024;171;121;2048;2048;294702567;-3.976154e-01;0.000000e+00;6.889105e-03;2.436515e+00
11;dlansy;36;0;1;1;0;1024;171;121;2048;2048;336465782;4.797187e-01;0.000000e+00;7.619858e-03;2.202851e+00
12;dlansy;36;0;1;1;0;1024;171;121;2048;2048;278722862;-3.098429e-01;0.000000e+00;4.736900e-03;3.543543e+00
13;dlansy;36;0;1;1;0;1024;171;121;2048;2048;2145174067;4.597866e-01;0.000000e+00;5.956888e-03;2.817815e+00
14;dlansy;36;0;1;1;0;1024;171;121;2048;2048;1101513929;3.332689e-02;0.000000e+00;5.372047e-03;3.124583e+00
15;dlansy;36;0;1;1;0;1024;171;121;2048;2048;1315634022;-3.123134e-01;0.000000e+00;4.939079e-03;3.398489e+00
16;dlansy;36;0;1;1;0;1024;171;121;2048;2048;1369133069;-2.396071e-01;0.000000e+00;5.190849e-03;3.233653e+00
17;dlansy;36;0;1;1;0;1024;171;121;2048;2048;1059961393;-4.405380e-01;0.000000e+00;5.196095e-03;3.230389e+00
18;dlansy;36;0;1;1;0;1024;171;121;2048;2048;628175011;-8.299381e-02;0.000000e+00;5.408049e-03;3.103783e+00
19;dlansy;36;0;1;1;0;1024;171;121;2048;2048;1131176229;-4.098657e-01;0.000000e+00;6.696939e-03;2.506430e+00
20;dlansy;36;0;1;1;0;1024;171;121;3072;3072;859484421;4.760135e-01;0.000000e+00;6.463051e-03;5.842600e+00
21;dlansy;36;0;1;1;0;1024;171;121;3072;3072;608413784;-2.172434e-01;0.000000e+00;8.194923e-03;4.607856e+00
22;dlansy;36;0;1;1;0;1024;171;121;3072;3072;1734575198;3.559216e-01;0.000000e+00;7.982016e-03;4.730763e+00
23;dlansy;36;0;1;1;0;1024;171;121;3072;3072;149798315;-3.746092e-01;0.000000e+00;6.843090e-03;5.518125e+00
24;dlansy;36;0;1;1;0;1024;171;121;3072;3072;1129566413;3.212047e-02;0.000000e+00;7.625818e-03;4.951734e+00
25;dlansy;36;0;1;1;0;1024;171;121;3072;3072;412776091;-3.302276e-01;0.000000e+00;6.364107e-03;5.933436e+00
26;dlansy;36;0;1;1;0;1024;171;121;3072;3072;1911759956;1.752074e-01;0.000000e+00;8.077860e-03;4.674632e+00
27;dlansy;36;0;1;1;0;1024;171;121;3072;3072;137806862;2.019681e-01;0.000000e+00;5.743980e-03;6.574017e+00
28;dlansy;36;0;1;1;0;1024;171;121;3072;3072;982906996;2.243788e-01;0.000000e+00;7.153988e-03;5.278318e+00
29;dlansy;36;0;1;1;0;1024;171;121;3072;3072;511702305;-1.333755e-01;0.000000e+00;7.731915e-03;4.883787e+00
30;dlansy;36;0;1;1;0;1024;171;121;4096;4096;1937477084;-3.694056e-01;0.000000e+00;8.925915e-03;7.520265e+00
31;dlansy;36;0;1;1;0;1024;171;121;4096;4096;572660336;-1.501402e-01;0.000000e+00;8.111000e-03;8.275829e+00
32;dlansy;36;0;1;1;0;1024;171;121;4096;4096;805750846;-1.383824e-01;0.000000e+00;8.476973e-03;7.918540e+00
33;dlansy;36;0;1;1;0;1024;171;121;4096;4096;1100661313;7.019839e-02;0.000000e+00;7.061958e-03;9.505189e+00
34;dlansy;36;0;1;1;0;1024;171;121;4096;4096;1141616124;-2.465265e-01;0.000000e+00;7.346869e-03;9.136579e+00
35;dlansy;36;0;1;1;0;1024;171;121;4096;4096;939819582;2.290667e-01;0.000000e+00;7.289886e-03;9.207996e+00
36;dlansy;36;0;1;1;0;1024;171;121;4096;4096;1998898814;-2.416937e-01;0.000000e+00;7.144928e-03;9.394811e+00
37;dlansy;36;0;1;1;0;1024;171;121;4096;4096;610515434;2.529978e-01;0.000000e+00;7.398129e-03;9.073274e+00
38;dlansy;36;0;1;1;0;1024;171;121;4096;4096;1374344043;-2.102271e-01;0.000000e+00;7.260084e-03;9.245795e+00
39;dlansy;36;0;1;1;0;1024;171;121;4096;4096;1477171087;-1.733443e-01;0.000000e+00;7.487059e-03;8.965503e+00
40;dlansy;36;0;1;1;0;1024;171;121;5120;5120;945117276;5.373797e-02;0.000000e+00;8.559942e-03;1.225219e+01
41;dlansy;36;0;1;1;0;1024;171;121;5120;5120;1780695788;-4.132594e-01;0.000000e+00;9.139061e-03;1.147580e+01
42;dlansy;36;0;1;1;0;1024;171;121;5120;5120;491705403;-2.237386e-01;0.000000e+00;9.047985e-03;1.159132e+01
43;dlansy;36;0;1;1;0;1024;171;121;5120;5120;752392754;-3.676393e-01;0.000000e+00;8.955956e-03;1.171043e+01
44;dlansy;36;0;1;1;0;1024;171;121;5120;5120;2053999932;-4.222437e-01;0.000000e+00;8.408070e-03;1.247350e+01
45;dlansy;36;0;1;1;0;1024;171;121;5120;5120;1411549676;3.886879e-01;0.000000e+00;8.664846e-03;1.210386e+01
46;dlansy;36;0;1;1;0;1024;171;121;5120;5120;943947739;1.866877e-01;0.000000e+00;8.242846e-03;1.272353e+01
47;dlansy;36;0;1;1;0;1024;171;121;5120;5120;855636226;-2.672705e-01;0.000000e+00;9.093046e-03;1.153388e+01
48;dlansy;36;0;1;1;0;1024;171;121;5120;5120;1469348094;-2.187391e-01;0.000000e+00;8.401155e-03;1.248377e+01
49;dlansy;36;0;1;1;0;1024;171;121;5120;5120;1036140795;-4.443388e-01;0.000000e+00;8.292198e-03;1.264780e+01
0;dlansy;36;0;1;1;0;1024;171;121;6144;6144;1681692777;4.254358e-01;0.000000e+00;1.211786e-02;1.246255e+01
1;dlansy;36;0;1;1;0;1024;171;121;6144;6144;1957747793;4.892778e-01;0.000000e+00;1.116586e-02;1.352512e+01
2;dlansy;36;0;1;1;0;1024;171;121;6144;6144;719885386;3.777180e-01;0.000000e+00;1.158500e-02;1.303578e+01
3;dlansy;36;0;1;1;0;1024;171;121;6144;6144;596516649;-3.517510e-01;0.000000e+00;1.156902e-02;1.305378e+01
4;dlansy;36;0;1;1;0;1024;171;121;6144;6144;1025202362;4.000452e-01;0.000000e+00;1.180315e-02;1.279485e+01
5;dlansy;36;0;1;1;0;1024;171;121;6144;6144;783368690;3.744478e-01;0.000000e+00;9.713888e-03;1.554676e+01
6;dlansy;36;0;1;1;0;1024;171;121;6144;6144;2044897763;4.141058e-01;0.000000e+00;1.003003e-02;1.505673e+01
7;dlansy;36;0;1;1;0;1024;171;121;6144;6144;1365180540;-1.381986e-01;0.000000e+00;1.161909e-02;1.299753e+01
8;dlansy;36;0;1;1;0;1024;171;121;6144;6144;304089172;2.200654e-01;0.000000e+00;1.163006e-02;1.298528e+01
9;dlansy;36;0;1;1;0;1024;171;121;6144;6144;35005211;-1.757242e-01;0.000000e+00;1.154900e-02;1.307642e+01
10;dlansy;36;0;1;1;0;1024;171;121;8192;8192;294702567;-3.976154e-01;0.000000e+00;1.795888e-02;1.494905e+01
11;dlansy;36;0;1;1;0;1024;171;121;8192;8192;336465782;4.797187e-01;0.000000e+00;1.843691e-02;1.456146e+01
12;dlansy;36;0;1;1;0;1024;171;121;8192;8192;278722862;-3.098429e-01;0.000000e+00;1.779413e-02;1.508746e+01
13;dlansy;36;0;1;1;0;1024;171;121;8192;8192;2145174067;4.597866e-01;0.000000e+00;1.780820e-02;1.507554e+01
14;dlansy;36;0;1;1;0;1024;171;121;8192;8192;1101513929;3.332689e-02;0.000000e+00;1.784992e-02;1.504030e+01
15;dlansy;36;0;1;1;0;1024;171;121;8192;8192;1315634022;-3.123134e-01;0.000000e+00;1.787996e-02;1.501503e+01
16;dlansy;36;0;1;1;0;1024;171;121;8192;8192;1369133069;-2.396071e-01;0.000000e+00;1.793218e-02;1.497131e+01
17;dlansy;36;0;1;1;0;1024;171;121;8192;8192;1059961393;-4.405380e-01;0.000000e+00;1.801395e-02;1.490335e+01
18;dlansy;36;0;1;1;0;1024;171;121;8192;8192;628175011;-8.299381e-02;0.000000e+00;1.825619e-02;1.470560e+01
19;dlansy;36;0;1;1;0;1024;171;121;8192;8192;1131176229;-4.098657e-01;0.000000e+00;1.771402e-02;1.515569e+01
20;dlansy;36;0;1;1;0;1024;171;121;10240;10240;859484421;4.760135e-01;0.000000e+00;2.467203e-02;1.700190e+01
21;dlansy;36;0;1;1;0;1024;171;121;10240;10240;608413784;-2.172434e-01;0.000000e+00;2.639079e-02;1.589461e+01
22;dlansy;36;0;1;1;0;1024;171;121;10240;10240;1734575198;3.559216e-01;0.000000e+00;2.609611e-02;1.607410e+01
23;dlansy;36;0;1;1;0;1024;171;121;10240;10240;149798315;-3.746092e-01;0.000000e+00;2.485919e-02;1.687389e+01
24;dlansy;36;0;1;1;0;1024;171;121;10240;10240;1129566413;3.212047e-02;0.000000e+00;2.510309e-02;1.670995e+01
25;dlansy;36;0;1;1;0;1024;171;121;10240;10240;412776091;-3.302276e-01;0.000000e+00;2.539897e-02;1.651529e+01
26;dlansy;36;0;1;1;0;1024;171;121;10240;10240;1911759956;1.752074e-01;0.000000e+00;2.587700e-02;1.621020e+01
27;dlansy;36;0;1;1;0;1024;171;121;10240;10240;137806862;2.019681e-01;0.000000e+00;2.592993e-02;1.617711e+01
28;dlansy;36;0;1;1;0;1024;171;121;10240;10240;982906996;2.243788e-01;0.000000e+00;2.514696e-02;1.668080e+01
29;dlansy;36;0;1;1;0;1024;171;121;10240;10240;511702305;-1.333755e-01;0.000000e+00;2.558684e-02;1.639403e+01
30;dlansy;36;0;1;1;0;1024;171;121;12288;12288;1937477084;-3.694056e-01;0.000000e+00;3.535104e-02;1.708660e+01
31;dlansy;36;0;1;1;0;1024;171;121;12288;12288;572660336;-1.501402e-01;0.000000e+00;3.548312e-02;1.702299e+01
32;dlansy;36;0;1;1;0;1024;171;121;12288;12288;805750846;-1.383824e-01;0.000000e+00;3.538394e-02;1.707071e+01
33;dlansy;36;0;1;1;0;1024;171;121;12288;12288;1100661313;7.019839e-02;0.000000e+00;3.544497e-02;1.704131e+01
34;dlansy;36;0;1;1;0;1024;171;121;12288;12288;1141616124;-2.465265e-01;0.000000e+00;3.600383e-02;1.677680e+01
35;dlansy;36;0;1;1;0;1024;171;121;12288;12288;939819582;2.290667e-01;0.000000e+00;3.541780e-02;1.705439e+01
36;dlansy;36;0;1;1;0;1024;171;121;12288;12288;1998898814;-2.416937e-01;0.000000e+00;3.596210e-02;1.679626e+01
37;dlansy;36;0;1;1;0;1024;171;121;12288;12288;610515434;2.529978e-01;0.000000e+00;3.456616e-02;1.747457e+01
38;dlansy;36;0;1;1;0;1024;171;121;12288;12288;1374344043;-2.102271e-01;0.000000e+00;3.519988e-02;1.715997e+01
39;dlansy;36;0;1;1;0;1024;171;121;12288;12288;1477171087;-1.733443e-01;0.000000e+00;3.524184e-02;1.713954e+01
40;dlansy;36;0;1;1;0;1024;171;121;14336;14336;945117276;5.373797e-02;0.000000e+00;4.794598e-02;1.714724e+01
41;dlansy;36;0;1;1;0;1024;171;121;14336;14336;1780695788;-4.132594e-01;0.000000e+00;5.005598e-02;1.642443e+01
42;dlansy;36;0;1;1;0;1024;171;121;14336;14336;491705403;-2.237386e-01;0.000000e+00;4.756498e-02;1.728458e+01
43;dlansy;36;0;1;1;0;1024;171;121;14336;14336;752392754;-3.676393e-01;0.000000e+00;4.927301e-02;1.668542e+01
44;dlansy;36;0;1;1;0;1024;171;121;14336;14336;2053999932;-4.222437e-01;0.000000e+00;4.823804e-02;1.704342e+01
45;dlansy;36;0;1;1;0;1024;171;121;14336;14336;1411549676;3.886879e-01;0.000000e+00;4.707098e-02;1.746598e+01
46;dlansy;36;0;1;1;0;1024;171;121;14336;14336;943947739;1.866877e-01;0.000000e+00;4.826617e-02;1.703348e+01
47;dlansy;36;0;1;1;0;1024;171;121;14336;14336;855636226;-2.672705e-01;0.000000e+00;4.858088e-02;1.692314e+01
48;dlansy;36;0;1;1;0;1024;171;121;14336;14336;1469348094;-2.187391e-01;0.000000e+00;4.799509e-02;1.712969e+01
49;dlansy;36;0;1;1;0;1024;171;121;14336;14336;1036140795;-4.443388e-01;0.000000e+00;4.696989e-02;1.750357e+01
50;dlansy;36;0;1;1;0;1024;171;121;16384;16384;2040651434;-4.033480e-01;0.000000e+00;5.923796e-02;1.812702e+01
51;dlansy;36;0;1;1;0;1024;171;121;16384;16384;317097467;-1.054364e-01;0.000000e+00;6.100512e-02;1.760192e+01
52;dlansy;36;0;1;1;0;1024;171;121;16384;16384;1376710097;-7.005727e-02;0.000000e+00;6.049299e-02;1.775094e+01
53;dlansy;36;0;1;1;0;1024;171;121;16384;16384;1330573317;1.333576e-02;0.000000e+00;5.918193e-02;1.814418e+01
54;dlansy;36;0;1;1;0;1024;171;121;16384;16384;1687926652;1.623906e-01;0.000000e+00;6.093907e-02;1.762100e+01
55;dlansy;36;0;1;1;0;1024;171;121;16384;16384;959997301;7.965982e-02;0.000000e+00;5.981398e-02;1.795245e+01
56;dlansy;36;0;1;1;0;1024;171;121;16384;16384;402724286;4.667617e-01;0.000000e+00;6.069899e-02;1.769070e+01
57;dlansy;36;0;1;1;0;1024;171;121;16384;16384;1194953865;-1.382589e-02;0.000000e+00;6.032395e-02;1.780068e+01
58;dlansy;36;0;1;1;0;1024;171;121;16384;16384;364228444;-4.175981e-01;0.000000e+00;6.024098e-02;1.782520e+01
59;dlansy;36;0;1;1;0;1024;171;121;16384;16384;221558440;3.770548e-01;0.000000e+00;5.956697e-02;1.802689e+01
60;dlansy;36;0;1;1;0;1024;171;121;18432;18432;1063958031;2.509115e-01;0.000000e+00;7.666802e-02;1.772614e+01
61;dlansy;36;0;1;1;0;1024;171;121;18432;18432;2114738097;-4.980996e-01;0.000000e+00;8.316779e-02;1.634080e+01
62;dlansy;36;0;1;1;0;1024;171;121;18432;18432;1469834481;1.376819e-01;0.000000e+00;7.587004e-02;1.791258e+01
63;dlansy;36;0;1;1;0;1024;171;121;18432;18432;1610120709;-3.776547e-01;0.000000e+00;7.555413e-02;1.798748e+01
64;dlansy;36;0;1;1;0;1024;171;121;18432;18432;631704567;-4.182928e-01;0.000000e+00;7.683301e-02;1.768808e+01
65;dlansy;36;0;1;1;0;1024;171;121;18432;18432;1255179497;-4.129313e-01;0.000000e+00;7.629514e-02;1.781278e+01
66;dlansy;36;0;1;1;0;1024;171;121;18432;18432;327254586;9.307665e-02;0.000000e+00;7.814717e-02;1.739063e+01
67;dlansy;36;0;1;1;0;1024;171;121;18432;18432;269455306;7.441780e-02;0.000000e+00;7.802510e-02;1.741783e+01
68;dlansy;36;0;1;1;0;1024;171;121;18432;18432;352406219;-2.374150e-01;0.000000e+00;7.727981e-02;1.758581e+01
69;dlansy;36;0;1;1;0;1024;171;121;18432;18432;160051528;2.807858e-01;0.000000e+00;7.770300e-02;1.749004e+01
70;dlansy;36;0;1;1;0;1024;171;121;20480;20480;112805732;-3.496214e-01;0.000000e+00;9.317708e-02;1.800661e+01
71;dlansy;36;0;1;1;0;1024;171;121;20480;20480;378409503;2.744957e-01;0.000000e+00;9.949899e-02;1.686252e+01
72;dlansy;36;0;1;1;0;1024;171;121;20480;20480;1713258270;1.571881e-01;0.000000e+00;9.485698e-02;1.768772e+01
73;dlansy;36;0;1;1;0;1024;171;121;20480;20480;1409959708;4.905056e-01;0.000000e+00;9.484887e-02;1.768923e+01
74;dlansy;36;0;1;1;0;1024;171;121;20480;20480;1373226340;9.546876e-03;0.000000e+00;9.435010e-02;1.778274e+01
75;dlansy;36;0;1;1;0;1024;171;121;20480;20480;200747796;3.618905e-02;0.000000e+00;9.315300e-02;1.801127e+01
76;dlansy;36;0;1;1;0;1024;171;121;20480;20480;1117142618;1.744033e-01;0.000000e+00;9.406304e-02;1.783701e+01
77;dlansy;36;0;1;1;0;1024;171;121;20480;20480;150122846;2.422071e-01;0.000000e+00;9.269309e-02;1.810063e+01
78;dlansy;36;0;1;1;0;1024;171;121;20480;20480;990892921;3.138195e-01;0.000000e+00;9.434199e-02;1.778427e+01
79;dlansy;36;0;1;1;0;1024;171;121;20480;20480;1231192379;-4.633856e-02;0.000000e+00;9.307504e-02;1.802635e+01
80;dlansy;36;0;1;1;0;1024;171;121;22528;22528;111537764;1.729012e-01;0.000000e+00;1.107509e-01;1.833062e+01
81;dlansy;36;0;1;1;0;1024;171;121;22528;22528;2147469841;2.072774e-01;0.000000e+00;1.208920e-01;1.679294e+01
82;dlansy;36;0;1;1;0;1024;171;121;22528;22528;1911165193;1.557539e-01;0.000000e+00;1.112330e-01;1.825118e+01
83;dlansy;36;0;1;1;0;1024;171;121;22528;22528;2142757034;-1.699027e-01;0.000000e+00;1.130412e-01;1.795924e+01
84;dlansy;36;0;1;1;0;1024;171;121;22528;22528;1869470124;9.513167e-02;0.000000e+00;1.108861e-01;1.830828e+01
85;dlansy;36;0;1;1;0;1024;171;121;22528;22528;8936987;3.813653e-01;0.000000e+00;1.139989e-01;1.780836e+01
86;dlansy;36;0;1;1;0;1024;171;121;22528;22528;1275373743;-3.952797e-01;0.000000e+00;1.104438e-01;1.838159e+01
87;dlansy;36;0;1;1;0;1024;171;121;22528;22528;350322227;4.007014e-01;0.000000e+00;1.127388e-01;1.800740e+01
88;dlansy;36;0;1;1;0;1024;171;121;22528;22528;1960709859;4.687312e-02;0.000000e+00;1.090131e-01;1.862284e+01
89;dlansy;36;0;1;1;0;1024;171;121;22528;22528;771151432;-3.651100e-01;0.000000e+00;1.156261e-01;1.755774e+01
90;dlansy;36;0;1;1;0;1024;171;121;24576;24576;1244316437;2.998675e-01;0.000000e+00;1.337969e-01;1.805735e+01
91;dlansy;36;0;1;1;0;1024;171;121;24576;24576;1476153275;-1.389722e-01;0.000000e+00;1.405520e-01;1.718949e+01
92;dlansy;36;0;1;1;0;1024;171;121;24576;24576;1139901474;3.395107e-01;0.000000e+00;1.329548e-01;1.817172e+01
93;dlansy;36;0;1;1;0;1024;171;121;24576;24576;653468858;-4.940599e-01;0.000000e+00;1.333342e-01;1.812002e+01
94;dlansy;36;0;1;1;0;1024;171;121;24576;24576;1239036029;9.508020e-02;0.000000e+00;1.321270e-01;1.828556e+01
95;dlansy;36;0;1;1;0;1024;171;121;24576;24576;1605908235;2.745396e-01;0.000000e+00;1.325550e-01;1.822653e+01
96;dlansy;36;0;1;1;0;1024;171;121;24576;24576;76065818;-4.585682e-01;0.000000e+00;1.323559e-01;1.825394e+01
97;dlansy;36;0;1;1;0;1024;171;121;24576;24576;1789366143;-3.356987e-01;0.000000e+00;1.322131e-01;1.827366e+01
98;dlansy;36;0;1;1;0;1024;171;121;24576;24576;1875335928;-1.061454e-01;0.000000e+00;1.332309e-01;1.813406e+01
99;dlansy;36;0;1;1;0;1024;171;121;24576;24576;2103318776;1.535754e-01;0.000000e+00;1.308780e-01;1.846008e+01
100;dlansy;36;0;1;1;0;1024;171;121;26624;26624;1939964443;-2.643760e-01;0.000000e+00;1.585691e-01;1.788152e+01
101;dlansy;36;0;1;1;0;1024;171;121;26624;26624;1432114613;2.725473e-01;0.000000e+00;1.650369e-01;1.718074e+01
102;dlansy;36;0;1;1;0;1024;171;121;26624;26624;352118606;3.241933e-01;0.000000e+00;1.540470e-01;1.840643e+01
103;dlansy;36;0;1;1;0;1024;171;121;26624;26624;1909002904;2.356442e-01;0.000000e+00;1.557572e-01;1.820433e+01
104;dlansy;36;0;1;1;0;1024;171;121;26624;26624;1395235128;-3.021529e-01;0.000000e+00;1.551321e-01;1.827769e+01
105;dlansy;36;0;1;1;0;1024;171;121;26624;26624;1351797369;-2.836412e-02;0.000000e+00;1.526041e-01;1.858047e+01
106;dlansy;36;0;1;1;0;1024;171;121;26624;26624;1504569917;-3.280447e-01;0.000000e+00;1.552031e-01;1.826933e+01
107;dlansy;36;0;1;1;0;1024;171;121;26624;26624;706043324;1.946189e-01;0.000000e+00;1.577280e-01;1.797688e+01
108;dlansy;36;0;1;1;0;1024;171;121;26624;26624;159259470;6.319147e-02;0.000000e+00;1.551111e-01;1.828016e+01
109;dlansy;36;0;1;1;0;1024;171;121;26624;26624;480298490;3.904790e-01;0.000000e+00;1.567771e-01;1.808590e+01
110;dlansy;36;0;1;1;0;1024;171;121;28672;28672;1096689772;-2.987393e-01;0.000000e+00;1.833949e-01;1.793097e+01
111;dlansy;36;0;1;1;0;1024;171;121;28672;28672;601385644;-4.403555e-01;0.000000e+00;1.888149e-01;1.741626e+01
112;dlansy;36;0;1;1;0;1024;171;121;28672;28672;1544617505;-3.120641e-01;0.000000e+00;1.822429e-01;1.804432e+01
113;dlansy;36;0;1;1;0;1024;171;121;28672;28672;1012502954;7.326981e-02;0.000000e+00;1.795881e-01;1.831107e+01
114;dlansy;36;0;1;1;0;1024;171;121;28672;28672;2027907669;4.440272e-01;0.000000e+00;1.803350e-01;1.823522e+01
115;dlansy;36;0;1;1;0;1024;171;121;28672;28672;722308542;-2.988812e-01;0.000000e+00;1.765850e-01;1.862248e+01
116;dlansy;36;0;1;1;0;1024;171;121;28672;28672;933110197;-1.017733e-01;0.000000e+00;1.775708e-01;1.851908e+01
117;dlansy;36;0;1;1;0;1024;171;121;28672;28672;740759355;-3.466130e-01;0.000000e+00;1.773520e-01;1.854194e+01
118;dlansy;36;0;1;1;0;1024;171;121;28672;28672;1789376348;3.725976e-01;0.000000e+00;1.785800e-01;1.841443e+01
119;dlansy;36;0;1;1;0;1024;171;121;28672;28672;1450573622;-2.731221e-01;0.000000e+00;1.788700e-01;1.838458e+01
120;dlansy;36;0;1;1;0;1024;171;121;30720;30720;1034949299;2.976161e-01;0.000000e+00;2.046659e-01;1.844468e+01
121;dlansy;36;0;1;1;0;1024;171;121;30720;30720;1529195746;1.985016e-01;0.000000e+00;2.181370e-01;1.730562e+01
122;dlansy;36;0;1;1;0;1024;171;121;30720;30720;1335354340;-3.384804e-01;0.000000e+00;2.052970e-01;1.838798e+01
123;dlansy;36;0;1;1;0;1024;171;121;30720;30720;889023311;-2.963290e-01;0.000000e+00;2.080851e-01;1.814160e+01
124;dlansy;36;0;1;1;0;1024;171;121;30720;30720;1447267605;-3.682695e-01;0.000000e+00;2.062418e-01;1.830374e+01
125;dlansy;36;0;1;1;0;1024;171;121;30720;30720;745425661;1.637426e-02;0.000000e+00;2.061541e-01;1.831153e+01
126;dlansy;36;0;1;1;0;1024;171;121;30720;30720;1308044878;3.002688e-01;0.000000e+00;2.074571e-01;1.819652e+01
127;dlansy;36;0;1;1;0;1024;171;121;30720;30720;1569229320;-2.878753e-01;0.000000e+00;2.036240e-01;1.853905e+01
128;dlansy;36;0;1;1;0;1024;171;121;30720;30720;1590079444;-6.664395e-02;0.000000e+00;2.027631e-01;1.861777e+01
129;dlansy;36;0;1;1;0;1024;171;121;30720;30720;1977648522;-2.996627e-01;0.000000e+00;2.076941e-01;1.817576e+01
130;dlansy;36;0;1;1;0;1024;171;121;32768;32768;1402586708;-4.466601e-01;0.000000e+00;2.442482e-01;1.758498e+01
131;dlansy;36;0;1;1;0;1024;171;121;32768;32768;1143408282;-3.095740e-01;0.000000e+00;2.299390e-01;1.867930e+01
132;dlansy;36;0;1;1;0;1024;171;121;32768;32768;559412924;1.008051e-01;0.000000e+00;2.319629e-01;1.851631e+01
133;dlansy;36;0;1;1;0;1024;171;121;32768;32768;1473442062;3.966201e-01;0.000000e+00;2.325690e-01;1.846806e+01
134;dlansy;36;0;1;1;0;1024;171;121;32768;32768;238962600;-2.291051e-01;0.000000e+00;2.286959e-01;1.878083e+01
135;dlansy;36;0;1;1;0;1024;171;121;32768;32768;1238433452;8.189833e-02;0.000000e+00;2.339339e-01;1.836031e+01
136;dlansy;36;0;1;1;0;1024;171;121;32768;32768;1431419379;-4.764616e-02;0.000000e+00;2.259700e-01;1.900738e+01
137;dlansy;36;0;1;1;0;1024;171;121;32768;32768;1665947468;1.684246e-01;0.000000e+00;2.315099e-01;1.855255e+01
138;dlansy;36;0;1;1;0;1024;171;121;32768;32768;707900973;-1.961373e-01;0.000000e+00;2.269530e-01;1.892505e+01
139;dlansy;36;0;1;1;0;1024;171;121;32768;32768;2113903881;4.689267e-01;0.000000e+00;2.306190e-01;1.862422e+01
140;dlansy;36;0;1;1;0;1024;171;121;34816;34816;1776808933;-4.926542e-01;0.000000e+00;2.815452e-01;1.722194e+01
141;dlansy;36;0;1;1;0;1024;171;121;34816;34816;404158660;-9.802407e-02;0.000000e+00;2.603240e-01;1.862585e+01
142;dlansy;36;0;1;1;0;1024;171;121;34816;34816;2058657199;1.886126e-01;0.000000e+00;2.609739e-01;1.857946e+01
143;dlansy;36;0;1;1;0;1024;171;121;34816;34816;1642548899;-7.383859e-02;0.000000e+00;2.582090e-01;1.877841e+01
144;dlansy;36;0;1;1;0;1024;171;121;34816;34816;260152959;-6.245404e-02;0.000000e+00;2.625890e-01;1.846519e+01
145;dlansy;36;0;1;1;0;1024;171;121;34816;34816;824272813;-3.703058e-01;0.000000e+00;2.611990e-01;1.856345e+01
146;dlansy;36;0;1;1;0;1024;171;121;34816;34816;2025187190;1.613464e-01;0.000000e+00;2.633731e-01;1.841021e+01
147;dlansy;36;0;1;1;0;1024;171;121;34816;34816;1850952926;-3.349140e-01;0.000000e+00;2.616010e-01;1.853493e+01
148;dlansy;36;0;1;1;0;1024;171;121;34816;34816;1704365084;2.019839e-01;0.000000e+00;2.591400e-01;1.871095e+01
149;dlansy;36;0;1;1;0;1024;171;121;34816;34816;638422090;2.766544e-01;0.000000e+00;2.598450e-01;1.866018e+01
150;dlansy;36;0;1;1;0;1024;171;121;36864;36864;1953443376;-2.797945e-01;0.000000e+00;3.103111e-01;1.751779e+01
151;dlansy;36;0;1;1;0;1024;171;121;36864;36864;1069755936;-4.205594e-01;0.000000e+00;3.057089e-01;1.778151e+01
152;dlansy;36;0;1;1;0;1024;171;121;36864;36864;349517445;3.646355e-01;0.000000e+00;2.966259e-01;1.832600e+01
153;dlansy;36;0;1;1;0;1024;171;121;36864;36864;1856669179;9.066373e-03;0.000000e+00;2.912781e-01;1.866246e+01
154;dlansy;36;0;1;1;0;1024;171;121;36864;36864;995706887;-2.496970e-01;0.000000e+00;2.920089e-01;1.861575e+01
155;dlansy;36;0;1;1;0;1024;171;121;36864;36864;1065103348;-2.655665e-01;0.000000e+00;2.922881e-01;1.859797e+01
156;dlansy;36;0;1;1;0;1024;171;121;36864;36864;387451659;9.058696e-02;0.000000e+00;2.946899e-01;1.844639e+01
157;dlansy;36;0;1;1;0;1024;171;121;36864;36864;1562402336;1.986549e-01;0.000000e+00;2.935519e-01;1.851790e+01
158;dlansy;36;0;1;1;0;1024;171;121;36864;36864;1295166342;3.808523e-01;0.000000e+00;2.919419e-01;1.862003e+01
159;dlansy;36;0;1;1;0;1024;171;121;36864;36864;1799878206;-5.773157e-02;0.000000e+00;2.910111e-01;1.867958e+01
160;dlansy;36;0;1;1;0;1024;171;121;38912;38912;382697713;-1.152934e-01;0.000000e+00;3.467669e-01;1.746629e+01
161;dlansy;36;0;1;1;0;1024;171;121;38912;38912;1070575321;-4.650331e-01;0.000000e+00;3.227310e-01;1.876712e+01
162;dlansy;36;0;1;1;0;1024;171;121;38912;38912;296864819;4.331828e-01;0.000000e+00;3.240311e-01;1.869182e+01
163;dlansy;36;0;1;1;0;1024;171;121;38912;38912;697517721;4.415959e-01;0.000000e+00;3.282540e-01;1.845135e+01
164;dlansy;36;0;1;1;0;1024;171;121;38912;38912;1950955939;-2.032396e-01;0.000000e+00;3.228149e-01;1.876224e+01
165;dlansy;36;0;1;1;0;1024;171;121;38912;38912;1797073940;1.460963e-01;0.000000e+00;3.289790e-01;1.841069e+01
166;dlansy;36;0;1;1;0;1024;171;121;38912;38912;1065311705;2.132438e-01;0.000000e+00;3.256121e-01;1.860106e+01
167;dlansy;36;0;1;1;0;1024;171;121;38912;38912;846811127;3.229169e-01;0.000000e+00;3.262820e-01;1.856287e+01
168;dlansy;36;0;1;1;0;1024;171;121;38912;38912;1307565984;1.990850e-01;0.000000e+00;3.224249e-01;1.878494e+01
169;dlansy;36;0;1;1;0;1024;171;121;38912;38912;324763920;-1.232803e-01;0.000000e+00;3.255658e-01;1.860371e+01
170;dlansy;36;0;1;1;0;1024;171;121;40960;40960;231602422;-5.968142e-02;0.000000e+00;3.561010e-01;1.884592e+01
171;dlansy;36;0;1;1;0;1024;171;121;40960;40960;780821396;3.404283e-01;0.000000e+00;3.552430e-01;1.889144e+01
172;dlansy;36;0;1;1;0;1024;171;121;40960;40960;711645630;3.779050e-01;0.000000e+00;3.564041e-01;1.882989e+01
173;dlansy;36;0;1;1;0;1024;171;121;40960;40960;917679292;-1.487947e-01;0.000000e+00;3.598108e-01;1.865161e+01
174;dlansy;36;0;1;1;0;1024;171;121;40960;40960;1253207672;-2.057583e-01;0.000000e+00;3.602929e-01;1.862665e+01
175;dlansy;36;0;1;1;0;1024;171;121;40960;40960;1414647625;-2.002110e-01;0.000000e+00;3.571959e-01;1.878815e+01
176;dlansy;36;0;1;1;0;1024;171;121;40960;40960;1046741222;-4.981229e-01;0.000000e+00;3.587050e-01;1.870910e+01
177;dlansy;36;0;1;1;0;1024;171;121;40960;40960;1896306640;-1.446566e-01;0.000000e+00;3.544211e-01;1.893524e+01
178;dlansy;36;0;1;1;0;1024;171;121;40960;40960;1111783898;7.285956e-02;0.000000e+00;3.567152e-01;1.881347e+01
179;dlansy;36;0;1;1;0;1024;171;121;40960;40960;1197352298;-2.994312e-01;0.000000e+00;3.569670e-01;1.880020e+01
180;dlansy;36;0;1;1;0;1024;171;121;43008;43008;1782280524;-4.406608e-01;0.000000e+00;3.917780e-01;1.888550e+01
181;dlansy;36;0;1;1;0;1024;171;121;43008;43008;524688209;-7.231379e-02;0.000000e+00;3.952911e-01;1.871766e+01
182;dlansy;36;0;1;1;0;1024;171;121;43008;43008;1566288819;-2.944065e-01;0.000000e+00;3.972611e-01;1.862484e+01
183;dlansy;36;0;1;1;0;1024;171;121;43008;43008;2114937732;4.808045e-01;0.000000e+00;3.944261e-01;1.875871e+01
184;dlansy;36;0;1;1;0;1024;171;121;43008;43008;1927495994;-2.840220e-01;0.000000e+00;3.988039e-01;1.855279e+01
185;dlansy;36;0;1;1;0;1024;171;121;43008;43008;882160379;-1.254201e-02;0.000000e+00;3.962560e-01;1.867208e+01
186;dlansy;36;0;1;1;0;1024;171;121;43008;43008;1682085273;9.597039e-02;0.000000e+00;3.981459e-01;1.858345e+01
187;dlansy;36;0;1;1;0;1024;171;121;43008;43008;630668850;2.283023e-01;0.000000e+00;3.916740e-01;1.889051e+01
188;dlansy;36;0;1;1;0;1024;171;121;43008;43008;1858721860;-5.737603e-03;0.000000e+00;4.029288e-01;1.836286e+01
189;dlansy;36;0;1;1;0;1024;171;121;43008;43008;105575579;3.629747e-01;0.000000e+00;3.963790e-01;1.866629e+01
190;dlansy;36;0;1;1;0;1024;171;121;45056;45056;2118421993;6.372750e-03;0.000000e+00;4.362490e-01;1.861403e+01
191;dlansy;36;0;1;1;0;1024;171;121;45056;45056;452867621;-4.022054e-01;0.000000e+00;4.347060e-01;1.868010e+01
192;dlansy;36;0;1;1;0;1024;171;121;45056;45056;1857962504;3.861964e-02;0.000000e+00;4.316568e-01;1.881206e+01
193;dlansy;36;0;1;1;0;1024;171;121;45056;45056;213801961;-1.863945e-02;0.000000e+00;4.321830e-01;1.878915e+01
194;dlansy;36;0;1;1;0;1024;171;121;45056;45056;648031326;2.911775e-01;0.000000e+00;4.367180e-01;1.859404e+01
195;dlansy;36;0;1;1;0;1024;171;121;45056;45056;1737518944;-4.808499e-01;0.000000e+00;4.336898e-01;1.872387e+01
196;dlansy;36;0;1;1;0;1024;171;121;45056;45056;110613202;-3.380140e-01;0.000000e+00;4.321139e-01;1.879216e+01
197;dlansy;36;0;1;1;0;1024;171;121;45056;45056;982936784;3.457331e-01;0.000000e+00;4.342220e-01;1.870093e+01
198;dlansy;36;0;1;1;0;1024;171;121;45056;45056;1486222842;4.200729e-01;0.000000e+00;4.349561e-01;1.866936e+01
199;dlansy;36;0;1;1;0;1024;171;121;45056;45056;255789528;4.026002e-01;0.000000e+00;4.371681e-01;1.857490e+01
200;dlansy;36;0;1;1;0;1024;171;121;47104;47104;1242608872;3.144040e-01;0.000000e+00;5.685620e-01;1.561014e+01
201;dlansy;36;0;1;1;0;1024;171;121;47104;47104;1277849958;-7.731044e-02;0.000000e+00;4.898181e-01;1.811966e+01
202;dlansy;36;0;1;1;0;1024;171;121;47104;47104;653448036;2.529461e-01;0.000000e+00;4.293451e-01;2.067180e+01
203;dlansy;36;0;1;1;0;1024;171;121;47104;47104;1023457753;4.253499e-01;0.000000e+00;4.029610e-01;2.202530e+01
204;dlansy;36;0;1;1;0;1024;171;121;47104;47104;1309383303;3.608416e-01;0.000000e+00;4.037290e-01;2.198340e+01
205;dlansy;36;0;1;1;0;1024;171;121;47104;47104;1329132133;-2.386045e-01;0.000000e+00;3.998661e-01;2.219577e+01
206;dlansy;36;0;1;1;0;1024;171;121;47104;47104;501772890;8.143046e-02;0.000000e+00;4.015150e-01;2.210462e+01
207;dlansy;36;0;1;1;0;1024;171;121;47104;47104;150517567;4.165643e-01;0.000000e+00;3.995121e-01;2.221544e+01
208;dlansy;36;0;1;1;0;1024;171;121;47104;47104;1983690368;-5.428046e-02;0.000000e+00;4.045241e-01;2.194019e+01
209;dlansy;36;0;1;1;0;1024;171;121;47104;47104;1034514500;3.618715e-01;0.000000e+00;4.037139e-01;2.198422e+01
210;dlansy;36;0;1;1;0;1024;171;121;49152;49152;1775473788;2.101964e-01;0.000000e+00;6.351578e-01;1.521492e+01
211;dlansy;36;0;1;1;0;1024;171;121;49152;49152;767066249;2.177558e-01;0.000000e+00;4.280519e-01;2.257640e+01
212;dlansy;36;0;1;1;0;1024;171;121;49152;49152;739273303;4.744193e-02;0.000000e+00;4.276979e-01;2.259509e+01
213;dlansy;36;0;1;1;0;1024;171;121;49152;49152;1415505363;-2.221872e-01;0.000000e+00;4.319530e-01;2.237251e+01
214;dlansy;36;0;1;1;0;1024;171;121;49152;49152;552910253;-4.765819e-01;0.000000e+00;4.317911e-01;2.238090e+01
215;dlansy;36;0;1;1;0;1024;171;121;49152;49152;1344247686;1.416166e-01;0.000000e+00;4.276280e-01;2.259878e+01
216;dlansy;36;0;1;1;0;1024;171;121;49152;49152;661761152;1.085222e-01;0.000000e+00;4.377179e-01;2.207786e+01
217;dlansy;36;0;1;1;0;1024;171;121;49152;49152;425245975;-2.107033e-01;0.000000e+00;4.334979e-01;2.229278e+01
218;dlansy;36;0;1;1;0;1024;171;121;49152;49152;235649157;3.456401e-01;0.000000e+00;4.293299e-01;2.250920e+01
219;dlansy;36;0;1;1;0;1024;171;121;49152;49152;1679895436;3.343596e-01;0.000000e+00;4.341578e-01;2.225889e+01
