Id;Function;threads;gpus;P;Q;mtxfmt;nb;norm;uplo;n;lda;seedA;bump;tsub;time;gflops
0;dlansy;36;0;1;1;0;720;171;121;720;720;1681692777;4.254358e-01;0.000000e+00;6.574280e-04;3.158490e+00
1;dlansy;36;0;1;1;0;720;171;121;720;720;1957747793;4.892778e-01;0.000000e+00;9.023120e-04;2.301288e+00
2;dlansy;36;0;1;1;0;720;171;121;720;720;719885386;3.777180e-01;0.000000e+00;6.463000e-04;3.212873e+00
3;dlansy;36;0;1;1;0;720;171;121;720;720;596516649;-3.517510e-01;0.000000e+00;6.361610e-04;3.264079e+00
4;dlansy;36;0;1;1;0;720;171;121;720;720;1025202362;4.000452e-01;0.000000e+00;5.918750e-04;3.508308e+00
5;dlansy;36;0;1;1;0;720;171;121;720;720;783368690;3.744478e-01;0.000000e+00;8.041690e-04;2.582144e+00
6;dlansy;36;0;1;1;0;720;171;121;720;720;2044897763;4.141058e-01;0.000000e+00;6.560680e-04;3.165038e+00
7;dlansy;36;0;1;1;0;720;171;121;720;720;1365180540;-1.381986e-01;0.000000e+00;5.728790e-04;3.624640e+00
8;dlansy;36;0;1;1;0;720;171;121;720;720;304089172;2.200654e-01;0.000000e+00;8.659060e-04;2.398043e+00
9;dlansy;36;0;1;1;0;720;171;121;720;720;35005211;-1.757242e-01;0.000000e+00;5.842010e-04;3.554393e+00
10;dlansy;36;0;1;1;0;720;171;121;1440;1440;294702567;-3.976154e-01;0.000000e+00;2.560306e-03;3.241862e+00
11;dlansy;36;0;1;1;0;720;171;121;1440;1440;336465782;4.797187e-01;0.000000e+00;1.134477e-03;7.316288e+00
12;dlansy;36;0;1;1;0;720;171;121;1440;1440;278722862;-3.098429e-01;0.000000e+00;1.033054e-03;8.034585e+00
13;dlansy;36;0;1;1;0;720;171;121;1440;1440;2145174067;4.597866e-01;0.000000e+00;1.052531e-03;7.885905e+00
14;dlansy;36;0;1;1;0;720;171;121;1440;1440;1101513929;3.332689e-02;0.000000e+00;1.058733e-03;7.839710e+00
15;dlansy;36;0;1;1;0;720;171;121;1440;1440;1315634022;-3.123134e-01;0.000000e+00;1.302424e-03;6.372856e+00
16;dlansy;36;0;1;1;0;720;171;121;1440;1440;1369133069;-2.396071e-01;0.000000e+00;1.032491e-03;8.038966e+00
17;dlansy;36;0;1;1;0;720;171;121;1440;1440;1059961393;-4.405380e-01;0.000000e+00;1.010802e-03;8.211460e+00
18;dlansy;36;0;1;1;0;720;171;121;1440;1440;628175011;-8.299381e-02;0.000000e+00;1.050086e-03;7.904267e+00
19;dlansy;36;0;1;1;0;720;171;121;1440;1440;1131176229;-4.098657e-01;0.000000e+00;1.010733e-03;8.212020e+00
20;dlansy;36;0;1;1;0;720;171;121;2160;2160;859484421;4.760135e-01;0.000000e+00;1.460793e-03;1.278144e+01
21;dlansy;36;0;1;1;0;720;171;121;2160;2160;608413784;-2.172434e-01;0.000000e+00;1.423308e-03;1.311806e+01
22;dlansy;36;0;1;1;0;720;171;121;2160;2160;1734575198;3.559216e-01;0.000000e+00;1.552249e-03;1.202838e+01
23;dlansy;36;0;1;1;0;720;171;121;2160;2160;149798315;-3.746092e-01;0.000000e+00;1.505473e-03;1.240211e+01
24;dlansy;36;0;1;1;0;720;171;121;2160;2160;1129566413;3.212047e-02;0.000000e+00;1.362001e-03;1.370854e+01
25;dlansy;36;0;1;1;0;720;171;121;2160;2160;412776091;-3.302276e-01;0.000000e+00;1.503401e-03;1.241920e+01
26;dlansy;36;0;1;1;0;720;171;121;2160;2160;1911759956;1.752074e-01;0.000000e+00;1.553151e-03;1.202139e+01
27;dlansy;36;0;1;1;0;720;171;121;2160;2160;137806862;2.019681e-01;0.000000e+00;1.477806e-03;1.263430e+01
28;dlansy;36;0;1;1;0;720;171;121;2160;2160;982906996;2.243788e-01;0.000000e+00;1.211870e-03;1.540680e+01
29;dlansy;36;0;1;1;0;720;171;121;2160;2160;511702305;-1.333755e-01;0.000000e+00;1.587144e-03;1.176392e+01
30;dlansy;36;0;1;1;0;720;171;121;2880;2880;1937477084;-3.694056e-01;0.000000e+00;1.445551e-03;2.295949e+01
31;dlansy;36;0;1;1;0;720;171;121;2880;2880;572660336;-1.501402e-01;0.000000e+00;1.303412e-03;2.546326e+01
32;dlansy;36;0;1;1;0;720;171;121;2880;2880;805750846;-1.383824e-01;0.000000e+00;1.646274e-03;2.016014e+01
33;dlansy;36;0;1;1;0;720;171;121;2880;2880;1100661313;7.019839e-02;0.000000e+00;1.449411e-03;2.289835e+01
34;dlansy;36;0;1;1;0;720;171;121;2880;2880;1141616124;-2.465265e-01;0.000000e+00;1.394699e-03;2.379662e+01
35;dlansy;36;0;1;1;0;720;171;121;2880;2880;939819582;2.290667e-01;0.000000e+00;1.641756e-03;2.021562e+01
36;dlansy;36;0;1;1;0;720;171;121;2880;2880;1998898814;-2.416937e-01;0.000000e+00;1.471417e-03;2.255589e+01
37;dlansy;36;0;1;1;0;720;171;121;2880;2880;610515434;2.529978e-01;0.000000e+00;1.560916e-03;2.126259e+01
38;dlansy;36;0;1;1;0;720;171;121;2880;2880;1374344043;-2.102271e-01;0.000000e+00;1.360555e-03;2.439381e+01
39;dlansy;36;0;1;1;0;720;171;121;2880;2880;1477171087;-1.733443e-01;0.000000e+00;1.543853e-03;2.149759e+01
40;dlansy;36;0;1;1;0;720;171;121;3600;3600;945117276;5.373797e-02;0.000000e+00;2.295057e-03;2.259395e+01
41;dlansy;36;0;1;1;0;720;171;121;3600;3600;1780695788;-4.132594e-01;0.000000e+00;2.211875e-03;2.344364e+01
42;dlansy;36;0;1;1;0;720;171;121;3600;3600;491705403;-2.237386e-01;0.000000e+00;2.215899e-03;2.340107e+01
43;dlansy;36;0;1;1;0;720;171;121;3600;3600;752392754;-3.676393e-01;0.000000e+00;2.265044e-03;2.289333e+01
44;dlansy;36;0;1;1;0;720;171;121;3600;3600;2053999932;-4.222437e-01;0.000000e+00;2.427290e-03;2.136308e+01
45;dlansy;36;0;1;1;0;720;171;121;3600;3600;1411549676;3.886879e-01;0.000000e+00;2.108371e-03;2.459453e+01
46;dlansy;36;0;1;1;0;720;171;121;3600;3600;943947739;1.866877e-01;0.000000e+00;2.184197e-03;2.374072e+01
47;dlansy;36;0;1;1;0;720;171;121;3600;3600;855636226;-2.672705e-01;0.000000e+00;2.399559e-03;2.160997e+01
48;dlansy;36;0;1;1;0;720;171;121;3600;3600;1469348094;-2.187391e-01;0.000000e+00;2.022723e-03;2.563594e+01
49;dlansy;36;0;1;1;0;720;171;121;3600;3600;1036140795;-4.443388e-01;0.000000e+00;2.168458e-03;2.391303e+01
50;dlansy;36;0;1;1;0;720;171;121;4320;4320;2040651434;-4.033480e-01;0.000000e+00;2.115163e-03;3.530077e+01
51;dlansy;36;0;1;1;0;720;171;121;4320;4320;317097467;-1.054364e-01;0.000000e+00;2.362194e-03;3.160912e+01
52;dlansy;36;0;1;1;0;720;171;121;4320;4320;1376710097;-7.005727e-02;0.000000e+00;2.365654e-03;3.156289e+01
53;dlansy;36;0;1;1;0;720;171;121;4320;4320;1330573317;1.333576e-02;0.000000e+00;2.430883e-03;3.071595e+01
54;dlansy;36;0;1;1;0;720;171;121;4320;4320;1687926652;1.623906e-01;0.000000e+00;2.466590e-03;3.027130e+01
55;dlansy;36;0;1;1;0;720;171;121;4320;4320;959997301;7.965982e-02;0.000000e+00;2.403400e-03;3.106719e+01
56;dlansy;36;0;1;1;0;720;171;121;4320;4320;402724286;4.667617e-01;0.000000e+00;2.406348e-03;3.102913e+01
57;dlansy;36;0;1;1;0;720;171;121;4320;4320;1194953865;-1.382589e-02;0.000000e+00;2.300670e-03;3.245441e+01
58;dlansy;36;0;1;1;0;720;171;121;4320;4320;364228444;-4.175981e-01;0.000000e+00;2.192065e-03;3.406235e+01
59;dlansy;36;0;1;1;0;720;171;121;4320;4320;221558440;3.770548e-01;0.000000e+00;2.365040e-03;3.157109e+01
60;dlansy;36;0;1;1;0;720;171;121;5040;5040;1063958031;2.509115e-01;0.000000e+00;3.499258e-03;2.904232e+01
61;dlansy;36;0;1;1;0;720;171;121;5040;5040;2114738097;-4.980996e-01;0.000000e+00;3.654018e-03;2.781228e+01
62;dlansy;36;0;1;1;0;720;171;121;5040;5040;1469834481;1.376819e-01;0.000000e+00;3.558035e-03;2.856255e+01
63;dlansy;36;0;1;1;0;720;171;121;5040;5040;1610120709;-3.776547e-01;0.000000e+00;3.609420e-03;2.815593e+01
64;dlansy;36;0;1;1;0;720;171;121;5040;5040;631704567;-4.182928e-01;0.000000e+00;3.724586e-03;2.728533e+01
65;dlansy;36;0;1;1;0;720;171;121;5040;5040;1255179497;-4.129313e-01;0.000000e+00;3.472591e-03;2.926534e+01
66;dlansy;36;0;1;1;0;720;171;121;5040;5040;327254586;9.307665e-02;0.000000e+00;3.756188e-03;2.705577e+01
67;dlansy;36;0;1;1;0;720;171;121;5040;5040;269455306;7.441780e-02;0.000000e+00;3.630939e-03;2.798906e+01
68;dlansy;36;0;1;1;0;720;171;121;5040;5040;352406219;-2.374150e-01;0.000000e+00;3.258133e-03;3.119165e+01
69;dlansy;36;0;1;1;0;720;171;121;5040;5040;160051528;2.807858e-01;0.000000e+00;3.520697e-03;2.886547e+01
70;dlansy;36;0;1;1;0;720;171;121;5760;5760;112805732;-3.496214e-01;0.000000e+00;3.924079e-03;3.382537e+01
71;dlansy;36;0;1;1;0;720;171;121;5760;5760;378409503;2.744957e-01;0.000000e+00;4.001860e-03;3.316794e+01
72;dlansy;36;0;1;1;0;720;171;121;5760;5760;1713258270;1.571881e-01;0.000000e+00;4.190029e-03;3.167841e+01
73;dlansy;36;0;1;1;0;720;171;121;5760;5760;1409959708;4.905056e-01;0.000000e+00;4.178487e-03;3.176591e+01
74;dlansy;36;0;1;1;0;720;171;121;5760;5760;1373226340;9.546876e-03;0.000000e+00;3.939270e-03;3.369493e+01
75;dlansy;36;0;1;1;0;720;171;121;5760;5760;200747796;3.618905e-02;0.000000e+00;3.999425e-03;3.318813e+01
76;dlansy;36;0;1;1;0;720;171;121;5760;5760;1117142618;1.744033e-01;0.000000e+00;3.929082e-03;3.378230e+01
77;dlansy;36;0;1;1;0;720;171;121;5760;5760;150122846;2.422071e-01;0.000000e+00;3.896794e-03;3.406222e+01
78;dlansy;36;0;1;1;0;720;171;121;5760;5760;990892921;3.138195e-01;0.000000e+00;4.102289e-03;3.235595e+01
79;dlansy;36;0;1;1;0;720;171;121;5760;5760;1231192379;-4.633856e-02;0.000000e+00;3.909532e-03;3.395124e+01
80;dlansy;36;0;1;1;0;720;171;121;6480;6480;111537764;1.729012e-01;0.000000e+00;5.036629e-03;3.335317e+01
81;dlansy;36;0;1;1;0;720;171;121;6480;6480;2147469841;2.072774e-01;0.000000e+00;4.901288e-03;3.427416e+01
82;dlansy;36;0;1;1;0;720;171;121;6480;6480;1911165193;1.557539e-01;0.000000e+00;4.993379e-03;3.364205e+01
83;dlansy;36;0;1;1;0;720;171;121;6480;6480;2142757034;-1.699027e-01;0.000000e+00;4.951534e-03;3.392636e+01
84;dlansy;36;0;1;1;0;720;171;121;6480;6480;1869470124;9.513167e-02;0.000000e+00;5.081808e-03;3.305664e+01
85;dlansy;36;0;1;1;0;720;171;121;6480;6480;8936987;3.813653e-01;0.000000e+00;5.125134e-03;3.277720e+01
86;dlansy;36;0;1;1;0;720;171;121;6480;6480;1275373743;-3.952797e-01;0.000000e+00;5.275720e-03;3.184163e+01
87;dlansy;36;0;1;1;0;720;171;121;6480;6480;350322227;4.007014e-01;0.000000e+00;5.116694e-03;3.283126e+01
88;dlansy;36;0;1;1;0;720;171;121;6480;6480;1960709859;4.687312e-02;0.000000e+00;5.120168e-03;3.280899e+01
89;dlansy;36;0;1;1;0;720;171;121;6480;6480;771151432;-3.651100e-01;0.000000e+00;5.065369e-03;3.316393e+01
90;dlansy;36;0;1;1;0;720;171;121;7200;7200;1244316437;2.998675e-01;0.000000e+00;6.028367e-03;3.440215e+01
91;dlansy;36;0;1;1;0;720;171;121;7200;7200;1476153275;-1.389722e-01;0.000000e+00;6.294758e-03;3.294627e+01
92;dlansy;36;0;1;1;0;720;171;121;7200;7200;1139901474;3.395107e-01;0.000000e+00;5.789873e-03;3.581923e+01
93;dlansy;36;0;1;1;0;720;171;121;7200;7200;653468858;-4.940599e-01;0.000000e+00;5.999105e-03;3.456996e+01
94;dlansy;36;0;1;1;0;720;171;121;7200;7200;1239036029;9.508020e-02;0.000000e+00;5.782297e-03;3.586616e+01
95;dlansy;36;0;1;1;0;720;171;121;7200;7200;1605908235;2.745396e-01;0.000000e+00;5.893246e-03;3.519093e+01
96;dlansy;36;0;1;1;0;720;171;121;7200;7200;76065818;-4.585682e-01;0.000000e+00;6.105424e-03;3.396796e+01
97;dlansy;36;0;1;1;0;720;171;121;7200;7200;1789366143;-3.356987e-01;0.000000e+00;6.311052e-03;3.286121e+01
98;dlansy;36;0;1;1;0;720;171;121;7200;7200;1875335928;-1.061454e-01;0.000000e+00;5.827364e-03;3.558878e+01
99;dlansy;36;0;1;1;0;720;171;121;7200;7200;2103318776;1.535754e-01;0.000000e+00;5.951824e-03;3.484458e+01
100;dlansy;36;0;1;1;0;720;171;121;7920;7920;1939964443;-2.643760e-01;0.000000e+00;7.324574e-03;3.425964e+01
101;dlansy;36;0;1;1;0;720;171;121;7920;7920;1432114613;2.725473e-01;0.000000e+00;6.630685e-03;3.784485e+01
102;dlansy;36;0;1;1;0;720;171;121;7920;7920;352118606;3.241933e-01;0.000000e+00;7.176523e-03;3.496641e+01
103;dlansy;36;0;1;1;0;720;171;121;7920;7920;1909002904;2.356442e-01;0.000000e+00;6.790794e-03;3.695257e+01
104;dlansy;36;0;1;1;0;720;171;121;7920;7920;1395235128;-3.021529e-01;0.000000e+00;7.109525e-03;3.529593e+01
105;dlansy;36;0;1;1;0;720;171;121;7920;7920;1351797369;-2.836412e-02;0.000000e+00;7.000230e-03;3.584701e+01
106;dlansy;36;0;1;1;0;720;171;121;7920;7920;1504569917;-3.280447e-01;0.000000e+00;6.974738e-03;3.597802e+01
107;dlansy;36;0;1;1;0;720;171;121;7920;7920;706043324;1.946189e-01;0.000000e+00;7.225381e-03;3.472997e+01
108;dlansy;36;0;1;1;0;720;171;121;7920;7920;159259470;6.319147e-02;0.000000e+00;7.072723e-03;3.547959e+01
109;dlansy;36;0;1;1;0;720;171;121;7920;7920;480298490;3.904790e-01;0.000000e+00;6.669944e-03;3.762210e+01
110;dlansy;36;0;1;1;0;720;171;121;8640;8640;1096689772;-2.987393e-01;0.000000e+00;8.222787e-03;3.631773e+01
111;dlansy;36;0;1;1;0;720;171;121;8640;8640;601385644;-4.403555e-01;0.000000e+00;8.193466e-03;3.644770e+01
112;dlansy;36;0;1;1;0;720;171;121;8640;8640;1544617505;-3.120641e-01;0.000000e+00;7.554046e-03;3.953285e+01
113;dlansy;36;0;1;1;0;720;171;121;8640;8640;1012502954;7.326981e-02;0.000000e+00;8.018746e-03;3.724185e+01
114;dlansy;36;0;1;1;0;720;171;121;8640;8640;2027907669;4.440272e-01;0.000000e+00;8.140843e-03;3.668330e+01
115;dlansy;36;0;1;1;0;720;171;121;8640;8640;722308542;-2.988812e-01;0.000000e+00;9.477022e-03;3.151127e+01
116;dlansy;36;0;1;1;0;720;171;121;8640;8640;933110197;-1.017733e-01;0.000000e+00;7.730672e-03;3.862962e+01
117;dlansy;36;0;1;1;0;720;171;121;8640;8640;740759355;-3.466130e-01;0.000000e+00;8.521720e-03;3.504374e+01
118;dlansy;36;0;1;1;0;720;171;121;8640;8640;1789376348;3.725976e-01;0.000000e+00;7.438933e-03;4.014460e+01
119;dlansy;36;0;1;1;0;720;171;121;8640;8640;1450573622;-2.731221e-01;0.000000e+00;7.623402e-03;3.917319e+01
120;dlansy;36;0;1;1;0;720;171;121;9360;9360;1034949299;2.976161e-01;0.000000e+00;8.973888e-03;3.905507e+01
121;dlansy;36;0;1;1;0;720;171;121;9360;9360;1529195746;1.985016e-01;0.000000e+00;8.748913e-03;4.005936e+01
122;dlansy;36;0;1;1;0;720;171;121;9360;9360;1335354340;-3.384804e-01;0.000000e+00;9.060778e-03;3.868055e+01
123;dlansy;36;0;1;1;0;720;171;121;9360;9360;889023311;-2.963290e-01;0.000000e+00;8.908093e-03;3.934353e+01
124;dlansy;36;0;1;1;0;720;171;121;9360;9360;1447267605;-3.682695e-01;0.000000e+00;9.503092e-03;3.688019e+01
125;dlansy;36;0;1;1;0;720;171;121;9360;9360;745425661;1.637426e-02;0.000000e+00;8.719514e-03;4.019442e+01
126;dlansy;36;0;1;1;0;720;171;121;9360;9360;1308044878;3.002688e-01;0.000000e+00;9.216504e-03;3.802698e+01
127;dlansy;36;0;1;1;0;720;171;121;9360;9360;1569229320;-2.878753e-01;0.000000e+00;8.993250e-03;3.897099e+01
128;dlansy;36;0;1;1;0;720;171;121;9360;9360;1590079444;-6.664395e-02;0.000000e+00;9.494907e-03;3.691198e+01
129;dlansy;36;0;1;1;0;720;171;121;9360;9360;1977648522;-2.996627e-01;0.000000e+00;9.746391e-03;3.595955e+01
0;dlansy;36;0;1;1;0;720;171;121;10080;10080;1681692777;4.254358e-01;0.000000e+00;1.032589e-02;3.936378e+01
1;dlansy;36;0;1;1;0;720;171;121;10080;10080;1957747793;4.892778e-01;0.000000e+00;1.032032e-02;3.938503e+01
2;dlansy;36;0;1;1;0;720;171;121;10080;10080;719885386;3.777180e-01;0.000000e+00;9.810883e-03;4.143011e+01
3;dlansy;36;0;1;1;0;720;171;121;10080;10080;596516649;-3.517510e-01;0.000000e+00;9.767709e-03;4.161323e+01
4;dlansy;36;0;1;1;0;720;171;121;10080;10080;1025202362;4.000452e-01;0.000000e+00;1.018683e-02;3.990114e+01
5;dlansy;36;0;1;1;0;720;171;121;10080;10080;783368690;3.744478e-01;0.000000e+00;1.115661e-02;3.643273e+01
6;dlansy;36;0;1;1;0;720;171;121;10080;10080;2044897763;4.141058e-01;0.000000e+00;1.041320e-02;3.903370e+01
7;dlansy;36;0;1;1;0;720;171;121;10080;10080;1365180540;-1.381986e-01;0.000000e+00;1.054349e-02;3.855135e+01
8;dlansy;36;0;1;1;0;720;171;121;10080;10080;304089172;2.200654e-01;0.000000e+00;1.056800e-02;3.846194e+01
9;dlansy;36;0;1;1;0;720;171;121;10080;10080;35005211;-1.757242e-01;0.000000e+00;9.974960e-03;4.074863e+01
10;dlansy;36;0;1;1;0;720;171;121;12240;12240;294702567;-3.976154e-01;0.000000e+00;2.493946e-02;2.403097e+01
11;dlansy;36;0;1;1;0;720;171;121;12240;12240;336465782;4.797187e-01;0.000000e+00;1.765314e-02;3.394973e+01
12;dlansy;36;0;1;1;0;720;171;121;12240;12240;278722862;-3.098429e-01;0.000000e+00;2.521031e-02;2.377279e+01
13;dlansy;36;0;1;1;0;720;171;121;12240;12240;2145174067;4.597866e-01;0.000000e+00;2.508132e-02;2.389505e+01
14;dlansy;36;0;1;1;0;720;171;121;12240;12240;1101513929;3.332689e-02;0.000000e+00;2.557113e-02;2.343734e+01
15;dlansy;36;0;1;1;0;720;171;121;12240;12240;1315634022;-3.123134e-01;0.000000e+00;2.506111e-02;2.391432e+01
16;dlansy;36;0;1;1;0;720;171;121;12240;12240;1369133069;-2.396071e-01;0.000000e+00;2.476840e-02;2.419693e+01
17;dlansy;36;0;1;1;0;720;171;121;12240;12240;1059961393;-4.405380e-01;0.000000e+00;1.484037e-02;4.038439e+01
18;dlansy;36;0;1;1;0;720;171;121;12240;12240;628175011;-8.299381e-02;0.000000e+00;1.594717e-02;3.758156e+01
19;dlansy;36;0;1;1;0;720;171;121;12240;12240;1131176229;-4.098657e-01;0.000000e+00;2.547533e-02;2.352548e+01
20;dlansy;36;0;1;1;0;720;171;121;14400;14400;859484421;4.760135e-01;0.000000e+00;2.979615e-02;2.783909e+01
21;dlansy;36;0;1;1;0;720;171;121;14400;14400;608413784;-2.172434e-01;0.000000e+00;3.606600e-02;2.299943e+01
22;dlansy;36;0;1;1;0;720;171;121;14400;14400;1734575198;3.559216e-01;0.000000e+00;3.221616e-02;2.574787e+01
23;dlansy;36;0;1;1;0;720;171;121;14400;14400;149798315;-3.746092e-01;0.000000e+00;3.797499e-02;2.184326e+01
24;dlansy;36;0;1;1;0;720;171;121;14400;14400;1129566413;3.212047e-02;0.000000e+00;2.574794e-02;3.221608e+01
25;dlansy;36;0;1;1;0;720;171;121;14400;14400;412776091;-3.302276e-01;0.000000e+00;3.811435e-02;2.176339e+01
26;dlansy;36;0;1;1;0;720;171;121;14400;14400;1911759956;1.752074e-01;0.000000e+00;3.210991e-02;2.583307e+01
27;dlansy;36;0;1;1;0;720;171;121;14400;14400;137806862;2.019681e-01;0.000000e+00;2.460916e-02;3.370686e+01
28;dlansy;36;0;1;1;0;720;171;121;14400;14400;982906996;2.243788e-01;0.000000e+00;2.629072e-02;3.155097e+01
29;dlansy;36;0;1;1;0;720;171;121;14400;14400;511702305;-1.333755e-01;0.000000e+00;2.904130e-02;2.856269e+01
30;dlansy;36;0;1;1;0;720;171;121;16560;16560;1937477084;-3.694056e-01;0.000000e+00;3.476129e-02;3.155811e+01
31;dlansy;36;0;1;1;0;720;171;121;16560;16560;572660336;-1.501402e-01;0.000000e+00;4.919340e-02;2.229975e+01
32;dlansy;36;0;1;1;0;720;171;121;16560;16560;805750846;-1.383824e-01;0.000000e+00;4.288259e-02;2.558149e+01
33;dlansy;36;0;1;1;0;720;171;121;16560;16560;1100661313;7.019839e-02;0.000000e+00;4.375167e-02;2.507334e+01
34;dlansy;36;0;1;1;0;720;171;121;16560;16560;1141616124;-2.465265e-01;0.000000e+00;5.145554e-02;2.131939e+01
35;dlansy;36;0;1;1;0;720;171;121;16560;16560;939819582;2.290667e-01;0.000000e+00;4.878119e-02;2.248819e+01
36;dlansy;36;0;1;1;0;720;171;121;16560;16560;1998898814;-2.416937e-01;0.000000e+00;3.467369e-02;3.163784e+01
37;dlansy;36;0;1;1;0;720;171;121;16560;16560;610515434;2.529978e-01;0.000000e+00;3.507844e-02;3.127278e+01
38;dlansy;36;0;1;1;0;720;171;121;16560;16560;1374344043;-2.102271e-01;0.000000e+00;3.303605e-02;3.320617e+01
39;dlansy;36;0;1;1;0;720;171;121;16560;16560;1477171087;-1.733443e-01;0.000000e+00;3.510327e-02;3.125067e+01
40;dlansy;36;0;1;1;0;720;171;121;18720;18720;945117276;5.373797e-02;0.000000e+00;4.835635e-02;2.898954e+01
41;dlansy;36;0;1;1;0;720;171;121;18720;18720;1780695788;-4.132594e-01;0.000000e+00;5.016201e-02;2.794602e+01
42;dlansy;36;0;1;1;0;720;171;121;18720;18720;491705403;-2.237386e-01;0.000000e+00;5.456459e-02;2.569118e+01
43;dlansy;36;0;1;1;0;720;171;121;18720;18720;752392754;-3.676393e-01;0.000000e+00;6.101840e-02;2.297386e+01
44;dlansy;36;0;1;1;0;720;171;121;18720;18720;2053999932;-4.222437e-01;0.000000e+00;4.474628e-02;3.132838e+01
45;dlansy;36;0;1;1;0;720;171;121;18720;18720;1411549676;3.886879e-01;0.000000e+00;4.167961e-02;3.363344e+01
46;dlansy;36;0;1;1;0;720;171;121;18720;18720;943947739;1.866877e-01;0.000000e+00;5.548420e-02;2.526536e+01
47;dlansy;36;0;1;1;0;720;171;121;18720;18720;855636226;-2.672705e-01;0.000000e+00;5.632128e-02;2.488985e+01
48;dlansy;36;0;1;1;0;720;171;121;18720;18720;1469348094;-2.187391e-01;0.000000e+00;4.928974e-02;2.844057e+01
49;dlansy;36;0;1;1;0;720;171;121;18720;18720;1036140795;-4.443388e-01;0.000000e+00;5.353790e-02;2.618385e+01
50;dlansy;36;0;1;1;0;720;171;121;20880;20880;2040651434;-4.033480e-01;0.000000e+00;5.536372e-02;3.150043e+01
51;dlansy;36;0;1;1;0;720;171;121;20880;20880;317097467;-1.054364e-01;0.000000e+00;6.877825e-02;2.535658e+01
52;dlansy;36;0;1;1;0;720;171;121;20880;20880;1376710097;-7.005727e-02;0.000000e+00;7.508530e-02;2.322666e+01
53;dlansy;36;0;1;1;0;720;171;121;20880;20880;1330573317;1.333576e-02;0.000000e+00;6.018876e-02;2.897520e+01
54;dlansy;36;0;1;1;0;720;171;121;20880;20880;1687926652;1.623906e-01;0.000000e+00;7.290948e-02;2.391981e+01
55;dlansy;36;0;1;1;0;720;171;121;20880;20880;959997301;7.965982e-02;0.000000e+00;7.150767e-02;2.438873e+01
56;dlansy;36;0;1;1;0;720;171;121;20880;20880;402724286;4.667617e-01;0.000000e+00;7.458272e-02;2.338318e+01
57;dlansy;36;0;1;1;0;720;171;121;20880;20880;1194953865;-1.382589e-02;0.000000e+00;7.495710e-02;2.326639e+01
58;dlansy;36;0;1;1;0;720;171;121;20880;20880;364228444;-4.175981e-01;0.000000e+00;6.127052e-02;2.846363e+01
59;dlansy;36;0;1;1;0;720;171;121;20880;20880;221558440;3.770548e-01;0.000000e+00;7.676654e-02;2.271799e+01
60;dlansy;36;0;1;1;0;720;171;121;23040;23040;1063958031;2.509115e-01;0.000000e+00;8.138879e-02;2.609031e+01
61;dlansy;36;0;1;1;0;720;171;121;23040;23040;2114738097;-4.980996e-01;0.000000e+00;9.311726e-02;2.280414e+01
62;dlansy;36;0;1;1;0;720;171;121;23040;23040;1469834481;1.376819e-01;0.000000e+00;6.978602e-02;3.042814e+01
63;dlansy;36;0;1;1;0;720;171;121;23040;23040;1610120709;-3.776547e-01;0.000000e+00;7.583674e-02;2.800039e+01
64;dlansy;36;0;1;1;0;720;171;121;23040;23040;631704567;-4.182928e-01;0.000000e+00;1.012691e-01;2.096848e+01
65;dlansy;36;0;1;1;0;720;171;121;23040;23040;1255179497;-4.129313e-01;0.000000e+00;8.449376e-02;2.513154e+01
66;dlansy;36;0;1;1;0;720;171;121;23040;23040;327254586;9.307665e-02;0.000000e+00;8.201726e-02;2.589039e+01
67;dlansy;36;0;1;1;0;720;171;121;23040;23040;269455306;7.441780e-02;0.000000e+00;5.477550e-02;3.876657e+01
68;dlansy;36;0;1;1;0;720;171;121;23040;23040;352406219;-2.374150e-01;0.000000e+00;7.675301e-02;2.766613e+01
69;dlansy;36;0;1;1;0;720;171;121;23040;23040;160051528;2.807858e-01;0.000000e+00;1.025107e-01;2.071451e+01
70;dlansy;36;0;1;1;0;720;171;121;25200;25200;112805732;-3.496214e-01;0.000000e+00;1.172634e-01;2.166286e+01
71;dlansy;36;0;1;1;0;720;171;121;25200;25200;378409503;2.744957e-01;0.000000e+00;9.475814e-02;2.680784e+01
72;dlansy;36;0;1;1;0;720;171;121;25200;25200;1713258270;1.571881e-01;0.000000e+00;1.042697e-01;2.436240e+01
73;dlansy;36;0;1;1;0;720;171;121;25200;25200;1409959708;4.905056e-01;0.000000e+00;1.072177e-01;2.369255e+01
74;dlansy;36;0;1;1;0;720;171;121;25200;25200;1373226340;9.546876e-03;0.000000e+00;9.430552e-02;2.693650e+01
75;dlansy;36;0;1;1;0;720;171;121;25200;25200;200747796;3.618905e-02;0.000000e+00;1.125966e-01;2.256073e+01
76;dlansy;36;0;1;1;0;720;171;121;25200;25200;1117142618;1.744033e-01;0.000000e+00;9.392658e-02;2.704518e+01
77;dlansy;36;0;1;1;0;720;171;121;25200;25200;150122846;2.422071e-01;0.000000e+00;1.043819e-01;2.433622e+01
78;dlansy;36;0;1;1;0;720;171;121;25200;25200;990892921;3.138195e-01;0.000000e+00;9.272273e-02;2.739631e+01
79;dlansy;36;0;1;1;0;720;171;121;25200;25200;1231192379;-4.633856e-02;0.000000e+00;1.023514e-01;2.481902e+01
80;dlansy;36;0;1;1;0;720;171;121;27360;27360;111537764;1.729012e-01;0.000000e+00;1.185974e-01;2.524833e+01
81;dlansy;36;0;1;1;0;720;171;121;27360;27360;2147469841;2.072774e-01;0.000000e+00;1.460806e-01;2.049820e+01
82;dlansy;36;0;1;1;0;720;171;121;27360;27360;1911165193;1.557539e-01;0.000000e+00;1.313022e-01;2.280532e+01
83;dlansy;36;0;1;1;0;720;171;121;27360;27360;2142757034;-1.699027e-01;0.000000e+00;1.338421e-01;2.237255e+01
84;dlansy;36;0;1;1;0;720;171;121;27360;27360;1869470124;9.513167e-02;0.000000e+00;1.359809e-01;2.202065e+01
85;dlansy;36;0;1;1;0;720;171;121;27360;27360;8936987;3.813653e-01;0.000000e+00;1.279966e-01;2.339427e+01
86;dlansy;36;0;1;1;0;720;171;121;27360;27360;1275373743;-3.952797e-01;0.000000e+00;1.384930e-01;2.162122e+01
87;dlansy;36;0;1;1;0;720;171;121;27360;27360;350322227;4.007014e-01;0.000000e+00;1.152729e-01;2.597651e+01
88;dlansy;36;0;1;1;0;720;171;121;27360;27360;1960709859;4.687312e-02;0.000000e+00;1.345778e-01;2.225024e+01
89;dlansy;36;0;1;1;0;720;171;121;27360;27360;771151432;-3.651100e-01;0.000000e+00;1.225223e-01;2.443954e+01
