Id;Function;threads;gpus;P;Q;mtxfmt;nb;n;nrhs;lda;ldb;seedA;seedB;tsub;time;gflops
0;dgesv;36;0;1;1;1;720;720;1;720;720;1681692777;1714636915;0.000000e+00;1.602697e-02;1.557434e+01
1;dgesv;36;0;1;1;1;720;720;1;720;720;1957747793;424238335;0.000000e+00;7.107973e-03;3.511683e+01
2;dgesv;36;0;1;1;1;720;720;1;720;720;719885386;1649760492;0.000000e+00;1.223898e-02;2.039463e+01
3;dgesv;36;0;1;1;1;720;720;1;720;720;596516649;1189641421;0.000000e+00;1.316214e-02;1.896421e+01
4;dgesv;36;0;1;1;1;720;720;1;720;720;1025202362;1350490027;0.000000e+00;1.040292e-02;2.399418e+01
5;dgesv;36;0;1;1;1;720;720;1;720;720;783368690;1102520059;0.000000e+00;1.806283e-02;1.381896e+01
6;dgesv;36;0;1;1;1;720;720;1;720;720;2044897763;1967513926;0.000000e+00;6.921053e-03;3.606525e+01
7;dgesv;36;0;1;1;1;720;720;1;720;720;1365180540;1540383426;0.000000e+00;1.520205e-02;1.641947e+01
8;dgesv;36;0;1;1;1;720;720;1;720;720;304089172;1303455736;0.000000e+00;7.333040e-03;3.403902e+01
9;dgesv;36;0;1;1;1;720;720;1;720;720;35005211;521595368;0.000000e+00;1.048088e-02;2.381570e+01
10;dgesv;36;0;1;1;1;720;1440;1;1440;1440;294702567;1726956429;0.000000e+00;4.394603e-02;4.536852e+01
11;dgesv;36;0;1;1;1;720;1440;1;1440;1440;336465782;861021530;0.000000e+00;4.249811e-02;4.691423e+01
12;dgesv;36;0;1;1;1;720;1440;1;1440;1440;278722862;233665123;0.000000e+00;3.787899e-02;5.263515e+01
13;dgesv;36;0;1;1;1;720;1440;1;1440;1440;2145174067;468703135;0.000000e+00;3.707099e-02;5.378238e+01
14;dgesv;36;0;1;1;1;720;1440;1;1440;1440;1101513929;1801979802;0.000000e+00;4.185009e-02;4.764067e+01
15;dgesv;36;0;1;1;1;720;1440;1;1440;1440;1315634022;635723058;0.000000e+00;4.484105e-02;4.446297e+01
16;dgesv;36;0;1;1;1;720;1440;1;1440;1440;1369133069;1125898167;0.000000e+00;3.473997e-02;5.739113e+01
17;dgesv;36;0;1;1;1;720;1440;1;1440;1440;1059961393;2089018456;0.000000e+00;5.035996e-02;3.959030e+01
18;dgesv;36;0;1;1;1;720;1440;1;1440;1440;628175011;1656478042;0.000000e+00;3.376293e-02;5.905193e+01
19;dgesv;36;0;1;1;1;720;1440;1;1440;1440;1131176229;1653377373;0.000000e+00;4.083610e-02;4.882362e+01
20;dgesv;36;0;1;1;1;720;2160;1;2160;2160;859484421;1914544919;0.000000e+00;7.945800e-02;8.464173e+01
21;dgesv;36;0;1;1;1;720;2160;1;2160;2160;608413784;756898537;0.000000e+00;6.682396e-02;1.006445e+02
22;dgesv;36;0;1;1;1;720;2160;1;2160;2160;1734575198;1973594324;0.000000e+00;6.006408e-02;1.119715e+02
23;dgesv;36;0;1;1;1;720;2160;1;2160;2160;149798315;2038664370;0.000000e+00;7.691097e-02;8.744477e+01
24;dgesv;36;0;1;1;1;720;2160;1;2160;2160;1129566413;184803526;0.000000e+00;7.598495e-02;8.851044e+01
25;dgesv;36;0;1;1;1;720;2160;1;2160;2160;412776091;1424268980;0.000000e+00;6.543303e-02;1.027839e+02
26;dgesv;36;0;1;1;1;720;2160;1;2160;2160;1911759956;749241873;0.000000e+00;5.462408e-02;1.231227e+02
27;dgesv;36;0;1;1;1;720;2160;1;2160;2160;137806862;42999170;0.000000e+00;7.813907e-02;8.607042e+01
28;dgesv;36;0;1;1;1;720;2160;1;2160;2160;982906996;135497281;0.000000e+00;7.395005e-02;9.094601e+01
29;dgesv;36;0;1;1;1;720;2160;1;2160;2160;511702305;2084420925;0.000000e+00;7.774615e-02;8.650540e+01
30;dgesv;36;0;1;1;1;720;2880;1;2880;2880;1937477084;1827336327;0.000000e+00;8.815598e-02;1.807896e+02
31;dgesv;36;0;1;1;1;720;2880;1;2880;2880;572660336;1159126505;0.000000e+00;8.397603e-02;1.897886e+02
32;dgesv;36;0;1;1;1;720;2880;1;2880;2880;805750846;1632621729;0.000000e+00;9.813118e-02;1.624121e+02
33;dgesv;36;0;1;1;1;720;2880;1;2880;2880;1100661313;1433925857;0.000000e+00;8.402705e-02;1.896733e+02
34;dgesv;36;0;1;1;1;720;2880;1;2880;2880;1141616124;84353895;0.000000e+00;9.328079e-02;1.708571e+02
35;dgesv;36;0;1;1;1;720;2880;1;2880;2880;939819582;2001100545;0.000000e+00;1.025629e-01;1.553943e+02
36;dgesv;36;0;1;1;1;720;2880;1;2880;2880;1998898814;1548233367;0.000000e+00;8.364582e-02;1.905378e+02
37;dgesv;36;0;1;1;1;720;2880;1;2880;2880;610515434;1585990364;0.000000e+00;9.153485e-02;1.741161e+02
38;dgesv;36;0;1;1;1;720;2880;1;2880;2880;1374344043;760313750;0.000000e+00;8.243299e-02;1.933412e+02
39;dgesv;36;0;1;1;1;720;2880;1;2880;2880;1477171087;356426808;0.000000e+00;8.813000e-02;1.808430e+02
40;dgesv;36;0;1;1;1;720;3600;1;3600;3600;945117276;1889947178;0.000000e+00;1.136281e-01;2.739061e+02
41;dgesv;36;0;1;1;1;720;3600;1;3600;3600;1780695788;709393584;0.000000e+00;1.255870e-01;2.478238e+02
42;dgesv;36;0;1;1;1;720;3600;1;3600;3600;491705403;1918502651;0.000000e+00;1.296070e-01;2.401371e+02
43;dgesv;36;0;1;1;1;720;3600;1;3600;3600;752392754;1474612399;0.000000e+00;1.150260e-01;2.705774e+02
44;dgesv;36;0;1;1;1;720;3600;1;3600;3600;2053999932;1264095060;0.000000e+00;1.044710e-01;2.979147e+02
45;dgesv;36;0;1;1;1;720;3600;1;3600;3600;1411549676;1843993368;0.000000e+00;1.137981e-01;2.734969e+02
46;dgesv;36;0;1;1;1;720;3600;1;3600;3600;943947739;1984210012;0.000000e+00;1.179059e-01;2.639686e+02
47;dgesv;36;0;1;1;1;720;3600;1;3600;3600;855636226;1749698586;0.000000e+00;1.199121e-01;2.595520e+02
48;dgesv;36;0;1;1;1;720;3600;1;3600;3600;1469348094;1956297539;0.000000e+00;1.038280e-01;2.997597e+02
49;dgesv;36;0;1;1;1;720;3600;1;3600;3600;1036140795;463480570;0.000000e+00;1.182830e-01;2.631268e+02
50;dgesv;36;0;1;1;1;720;4320;1;4320;4320;2040651434;1975960378;0.000000e+00;1.400061e-01;3.840955e+02
51;dgesv;36;0;1;1;1;720;4320;1;4320;4320;317097467;1892066601;0.000000e+00;1.395772e-01;3.852758e+02
52;dgesv;36;0;1;1;1;720;4320;1;4320;4320;1376710097;927612902;0.000000e+00;1.400881e-01;3.838707e+02
53;dgesv;36;0;1;1;1;720;4320;1;4320;4320;1330573317;603570492;0.000000e+00;1.531920e-01;3.510346e+02
54;dgesv;36;0;1;1;1;720;4320;1;4320;4320;1687926652;660260756;0.000000e+00;1.432419e-01;3.754189e+02
55;dgesv;36;0;1;1;1;720;4320;1;4320;4320;959997301;485560280;0.000000e+00;1.373100e-01;3.916371e+02
56;dgesv;36;0;1;1;1;720;4320;1;4320;4320;402724286;593209441;0.000000e+00;1.387980e-01;3.874386e+02
57;dgesv;36;0;1;1;1;720;4320;1;4320;4320;1194953865;894429689;0.000000e+00;1.637428e-01;3.284157e+02
58;dgesv;36;0;1;1;1;720;4320;1;4320;4320;364228444;1947346619;0.000000e+00;1.450601e-01;3.707134e+02
59;dgesv;36;0;1;1;1;720;4320;1;4320;4320;221558440;270744729;0.000000e+00;1.353571e-01;3.972875e+02
60;dgesv;36;0;1;1;1;720;5040;1;5040;5040;1063958031;1633108117;0.000000e+00;1.770129e-01;4.823799e+02
61;dgesv;36;0;1;1;1;720;5040;1;5040;5040;2114738097;2007905771;0.000000e+00;1.809959e-01;4.717646e+02
62;dgesv;36;0;1;1;1;720;5040;1;5040;5040;1469834481;822890675;0.000000e+00;1.698320e-01;5.027762e+02
63;dgesv;36;0;1;1;1;720;5040;1;5040;5040;1610120709;791698927;0.000000e+00;1.730180e-01;4.935179e+02
64;dgesv;36;0;1;1;1;720;5040;1;5040;5040;631704567;498777856;0.000000e+00;1.958060e-01;4.360820e+02
65;dgesv;36;0;1;1;1;720;5040;1;5040;5040;1255179497;524872353;0.000000e+00;1.651812e-01;5.169323e+02
66;dgesv;36;0;1;1;1;720;5040;1;5040;5040;327254586;1572276965;0.000000e+00;1.643200e-01;5.196414e+02
67;dgesv;36;0;1;1;1;720;5040;1;5040;5040;269455306;1703964683;0.000000e+00;1.654770e-01;5.160080e+02
68;dgesv;36;0;1;1;1;720;5040;1;5040;5040;352406219;1600028624;0.000000e+00;1.726360e-01;4.946098e+02
69;dgesv;36;0;1;1;1;720;5040;1;5040;5040;160051528;2040332871;0.000000e+00;1.644700e-01;5.191676e+02
70;dgesv;36;0;1;1;1;720;5760;1;5760;5760;112805732;1120048829;0.000000e+00;2.149742e-01;5.928701e+02
71;dgesv;36;0;1;1;1;720;5760;1;5760;5760;378409503;515530019;0.000000e+00;2.094879e-01;6.083967e+02
72;dgesv;36;0;1;1;1;720;5760;1;5760;5760;1713258270;1573363368;0.000000e+00;2.024078e-01;6.296779e+02
73;dgesv;36;0;1;1;1;720;5760;1;5760;5760;1409959708;2077486715;0.000000e+00;2.098079e-01;6.074689e+02
74;dgesv;36;0;1;1;1;720;5760;1;5760;5760;1373226340;1631518149;0.000000e+00;2.090261e-01;6.097408e+02
75;dgesv;36;0;1;1;1;720;5760;1;5760;5760;200747796;289700723;0.000000e+00;2.015750e-01;6.322794e+02
76;dgesv;36;0;1;1;1;720;5760;1;5760;5760;1117142618;168002245;0.000000e+00;1.924281e-01;6.623344e+02
77;dgesv;36;0;1;1;1;720;5760;1;5760;5760;150122846;439493451;0.000000e+00;2.065320e-01;6.171041e+02
78;dgesv;36;0;1;1;1;720;5760;1;5760;5760;990892921;1760243555;0.000000e+00;2.214901e-01;5.754285e+02
79;dgesv;36;0;1;1;1;720;5760;1;5760;5760;1231192379;1622597488;0.000000e+00;2.084711e-01;6.113642e+02
80;dgesv;36;0;1;1;1;720;6480;1;6480;6480;111537764;338888228;0.000000e+00;2.525041e-01;7.186478e+02
81;dgesv;36;0;1;1;1;720;6480;1;6480;6480;2147469841;438792350;0.000000e+00;2.417631e-01;7.505757e+02
82;dgesv;36;0;1;1;1;720;6480;1;6480;6480;1911165193;269441500;0.000000e+00;2.330670e-01;7.785808e+02
83;dgesv;36;0;1;1;1;720;6480;1;6480;6480;2142757034;116087764;0.000000e+00;2.521071e-01;7.197793e+02
84;dgesv;36;0;1;1;1;720;6480;1;6480;6480;1869470124;155324914;0.000000e+00;2.490342e-01;7.286611e+02
85;dgesv;36;0;1;1;1;720;6480;1;6480;6480;8936987;1982275856;0.000000e+00;2.385299e-01;7.607495e+02
86;dgesv;36;0;1;1;1;720;6480;1;6480;6480;1275373743;387346491;0.000000e+00;2.357349e-01;7.697693e+02
87;dgesv;36;0;1;1;1;720;6480;1;6480;6480;350322227;841148365;0.000000e+00;2.565811e-01;7.072288e+02
88;dgesv;36;0;1;1;1;720;6480;1;6480;6480;1960709859;1760281936;0.000000e+00;2.535801e-01;7.155984e+02
89;dgesv;36;0;1;1;1;720;6480;1;6480;6480;771151432;1186452551;0.000000e+00;2.423429e-01;7.487798e+02
90;dgesv;36;0;1;1;1;720;7200;1;7200;7200;1244316437;971899228;0.000000e+00;2.927549e-01;8.502326e+02
91;dgesv;36;0;1;1;1;720;7200;1;7200;7200;1476153275;213975407;0.000000e+00;2.879119e-01;8.645345e+02
92;dgesv;36;0;1;1;1;720;7200;1;7200;7200;1139901474;1626276121;0.000000e+00;2.954640e-01;8.424367e+02
93;dgesv;36;0;1;1;1;720;7200;1;7200;7200;653468858;2130794395;0.000000e+00;2.989361e-01;8.326520e+02
94;dgesv;36;0;1;1;1;720;7200;1;7200;7200;1239036029;1884661237;0.000000e+00;3.011961e-01;8.264043e+02
95;dgesv;36;0;1;1;1;720;7200;1;7200;7200;1605908235;1350573793;0.000000e+00;2.736380e-01;9.096315e+02
96;dgesv;36;0;1;1;1;720;7200;1;7200;7200;76065818;1605894428;0.000000e+00;2.838202e-01;8.769982e+02
97;dgesv;36;0;1;1;1;720;7200;1;7200;7200;1789366143;1987231011;0.000000e+00;2.730999e-01;9.114238e+02
98;dgesv;36;0;1;1;1;720;7200;1;7200;7200;1875335928;1784639529;0.000000e+00;3.000510e-01;8.295582e+02
99;dgesv;36;0;1;1;1;720;7200;1;7200;7200;2103318776;1597322404;0.000000e+00;3.092020e-01;8.050071e+02
100;dgesv;36;0;1;1;1;720;7920;1;7920;7920;1939964443;2112255763;0.000000e+00;3.380790e-01;9.799174e+02
101;dgesv;36;0;1;1;1;720;7920;1;7920;7920;1432114613;1067854538;0.000000e+00;3.398170e-01;9.749054e+02
102;dgesv;36;0;1;1;1;720;7920;1;7920;7920;352118606;1782436840;0.000000e+00;3.477540e-01;9.526547e+02
103;dgesv;36;0;1;1;1;720;7920;1;7920;7920;1909002904;165344818;0.000000e+00;3.793771e-01;8.732458e+02
104;dgesv;36;0;1;1;1;720;7920;1;7920;7920;1395235128;532670688;0.000000e+00;3.416901e-01;9.695614e+02
105;dgesv;36;0;1;1;1;720;7920;1;7920;7920;1351797369;492067917;0.000000e+00;3.519859e-01;9.412009e+02
106;dgesv;36;0;1;1;1;720;7920;1;7920;7920;1504569917;680466996;0.000000e+00;3.444700e-01;9.617367e+02
107;dgesv;36;0;1;1;1;720;7920;1;7920;7920;706043324;496987743;0.000000e+00;3.343482e-01;9.908517e+02
108;dgesv;36;0;1;1;1;720;7920;1;7920;7920;159259470;1359512183;0.000000e+00;3.750699e-01;8.832741e+02
109;dgesv;36;0;1;1;1;720;7920;1;7920;7920;480298490;1398295499;0.000000e+00;3.736780e-01;8.865641e+02
110;dgesv;36;0;1;1;1;720;8640;1;8640;8640;1096689772;2086206725;0.000000e+00;4.388061e-01;9.801452e+02
111;dgesv;36;0;1;1;1;720;8640;1;8640;8640;601385644;1172755590;0.000000e+00;4.444430e-01;9.677139e+02
112;dgesv;36;0;1;1;1;720;8640;1;8640;8640;1544617505;243268139;0.000000e+00;4.262750e-01;1.008958e+03
113;dgesv;36;0;1;1;1;720;8640;1;8640;8640;1012502954;1272469786;0.000000e+00;4.000819e-01;1.075014e+03
114;dgesv;36;0;1;1;1;720;8640;1;8640;8640;2027907669;968338082;0.000000e+00;4.212720e-01;1.020940e+03
115;dgesv;36;0;1;1;1;720;8640;1;8640;8640;722308542;1820388464;0.000000e+00;4.230170e-01;1.016729e+03
116;dgesv;36;0;1;1;1;720;8640;1;8640;8640;933110197;6939507;0.000000e+00;4.320960e-01;9.953660e+02
117;dgesv;36;0;1;1;1;720;8640;1;8640;8640;740759355;1285228804;0.000000e+00;4.331019e-01;9.930542e+02
118;dgesv;36;0;1;1;1;720;8640;1;8640;8640;1789376348;502278611;0.000000e+00;4.154351e-01;1.035285e+03
119;dgesv;36;0;1;1;1;720;8640;1;8640;8640;1450573622;1037127828;0.000000e+00;4.221520e-01;1.018812e+03
120;dgesv;36;0;1;1;1;720;9360;1;9360;9360;1034949299;654887343;0.000000e+00;5.217340e-01;1.048073e+03
121;dgesv;36;0;1;1;1;720;9360;1;9360;9360;1529195746;392035568;0.000000e+00;4.769700e-01;1.146436e+03
122;dgesv;36;0;1;1;1;720;9360;1;9360;9360;1335354340;87755422;0.000000e+00;4.873600e-01;1.121995e+03
123;dgesv;36;0;1;1;1;720;9360;1;9360;9360;889023311;1494613810;0.000000e+00;4.723971e-01;1.157533e+03
124;dgesv;36;0;1;1;1;720;9360;1;9360;9360;1447267605;1369321801;0.000000e+00;4.766281e-01;1.147258e+03
125;dgesv;36;0;1;1;1;720;9360;1;9360;9360;745425661;396473730;0.000000e+00;5.046070e-01;1.083646e+03
126;dgesv;36;0;1;1;1;720;9360;1;9360;9360;1308044878;1346811305;0.000000e+00;5.388241e-01;1.014831e+03
127;dgesv;36;0;1;1;1;720;9360;1;9360;9360;1569229320;705178736;0.000000e+00;4.892180e-01;1.117733e+03
128;dgesv;36;0;1;1;1;720;9360;1;9360;9360;1590079444;434248626;0.000000e+00;5.181141e-01;1.055396e+03
129;dgesv;36;0;1;1;1;720;9360;1;9360;9360;1977648522;1470503465;0.000000e+00;4.960561e-01;1.102326e+03
0;dgesv;36;0;1;1;1;720;10080;1;10080;10080;1681692777;1714636915;0.000000e+00;5.298052e-01;1.289054e+03
1;dgesv;36;0;1;1;1;720;10080;1;10080;10080;1957747793;424238335;0.000000e+00;5.494261e-01;1.243020e+03
2;dgesv;36;0;1;1;1;720;10080;1;10080;10080;719885386;1649760492;0.000000e+00;5.293989e-01;1.290043e+03
3;dgesv;36;0;1;1;1;720;10080;1;10080;10080;596516649;1189641421;0.000000e+00;5.470309e-01;1.248462e+03
4;dgesv;36;0;1;1;1;720;10080;1;10080;10080;1025202362;1350490027;0.000000e+00;5.351632e-01;1.276148e+03
5;dgesv;36;0;1;1;1;720;10080;1;10080;10080;783368690;1102520059;0.000000e+00;5.521228e-01;1.236948e+03
6;dgesv;36;0;1;1;1;720;10080;1;10080;10080;2044897763;1967513926;0.000000e+00;5.460422e-01;1.250723e+03
7;dgesv;36;0;1;1;1;720;10080;1;10080;10080;1365180540;1540383426;0.000000e+00;5.321889e-01;1.283280e+03
8;dgesv;36;0;1;1;1;720;10080;1;10080;10080;304089172;1303455736;0.000000e+00;5.722840e-01;1.193372e+03
9;dgesv;36;0;1;1;1;720;10080;1;10080;10080;35005211;521595368;0.000000e+00;5.540068e-01;1.232742e+03
10;dgesv;36;0;1;1;1;720;12240;1;12240;12240;294702567;1726956429;0.000000e+00;8.434370e-01;1.449707e+03
11;dgesv;36;0;1;1;1;720;12240;1;12240;12240;336465782;861021530;0.000000e+00;8.607979e-01;1.420469e+03
12;dgesv;36;0;1;1;1;720;12240;1;12240;12240;278722862;233665123;0.000000e+00;8.742049e-01;1.398684e+03
13;dgesv;36;0;1;1;1;720;12240;1;12240;12240;2145174067;468703135;0.000000e+00;8.798401e-01;1.389726e+03
14;dgesv;36;0;1;1;1;720;12240;1;12240;12240;1101513929;1801979802;0.000000e+00;8.737750e-01;1.399372e+03
15;dgesv;36;0;1;1;1;720;12240;1;12240;12240;1315634022;635723058;0.000000e+00;8.613520e-01;1.419555e+03
16;dgesv;36;0;1;1;1;720;12240;1;12240;12240;1369133069;1125898167;0.000000e+00;8.613031e-01;1.419635e+03
17;dgesv;36;0;1;1;1;720;12240;1;12240;12240;1059961393;2089018456;0.000000e+00;8.719962e-01;1.402227e+03
18;dgesv;36;0;1;1;1;720;12240;1;12240;12240;628175011;1656478042;0.000000e+00;8.683362e-01;1.408137e+03
19;dgesv;36;0;1;1;1;720;12240;1;12240;12240;1131176229;1653377373;0.000000e+00;8.616569e-01;1.419052e+03
20;dgesv;36;0;1;1;1;720;14400;1;14400;14400;859484421;1914544919;0.000000e+00;1.339680e+00;1.486151e+03
21;dgesv;36;0;1;1;1;720;14400;1;14400;14400;608413784;756898537;0.000000e+00;1.351720e+00;1.472914e+03
22;dgesv;36;0;1;1;1;720;14400;1;14400;14400;1734575198;1973594324;0.000000e+00;1.354993e+00;1.469356e+03
23;dgesv;36;0;1;1;1;720;14400;1;14400;14400;149798315;2038664370;0.000000e+00;1.354119e+00;1.470304e+03
24;dgesv;36;0;1;1;1;720;14400;1;14400;14400;1129566413;184803526;0.000000e+00;1.343596e+00;1.481820e+03
25;dgesv;36;0;1;1;1;720;14400;1;14400;14400;412776091;1424268980;0.000000e+00;1.328388e+00;1.498784e+03
26;dgesv;36;0;1;1;1;720;14400;1;14400;14400;1911759956;749241873;0.000000e+00;1.357046e+00;1.467133e+03
27;dgesv;36;0;1;1;1;720;14400;1;14400;14400;137806862;42999170;0.000000e+00;1.369727e+00;1.453550e+03
28;dgesv;36;0;1;1;1;720;14400;1;14400;14400;982906996;135497281;0.000000e+00;1.331597e+00;1.495172e+03
29;dgesv;36;0;1;1;1;720;14400;1;14400;14400;511702305;2084420925;0.000000e+00;1.332975e+00;1.493627e+03
30;dgesv;36;0;1;1;1;720;16560;1;16560;16560;1937477084;1827336327;0.000000e+00;1.981336e+00;1.528237e+03
31;dgesv;36;0;1;1;1;720;16560;1;16560;16560;572660336;1159126505;0.000000e+00;1.962871e+00;1.542613e+03
32;dgesv;36;0;1;1;1;720;16560;1;16560;16560;805750846;1632621729;0.000000e+00;1.961923e+00;1.543358e+03
33;dgesv;36;0;1;1;1;720;16560;1;16560;16560;1100661313;1433925857;0.000000e+00;2.006866e+00;1.508795e+03
34;dgesv;36;0;1;1;1;720;16560;1;16560;16560;1141616124;84353895;0.000000e+00;1.968896e+00;1.537892e+03
35;dgesv;36;0;1;1;1;720;16560;1;16560;16560;939819582;2001100545;0.000000e+00;1.996133e+00;1.516908e+03
36;dgesv;36;0;1;1;1;720;16560;1;16560;16560;1998898814;1548233367;0.000000e+00;1.952142e+00;1.551091e+03
37;dgesv;36;0;1;1;1;720;16560;1;16560;16560;610515434;1585990364;0.000000e+00;1.977080e+00;1.531526e+03
38;dgesv;36;0;1;1;1;720;16560;1;16560;16560;1374344043;760313750;0.000000e+00;1.984780e+00;1.525585e+03
39;dgesv;36;0;1;1;1;720;16560;1;16560;16560;1477171087;356426808;0.000000e+00;1.968086e+00;1.538525e+03
40;dgesv;36;0;1;1;1;720;18720;1;18720;18720;945117276;1889947178;0.000000e+00;2.782390e+00;1.572029e+03
41;dgesv;36;0;1;1;1;720;18720;1;18720;18720;1780695788;709393584;0.000000e+00;2.802238e+00;1.560894e+03
42;dgesv;36;0;1;1;1;720;18720;1;18720;18720;491705403;1918502651;0.000000e+00;2.806292e+00;1.558639e+03
43;dgesv;36;0;1;1;1;720;18720;1;18720;18720;752392754;1474612399;0.000000e+00;2.780805e+00;1.572925e+03
44;dgesv;36;0;1;1;1;720;18720;1;18720;18720;2053999932;1264095060;0.000000e+00;2.796003e+00;1.564375e+03
45;dgesv;36;0;1;1;1;720;18720;1;18720;18720;1411549676;1843993368;0.000000e+00;2.781070e+00;1.572775e+03
46;dgesv;36;0;1;1;1;720;18720;1;18720;18720;943947739;1984210012;0.000000e+00;2.806590e+00;1.558474e+03
47;dgesv;36;0;1;1;1;720;18720;1;18720;18720;855636226;1749698586;0.000000e+00;2.796467e+00;1.564115e+03
48;dgesv;36;0;1;1;1;720;18720;1;18720;18720;1469348094;1956297539;0.000000e+00;2.801427e+00;1.561346e+03
49;dgesv;36;0;1;1;1;720;18720;1;18720;18720;1036140795;463480570;0.000000e+00;2.803852e+00;1.559996e+03
50;dgesv;36;0;1;1;1;720;20880;1;20880;20880;2040651434;1975960378;0.000000e+00;3.846764e+00;1.577798e+03
51;dgesv;36;0;1;1;1;720;20880;1;20880;20880;317097467;1892066601;0.000000e+00;3.840567e+00;1.580344e+03
52;dgesv;36;0;1;1;1;720;20880;1;20880;20880;1376710097;927612902;0.000000e+00;3.862767e+00;1.571262e+03
53;dgesv;36;0;1;1;1;720;20880;1;20880;20880;1330573317;603570492;0.000000e+00;3.846440e+00;1.577931e+03
54;dgesv;36;0;1;1;1;720;20880;1;20880;20880;1687926652;660260756;0.000000e+00;3.839286e+00;1.580872e+03
55;dgesv;36;0;1;1;1;720;20880;1;20880;20880;959997301;485560280;0.000000e+00;3.820806e+00;1.588518e+03
56;dgesv;36;0;1;1;1;720;20880;1;20880;20880;402724286;593209441;0.000000e+00;3.866048e+00;1.569928e+03
57;dgesv;36;0;1;1;1;720;20880;1;20880;20880;1194953865;894429689;0.000000e+00;3.833375e+00;1.583309e+03
58;dgesv;36;0;1;1;1;720;20880;1;20880;20880;364228444;1947346619;0.000000e+00;3.845291e+00;1.578403e+03
59;dgesv;36;0;1;1;1;720;20880;1;20880;20880;221558440;270744729;0.000000e+00;3.849108e+00;1.576837e+03
60;dgesv;36;0;1;1;1;720;23040;1;23040;23040;1063958031;1633108117;0.000000e+00;5.098811e+00;1.599299e+03
61;dgesv;36;0;1;1;1;720;23040;1;23040;23040;2114738097;2007905771;0.000000e+00;5.091917e+00;1.601464e+03
62;dgesv;36;0;1;1;1;720;23040;1;23040;23040;1469834481;822890675;0.000000e+00;5.106534e+00;1.596880e+03
63;dgesv;36;0;1;1;1;720;23040;1;23040;23040;1610120709;791698927;0.000000e+00;5.103392e+00;1.597863e+03
64;dgesv;36;0;1;1;1;720;23040;1;23040;23040;631704567;498777856;0.000000e+00;5.102267e+00;1.598216e+03
65;dgesv;36;0;1;1;1;720;23040;1;23040;23040;1255179497;524872353;0.000000e+00;5.091335e+00;1.601647e+03
66;dgesv;36;0;1;1;1;720;23040;1;23040;23040;327254586;1572276965;0.000000e+00;5.094842e+00;1.600545e+03
67;dgesv;36;0;1;1;1;720;23040;1;23040;23040;269455306;1703964683;0.000000e+00;5.120619e+00;1.592488e+03
68;dgesv;36;0;1;1;1;720;23040;1;23040;23040;352406219;1600028624;0.000000e+00;5.089672e+00;1.602171e+03
69;dgesv;36;0;1;1;1;720;23040;1;23040;23040;160051528;2040332871;0.000000e+00;5.101734e+00;1.598383e+03
70;dgesv;36;0;1;1;1;720;25200;1;25200;25200;112805732;1120048829;0.000000e+00;6.627124e+00;1.609993e+03
71;dgesv;36;0;1;1;1;720;25200;1;25200;25200;378409503;515530019;0.000000e+00;6.623576e+00;1.610856e+03
72;dgesv;36;0;1;1;1;720;25200;1;25200;25200;1713258270;1573363368;0.000000e+00;6.651384e+00;1.604121e+03
73;dgesv;36;0;1;1;1;720;25200;1;25200;25200;1409959708;2077486715;0.000000e+00;6.635290e+00;1.608012e+03
74;dgesv;36;0;1;1;1;720;25200;1;25200;25200;1373226340;1631518149;0.000000e+00;6.611841e+00;1.613715e+03
75;dgesv;36;0;1;1;1;720;25200;1;25200;25200;200747796;289700723;0.000000e+00;6.616626e+00;1.612548e+03
76;dgesv;36;0;1;1;1;720;25200;1;25200;25200;1117142618;168002245;0.000000e+00;6.631599e+00;1.608907e+03
77;dgesv;36;0;1;1;1;720;25200;1;25200;25200;150122846;439493451;0.000000e+00;6.632714e+00;1.608636e+03
78;dgesv;36;0;1;1;1;720;25200;1;25200;25200;990892921;1760243555;0.000000e+00;6.634315e+00;1.608248e+03
79;dgesv;36;0;1;1;1;720;25200;1;25200;25200;1231192379;1622597488;0.000000e+00;6.617354e+00;1.612370e+03
80;dgesv;36;0;1;1;1;720;27360;1;27360;27360;111537764;338888228;0.000000e+00;8.455242e+00;1.614978e+03
81;dgesv;36;0;1;1;1;720;27360;1;27360;27360;2147469841;438792350;0.000000e+00;8.435759e+00;1.618708e+03
82;dgesv;36;0;1;1;1;720;27360;1;27360;27360;1911165193;269441500;0.000000e+00;8.466314e+00;1.612866e+03
83;dgesv;36;0;1;1;1;720;27360;1;27360;27360;2142757034;116087764;0.000000e+00;8.457090e+00;1.614625e+03
84;dgesv;36;0;1;1;1;720;27360;1;27360;27360;1869470124;155324914;0.000000e+00;8.446939e+00;1.616566e+03
85;dgesv;36;0;1;1;1;720;27360;1;27360;27360;8936987;1982275856;0.000000e+00;8.457905e+00;1.614470e+03
86;dgesv;36;0;1;1;1;720;27360;1;27360;27360;1275373743;387346491;0.000000e+00;8.445409e+00;1.616859e+03
87;dgesv;36;0;1;1;1;720;27360;1;27360;27360;350322227;841148365;0.000000e+00;8.478490e+00;1.610550e+03
88;dgesv;36;0;1;1;1;720;27360;1;27360;27360;1960709859;1760281936;0.000000e+00;8.432614e+00;1.619312e+03
89;dgesv;36;0;1;1;1;720;27360;1;27360;27360;771151432;1186452551;0.000000e+00;8.458694e+00;1.614319e+03
