Id;Function;threads;gpus;P;Q;mtxfmt;nb;n;nrhs;lda;ldb;seedA;seedB;tsub;time;gflops
0;dgesv;36;0;1;1;1;720;720;1;720;720;1681692777;1714636915;0.000000e+00;8.380134e-03;2.978586e+01
1;dgesv;36;0;1;1;1;720;720;1;720;720;1957747793;424238335;0.000000e+00;8.981524e-03;2.779144e+01
2;dgesv;36;0;1;1;1;720;720;1;720;720;719885386;1649760492;0.000000e+00;9.604182e-03;2.598967e+01
3;dgesv;36;0;1;1;1;720;720;1;720;720;596516649;1189641421;0.000000e+00;9.191380e-03;2.715691e+01
4;dgesv;36;0;1;1;1;720;720;1;720;720;1025202362;1350490027;0.000000e+00;1.049579e-02;2.378188e+01
5;dgesv;36;0;1;1;1;720;720;1;720;720;783368690;1102520059;0.000000e+00;8.380955e-03;2.978294e+01
6;dgesv;36;0;1;1;1;720;720;1;720;720;2044897763;1967513926;0.000000e+00;9.937608e-03;2.511766e+01
7;dgesv;36;0;1;1;1;720;720;1;720;720;1365180540;1540383426;0.000000e+00;1.006814e-02;2.479202e+01
8;dgesv;36;0;1;1;1;720;720;1;720;720;304089172;1303455736;0.000000e+00;9.505459e-03;2.625959e+01
9;dgesv;36;0;1;1;1;720;720;1;720;720;35005211;521595368;0.000000e+00;9.807914e-03;2.544980e+01
10;dgesv;36;0;1;1;1;720;1440;1;1440;1440;294702567;1726956429;0.000000e+00;3.935953e-02;5.065523e+01
11;dgesv;36;0;1;1;1;720;1440;1;1440;1440;336465782;861021530;0.000000e+00;3.920167e-02;5.085922e+01
12;dgesv;36;0;1;1;1;720;1440;1;1440;1440;278722862;233665123;0.000000e+00;3.761330e-02;5.300694e+01
13;dgesv;36;0;1;1;1;720;1440;1;1440;1440;2145174067;468703135;0.000000e+00;3.671256e-02;5.430747e+01
14;dgesv;36;0;1;1;1;720;1440;1;1440;1440;1101513929;1801979802;0.000000e+00;3.543551e-02;5.626463e+01
15;dgesv;36;0;1;1;1;720;1440;1;1440;1440;1315634022;635723058;0.000000e+00;3.748689e-02;5.318568e+01
16;dgesv;36;0;1;1;1;720;1440;1;1440;1440;1369133069;1125898167;0.000000e+00;3.704864e-02;5.381482e+01
17;dgesv;36;0;1;1;1;720;1440;1;1440;1440;1059961393;2089018456;0.000000e+00;3.231994e-02;6.168843e+01
18;dgesv;36;0;1;1;1;720;1440;1;1440;1440;628175011;1656478042;0.000000e+00;3.558751e-02;5.602432e+01
19;dgesv;36;0;1;1;1;720;1440;1;1440;1440;1131176229;1653377373;0.000000e+00;3.385279e-02;5.889519e+01
20;dgesv;36;0;1;1;1;720;2160;1;2160;2160;859484421;1914544919;0.000000e+00;6.372812e-02;1.055337e+02
21;dgesv;36;0;1;1;1;720;2160;1;2160;2160;608413784;756898537;0.000000e+00;6.375115e-02;1.054955e+02
22;dgesv;36;0;1;1;1;720;2160;1;2160;2160;1734575198;1973594324;0.000000e+00;5.510024e-02;1.220587e+02
23;dgesv;36;0;1;1;1;720;2160;1;2160;2160;149798315;2038664370;0.000000e+00;5.888381e-02;1.142158e+02
24;dgesv;36;0;1;1;1;720;2160;1;2160;2160;1129566413;184803526;0.000000e+00;5.804410e-02;1.158681e+02
25;dgesv;36;0;1;1;1;720;2160;1;2160;2160;412776091;1424268980;0.000000e+00;5.673668e-02;1.185382e+02
26;dgesv;36;0;1;1;1;720;2160;1;2160;2160;1911759956;749241873;0.000000e+00;6.105445e-02;1.101551e+02
27;dgesv;36;0;1;1;1;720;2160;1;2160;2160;137806862;42999170;0.000000e+00;5.913797e-02;1.137249e+02
28;dgesv;36;0;1;1;1;720;2160;1;2160;2160;982906996;135497281;0.000000e+00;5.760450e-02;1.167524e+02
29;dgesv;36;0;1;1;1;720;2160;1;2160;2160;511702305;2084420925;0.000000e+00;5.672173e-02;1.185694e+02
30;dgesv;36;0;1;1;1;720;2880;1;2880;2880;1937477084;1827336327;0.000000e+00;8.327566e-02;1.913847e+02
31;dgesv;36;0;1;1;1;720;2880;1;2880;2880;572660336;1159126505;0.000000e+00;8.245969e-02;1.932785e+02
32;dgesv;36;0;1;1;1;720;2880;1;2880;2880;805750846;1632621729;0.000000e+00;8.329232e-02;1.913464e+02
33;dgesv;36;0;1;1;1;720;2880;1;2880;2880;1100661313;1433925857;0.000000e+00;8.368487e-02;1.904489e+02
34;dgesv;36;0;1;1;1;720;2880;1;2880;2880;1141616124;84353895;0.000000e+00;8.367572e-02;1.904697e+02
35;dgesv;36;0;1;1;1;720;2880;1;2880;2880;939819582;2001100545;0.000000e+00;8.303690e-02;1.919350e+02
36;dgesv;36;0;1;1;1;720;2880;1;2880;2880;1998898814;1548233367;0.000000e+00;8.403710e-02;1.896506e+02
37;dgesv;36;0;1;1;1;720;2880;1;2880;2880;610515434;1585990364;0.000000e+00;8.289172e-02;1.922712e+02
38;dgesv;36;0;1;1;1;720;2880;1;2880;2880;1374344043;760313750;0.000000e+00;8.196527e-02;1.944444e+02
39;dgesv;36;0;1;1;1;720;2880;1;2880;2880;1477171087;356426808;0.000000e+00;8.315076e-02;1.916722e+02
40;dgesv;36;0;1;1;1;720;3600;1;3600;3600;945117276;1889947178;0.000000e+00;1.097989e-01;2.834586e+02
41;dgesv;36;0;1;1;1;720;3600;1;3600;3600;1780695788;709393584;0.000000e+00;1.088197e-01;2.860093e+02
42;dgesv;36;0;1;1;1;720;3600;1;3600;3600;491705403;1918502651;0.000000e+00;1.114231e-01;2.793267e+02
43;dgesv;36;0;1;1;1;720;3600;1;3600;3600;752392754;1474612399;0.000000e+00;1.082304e-01;2.875665e+02
44;dgesv;36;0;1;1;1;720;3600;1;3600;3600;2053999932;1264095060;0.000000e+00;1.070418e-01;2.907597e+02
45;dgesv;36;0;1;1;1;720;3600;1;3600;3600;1411549676;1843993368;0.000000e+00;1.061790e-01;2.931224e+02
46;dgesv;36;0;1;1;1;720;3600;1;3600;3600;943947739;1984210012;0.000000e+00;1.099660e-01;2.830279e+02
47;dgesv;36;0;1;1;1;720;3600;1;3600;3600;855636226;1749698586;0.000000e+00;1.117535e-01;2.785008e+02
48;dgesv;36;0;1;1;1;720;3600;1;3600;3600;1469348094;1956297539;0.000000e+00;1.094196e-01;2.844412e+02
49;dgesv;36;0;1;1;1;720;3600;1;3600;3600;1036140795;463480570;0.000000e+00;1.086091e-01;2.865638e+02
50;dgesv;36;0;1;1;1;720;4320;1;4320;4320;2040651434;1975960378;0.000000e+00;1.363825e-01;3.943007e+02
51;dgesv;36;0;1;1;1;720;4320;1;4320;4320;317097467;1892066601;0.000000e+00;1.371273e-01;3.921590e+02
52;dgesv;36;0;1;1;1;720;4320;1;4320;4320;1376710097;927612902;0.000000e+00;1.372946e-01;3.916811e+02
53;dgesv;36;0;1;1;1;720;4320;1;4320;4320;1330573317;603570492;0.000000e+00;1.350552e-01;3.981758e+02
54;dgesv;36;0;1;1;1;720;4320;1;4320;4320;1687926652;660260756;0.000000e+00;1.380571e-01;3.895179e+02
55;dgesv;36;0;1;1;1;720;4320;1;4320;4320;959997301;485560280;0.000000e+00;1.382004e-01;3.891138e+02
56;dgesv;36;0;1;1;1;720;4320;1;4320;4320;402724286;593209441;0.000000e+00;1.394913e-01;3.855130e+02
57;dgesv;36;0;1;1;1;720;4320;1;4320;4320;1194953865;894429689;0.000000e+00;1.374960e-01;3.911074e+02
58;dgesv;36;0;1;1;1;720;4320;1;4320;4320;364228444;1947346619;0.000000e+00;1.368827e-01;3.928597e+02
59;dgesv;36;0;1;1;1;720;4320;1;4320;4320;221558440;270744729;0.000000e+00;1.352615e-01;3.975683e+02
60;dgesv;36;0;1;1;1;720;5040;1;5040;5040;1063958031;1633108117;0.000000e+00;1.719773e-01;4.965044e+02
61;dgesv;36;0;1;1;1;720;5040;1;5040;5040;2114738097;2007905771;0.000000e+00;1.663055e-01;5.134374e+02
62;dgesv;36;0;1;1;1;720;5040;1;5040;5040;1469834481;822890675;0.000000e+00;1.681717e-01;5.077398e+02
63;dgesv;36;0;1;1;1;720;5040;1;5040;5040;1610120709;791698927;0.000000e+00;1.684584e-01;5.068757e+02
64;dgesv;36;0;1;1;1;720;5040;1;5040;5040;631704567;498777856;0.000000e+00;1.666331e-01;5.124279e+02
65;dgesv;36;0;1;1;1;720;5040;1;5040;5040;1255179497;524872353;0.000000e+00;1.689442e-01;5.054181e+02
66;dgesv;36;0;1;1;1;720;5040;1;5040;5040;327254586;1572276965;0.000000e+00;1.663136e-01;5.134125e+02
67;dgesv;36;0;1;1;1;720;5040;1;5040;5040;269455306;1703964683;0.000000e+00;1.683419e-01;5.072267e+02
68;dgesv;36;0;1;1;1;720;5040;1;5040;5040;352406219;1600028624;0.000000e+00;1.678465e-01;5.087237e+02
69;dgesv;36;0;1;1;1;720;5040;1;5040;5040;160051528;2040332871;0.000000e+00;1.653832e-01;5.163007e+02
70;dgesv;36;0;1;1;1;720;5760;1;5760;5760;112805732;1120048829;0.000000e+00;2.004703e-01;6.357636e+02
71;dgesv;36;0;1;1;1;720;5760;1;5760;5760;378409503;515530019;0.000000e+00;1.968964e-01;6.473037e+02
72;dgesv;36;0;1;1;1;720;5760;1;5760;5760;1713258270;1573363368;0.000000e+00;1.980295e-01;6.435998e+02
73;dgesv;36;0;1;1;1;720;5760;1;5760;5760;1409959708;2077486715;0.000000e+00;2.023069e-01;6.299922e+02
74;dgesv;36;0;1;1;1;720;5760;1;5760;5760;1373226340;1631518149;0.000000e+00;1.961164e-01;6.498781e+02
75;dgesv;36;0;1;1;1;720;5760;1;5760;5760;200747796;289700723;0.000000e+00;2.015321e-01;6.324140e+02
76;dgesv;36;0;1;1;1;720;5760;1;5760;5760;1117142618;168002245;0.000000e+00;1.972854e-01;6.460273e+02
77;dgesv;36;0;1;1;1;720;5760;1;5760;5760;150122846;439493451;0.000000e+00;1.983435e-01;6.425809e+02
78;dgesv;36;0;1;1;1;720;5760;1;5760;5760;990892921;1760243555;0.000000e+00;1.999593e-01;6.373885e+02
79;dgesv;36;0;1;1;1;720;5760;1;5760;5760;1231192379;1622597488;0.000000e+00;1.989853e-01;6.405085e+02
80;dgesv;36;0;1;1;1;720;6480;1;6480;6480;111537764;338888228;0.000000e+00;2.362306e-01;7.681542e+02
81;dgesv;36;0;1;1;1;720;6480;1;6480;6480;2147469841;438792350;0.000000e+00;2.322078e-01;7.814616e+02
82;dgesv;36;0;1;1;1;720;6480;1;6480;6480;1911165193;269441500;0.000000e+00;2.326176e-01;7.800852e+02
83;dgesv;36;0;1;1;1;720;6480;1;6480;6480;2142757034;116087764;0.000000e+00;2.335275e-01;7.770457e+02
84;dgesv;36;0;1;1;1;720;6480;1;6480;6480;1869470124;155324914;0.000000e+00;2.334799e-01;7.772038e+02
85;dgesv;36;0;1;1;1;720;6480;1;6480;6480;8936987;1982275856;0.000000e+00;2.340240e-01;7.753971e+02
86;dgesv;36;0;1;1;1;720;6480;1;6480;6480;1275373743;387346491;0.000000e+00;2.333240e-01;7.777233e+02
87;dgesv;36;0;1;1;1;720;6480;1;6480;6480;350322227;841148365;0.000000e+00;2.316736e-01;7.832637e+02
88;dgesv;36;0;1;1;1;720;6480;1;6480;6480;1960709859;1760281936;0.000000e+00;2.301817e-01;7.883403e+02
89;dgesv;36;0;1;1;1;720;6480;1;6480;6480;771151432;1186452551;0.000000e+00;2.369758e-01;7.657386e+02
90;dgesv;36;0;1;1;1;720;7200;1;7200;7200;1244316437;971899228;0.000000e+00;2.721350e-01;9.146553e+02
91;dgesv;36;0;1;1;1;720;7200;1;7200;7200;1476153275;213975407;0.000000e+00;2.748423e-01;9.056458e+02
92;dgesv;36;0;1;1;1;720;7200;1;7200;7200;1139901474;1626276121;0.000000e+00;2.744572e-01;9.069166e+02
93;dgesv;36;0;1;1;1;720;7200;1;7200;7200;653468858;2130794395;0.000000e+00;2.707505e-01;9.193326e+02
94;dgesv;36;0;1;1;1;720;7200;1;7200;7200;1239036029;1884661237;0.000000e+00;2.760069e-01;9.018243e+02
95;dgesv;36;0;1;1;1;720;7200;1;7200;7200;1605908235;1350573793;0.000000e+00;2.745125e-01;9.067338e+02
96;dgesv;36;0;1;1;1;720;7200;1;7200;7200;76065818;1605894428;0.000000e+00;2.759447e-01;9.020276e+02
97;dgesv;36;0;1;1;1;720;7200;1;7200;7200;1789366143;1987231011;0.000000e+00;2.733147e-01;9.107075e+02
98;dgesv;36;0;1;1;1;720;7200;1;7200;7200;1875335928;1784639529;0.000000e+00;2.708866e-01;9.188707e+02
99;dgesv;36;0;1;1;1;720;7200;1;7200;7200;2103318776;1597322404;0.000000e+00;2.715801e-01;9.165244e+02
100;dgesv;36;0;1;1;1;720;7920;1;7920;7920;1939964443;2112255763;0.000000e+00;3.191300e-01;1.038102e+03
101;dgesv;36;0;1;1;1;720;7920;1;7920;7920;1432114613;1067854538;0.000000e+00;3.173001e-01;1.044089e+03
102;dgesv;36;0;1;1;1;720;7920;1;7920;7920;352118606;1782436840;0.000000e+00;3.160881e-01;1.048092e+03
103;dgesv;36;0;1;1;1;720;7920;1;7920;7920;1909002904;165344818;0.000000e+00;3.139417e-01;1.055258e+03
104;dgesv;36;0;1;1;1;720;7920;1;7920;7920;1395235128;532670688;0.000000e+00;3.238607e-01;1.022938e+03
105;dgesv;36;0;1;1;1;720;7920;1;7920;7920;1351797369;492067917;0.000000e+00;3.212965e-01;1.031102e+03
106;dgesv;36;0;1;1;1;720;7920;1;7920;7920;1504569917;680466996;0.000000e+00;3.246468e-01;1.020461e+03
107;dgesv;36;0;1;1;1;720;7920;1;7920;7920;706043324;496987743;0.000000e+00;3.226523e-01;1.026769e+03
108;dgesv;36;0;1;1;1;720;7920;1;7920;7920;159259470;1359512183;0.000000e+00;3.195936e-01;1.036596e+03
109;dgesv;36;0;1;1;1;720;7920;1;7920;7920;480298490;1398295499;0.000000e+00;3.133315e-01;1.057313e+03
110;dgesv;36;0;1;1;1;720;8640;1;8640;8640;1096689772;2086206725;0.000000e+00;3.622653e-01;1.187234e+03
111;dgesv;36;0;1;1;1;720;8640;1;8640;8640;601385644;1172755590;0.000000e+00;3.718408e-01;1.156661e+03
112;dgesv;36;0;1;1;1;720;8640;1;8640;8640;1544617505;243268139;0.000000e+00;3.706139e-01;1.160490e+03
113;dgesv;36;0;1;1;1;720;8640;1;8640;8640;1012502954;1272469786;0.000000e+00;3.746011e-01;1.148138e+03
114;dgesv;36;0;1;1;1;720;8640;1;8640;8640;2027907669;968338082;0.000000e+00;3.650060e-01;1.178320e+03
115;dgesv;36;0;1;1;1;720;8640;1;8640;8640;722308542;1820388464;0.000000e+00;3.577609e-01;1.202182e+03
116;dgesv;36;0;1;1;1;720;8640;1;8640;8640;933110197;6939507;0.000000e+00;3.807206e-01;1.129683e+03
117;dgesv;36;0;1;1;1;720;8640;1;8640;8640;740759355;1285228804;0.000000e+00;3.721342e-01;1.155749e+03
118;dgesv;36;0;1;1;1;720;8640;1;8640;8640;1789376348;502278611;0.000000e+00;3.685481e-01;1.166995e+03
119;dgesv;36;0;1;1;1;720;8640;1;8640;8640;1450573622;1037127828;0.000000e+00;3.654063e-01;1.177029e+03
120;dgesv;36;0;1;1;1;720;9360;1;9360;9360;1034949299;654887343;0.000000e+00;4.380943e-01;1.248168e+03
121;dgesv;36;0;1;1;1;720;9360;1;9360;9360;1529195746;392035568;0.000000e+00;4.292530e-01;1.273877e+03
122;dgesv;36;0;1;1;1;720;9360;1;9360;9360;1335354340;87755422;0.000000e+00;4.491263e-01;1.217509e+03
123;dgesv;36;0;1;1;1;720;9360;1;9360;9360;889023311;1494613810;0.000000e+00;4.347910e-01;1.257651e+03
124;dgesv;36;0;1;1;1;720;9360;1;9360;9360;1447267605;1369321801;0.000000e+00;4.398966e-01;1.243054e+03
125;dgesv;36;0;1;1;1;720;9360;1;9360;9360;745425661;396473730;0.000000e+00;4.345123e-01;1.258458e+03
126;dgesv;36;0;1;1;1;720;9360;1;9360;9360;1308044878;1346811305;0.000000e+00;4.318990e-01;1.266072e+03
127;dgesv;36;0;1;1;1;720;9360;1;9360;9360;1569229320;705178736;0.000000e+00;4.386955e-01;1.246458e+03
128;dgesv;36;0;1;1;1;720;9360;1;9360;9360;1590079444;434248626;0.000000e+00;4.372347e-01;1.250622e+03
129;dgesv;36;0;1;1;1;720;9360;1;9360;9360;1977648522;1470503465;0.000000e+00;4.472868e-01;1.222516e+03
0;dgesv;36;0;1;1;1;720;10080;1;10080;10080;1681692777;1714636915;0.000000e+00;5.483313e-01;1.245501e+03
1;dgesv;36;0;1;1;1;720;10080;1;10080;10080;1957747793;424238335;0.000000e+00;5.274364e-01;1.294843e+03
2;dgesv;36;0;1;1;1;720;10080;1;10080;10080;719885386;1649760492;0.000000e+00;5.269112e-01;1.296134e+03
3;dgesv;36;0;1;1;1;720;10080;1;10080;10080;596516649;1189641421;0.000000e+00;5.307786e-01;1.286690e+03
4;dgesv;36;0;1;1;1;720;10080;1;10080;10080;1025202362;1350490027;0.000000e+00;5.406820e-01;1.263122e+03
5;dgesv;36;0;1;1;1;720;10080;1;10080;10080;783368690;1102520059;0.000000e+00;5.278077e-01;1.293932e+03
6;dgesv;36;0;1;1;1;720;10080;1;10080;10080;2044897763;1967513926;0.000000e+00;5.243027e-01;1.302582e+03
7;dgesv;36;0;1;1;1;720;10080;1;10080;10080;1365180540;1540383426;0.000000e+00;5.178290e-01;1.318867e+03
8;dgesv;36;0;1;1;1;720;10080;1;10080;10080;304089172;1303455736;0.000000e+00;5.470040e-01;1.248524e+03
9;dgesv;36;0;1;1;1;720;10080;1;10080;10080;35005211;521595368;0.000000e+00;5.249613e-01;1.300948e+03
10;dgesv;36;0;1;1;1;720;12240;1;12240;12240;294702567;1726956429;0.000000e+00;8.805289e-01;1.388639e+03
11;dgesv;36;0;1;1;1;720;12240;1;12240;12240;336465782;861021530;0.000000e+00;8.664946e-01;1.411130e+03
12;dgesv;36;0;1;1;1;720;12240;1;12240;12240;278722862;233665123;0.000000e+00;8.715806e-01;1.402895e+03
13;dgesv;36;0;1;1;1;720;12240;1;12240;12240;2145174067;468703135;0.000000e+00;8.746023e-01;1.398048e+03
14;dgesv;36;0;1;1;1;720;12240;1;12240;12240;1101513929;1801979802;0.000000e+00;8.797400e-01;1.389884e+03
15;dgesv;36;0;1;1;1;720;12240;1;12240;12240;1315634022;635723058;0.000000e+00;8.777775e-01;1.392991e+03
16;dgesv;36;0;1;1;1;720;12240;1;12240;12240;1369133069;1125898167;0.000000e+00;8.936177e-01;1.368299e+03
17;dgesv;36;0;1;1;1;720;12240;1;12240;12240;1059961393;2089018456;0.000000e+00;8.664459e-01;1.411209e+03
18;dgesv;36;0;1;1;1;720;12240;1;12240;12240;628175011;1656478042;0.000000e+00;8.714804e-01;1.403057e+03
19;dgesv;36;0;1;1;1;720;12240;1;12240;12240;1131176229;1653377373;0.000000e+00;8.795857e-01;1.390128e+03
20;dgesv;36;0;1;1;1;720;14400;1;14400;14400;859484421;1914544919;0.000000e+00;1.366730e+00;1.456738e+03
21;dgesv;36;0;1;1;1;720;14400;1;14400;14400;608413784;756898537;0.000000e+00;1.368969e+00;1.454355e+03
22;dgesv;36;0;1;1;1;720;14400;1;14400;14400;1734575198;1973594324;0.000000e+00;1.370444e+00;1.452790e+03
23;dgesv;36;0;1;1;1;720;14400;1;14400;14400;149798315;2038664370;0.000000e+00;1.374550e+00;1.448450e+03
24;dgesv;36;0;1;1;1;720;14400;1;14400;14400;1129566413;184803526;0.000000e+00;1.374018e+00;1.449011e+03
25;dgesv;36;0;1;1;1;720;14400;1;14400;14400;412776091;1424268980;0.000000e+00;1.378721e+00;1.444068e+03
26;dgesv;36;0;1;1;1;720;14400;1;14400;14400;1911759956;749241873;0.000000e+00;1.379482e+00;1.443271e+03
27;dgesv;36;0;1;1;1;720;14400;1;14400;14400;137806862;42999170;0.000000e+00;1.396261e+00;1.425928e+03
28;dgesv;36;0;1;1;1;720;14400;1;14400;14400;982906996;135497281;0.000000e+00;1.376627e+00;1.446265e+03
29;dgesv;36;0;1;1;1;720;14400;1;14400;14400;511702305;2084420925;0.000000e+00;1.371023e+00;1.452176e+03
30;dgesv;36;0;1;1;1;720;16560;1;16560;16560;1937477084;1827336327;0.000000e+00;2.046634e+00;1.479478e+03
31;dgesv;36;0;1;1;1;720;16560;1;16560;16560;572660336;1159126505;0.000000e+00;2.030906e+00;1.490936e+03
32;dgesv;36;0;1;1;1;720;16560;1;16560;16560;805750846;1632621729;0.000000e+00;2.082241e+00;1.454179e+03
33;dgesv;36;0;1;1;1;720;16560;1;16560;16560;1100661313;1433925857;0.000000e+00;2.037422e+00;1.486168e+03
34;dgesv;36;0;1;1;1;720;16560;1;16560;16560;1141616124;84353895;0.000000e+00;2.054822e+00;1.473583e+03
35;dgesv;36;0;1;1;1;720;16560;1;16560;16560;939819582;2001100545;0.000000e+00;2.032488e+00;1.489775e+03
36;dgesv;36;0;1;1;1;720;16560;1;16560;16560;1998898814;1548233367;0.000000e+00;2.034681e+00;1.488170e+03
37;dgesv;36;0;1;1;1;720;16560;1;16560;16560;610515434;1585990364;0.000000e+00;2.044669e+00;1.480900e+03
38;dgesv;36;0;1;1;1;720;16560;1;16560;16560;1374344043;760313750;0.000000e+00;2.027764e+00;1.493246e+03
39;dgesv;36;0;1;1;1;720;16560;1;16560;16560;1477171087;356426808;0.000000e+00;2.037199e+00;1.486330e+03
40;dgesv;36;0;1;1;1;720;18720;1;18720;18720;945117276;1889947178;0.000000e+00;2.913346e+00;1.501365e+03
41;dgesv;36;0;1;1;1;720;18720;1;18720;18720;1780695788;709393584;0.000000e+00;2.895313e+00;1.510716e+03
42;dgesv;36;0;1;1;1;720;18720;1;18720;18720;491705403;1918502651;0.000000e+00;2.941860e+00;1.486813e+03
43;dgesv;36;0;1;1;1;720;18720;1;18720;18720;752392754;1474612399;0.000000e+00;2.893971e+00;1.511417e+03
44;dgesv;36;0;1;1;1;720;18720;1;18720;18720;2053999932;1264095060;0.000000e+00;2.907352e+00;1.504461e+03
45;dgesv;36;0;1;1;1;720;18720;1;18720;18720;1411549676;1843993368;0.000000e+00;2.894060e+00;1.511371e+03
46;dgesv;36;0;1;1;1;720;18720;1;18720;18720;943947739;1984210012;0.000000e+00;2.895869e+00;1.510426e+03
47;dgesv;36;0;1;1;1;720;18720;1;18720;18720;855636226;1749698586;0.000000e+00;2.954535e+00;1.480435e+03
48;dgesv;36;0;1;1;1;720;18720;1;18720;18720;1469348094;1956297539;0.000000e+00;2.900164e+00;1.508190e+03
49;dgesv;36;0;1;1;1;720;18720;1;18720;18720;1036140795;463480570;0.000000e+00;2.931310e+00;1.492165e+03
50;dgesv;36;0;1;1;1;720;20880;1;20880;20880;2040651434;1975960378;0.000000e+00;3.976985e+00;1.526135e+03
51;dgesv;36;0;1;1;1;720;20880;1;20880;20880;317097467;1892066601;0.000000e+00;4.010745e+00;1.513289e+03
52;dgesv;36;0;1;1;1;720;20880;1;20880;20880;1376710097;927612902;0.000000e+00;4.073261e+00;1.490063e+03
53;dgesv;36;0;1;1;1;720;20880;1;20880;20880;1330573317;603570492;0.000000e+00;3.983863e+00;1.523501e+03
54;dgesv;36;0;1;1;1;720;20880;1;20880;20880;1687926652;660260756;0.000000e+00;4.018997e+00;1.510182e+03
55;dgesv;36;0;1;1;1;720;20880;1;20880;20880;959997301;485560280;0.000000e+00;4.009263e+00;1.513849e+03
56;dgesv;36;0;1;1;1;720;20880;1;20880;20880;402724286;593209441;0.000000e+00;3.975226e+00;1.526811e+03
57;dgesv;36;0;1;1;1;720;20880;1;20880;20880;1194953865;894429689;0.000000e+00;4.020477e+00;1.509626e+03
58;dgesv;36;0;1;1;1;720;20880;1;20880;20880;364228444;1947346619;0.000000e+00;4.023278e+00;1.508575e+03
59;dgesv;36;0;1;1;1;720;20880;1;20880;20880;221558440;270744729;0.000000e+00;4.007151e+00;1.514647e+03
60;dgesv;36;0;1;1;1;720;23040;1;23040;23040;1063958031;1633108117;0.000000e+00;5.337260e+00;1.527848e+03
61;dgesv;36;0;1;1;1;720;23040;1;23040;23040;2114738097;2007905771;0.000000e+00;5.368688e+00;1.518904e+03
62;dgesv;36;0;1;1;1;720;23040;1;23040;23040;1469834481;822890675;0.000000e+00;5.348604e+00;1.524608e+03
63;dgesv;36;0;1;1;1;720;23040;1;23040;23040;1610120709;791698927;0.000000e+00;5.347402e+00;1.524950e+03
64;dgesv;36;0;1;1;1;720;23040;1;23040;23040;631704567;498777856;0.000000e+00;5.383412e+00;1.514750e+03
65;dgesv;36;0;1;1;1;720;23040;1;23040;23040;1255179497;524872353;0.000000e+00;5.350255e+00;1.524137e+03
66;dgesv;36;0;1;1;1;720;23040;1;23040;23040;327254586;1572276965;0.000000e+00;5.331945e+00;1.529371e+03
67;dgesv;36;0;1;1;1;720;23040;1;23040;23040;269455306;1703964683;0.000000e+00;5.385748e+00;1.514093e+03
68;dgesv;36;0;1;1;1;720;23040;1;23040;23040;352406219;1600028624;0.000000e+00;5.375162e+00;1.517075e+03
69;dgesv;36;0;1;1;1;720;23040;1;23040;23040;160051528;2040332871;0.000000e+00;5.359678e+00;1.521458e+03
70;dgesv;36;0;1;1;1;720;25200;1;25200;25200;112805732;1120048829;0.000000e+00;6.964450e+00;1.532013e+03
71;dgesv;36;0;1;1;1;720;25200;1;25200;25200;378409503;515530019;0.000000e+00;6.958039e+00;1.533424e+03
72;dgesv;36;0;1;1;1;720;25200;1;25200;25200;1713258270;1573363368;0.000000e+00;7.052671e+00;1.512849e+03
73;dgesv;36;0;1;1;1;720;25200;1;25200;25200;1409959708;2077486715;0.000000e+00;6.943152e+00;1.536712e+03
74;dgesv;36;0;1;1;1;720;25200;1;25200;25200;1373226340;1631518149;0.000000e+00;6.950674e+00;1.535049e+03
75;dgesv;36;0;1;1;1;720;25200;1;25200;25200;200747796;289700723;0.000000e+00;6.982426e+00;1.528068e+03
76;dgesv;36;0;1;1;1;720;25200;1;25200;25200;1117142618;168002245;0.000000e+00;6.953486e+00;1.534428e+03
77;dgesv;36;0;1;1;1;720;25200;1;25200;25200;150122846;439493451;0.000000e+00;6.947165e+00;1.535824e+03
78;dgesv;36;0;1;1;1;720;25200;1;25200;25200;990892921;1760243555;0.000000e+00;6.929182e+00;1.539810e+03
79;dgesv;36;0;1;1;1;720;25200;1;25200;25200;1231192379;1622597488;0.000000e+00;6.950809e+00;1.535019e+03
80;dgesv;36;0;1;1;1;720;27360;1;27360;27360;111537764;338888228;0.000000e+00;8.837264e+00;1.545165e+03
81;dgesv;36;0;1;1;1;720;27360;1;27360;27360;2147469841;438792350;0.000000e+00;8.913484e+00;1.531952e+03
82;dgesv;36;0;1;1;1;720;27360;1;27360;27360;1911165193;269441500;0.000000e+00;8.922982e+00;1.530322e+03
83;dgesv;36;0;1;1;1;720;27360;1;27360;27360;2142757034;116087764;0.000000e+00;8.870867e+00;1.539312e+03
84;dgesv;36;0;1;1;1;720;27360;1;27360;27360;1869470124;155324914;0.000000e+00;8.864854e+00;1.540356e+03
85;dgesv;36;0;1;1;1;720;27360;1;27360;27360;8936987;1982275856;0.000000e+00;8.901888e+00;1.533948e+03
86;dgesv;36;0;1;1;1;720;27360;1;27360;27360;1275373743;387346491;0.000000e+00;8.945120e+00;1.526534e+03
87;dgesv;36;0;1;1;1;720;27360;1;27360;27360;350322227;841148365;0.000000e+00;8.950199e+00;1.525668e+03
88;dgesv;36;0;1;1;1;720;27360;1;27360;27360;1960709859;1760281936;0.000000e+00;8.948414e+00;1.525972e+03
89;dgesv;36;0;1;1;1;720;27360;1;27360;27360;771151432;1186452551;0.000000e+00;8.877623e+00;1.538141e+03
