Id;Function;threads;gpus;P;Q;mtxfmt;nb;transA;transB;m;n;k;lda;ldb;ldc;alpha;beta;seedA;seedB;seedC;tsub;time;gflops
0;dgemm;36;0;1;1;0;720;111;111;720;720;720;720;720;720;4.892778e-01;-1.846424e-01;1649760492;596516649;1189641421;0.000000e+00;1.091385e-02;6.839897e+01
1;dgemm;36;0;1;1;0;720;111;111;720;720;720;720;720;720;-2.410269e-01;4.000452e-01;783368690;1102520059;2044897763;0.000000e+00;1.203609e-02;6.202150e+01
2;dgemm;36;0;1;1;0;720;111;111;720;720;720;720;720;720;4.141058e-01;-3.017109e-01;1540383426;304089172;1303455736;0.000000e+00;1.509404e-02;4.945634e+01
3;dgemm;36;0;1;1;0;720;111;111;720;720;720;720;720;720;-3.054879e-01;-1.757242e-01;294702567;1726956429;336465782;0.000000e+00;2.047706e-02;3.645524e+01
4;dgemm;36;0;1;1;0;720;111;111;720;720;720;720;720;720;4.797187e-01;2.821215e-01;233665123;2145174067;468703135;0.000000e+00;1.625896e-02;4.591291e+01
5;dgemm;36;0;1;1;0;720;111;111;720;720;720;720;720;720;3.112590e-01;3.332689e-02;1315634022;635723058;1369133069;0.000000e+00;1.032186e-02;7.232188e+01
6;dgemm;36;0;1;1;0;720;111;111;720;720;720;720;720;720;-2.396071e-01;2.196488e-02;2089018456;628175011;1656478042;0.000000e+00;1.277995e-02;5.841149e+01
7;dgemm;36;0;1;1;0;720;111;111;720;720;720;720;720;720;5.576077e-02;-4.098657e-01;859484421;1914544919;608413784;0.000000e+00;1.027083e-02;7.268115e+01
8;dgemm;36;0;1;1;0;720;111;111;720;720;720;720;720;720;-2.172434e-01;3.304604e-01;1973594324;149798315;2038664370;0.000000e+00;1.179790e-02;6.327361e+01
9;dgemm;36;0;1;1;0;720;111;111;720;720;720;720;720;720;1.632813e-02;3.212047e-02;412776091;1424268980;1911759956;0.000000e+00;1.012301e-02;7.374246e+01
10;dgemm;36;0;1;1;0;720;111;111;1440;1440;1440;1440;1440;1440;1.752074e-01;-2.459049e-03;42999170;982906996;135497281;0.000000e+00;3.093290e-02;1.930620e+02
11;dgemm;36;0;1;1;0;720;111;111;1440;1440;1440;1440;1440;1440;-4.932447e-01;-1.333755e-01;1937477084;1827336327;572660336;0.000000e+00;2.660799e-02;2.244427e+02
12;dgemm;36;0;1;1;0;720;111;111;1440;1440;1440;1440;1440;1440;-1.501402e-01;2.390371e-01;1632621729;1100661313;1433925857;0.000000e+00;2.912498e-02;2.050463e+02
13;dgemm;36;0;1;1;0;720;111;111;1440;1440;1440;1440;1440;1440;2.189649e-01;-2.465265e-01;939819582;2001100545;1998898814;0.000000e+00;3.107810e-02;1.921600e+02
14;dgemm;36;0;1;1;0;720;111;111;1440;1440;1440;1440;1440;1440;-2.416937e-01;-1.401268e-01;1585990364;1374344043;760313750;0.000000e+00;2.696800e-02;2.214464e+02
15;dgemm;36;0;1;1;0;720;111;111;1440;1440;1440;1440;1440;1440;3.187297e-01;-1.733443e-01;945117276;1889947178;1780695788;0.000000e+00;2.605295e-02;2.292242e+02
16;dgemm;36;0;1;1;0;720;111;111;1440;1440;1440;1440;1440;1440;-4.132594e-01;7.699516e-02;1918502651;752392754;1474612399;0.000000e+00;3.018403e-02;1.978519e+02
17;dgemm;36;0;1;1;0;720;111;111;1440;1440;1440;1440;1440;1440;-1.543593e-01;-4.222437e-01;1411549676;1843993368;943947739;0.000000e+00;2.294898e-02;2.602280e+02
18;dgemm;36;0;1;1;0;720;111;111;1440;1440;1440;1440;1440;1440;1.866877e-01;-3.211111e-01;1749698586;1469348094;1956297539;0.000000e+00;2.663994e-02;2.241735e+02
19;dgemm;36;0;1;1;0;720;111;111;1440;1440;1440;1440;1440;1440;-3.490223e-01;-4.443388e-01;2040651434;1975960378;317097467;0.000000e+00;2.521205e-02;2.368696e+02
20;dgemm;36;0;1;1;0;720;111;111;2160;2160;2160;2160;2160;2160;-1.054364e-01;2.030082e-01;927612902;1330573317;603570492;0.000000e+00;4.654193e-02;4.330588e+02
21;dgemm;36;0;1;1;0;720;111;111;2160;2160;2160;2160;2160;2160;-4.352839e-01;1.623906e-01;959997301;485560280;402724286;0.000000e+00;4.275203e-02;4.714488e+02
22;dgemm;36;0;1;1;0;720;111;111;2160;2160;2160;2160;2160;2160;4.667617e-01;1.036922e-01;894429689;364228444;1947346619;0.000000e+00;3.841615e-02;5.246594e+02
23;dgemm;36;0;1;1;0;720;111;111;2160;2160;2160;2160;2160;2160;4.665847e-01;3.770548e-01;1063958031;1633108117;2114738097;0.000000e+00;4.314899e-02;4.671115e+02
24;dgemm;36;0;1;1;0;720;111;111;2160;2160;2160;2160;2160;2160;-4.980996e-01;2.856491e-01;822890675;1610120709;791698927;0.000000e+00;4.336381e-02;4.647975e+02
25;dgemm;36;0;1;1;0;720;111;111;2160;2160;2160;2160;2160;2160;3.592840e-01;-4.182928e-01;1255179497;524872353;327254586;0.000000e+00;4.214096e-02;4.782851e+02
26;dgemm;36;0;1;1;0;720;111;111;2160;2160;2160;2160;2160;2160;9.307665e-02;3.296821e-01;1703964683;352406219;1600028624;0.000000e+00;4.330802e-02;4.653963e+02
27;dgemm;36;0;1;1;0;720;111;111;2160;2160;2160;2160;2160;2160;-4.719053e-01;2.807858e-01;112805732;1120048829;378409503;0.000000e+00;4.638410e-02;4.345324e+02
28;dgemm;36;0;1;1;0;720;111;111;2160;2160;2160;2160;2160;2160;2.744957e-01;-3.785920e-02;1573363368;1409959708;2077486715;0.000000e+00;4.699683e-02;4.288670e+02
29;dgemm;36;0;1;1;0;720;111;111;2160;2160;2160;2160;2160;2160;1.799312e-01;9.546876e-03;200747796;289700723;1117142618;0.000000e+00;3.961897e-02;5.087309e+02
30;dgemm;36;0;1;1;0;720;111;111;2880;2880;2880;2880;2880;2880;1.744033e-01;3.861393e-01;439493451;990892921;1760243555;0.000000e+00;4.836297e-02;9.878579e+02
31;dgemm;36;0;1;1;0;720;111;111;2880;2880;2880;2880;2880;2880;3.018442e-01;-4.633856e-02;111537764;338888228;2147469841;0.000000e+00;4.692101e-02;1.018216e+03
32;dgemm;36;0;1;1;0;720;111;111;2880;2880;2880;2880;2880;2880;2.072774e-01;1.109783e-01;269441500;2142757034;116087764;0.000000e+00;5.048990e-02;9.462435e+02
33;dgemm;36;0;1;1;0;720;111;111;2880;2880;2880;2880;2880;2880;-2.366607e-01;9.513167e-02;8936987;1982275856;1275373743;0.000000e+00;5.087399e-02;9.390995e+02
34;dgemm;36;0;1;1;0;720;111;111;2880;2880;2880;2880;2880;2880;-3.952797e-01;-4.960891e-01;841148365;1960709859;1760281936;0.000000e+00;5.174899e-02;9.232208e+02
35;dgemm;36;0;1;1;0;720;111;111;2880;2880;2880;2880;2880;2880;-2.607432e-01;-3.651100e-01;1244316437;971899228;1476153275;0.000000e+00;4.704189e-02;1.015600e+03
36;dgemm;36;0;1;1;0;720;111;111;2880;2880;2880;2880;2880;2880;-1.389722e-01;-8.843738e-02;1626276121;653468858;2130794395;0.000000e+00;4.902697e-02;9.744789e+02
37;dgemm;36;0;1;1;0;720;111;111;2880;2880;2880;2880;2880;2880;9.367129e-02;9.508020e-02;1605908235;1350573793;76065818;0.000000e+00;5.009198e-02;9.537603e+02
38;dgemm;36;0;1;1;0;720;111;111;2880;2880;2880;2880;2880;2880;-4.585682e-01;3.268176e-01;1987231011;1875335928;1784639529;0.000000e+00;5.077505e-02;9.409295e+02
39;dgemm;36;0;1;1;0;720;111;111;2880;2880;2880;2880;2880;2880;-6.830955e-02;1.535754e-01;1939964443;2112255763;1432114613;0.000000e+00;5.396295e-02;8.853435e+02
40;dgemm;36;0;1;1;0;720;111;111;3600;3600;3600;3600;3600;3600;2.725473e-01;1.883941e-01;1782436840;1909002904;165344818;0.000000e+00;6.740999e-02;1.384246e+03
41;dgemm;36;0;1;1;0;720;111;111;3600;3600;3600;3600;3600;3600;2.191162e-01;-3.021529e-01;1351797369;492067917;1504569917;0.000000e+00;6.910396e-02;1.350313e+03
42;dgemm;36;0;1;1;0;720;111;111;3600;3600;3600;3600;3600;3600;-3.280447e-01;-3.223358e-01;496987743;159259470;1359512183;0.000000e+00;6.948400e-02;1.342928e+03
43;dgemm;36;0;1;1;0;720;111;111;3600;3600;3600;3600;3600;3600;-4.513911e-01;3.904790e-01;1096689772;2086206725;601385644;0.000000e+00;6.831098e-02;1.365988e+03
44;dgemm;36;0;1;1;0;720;111;111;3600;3600;3600;3600;3600;3600;-4.403555e-01;9.074247e-02;243268139;1012502954;1272469786;0.000000e+00;7.422495e-02;1.257151e+03
45;dgemm;36;0;1;1;0;720;111;111;3600;3600;3600;3600;3600;3600;1.908228e-02;4.440272e-01;722308542;1820388464;933110197;0.000000e+00;7.051206e-02;1.323348e+03
46;dgemm;36;0;1;1;0;720;111;111;3600;3600;3600;3600;3600;3600;-1.017733e-01;4.140073e-01;1285228804;1789376348;502278611;0.000000e+00;6.662989e-02;1.400453e+03
47;dgemm;36;0;1;1;0;720;111;111;3600;3600;3600;3600;3600;3600;-2.659684e-01;-2.731221e-01;1034949299;654887343;1529195746;0.000000e+00;6.978393e-02;1.337156e+03
48;dgemm;36;0;1;1;0;720;111;111;3600;3600;3600;3600;3600;3600;1.985016e-01;4.068633e-01;87755422;889023311;1494613810;0.000000e+00;7.557297e-02;1.234727e+03
49;dgemm;36;0;1;1;0;720;111;111;3600;3600;3600;3600;3600;3600;-4.302884e-01;-3.682695e-01;745425661;396473730;1308044878;0.000000e+00;6.700611e-02;1.392589e+03
50;dgemm;36;0;1;1;0;720;111;111;4320;4320;4320;4320;4320;4320;3.002688e-01;4.210193e-01;705178736;1590079444;434248626;0.000000e+00;9.968400e-02;1.617543e+03
51;dgemm;36;0;1;1;0;720;111;111;4320;4320;4320;4320;4320;4320;-3.696050e-01;-2.996627e-01;1402586708;552473416;1143408282;0.000000e+00;9.830093e-02;1.640301e+03
52;dgemm;36;0;1;1;0;720;111;111;4320;4320;4320;4320;4320;4320;-3.095740e-01;-1.111416e-01;1884167637;1473442062;201305624;0.000000e+00;9.940791e-02;1.622035e+03
53;dgemm;36;0;1;1;0;720;111;111;4320;4320;4320;4320;4320;4320;3.214526e-01;-2.291051e-01;1238433452;1273911899;1431419379;0.000000e+00;1.004000e-01;1.606008e+03
54;dgemm;36;0;1;1;0;720;111;111;4320;4320;4320;4320;4320;4320;-4.764616e-02;-2.823082e-01;619290071;707900973;407487131;0.000000e+00;1.008198e-01;1.599320e+03
55;dgemm;36;0;1;1;0;720;111;111;4320;4320;4320;4320;4320;4320;-2.829039e-01;4.689267e-01;1776808933;711845894;404158660;0.000000e+00;9.930301e-02;1.623749e+03
56;dgemm;36;0;1;1;0;720;111;111;4320;4320;4320;4320;4320;4320;-9.802407e-02;-3.473849e-01;1973387981;1642548899;1501252996;0.000000e+00;9.902096e-02;1.628374e+03
57;dgemm;36;0;1;1;0;720;111;111;4320;4320;4320;4320;4320;4320;-2.998149e-02;-6.245404e-02;824272813;1662739668;2025187190;0.000000e+00;9.930706e-02;1.623683e+03
58;dgemm;36;0;1;1;0;720;111;111;4320;4320;4320;4320;4320;4320;1.613464e-01;1.651206e-01;437116466;1704365084;1176911340;0.000000e+00;9.768701e-02;1.650610e+03
59;dgemm;36;0;1;1;0;720;111;111;4320;4320;4320;4320;4320;4320;-9.329343e-02;2.766544e-01;1953443376;1876855542;1069755936;0.000000e+00;9.962606e-02;1.618483e+03
60;dgemm;36;0;1;1;0;720;111;111;5040;5040;5040;5040;5040;5040;-4.205594e-01;1.129006e-01;588219756;1856669179;1057418418;0.000000e+00;1.609440e-01;1.590915e+03
61;dgemm;36;0;1;1;0;720;111;111;5040;5040;5040;5040;5040;5040;1.349872e-02;-2.496970e-01;1065103348;625032172;387451659;0.000000e+00;1.729829e-01;1.480193e+03
62;dgemm;36;0;1;1;0;720;111;111;5040;5040;5040;5040;5040;5040;9.058696e-02;7.370132e-02;298625210;1295166342;1057467587;0.000000e+00;1.671851e-01;1.531525e+03
63;dgemm;36;0;1;1;0;720;111;111;5040;5040;5040;5040;5040;5040;-3.018314e-02;-5.773157e-02;382697713;476667372;1070575321;0.000000e+00;1.614389e-01;1.586037e+03
64;dgemm;36;0;1;1;0;720;111;111;5040;5040;5040;5040;5040;5040;-4.650331e-01;-1.058972e-01;774044599;697517721;2001229904;0.000000e+00;1.694551e-01;1.511009e+03
65;dgemm;36;0;1;1;0;720;111;111;5040;5040;5040;5040;5040;5040;4.801672e-01;-2.032396e-01;1797073940;1756915667;1065311705;0.000000e+00;1.689510e-01;1.515517e+03
66;dgemm;36;0;1;1;0;720;111;111;5040;5040;5040;5040;5040;5040;2.132438e-01;1.658781e-01;1414829150;1307565984;555996658;0.000000e+00;1.597140e-01;1.603167e+03
67;dgemm;36;0;1;1;0;720;111;111;5040;5040;5040;5040;5040;5040;1.800331e-01;-1.232803e-01;231602422;1389867269;780821396;0.000000e+00;1.632521e-01;1.568422e+03
68;dgemm;36;0;1;1;0;720;111;111;5040;5040;5040;5040;5040;5040;3.404283e-01;-1.210446e-01;195740084;917679292;2006811972;0.000000e+00;1.699688e-01;1.506442e+03
69;dgemm;36;0;1;1;0;720;111;111;5040;5040;5040;5040;5040;5040;1.960490e-01;-2.057583e-01;1414647625;1635905385;1046741222;0.000000e+00;1.609540e-01;1.590816e+03
70;dgemm;36;0;1;1;0;720;111;111;5760;5760;5760;5760;5760;5760;-4.981229e-01;1.797563e-01;1343606042;1111783898;446340713;0.000000e+00;2.436879e-01;1.568424e+03
71;dgemm;36;0;1;1;0;720;111;111;5760;5760;5760;5760;5760;5760;1.449892e-01;-2.994312e-01;1782280524;846942590;524688209;0.000000e+00;2.437801e-01;1.567831e+03
72;dgemm;36;0;1;1;0;720;111;111;5760;5760;5760;5760;5760;5760;-7.231379e-02;2.098748e-01;1371499336;2114937732;726371155;0.000000e+00;2.432981e-01;1.570937e+03
73;dgemm;36;0;1;1;0;720;111;111;5760;5760;5760;5760;5760;5760;-2.503210e-01;-2.840220e-01;882160379;11614769;1682085273;0.000000e+00;2.413321e-01;1.583735e+03
74;dgemm;36;0;1;1;0;720;111;111;5760;5760;5760;5760;5760;5760;9.597039e-02;1.728868e-01;246247255;1858721860;1548348142;0.000000e+00;2.437961e-01;1.567728e+03
75;dgemm;36;0;1;1;0;720;111;111;5760;5760;5760;5760;5760;5760;-7.244259e-02;3.629747e-01;2118421993;1520223205;452867621;0.000000e+00;2.443690e-01;1.564052e+03
76;dgemm;36;0;1;1;0;720;111;111;5760;5760;5760;5760;5760;5760;-4.022054e-01;3.532503e-01;201690613;213801961;822262754;0.000000e+00;2.370598e-01;1.612276e+03
77;dgemm;36;0;1;1;0;720;111;111;5760;5760;5760;5760;5760;5760;-4.352033e-02;2.911775e-01;1737518944;282828202;110613202;0.000000e+00;2.458200e-01;1.554820e+03
78;dgemm;36;0;1;1;0;720;111;111;5760;5760;5760;5760;5760;5760;-3.380140e-01;-1.158719e-01;1676902021;1486222842;950390868;0.000000e+00;2.437689e-01;1.567903e+03
79;dgemm;36;0;1;1;0;720;111;111;5760;5760;5760;5760;5760;5760;-3.254125e-01;4.026002e-01;1242608872;1137949908;1277849958;0.000000e+00;2.448809e-01;1.560783e+03
80;dgemm;36;0;1;1;0;720;111;111;6480;6480;6480;6480;6480;6480;-7.731044e-02;2.584243e-01;1908518808;1023457753;364686248;0.000000e+00;3.432641e-01;1.585355e+03
81;dgemm;36;0;1;1;0;720;111;111;6480;6480;6480;6480;6480;6480;-3.124503e-01;3.608416e-01;1329132133;1280321648;501772890;0.000000e+00;3.422310e-01;1.590141e+03
82;dgemm;36;0;1;1;0;720;111;111;6480;6480;6480;6480;6480;6480;8.143046e-02;2.072399e-01;212251746;1983690368;364319529;0.000000e+00;3.483689e-01;1.562125e+03
83;dgemm;36;0;1;1;0;720;111;111;6480;6480;6480;6480;6480;6480;2.429254e-01;3.618715e-01;1775473788;624549797;767066249;0.000000e+00;3.456972e-01;1.574197e+03
84;dgemm;36;0;1;1;0;720;111;111;6480;6480;6480;6480;6480;6480;2.177558e-01;-2.828171e-01;1750003033;1415505363;78012497;0.000000e+00;3.437970e-01;1.582898e+03
85;dgemm;36;0;1;1;0;720;111;111;6480;6480;6480;6480;6480;6480;3.155647e-01;-4.765819e-01;1344247686;1795519125;661761152;0.000000e+00;3.422811e-01;1.589908e+03
86;dgemm;36;0;1;1;0;720;111;111;6480;6480;6480;6480;6480;6480;1.085222e-01;-8.764404e-02;1315209188;235649157;1448703729;0.000000e+00;3.450129e-01;1.577320e+03
87;dgemm;36;0;1;1;0;720;111;111;6480;6480;6480;6480;6480;6480;5.964717e-02;3.343596e-01;430253414;861543921;677870460;0.000000e+00;3.444130e-01;1.580067e+03
88;dgemm;36;0;1;1;0;720;111;111;6480;6480;6480;6480;6480;6480;-3.852038e-01;-3.449149e-01;828388027;1144278050;332266748;0.000000e+00;3.412890e-01;1.594530e+03
89;dgemm;36;0;1;1;0;720;111;111;6480;6480;6480;6480;6480;6480;-2.132347e-01;-3.266376e-02;816504794;820697697;655858699;0.000000e+00;3.459518e-01;1.573039e+03
90;dgemm;36;0;1;1;0;720;111;111;7200;7200;7200;7200;7200;7200;4.306626e-01;3.748097e-01;1395132002;1186090428;1974806403;0.000000e+00;4.711151e-01;1.584530e+03
91;dgemm;36;0;1;1;0;720;111;111;7200;7200;7200;7200;7200;7200;-2.001786e-01;4.867196e-01;1498617647;669908538;1387036159;0.000000e+00;4.724371e-01;1.580096e+03
92;dgemm;36;0;1;1;0;720;111;111;7200;7200;7200;7200;7200;7200;1.290300e-01;2.190988e-01;1812282134;1328104339;1380171692;0.000000e+00;4.728541e-01;1.578702e+03
93;dgemm;36;0;1;1;0;720;111;111;7200;7200;7200;7200;7200;7200;1.972368e-02;-3.289758e-01;777720504;1543755629;1722060049;0.000000e+00;4.723589e-01;1.580358e+03
94;dgemm;36;0;1;1;0;720;111;111;7200;7200;7200;7200;7200;7200;-1.628764e-01;-1.178982e-01;70636429;136495343;1472576335;0.000000e+00;4.741940e-01;1.574242e+03
95;dgemm;36;0;1;1;0;720;111;111;7200;7200;7200;7200;7200;7200;-3.497582e-01;-9.472418e-02;1503885238;1219407971;2416949;0.000000e+00;4.761510e-01;1.567772e+03
96;dgemm;36;0;1;1;0;720;111;111;7200;7200;7200;7200;7200;7200;-1.213255e-01;-3.664051e-01;561717988;1407392292;1841585795;0.000000e+00;4.719589e-01;1.581697e+03
97;dgemm;36;0;1;1;0;720;111;111;7200;7200;7200;7200;7200;7200;3.538300e-01;-4.514458e-01;1433102829;1887658390;1402961682;0.000000e+00;4.748030e-01;1.572223e+03
98;dgemm;36;0;1;1;0;720;111;111;7200;7200;7200;7200;7200;7200;-3.514624e-01;-2.320307e-01;400000569;337453826;1081174232;0.000000e+00;4.702210e-01;1.587543e+03
99;dgemm;36;0;1;1;0;720;111;111;7200;7200;7200;7200;7200;7200;-1.551027e-01;-2.203633e-01;1941690360;410409117;847228023;0.000000e+00;4.745591e-01;1.573031e+03
100;dgemm;36;0;1;1;0;720;111;111;7920;7920;7920;7920;7920;7920;-4.226583e-01;4.233893e-01;1175526309;1586903190;2002495425;0.000000e+00;6.329751e-01;1.569708e+03
101;dgemm;36;0;1;1;0;720;111;111;7920;7920;7920;7920;7920;7920;-1.821509e-01;-3.376510e-01;1184214677;2004504234;1061730690;0.000000e+00;6.256170e-01;1.588170e+03
102;dgemm;36;0;1;1;0;720;111;111;7920;7920;7920;7920;7920;7920;2.025557e-01;-1.309258e-02;1717226057;1748349614;1276673168;0.000000e+00;6.341639e-01;1.566766e+03
103;dgemm;36;0;1;1;0;720;111;111;7920;7920;7920;7920;7920;7920;-3.323793e-03;1.208180e-01;2009726312;696947386;1877565100;0.000000e+00;6.303899e-01;1.576145e+03
104;dgemm;36;0;1;1;0;720;111;111;7920;7920;7920;7920;7920;7920;4.408419e-02;7.007474e-02;1630634994;1665204916;1707056552;0.000000e+00;6.321859e-01;1.571668e+03
105;dgemm;36;0;1;1;0;720;111;111;7920;7920;7920;7920;7920;7920;1.985130e-01;3.083112e-01;1010528946;358532290;1708302647;0.000000e+00;6.312459e-01;1.574008e+03
106;dgemm;36;0;1;1;0;720;111;111;7920;7920;7920;7920;7920;7920;3.496171e-01;-4.343253e-02;1426819080;885799631;1314218593;0.000000e+00;6.280019e-01;1.582139e+03
107;dgemm;36;0;1;1;0;720;111;111;7920;7920;7920;7920;7920;7920;1.482571e-01;2.268525e-01;1156541312;318561886;1243439214;0.000000e+00;6.322050e-01;1.571620e+03
108;dgemm;36;0;1;1;0;720;111;111;7920;7920;7920;7920;7920;7920;1.954537e-01;3.390887e-01;1112720090;1788014412;1106059479;0.000000e+00;6.298852e-01;1.577408e+03
109;dgemm;36;0;1;1;0;720;111;111;7920;7920;7920;7920;7920;7920;-2.432179e-01;-3.632344e-01;1095966189;104152274;1748806355;0.000000e+00;6.294570e-01;1.578481e+03
110;dgemm;36;0;1;1;0;720;111;111;8640;8640;8640;8640;8640;8640;-3.111498e-01;-3.768885e-01;970925433;309198987;887077888;0.000000e+00;8.242509e-01;1.564991e+03
111;dgemm;36;0;1;1;0;720;111;111;8640;8640;8640;8640;8640;8640;-3.455352e-01;1.438218e-01;37487770;1541027284;1232056856;0.000000e+00;8.252001e-01;1.563191e+03
112;dgemm;36;0;1;1;0;720;111;111;8640;8640;8640;8640;8640;8640;1.670465e-01;-4.374846e-01;959372260;1025125849;2137100237;0.000000e+00;8.223171e-01;1.568671e+03
113;dgemm;36;0;1;1;0;720;111;111;8640;8640;8640;8640;8640;8640;-2.602701e-01;3.620021e-01;1376035217;1282648518;478034945;0.000000e+00;8.245521e-01;1.564419e+03
114;dgemm;36;0;1;1;0;720;111;111;8640;8640;8640;8640;8640;8640;-1.751029e-01;-3.004013e-01;1983228458;1584710873;993967637;0.000000e+00;8.214030e-01;1.570417e+03
115;dgemm;36;0;1;1;0;720;111;111;8640;8640;8640;8640;8640;8640;2.320915e-01;4.447722e-01;2045826607;2037770478;1930772757;0.000000e+00;8.213818e-01;1.570457e+03
116;dgemm;36;0;1;1;0;720;111;111;8640;8640;8640;8640;8640;8640;3.200980e-01;-3.080142e-01;1152645729;470591100;1025533459;0.000000e+00;8.214328e-01;1.570360e+03
117;dgemm;36;0;1;1;0;720;111;111;8640;8640;8640;8640;8640;8640;1.877797e-02;2.363318e-01;1899058025;2077211388;394633074;0.000000e+00;8.223109e-01;1.568683e+03
118;dgemm;36;0;1;1;0;720;111;111;8640;8640;8640;8640;8640;8640;-2.785742e-03;-2.859474e-01;1645933681;1943003493;553160358;0.000000e+00;8.187902e-01;1.575428e+03
119;dgemm;36;0;1;1;0;720;111;111;8640;8640;8640;8640;8640;8640;2.686058e-01;-6.080735e-02;712633417;864101839;1204275569;0.000000e+00;8.258622e-01;1.561937e+03
120;dgemm;36;0;1;1;0;720;111;111;9360;9360;9360;9360;9360;9360;4.783358e-01;4.252657e-01;410228794;1026413173;773319847;0.000000e+00;1.047357e+00;1.565896e+03
121;dgemm;36;0;1;1;0;720;111;111;9360;9360;9360;9360;9360;9360;1.787239e-01;-3.216067e-01;452456682;1302539390;1858504292;0.000000e+00;1.039877e+00;1.577159e+03
122;dgemm;36;0;1;1;0;720;111;111;9360;9360;9360;9360;9360;9360;2.809763e-01;2.009583e-01;427355115;1388391521;1272796157;0.000000e+00;1.046907e+00;1.566569e+03
123;dgemm;36;0;1;1;0;720;111;111;9360;9360;9360;9360;9360;9360;-2.961404e-01;8.005670e-02;126401947;1204462951;1210359231;0.000000e+00;1.042004e+00;1.573940e+03
124;dgemm;36;0;1;1;0;720;111;111;9360;9360;9360;9360;9360;9360;1.614373e-01;-3.844182e-01;738393740;19485054;1983614030;0.000000e+00;1.044338e+00;1.570422e+03
125;dgemm;36;0;1;1;0;720;111;111;9360;9360;9360;9360;9360;9360;3.696719e-01;1.644219e-01;1905241081;2004187516;371653516;0.000000e+00;1.046403e+00;1.567323e+03
126;dgemm;36;0;1;1;0;720;111;111;9360;9360;9360;9360;9360;9360;3.044324e-01;-3.241417e-01;1707746139;1372261796;2073785404;0.000000e+00;1.048725e+00;1.563853e+03
127;dgemm;36;0;1;1;0;720;111;111;9360;9360;9360;9360;9360;9360;-4.052477e-01;-2.374666e-01;1894519218;786039021;1931513970;0.000000e+00;1.045093e+00;1.569288e+03
128;dgemm;36;0;1;1;0;720;111;111;9360;9360;9360;9360;9360;9360;1.781820e-01;-4.328520e-01;586235379;2032894977;262692685;0.000000e+00;1.046713e+00;1.566859e+03
129;dgemm;36;0;1;1;0;720;111;111;9360;9360;9360;9360;9360;9360;-2.751129e-01;3.889478e-01;1543324176;1985433483;395279207;0.000000e+00;1.045386e+00;1.568848e+03
0;dgemm;36;0;1;1;0;720;111;111;10080;10080;10080;10080;10080;10080;4.892778e-01;-1.846424e-01;1649760492;596516649;1189641421;0.000000e+00;1.218367e+00;1.681255e+03
1;dgemm;36;0;1;1;0;720;111;111;10080;10080;10080;10080;10080;10080;-2.410269e-01;4.000452e-01;783368690;1102520059;2044897763;0.000000e+00;1.256467e+00;1.630274e+03
2;dgemm;36;0;1;1;0;720;111;111;10080;10080;10080;10080;10080;10080;4.141058e-01;-3.017109e-01;1540383426;304089172;1303455736;0.000000e+00;1.257400e+00;1.629064e+03
3;dgemm;36;0;1;1;0;720;111;111;10080;10080;10080;10080;10080;10080;-3.054879e-01;-1.757242e-01;294702567;1726956429;336465782;0.000000e+00;1.253289e+00;1.634408e+03
4;dgemm;36;0;1;1;0;720;111;111;10080;10080;10080;10080;10080;10080;4.797187e-01;2.821215e-01;233665123;2145174067;468703135;0.000000e+00;1.251486e+00;1.636762e+03
5;dgemm;36;0;1;1;0;720;111;111;10080;10080;10080;10080;10080;10080;3.112590e-01;3.332689e-02;1315634022;635723058;1369133069;0.000000e+00;1.259887e+00;1.625848e+03
6;dgemm;36;0;1;1;0;720;111;111;10080;10080;10080;10080;10080;10080;-2.396071e-01;2.196488e-02;2089018456;628175011;1656478042;0.000000e+00;1.256566e+00;1.630145e+03
7;dgemm;36;0;1;1;0;720;111;111;10080;10080;10080;10080;10080;10080;5.576077e-02;-4.098657e-01;859484421;1914544919;608413784;0.000000e+00;1.258060e+00;1.628209e+03
8;dgemm;36;0;1;1;0;720;111;111;10080;10080;10080;10080;10080;10080;-2.172434e-01;3.304604e-01;1973594324;149798315;2038664370;0.000000e+00;1.257736e+00;1.628629e+03
9;dgemm;36;0;1;1;0;720;111;111;10080;10080;10080;10080;10080;10080;1.632813e-02;3.212047e-02;412776091;1424268980;1911759956;0.000000e+00;1.258955e+00;1.627052e+03
10;dgemm;36;0;1;1;0;720;111;111;12240;12240;12240;12240;12240;12240;1.752074e-01;-2.459049e-03;42999170;982906996;135497281;0.000000e+00;2.261134e+00;1.621989e+03
11;dgemm;36;0;1;1;0;720;111;111;12240;12240;12240;12240;12240;12240;-4.932447e-01;-1.333755e-01;1937477084;1827336327;572660336;0.000000e+00;2.258024e+00;1.624223e+03
12;dgemm;36;0;1;1;0;720;111;111;12240;12240;12240;12240;12240;12240;-1.501402e-01;2.390371e-01;1632621729;1100661313;1433925857;0.000000e+00;2.258140e+00;1.624140e+03
13;dgemm;36;0;1;1;0;720;111;111;12240;12240;12240;12240;12240;12240;2.189649e-01;-2.465265e-01;939819582;2001100545;1998898814;0.000000e+00;2.261258e+00;1.621900e+03
14;dgemm;36;0;1;1;0;720;111;111;12240;12240;12240;12240;12240;12240;-2.416937e-01;-1.401268e-01;1585990364;1374344043;760313750;0.000000e+00;2.263937e+00;1.619981e+03
15;dgemm;36;0;1;1;0;720;111;111;12240;12240;12240;12240;12240;12240;3.187297e-01;-1.733443e-01;945117276;1889947178;1780695788;0.000000e+00;2.258882e+00;1.623606e+03
16;dgemm;36;0;1;1;0;720;111;111;12240;12240;12240;12240;12240;12240;-4.132594e-01;7.699516e-02;1918502651;752392754;1474612399;0.000000e+00;2.268854e+00;1.616470e+03
17;dgemm;36;0;1;1;0;720;111;111;12240;12240;12240;12240;12240;12240;-1.543593e-01;-4.222437e-01;1411549676;1843993368;943947739;0.000000e+00;2.260734e+00;1.622276e+03
18;dgemm;36;0;1;1;0;720;111;111;12240;12240;12240;12240;12240;12240;1.866877e-01;-3.211111e-01;1749698586;1469348094;1956297539;0.000000e+00;2.261969e+00;1.621390e+03
19;dgemm;36;0;1;1;0;720;111;111;12240;12240;12240;12240;12240;12240;-3.490223e-01;-4.443388e-01;2040651434;1975960378;317097467;0.000000e+00;2.262259e+00;1.621183e+03
20;dgemm;36;0;1;1;0;720;111;111;14400;14400;14400;14400;14400;14400;-1.054364e-01;2.030082e-01;927612902;1330573317;603570492;0.000000e+00;3.681029e+00;1.622364e+03
21;dgemm;36;0;1;1;0;720;111;111;14400;14400;14400;14400;14400;14400;-4.352839e-01;1.623906e-01;959997301;485560280;402724286;0.000000e+00;3.686270e+00;1.620057e+03
22;dgemm;36;0;1;1;0;720;111;111;14400;14400;14400;14400;14400;14400;4.667617e-01;1.036922e-01;894429689;364228444;1947346619;0.000000e+00;3.674826e+00;1.625102e+03
23;dgemm;36;0;1;1;0;720;111;111;14400;14400;14400;14400;14400;14400;4.665847e-01;3.770548e-01;1063958031;1633108117;2114738097;0.000000e+00;3.683871e+00;1.621112e+03
24;dgemm;36;0;1;1;0;720;111;111;14400;14400;14400;14400;14400;14400;-4.980996e-01;2.856491e-01;822890675;1610120709;791698927;0.000000e+00;3.692167e+00;1.617470e+03
25;dgemm;36;0;1;1;0;720;111;111;14400;14400;14400;14400;14400;14400;3.592840e-01;-4.182928e-01;1255179497;524872353;327254586;0.000000e+00;3.690709e+00;1.618109e+03
26;dgemm;36;0;1;1;0;720;111;111;14400;14400;14400;14400;14400;14400;9.307665e-02;3.296821e-01;1703964683;352406219;1600028624;0.000000e+00;3.689925e+00;1.618452e+03
27;dgemm;36;0;1;1;0;720;111;111;14400;14400;14400;14400;14400;14400;-4.719053e-01;2.807858e-01;112805732;1120048829;378409503;0.000000e+00;3.682981e+00;1.621504e+03
28;dgemm;36;0;1;1;0;720;111;111;14400;14400;14400;14400;14400;14400;2.744957e-01;-3.785920e-02;1573363368;1409959708;2077486715;0.000000e+00;3.683733e+00;1.621173e+03
29;dgemm;36;0;1;1;0;720;111;111;14400;14400;14400;14400;14400;14400;1.799312e-01;9.546876e-03;200747796;289700723;1117142618;0.000000e+00;3.691367e+00;1.617820e+03
30;dgemm;36;0;1;1;0;720;111;111;16560;16560;16560;16560;16560;16560;1.744033e-01;3.861393e-01;439493451;990892921;1760243555;0.000000e+00;5.606678e+00;1.619964e+03
31;dgemm;36;0;1;1;0;720;111;111;16560;16560;16560;16560;16560;16560;3.018442e-01;-4.633856e-02;111537764;338888228;2147469841;0.000000e+00;5.612397e+00;1.618313e+03
32;dgemm;36;0;1;1;0;720;111;111;16560;16560;16560;16560;16560;16560;2.072774e-01;1.109783e-01;269441500;2142757034;116087764;0.000000e+00;5.612134e+00;1.618389e+03
33;dgemm;36;0;1;1;0;720;111;111;16560;16560;16560;16560;16560;16560;-2.366607e-01;9.513167e-02;8936987;1982275856;1275373743;0.000000e+00;5.603872e+00;1.620775e+03
34;dgemm;36;0;1;1;0;720;111;111;16560;16560;16560;16560;16560;16560;-3.952797e-01;-4.960891e-01;841148365;1960709859;1760281936;0.000000e+00;5.650164e+00;1.607496e+03
35;dgemm;36;0;1;1;0;720;111;111;16560;16560;16560;16560;16560;16560;-2.607432e-01;-3.651100e-01;1244316437;971899228;1476153275;0.000000e+00;5.648974e+00;1.607835e+03
36;dgemm;36;0;1;1;0;720;111;111;16560;16560;16560;16560;16560;16560;-1.389722e-01;-8.843738e-02;1626276121;653468858;2130794395;0.000000e+00;5.649352e+00;1.607727e+03
37;dgemm;36;0;1;1;0;720;111;111;16560;16560;16560;16560;16560;16560;9.367129e-02;9.508020e-02;1605908235;1350573793;76065818;0.000000e+00;5.649046e+00;1.607814e+03
38;dgemm;36;0;1;1;0;720;111;111;16560;16560;16560;16560;16560;16560;-4.585682e-01;3.268176e-01;1987231011;1875335928;1784639529;0.000000e+00;5.651669e+00;1.607068e+03
39;dgemm;36;0;1;1;0;720;111;111;16560;16560;16560;16560;16560;16560;-6.830955e-02;1.535754e-01;1939964443;2112255763;1432114613;0.000000e+00;5.652457e+00;1.606844e+03
40;dgemm;36;0;1;1;0;720;111;111;18720;18720;18720;18720;18720;18720;2.725473e-01;1.883941e-01;1782436840;1909002904;165344818;0.000000e+00;8.150688e+00;1.609731e+03
41;dgemm;36;0;1;1;0;720;111;111;18720;18720;18720;18720;18720;18720;2.191162e-01;-3.021529e-01;1351797369;492067917;1504569917;0.000000e+00;8.128843e+00;1.614057e+03
42;dgemm;36;0;1;1;0;720;111;111;18720;18720;18720;18720;18720;18720;-3.280447e-01;-3.223358e-01;496987743;159259470;1359512183;0.000000e+00;8.143232e+00;1.611205e+03
43;dgemm;36;0;1;1;0;720;111;111;18720;18720;18720;18720;18720;18720;-4.513911e-01;3.904790e-01;1096689772;2086206725;601385644;0.000000e+00;8.121400e+00;1.615536e+03
44;dgemm;36;0;1;1;0;720;111;111;18720;18720;18720;18720;18720;18720;-4.403555e-01;9.074247e-02;243268139;1012502954;1272469786;0.000000e+00;8.125712e+00;1.614679e+03
45;dgemm;36;0;1;1;0;720;111;111;18720;18720;18720;18720;18720;18720;1.908228e-02;4.440272e-01;722308542;1820388464;933110197;0.000000e+00;8.132649e+00;1.613301e+03
46;dgemm;36;0;1;1;0;720;111;111;18720;18720;18720;18720;18720;18720;-1.017733e-01;4.140073e-01;1285228804;1789376348;502278611;0.000000e+00;8.141389e+00;1.611569e+03
47;dgemm;36;0;1;1;0;720;111;111;18720;18720;18720;18720;18720;18720;-2.659684e-01;-2.731221e-01;1034949299;654887343;1529195746;0.000000e+00;8.124534e+00;1.614913e+03
48;dgemm;36;0;1;1;0;720;111;111;18720;18720;18720;18720;18720;18720;1.985016e-01;4.068633e-01;87755422;889023311;1494613810;0.000000e+00;8.139392e+00;1.611965e+03
49;dgemm;36;0;1;1;0;720;111;111;18720;18720;18720;18720;18720;18720;-4.302884e-01;-3.682695e-01;745425661;396473730;1308044878;0.000000e+00;8.142744e+00;1.611301e+03
50;dgemm;36;0;1;1;0;720;111;111;20880;20880;20880;20880;20880;20880;3.002688e-01;4.210193e-01;705178736;1590079444;434248626;0.000000e+00;1.130253e+01;1.610816e+03
51;dgemm;36;0;1;1;0;720;111;111;20880;20880;20880;20880;20880;20880;-3.696050e-01;-2.996627e-01;1402586708;552473416;1143408282;0.000000e+00;1.131845e+01;1.608550e+03
52;dgemm;36;0;1;1;0;720;111;111;20880;20880;20880;20880;20880;20880;-3.095740e-01;-1.111416e-01;1884167637;1473442062;201305624;0.000000e+00;1.137229e+01;1.600934e+03
53;dgemm;36;0;1;1;0;720;111;111;20880;20880;20880;20880;20880;20880;3.214526e-01;-2.291051e-01;1238433452;1273911899;1431419379;0.000000e+00;1.139188e+01;1.598181e+03
54;dgemm;36;0;1;1;0;720;111;111;20880;20880;20880;20880;20880;20880;-4.764616e-02;-2.823082e-01;619290071;707900973;407487131;0.000000e+00;1.137711e+01;1.600256e+03
55;dgemm;36;0;1;1;0;720;111;111;20880;20880;20880;20880;20880;20880;-2.829039e-01;4.689267e-01;1776808933;711845894;404158660;0.000000e+00;1.140172e+01;1.596803e+03
56;dgemm;36;0;1;1;0;720;111;111;20880;20880;20880;20880;20880;20880;-9.802407e-02;-3.473849e-01;1973387981;1642548899;1501252996;0.000000e+00;1.139461e+01;1.597798e+03
57;dgemm;36;0;1;1;0;720;111;111;20880;20880;20880;20880;20880;20880;-2.998149e-02;-6.245404e-02;824272813;1662739668;2025187190;0.000000e+00;1.138554e+01;1.599071e+03
58;dgemm;36;0;1;1;0;720;111;111;20880;20880;20880;20880;20880;20880;1.613464e-01;1.651206e-01;437116466;1704365084;1176911340;0.000000e+00;1.137476e+01;1.600587e+03
59;dgemm;36;0;1;1;0;720;111;111;20880;20880;20880;20880;20880;20880;-9.329343e-02;2.766544e-01;1953443376;1876855542;1069755936;0.000000e+00;1.138451e+01;1.599216e+03
60;dgemm;36;0;1;1;0;720;111;111;23040;23040;23040;23040;23040;23040;-4.205594e-01;1.129006e-01;588219756;1856669179;1057418418;0.000000e+00;1.531208e+01;1.597509e+03
61;dgemm;36;0;1;1;0;720;111;111;23040;23040;23040;23040;23040;23040;1.349872e-02;-2.496970e-01;1065103348;625032172;387451659;0.000000e+00;1.528814e+01;1.600011e+03
62;dgemm;36;0;1;1;0;720;111;111;23040;23040;23040;23040;23040;23040;9.058696e-02;7.370132e-02;298625210;1295166342;1057467587;0.000000e+00;1.529149e+01;1.599659e+03
63;dgemm;36;0;1;1;0;720;111;111;23040;23040;23040;23040;23040;23040;-3.018314e-02;-5.773157e-02;382697713;476667372;1070575321;0.000000e+00;1.527755e+01;1.601119e+03
64;dgemm;36;0;1;1;0;720;111;111;23040;23040;23040;23040;23040;23040;-4.650331e-01;-1.058972e-01;774044599;697517721;2001229904;0.000000e+00;1.527895e+01;1.600972e+03
65;dgemm;36;0;1;1;0;720;111;111;23040;23040;23040;23040;23040;23040;4.801672e-01;-2.032396e-01;1797073940;1756915667;1065311705;0.000000e+00;1.527333e+01;1.601562e+03
66;dgemm;36;0;1;1;0;720;111;111;23040;23040;23040;23040;23040;23040;2.132438e-01;1.658781e-01;1414829150;1307565984;555996658;0.000000e+00;1.527522e+01;1.601364e+03
67;dgemm;36;0;1;1;0;720;111;111;23040;23040;23040;23040;23040;23040;1.800331e-01;-1.232803e-01;231602422;1389867269;780821396;0.000000e+00;1.525376e+01;1.603617e+03
68;dgemm;36;0;1;1;0;720;111;111;23040;23040;23040;23040;23040;23040;3.404283e-01;-1.210446e-01;195740084;917679292;2006811972;0.000000e+00;1.526949e+01;1.601964e+03
69;dgemm;36;0;1;1;0;720;111;111;23040;23040;23040;23040;23040;23040;1.960490e-01;-2.057583e-01;1414647625;1635905385;1046741222;0.000000e+00;1.525745e+01;1.603229e+03
70;dgemm;36;0;1;1;0;720;111;111;25200;25200;25200;25200;25200;25200;-4.981229e-01;1.797563e-01;1343606042;1111783898;446340713;0.000000e+00;2.002834e+01;1.598037e+03
71;dgemm;36;0;1;1;0;720;111;111;25200;25200;25200;25200;25200;25200;1.449892e-01;-2.994312e-01;1782280524;846942590;524688209;0.000000e+00;1.997970e+01;1.601927e+03
72;dgemm;36;0;1;1;0;720;111;111;25200;25200;25200;25200;25200;25200;-7.231379e-02;2.098748e-01;1371499336;2114937732;726371155;0.000000e+00;2.001274e+01;1.599282e+03
73;dgemm;36;0;1;1;0;720;111;111;25200;25200;25200;25200;25200;25200;-2.503210e-01;-2.840220e-01;882160379;11614769;1682085273;0.000000e+00;2.002662e+01;1.598174e+03
74;dgemm;36;0;1;1;0;720;111;111;25200;25200;25200;25200;25200;25200;9.597039e-02;1.728868e-01;246247255;1858721860;1548348142;0.000000e+00;2.003739e+01;1.597314e+03
75;dgemm;36;0;1;1;0;720;111;111;25200;25200;25200;25200;25200;25200;-7.244259e-02;3.629747e-01;2118421993;1520223205;452867621;0.000000e+00;2.002098e+01;1.598624e+03
76;dgemm;36;0;1;1;0;720;111;111;25200;25200;25200;25200;25200;25200;-4.022054e-01;3.532503e-01;201690613;213801961;822262754;0.000000e+00;2.002949e+01;1.597945e+03
77;dgemm;36;0;1;1;0;720;111;111;25200;25200;25200;25200;25200;25200;-4.352033e-02;2.911775e-01;1737518944;282828202;110613202;0.000000e+00;2.002773e+01;1.598085e+03
78;dgemm;36;0;1;1;0;720;111;111;25200;25200;25200;25200;25200;25200;-3.380140e-01;-1.158719e-01;1676902021;1486222842;950390868;0.000000e+00;2.002166e+01;1.598569e+03
79;dgemm;36;0;1;1;0;720;111;111;25200;25200;25200;25200;25200;25200;-3.254125e-01;4.026002e-01;1242608872;1137949908;1277849958;0.000000e+00;1.998480e+01;1.601518e+03
80;dgemm;36;0;1;1;0;720;111;111;27360;27360;27360;27360;27360;27360;-7.731044e-02;2.584243e-01;1908518808;1023457753;364686248;0.000000e+00;2.561386e+01;1.599202e+03
81;dgemm;36;0;1;1;0;720;111;111;27360;27360;27360;27360;27360;27360;-3.124503e-01;3.608416e-01;1329132133;1280321648;501772890;0.000000e+00;2.563116e+01;1.598122e+03
82;dgemm;36;0;1;1;0;720;111;111;27360;27360;27360;27360;27360;27360;8.143046e-02;2.072399e-01;212251746;1983690368;364319529;0.000000e+00;2.562742e+01;1.598355e+03
83;dgemm;36;0;1;1;0;720;111;111;27360;27360;27360;27360;27360;27360;2.429254e-01;3.618715e-01;1775473788;624549797;767066249;0.000000e+00;2.559100e+01;1.600631e+03
84;dgemm;36;0;1;1;0;720;111;111;27360;27360;27360;27360;27360;27360;2.177558e-01;-2.828171e-01;1750003033;1415505363;78012497;0.000000e+00;2.561352e+01;1.599223e+03
85;dgemm;36;0;1;1;0;720;111;111;27360;27360;27360;27360;27360;27360;3.155647e-01;-4.765819e-01;1344247686;1795519125;661761152;0.000000e+00;2.562562e+01;1.598468e+03
86;dgemm;36;0;1;1;0;720;111;111;27360;27360;27360;27360;27360;27360;1.085222e-01;-8.764404e-02;1315209188;235649157;1448703729;0.000000e+00;2.566388e+01;1.596085e+03
87;dgemm;36;0;1;1;0;720;111;111;27360;27360;27360;27360;27360;27360;5.964717e-02;3.343596e-01;430253414;861543921;677870460;0.000000e+00;2.561056e+01;1.599408e+03
88;dgemm;36;0;1;1;0;720;111;111;27360;27360;27360;27360;27360;27360;-3.852038e-01;-3.449149e-01;828388027;1144278050;332266748;0.000000e+00;2.566757e+01;1.595856e+03
89;dgemm;36;0;1;1;0;720;111;111;27360;27360;27360;27360;27360;27360;-2.132347e-01;-3.266376e-02;816504794;820697697;655858699;0.000000e+00;2.566891e+01;1.595772e+03
