Id;Function;threads;gpus;P;Q;mtxfmt;nb;uplo;n;nrhs;lda;ldb;seedA;seedB;tsub;time;gflops
0;dposv;36;0;1;1;0;720;121;720;1;720;720;1681692777;1714636915;0.000000e+00;3.789902e-03;3.317028e+01
1;dposv;36;0;1;1;0;720;121;720;1;720;720;1957747793;424238335;0.000000e+00;1.268101e-02;9.913417e+00
2;dposv;36;0;1;1;0;720;121;720;1;720;720;719885386;1649760492;0.000000e+00;3.530979e-03;3.560262e+01
3;dposv;36;0;1;1;0;720;121;720;1;720;720;596516649;1189641421;0.000000e+00;1.250196e-02;1.005540e+01
4;dposv;36;0;1;1;0;720;121;720;1;720;720;1025202362;1350490027;0.000000e+00;1.231217e-02;1.021039e+01
5;dposv;36;0;1;1;0;720;121;720;1;720;720;783368690;1102520059;0.000000e+00;1.155996e-02;1.087479e+01
6;dposv;36;0;1;1;0;720;121;720;1;720;720;2044897763;1967513926;0.000000e+00;1.368189e-02;9.188214e+00
7;dposv;36;0;1;1;0;720;121;720;1;720;720;1365180540;1540383426;0.000000e+00;3.133059e-03;4.012441e+01
8;dposv;36;0;1;1;0;720;121;720;1;720;720;304089172;1303455736;0.000000e+00;1.423597e-02;8.830595e+00
9;dposv;36;0;1;1;0;720;121;720;1;720;720;35005211;521595368;0.000000e+00;3.648996e-03;3.445115e+01
10;dposv;36;0;1;1;0;720;121;1440;1;1440;1440;294702567;1726956429;0.000000e+00;3.036809e-02;3.294617e+01
11;dposv;36;0;1;1;0;720;121;1440;1;1440;1440;336465782;861021530;0.000000e+00;2.019691e-02;4.953788e+01
12;dposv;36;0;1;1;0;720;121;1440;1;1440;1440;278722862;233665123;0.000000e+00;2.341390e-02;4.273156e+01
13;dposv;36;0;1;1;0;720;121;1440;1;1440;1440;2145174067;468703135;0.000000e+00;2.243304e-02;4.459994e+01
14;dposv;36;0;1;1;0;720;121;1440;1;1440;1440;1101513929;1801979802;0.000000e+00;2.572799e-02;3.888809e+01
15;dposv;36;0;1;1;0;720;121;1440;1;1440;1440;1315634022;635723058;0.000000e+00;2.517700e-02;3.973913e+01
16;dposv;36;0;1;1;0;720;121;1440;1;1440;1440;1369133069;1125898167;0.000000e+00;2.001119e-02;4.999765e+01
17;dposv;36;0;1;1;0;720;121;1440;1;1440;1440;1059961393;2089018456;0.000000e+00;2.090597e-02;4.785773e+01
18;dposv;36;0;1;1;0;720;121;1440;1;1440;1440;628175011;1656478042;0.000000e+00;2.238297e-02;4.469970e+01
19;dposv;36;0;1;1;0;720;121;1440;1;1440;1440;1131176229;1653377373;0.000000e+00;2.338004e-02;4.279343e+01
20;dposv;36;0;1;1;0;720;121;2160;1;2160;2160;859484421;1914544919;0.000000e+00;4.541492e-02;7.422442e+01
21;dposv;36;0;1;1;0;720;121;2160;1;2160;2160;608413784;756898537;0.000000e+00;3.830099e-02;8.801068e+01
22;dposv;36;0;1;1;0;720;121;2160;1;2160;2160;1734575198;1973594324;0.000000e+00;3.516102e-02;9.587027e+01
23;dposv;36;0;1;1;0;720;121;2160;1;2160;2160;149798315;2038664370;0.000000e+00;4.076099e-02;8.269907e+01
24;dposv;36;0;1;1;0;720;121;2160;1;2160;2160;1129566413;184803526;0.000000e+00;4.122901e-02;8.176030e+01
25;dposv;36;0;1;1;0;720;121;2160;1;2160;2160;412776091;1424268980;0.000000e+00;4.195619e-02;8.034325e+01
26;dposv;36;0;1;1;0;720;121;2160;1;2160;2160;1911759956;749241873;0.000000e+00;3.780699e-02;8.916067e+01
27;dposv;36;0;1;1;0;720;121;2160;1;2160;2160;137806862;42999170;0.000000e+00;4.442310e-02;7.588160e+01
28;dposv;36;0;1;1;0;720;121;2160;1;2160;2160;982906996;135497281;0.000000e+00;4.345298e-02;7.757573e+01
29;dposv;36;0;1;1;0;720;121;2160;1;2160;2160;511702305;2084420925;0.000000e+00;4.239917e-02;7.950383e+01
30;dposv;36;0;1;1;0;720;121;2880;1;2880;2880;1937477084;1827336327;0.000000e+00;5.936098e-02;1.344884e+02
31;dposv;36;0;1;1;0;720;121;2880;1;2880;2880;572660336;1159126505;0.000000e+00;5.358505e-02;1.489848e+02
32;dposv;36;0;1;1;0;720;121;2880;1;2880;2880;805750846;1632621729;0.000000e+00;5.518818e-02;1.446571e+02
33;dposv;36;0;1;1;0;720;121;2880;1;2880;2880;1100661313;1433925857;0.000000e+00;5.419207e-02;1.473160e+02
34;dposv;36;0;1;1;0;720;121;2880;1;2880;2880;1141616124;84353895;0.000000e+00;5.743384e-02;1.390010e+02
35;dposv;36;0;1;1;0;720;121;2880;1;2880;2880;939819582;2001100545;0.000000e+00;6.662989e-02;1.198165e+02
36;dposv;36;0;1;1;0;720;121;2880;1;2880;2880;1998898814;1548233367;0.000000e+00;6.550813e-02;1.218682e+02
37;dposv;36;0;1;1;0;720;121;2880;1;2880;2880;610515434;1585990364;0.000000e+00;5.571699e-02;1.432841e+02
38;dposv;36;0;1;1;0;720;121;2880;1;2880;2880;1374344043;760313750;0.000000e+00;6.976295e-02;1.144355e+02
39;dposv;36;0;1;1;0;720;121;2880;1;2880;2880;1477171087;356426808;0.000000e+00;5.425382e-02;1.471484e+02
40;dposv;36;0;1;1;0;720;121;3600;1;3600;3600;945117276;1889947178;0.000000e+00;8.178306e-02;1.905578e+02
41;dposv;36;0;1;1;0;720;121;3600;1;3600;3600;1780695788;709393584;0.000000e+00;8.146691e-02;1.912973e+02
42;dposv;36;0;1;1;0;720;121;3600;1;3600;3600;491705403;1918502651;0.000000e+00;9.527183e-02;1.635783e+02
43;dposv;36;0;1;1;0;720;121;3600;1;3600;3600;752392754;1474612399;0.000000e+00;7.493687e-02;2.079671e+02
44;dposv;36;0;1;1;0;720;121;3600;1;3600;3600;2053999932;1264095060;0.000000e+00;8.016610e-02;1.944014e+02
45;dposv;36;0;1;1;0;720;121;3600;1;3600;3600;1411549676;1843993368;0.000000e+00;7.576895e-02;2.056832e+02
46;dposv;36;0;1;1;0;720;121;3600;1;3600;3600;943947739;1984210012;0.000000e+00;7.333016e-02;2.125237e+02
47;dposv;36;0;1;1;0;720;121;3600;1;3600;3600;855636226;1749698586;0.000000e+00;8.234310e-02;1.892618e+02
48;dposv;36;0;1;1;0;720;121;3600;1;3600;3600;1469348094;1956297539;0.000000e+00;7.980990e-02;1.952690e+02
49;dposv;36;0;1;1;0;720;121;3600;1;3600;3600;1036140795;463480570;0.000000e+00;8.678794e-02;1.795687e+02
50;dposv;36;0;1;1;0;720;121;4320;1;4320;4320;2040651434;1975960378;0.000000e+00;1.011121e-01;2.662442e+02
51;dposv;36;0;1;1;0;720;121;4320;1;4320;4320;317097467;1892066601;0.000000e+00;1.016440e-01;2.648509e+02
52;dposv;36;0;1;1;0;720;121;4320;1;4320;4320;1376710097;927612902;0.000000e+00;9.786201e-02;2.750865e+02
53;dposv;36;0;1;1;0;720;121;4320;1;4320;4320;1330573317;603570492;0.000000e+00;1.045611e-01;2.574621e+02
54;dposv;36;0;1;1;0;720;121;4320;1;4320;4320;1687926652;660260756;0.000000e+00;9.623504e-02;2.797371e+02
55;dposv;36;0;1;1;0;720;121;4320;1;4320;4320;959997301;485560280;0.000000e+00;9.873295e-02;2.726599e+02
56;dposv;36;0;1;1;0;720;121;4320;1;4320;4320;402724286;593209441;0.000000e+00;9.810305e-02;2.744106e+02
57;dposv;36;0;1;1;0;720;121;4320;1;4320;4320;1194953865;894429689;0.000000e+00;9.811401e-02;2.743799e+02
58;dposv;36;0;1;1;0;720;121;4320;1;4320;4320;364228444;1947346619;0.000000e+00;9.821200e-02;2.741061e+02
59;dposv;36;0;1;1;0;720;121;4320;1;4320;4320;221558440;270744729;0.000000e+00;9.891701e-02;2.721525e+02
60;dposv;36;0;1;1;0;720;121;5040;1;5040;5040;1063958031;1633108117;0.000000e+00;1.232030e-01;3.468924e+02
61;dposv;36;0;1;1;0;720;121;5040;1;5040;5040;2114738097;2007905771;0.000000e+00;1.233840e-01;3.463836e+02
62;dposv;36;0;1;1;0;720;121;5040;1;5040;5040;1469834481;822890675;0.000000e+00;1.142490e-01;3.740794e+02
63;dposv;36;0;1;1;0;720;121;5040;1;5040;5040;1610120709;791698927;0.000000e+00;1.116281e-01;3.828625e+02
64;dposv;36;0;1;1;0;720;121;5040;1;5040;5040;631704567;498777856;0.000000e+00;1.203599e-01;3.550867e+02
65;dposv;36;0;1;1;0;720;121;5040;1;5040;5040;1255179497;524872353;0.000000e+00;1.263752e-01;3.381850e+02
66;dposv;36;0;1;1;0;720;121;5040;1;5040;5040;327254586;1572276965;0.000000e+00;1.167948e-01;3.659254e+02
67;dposv;36;0;1;1;0;720;121;5040;1;5040;5040;269455306;1703964683;0.000000e+00;1.159160e-01;3.686996e+02
68;dposv;36;0;1;1;0;720;121;5040;1;5040;5040;352406219;1600028624;0.000000e+00;1.157000e-01;3.693880e+02
69;dposv;36;0;1;1;0;720;121;5040;1;5040;5040;160051528;2040332871;0.000000e+00;1.221201e-01;3.499684e+02
70;dposv;36;0;1;1;0;720;121;5760;1;5760;5760;112805732;1120048829;0.000000e+00;1.335251e-01;4.776924e+02
71;dposv;36;0;1;1;0;720;121;5760;1;5760;5760;378409503;515530019;0.000000e+00;1.346159e-01;4.738217e+02
72;dposv;36;0;1;1;0;720;121;5760;1;5760;5760;1713258270;1573363368;0.000000e+00;1.374290e-01;4.641228e+02
73;dposv;36;0;1;1;0;720;121;5760;1;5760;5760;1409959708;2077486715;0.000000e+00;1.311538e-01;4.863292e+02
74;dposv;36;0;1;1;0;720;121;5760;1;5760;5760;1373226340;1631518149;0.000000e+00;1.527541e-01;4.175597e+02
75;dposv;36;0;1;1;0;720;121;5760;1;5760;5760;200747796;289700723;0.000000e+00;1.399739e-01;4.556846e+02
76;dposv;36;0;1;1;0;720;121;5760;1;5760;5760;1117142618;168002245;0.000000e+00;1.353719e-01;4.711755e+02
77;dposv;36;0;1;1;0;720;121;5760;1;5760;5760;150122846;439493451;0.000000e+00;1.339252e-01;4.762654e+02
78;dposv;36;0;1;1;0;720;121;5760;1;5760;5760;990892921;1760243555;0.000000e+00;1.389749e-01;4.589601e+02
79;dposv;36;0;1;1;0;720;121;5760;1;5760;5760;1231192379;1622597488;0.000000e+00;1.470449e-01;4.337718e+02
80;dposv;36;0;1;1;0;720;121;6480;1;6480;6480;111537764;338888228;0.000000e+00;1.552300e-01;5.849656e+02
81;dposv;36;0;1;1;0;720;121;6480;1;6480;6480;2147469841;438792350;0.000000e+00;1.554799e-01;5.840256e+02
82;dposv;36;0;1;1;0;720;121;6480;1;6480;6480;1911165193;269441500;0.000000e+00;1.692402e-01;5.365405e+02
83;dposv;36;0;1;1;0;720;121;6480;1;6480;6480;2142757034;116087764;0.000000e+00;1.784990e-01;5.087101e+02
84;dposv;36;0;1;1;0;720;121;6480;1;6480;6480;1869470124;155324914;0.000000e+00;1.614039e-01;5.625901e+02
85;dposv;36;0;1;1;0;720;121;6480;1;6480;6480;8936987;1982275856;0.000000e+00;1.585319e-01;5.727821e+02
86;dposv;36;0;1;1;0;720;121;6480;1;6480;6480;1275373743;387346491;0.000000e+00;1.609600e-01;5.641418e+02
87;dposv;36;0;1;1;0;720;121;6480;1;6480;6480;350322227;841148365;0.000000e+00;1.541028e-01;5.892446e+02
88;dposv;36;0;1;1;0;720;121;6480;1;6480;6480;1960709859;1760281936;0.000000e+00;1.606789e-01;5.651287e+02
89;dposv;36;0;1;1;0;720;121;6480;1;6480;6480;771151432;1186452551;0.000000e+00;1.556609e-01;5.833466e+02
90;dposv;36;0;1;1;0;720;121;7200;1;7200;7200;1244316437;971899228;0.000000e+00;1.827230e-01;6.816086e+02
91;dposv;36;0;1;1;0;720;121;7200;1;7200;7200;1476153275;213975407;0.000000e+00;1.919951e-01;6.486914e+02
92;dposv;36;0;1;1;0;720;121;7200;1;7200;7200;1139901474;1626276121;0.000000e+00;1.887372e-01;6.598892e+02
93;dposv;36;0;1;1;0;720;121;7200;1;7200;7200;653468858;2130794395;0.000000e+00;1.873841e-01;6.646539e+02
94;dposv;36;0;1;1;0;720;121;7200;1;7200;7200;1239036029;1884661237;0.000000e+00;1.859279e-01;6.698598e+02
95;dposv;36;0;1;1;0;720;121;7200;1;7200;7200;1605908235;1350573793;0.000000e+00;1.976810e-01;6.300334e+02
96;dposv;36;0;1;1;0;720;121;7200;1;7200;7200;76065818;1605894428;0.000000e+00;1.759081e-01;7.080152e+02
97;dposv;36;0;1;1;0;720;121;7200;1;7200;7200;1789366143;1987231011;0.000000e+00;1.821551e-01;6.837337e+02
98;dposv;36;0;1;1;0;720;121;7200;1;7200;7200;1875335928;1784639529;0.000000e+00;1.923909e-01;6.473570e+02
99;dposv;36;0;1;1;0;720;121;7200;1;7200;7200;2103318776;1597322404;0.000000e+00;2.136300e-01;5.829969e+02
100;dposv;36;0;1;1;0;720;121;7920;1;7920;7920;1939964443;2112255763;0.000000e+00;2.210209e-01;7.499494e+02
101;dposv;36;0;1;1;0;720;121;7920;1;7920;7920;1432114613;1067854538;0.000000e+00;2.141249e-01;7.741019e+02
102;dposv;36;0;1;1;0;720;121;7920;1;7920;7920;352118606;1782436840;0.000000e+00;2.238369e-01;7.405147e+02
103;dposv;36;0;1;1;0;720;121;7920;1;7920;7920;1909002904;165344818;0.000000e+00;2.314730e-01;7.160858e+02
104;dposv;36;0;1;1;0;720;121;7920;1;7920;7920;1395235128;532670688;0.000000e+00;2.276850e-01;7.279993e+02
105;dposv;36;0;1;1;0;720;121;7920;1;7920;7920;1351797369;492067917;0.000000e+00;2.129090e-01;7.785229e+02
106;dposv;36;0;1;1;0;720;121;7920;1;7920;7920;1504569917;680466996;0.000000e+00;2.399662e-01;6.907412e+02
107;dposv;36;0;1;1;0;720;121;7920;1;7920;7920;706043324;496987743;0.000000e+00;2.207561e-01;7.508492e+02
108;dposv;36;0;1;1;0;720;121;7920;1;7920;7920;159259470;1359512183;0.000000e+00;2.188699e-01;7.573197e+02
109;dposv;36;0;1;1;0;720;121;7920;1;7920;7920;480298490;1398295499;0.000000e+00;2.124999e-01;7.800218e+02
110;dposv;36;0;1;1;0;720;121;8640;1;8640;8640;1096689772;2086206725;0.000000e+00;2.509460e-01;8.574651e+02
111;dposv;36;0;1;1;0;720;121;8640;1;8640;8640;601385644;1172755590;0.000000e+00;2.419732e-01;8.892617e+02
112;dposv;36;0;1;1;0;720;121;8640;1;8640;8640;1544617505;243268139;0.000000e+00;2.483850e-01;8.663064e+02
113;dposv;36;0;1;1;0;720;121;8640;1;8640;8640;1012502954;1272469786;0.000000e+00;2.586432e-01;8.319473e+02
114;dposv;36;0;1;1;0;720;121;8640;1;8640;8640;2027907669;968338082;0.000000e+00;2.536390e-01;8.483612e+02
115;dposv;36;0;1;1;0;720;121;8640;1;8640;8640;722308542;1820388464;0.000000e+00;2.539282e-01;8.473950e+02
116;dposv;36;0;1;1;0;720;121;8640;1;8640;8640;933110197;6939507;0.000000e+00;2.539949e-01;8.471723e+02
117;dposv;36;0;1;1;0;720;121;8640;1;8640;8640;740759355;1285228804;0.000000e+00;2.323442e-01;9.261153e+02
118;dposv;36;0;1;1;0;720;121;8640;1;8640;8640;1789376348;502278611;0.000000e+00;2.516770e-01;8.549746e+02
119;dposv;36;0;1;1;0;720;121;8640;1;8640;8640;1450573622;1037127828;0.000000e+00;2.410851e-01;8.925376e+02
120;dposv;36;0;1;1;0;720;121;9360;1;9360;9360;1034949299;654887343;0.000000e+00;2.795498e-01;9.785768e+02
121;dposv;36;0;1;1;0;720;121;9360;1;9360;9360;1529195746;392035568;0.000000e+00;2.756798e-01;9.923141e+02
122;dposv;36;0;1;1;0;720;121;9360;1;9360;9360;1335354340;87755422;0.000000e+00;2.820780e-01;9.698060e+02
123;dposv;36;0;1;1;0;720;121;9360;1;9360;9360;889023311;1494613810;0.000000e+00;2.898819e-01;9.436979e+02
124;dposv;36;0;1;1;0;720;121;9360;1;9360;9360;1447267605;1369321801;0.000000e+00;2.777388e-01;9.849577e+02
125;dposv;36;0;1;1;0;720;121;9360;1;9360;9360;745425661;396473730;0.000000e+00;2.771962e-01;9.868859e+02
126;dposv;36;0;1;1;0;720;121;9360;1;9360;9360;1308044878;1346811305;0.000000e+00;2.866020e-01;9.544977e+02
127;dposv;36;0;1;1;0;720;121;9360;1;9360;9360;1569229320;705178736;0.000000e+00;2.848291e-01;9.604389e+02
128;dposv;36;0;1;1;0;720;121;9360;1;9360;9360;1590079444;434248626;0.000000e+00;2.917740e-01;9.375782e+02
129;dposv;36;0;1;1;0;720;121;9360;1;9360;9360;1977648522;1470503465;0.000000e+00;2.793961e-01;9.791154e+02
0;dposv;36;0;1;1;0;720;121;10080;1;10080;10080;1681692777;1714636915;0.000000e+00;3.266749e-01;1.045846e+03
1;dposv;36;0;1;1;0;720;121;10080;1;10080;10080;1957747793;424238335;0.000000e+00;3.197150e-01;1.068613e+03
2;dposv;36;0;1;1;0;720;121;10080;1;10080;10080;719885386;1649760492;0.000000e+00;3.108001e-01;1.099265e+03
3;dposv;36;0;1;1;0;720;121;10080;1;10080;10080;596516649;1189641421;0.000000e+00;3.181829e-01;1.073758e+03
4;dposv;36;0;1;1;0;720;121;10080;1;10080;10080;1025202362;1350490027;0.000000e+00;3.182259e-01;1.073613e+03
5;dposv;36;0;1;1;0;720;121;10080;1;10080;10080;783368690;1102520059;0.000000e+00;3.192000e-01;1.070337e+03
6;dposv;36;0;1;1;0;720;121;10080;1;10080;10080;2044897763;1967513926;0.000000e+00;3.227251e-01;1.058646e+03
7;dposv;36;0;1;1;0;720;121;10080;1;10080;10080;1365180540;1540383426;0.000000e+00;3.198159e-01;1.068276e+03
8;dposv;36;0;1;1;0;720;121;10080;1;10080;10080;304089172;1303455736;0.000000e+00;3.202870e-01;1.066704e+03
9;dposv;36;0;1;1;0;720;121;10080;1;10080;10080;35005211;521595368;0.000000e+00;3.200519e-01;1.067488e+03
10;dposv;36;0;1;1;0;720;121;12240;1;12240;12240;294702567;1726956429;0.000000e+00;4.789300e-01;1.277077e+03
11;dposv;36;0;1;1;0;720;121;12240;1;12240;12240;336465782;861021530;0.000000e+00;4.814420e-01;1.270413e+03
12;dposv;36;0;1;1;0;720;121;12240;1;12240;12240;278722862;233665123;0.000000e+00;4.816170e-01;1.269952e+03
13;dposv;36;0;1;1;0;720;121;12240;1;12240;12240;2145174067;468703135;0.000000e+00;4.828718e-01;1.266652e+03
14;dposv;36;0;1;1;0;720;121;12240;1;12240;12240;1101513929;1801979802;0.000000e+00;4.710660e-01;1.298396e+03
15;dposv;36;0;1;1;0;720;121;12240;1;12240;12240;1315634022;635723058;0.000000e+00;4.775069e-01;1.280883e+03
16;dposv;36;0;1;1;0;720;121;12240;1;12240;12240;1369133069;1125898167;0.000000e+00;4.841750e-01;1.263242e+03
17;dposv;36;0;1;1;0;720;121;12240;1;12240;12240;1059961393;2089018456;0.000000e+00;4.753060e-01;1.286814e+03
18;dposv;36;0;1;1;0;720;121;12240;1;12240;12240;628175011;1656478042;0.000000e+00;4.833231e-01;1.265469e+03
19;dposv;36;0;1;1;0;720;121;12240;1;12240;12240;1131176229;1653377373;0.000000e+00;4.721470e-01;1.295424e+03
20;dposv;36;0;1;1;0;720;121;14400;1;14400;14400;859484421;1914544919;0.000000e+00;7.118621e-01;1.398932e+03
21;dposv;36;0;1;1;0;720;121;14400;1;14400;14400;608413784;756898537;0.000000e+00;7.204168e-01;1.382320e+03
22;dposv;36;0;1;1;0;720;121;14400;1;14400;14400;1734575198;1973594324;0.000000e+00;7.091520e-01;1.404278e+03
23;dposv;36;0;1;1;0;720;121;14400;1;14400;14400;149798315;2038664370;0.000000e+00;7.129841e-01;1.396730e+03
24;dposv;36;0;1;1;0;720;121;14400;1;14400;14400;1129566413;184803526;0.000000e+00;7.320421e-01;1.360368e+03
25;dposv;36;0;1;1;0;720;121;14400;1;14400;14400;412776091;1424268980;0.000000e+00;7.108378e-01;1.400947e+03
26;dposv;36;0;1;1;0;720;121;14400;1;14400;14400;1911759956;749241873;0.000000e+00;7.217700e-01;1.379728e+03
27;dposv;36;0;1;1;0;720;121;14400;1;14400;14400;137806862;42999170;0.000000e+00;7.201860e-01;1.382763e+03
28;dposv;36;0;1;1;0;720;121;14400;1;14400;14400;982906996;135497281;0.000000e+00;7.204840e-01;1.382191e+03
29;dposv;36;0;1;1;0;720;121;14400;1;14400;14400;511702305;2084420925;0.000000e+00;7.293389e-01;1.365410e+03
30;dposv;36;0;1;1;0;720;121;16560;1;16560;16560;1937477084;1827336327;0.000000e+00;1.038140e+00;1.458816e+03
31;dposv;36;0;1;1;0;720;121;16560;1;16560;16560;572660336;1159126505;0.000000e+00;1.062113e+00;1.425889e+03
32;dposv;36;0;1;1;0;720;121;16560;1;16560;16560;805750846;1632621729;0.000000e+00;1.035706e+00;1.462244e+03
33;dposv;36;0;1;1;0;720;121;16560;1;16560;16560;1100661313;1433925857;0.000000e+00;1.053246e+00;1.437893e+03
34;dposv;36;0;1;1;0;720;121;16560;1;16560;16560;1141616124;84353895;0.000000e+00;1.043018e+00;1.451993e+03
35;dposv;36;0;1;1;0;720;121;16560;1;16560;16560;939819582;2001100545;0.000000e+00;1.041511e+00;1.454094e+03
36;dposv;36;0;1;1;0;720;121;16560;1;16560;16560;1998898814;1548233367;0.000000e+00;1.045433e+00;1.448639e+03
37;dposv;36;0;1;1;0;720;121;16560;1;16560;16560;610515434;1585990364;0.000000e+00;1.035638e+00;1.462340e+03
38;dposv;36;0;1;1;0;720;121;16560;1;16560;16560;1374344043;760313750;0.000000e+00;1.043999e+00;1.450629e+03
39;dposv;36;0;1;1;0;720;121;16560;1;16560;16560;1477171087;356426808;0.000000e+00;1.043749e+00;1.450976e+03
40;dposv;36;0;1;1;0;720;121;18720;1;18720;18720;945117276;1889947178;0.000000e+00;1.450454e+00;1.508226e+03
41;dposv;36;0;1;1;0;720;121;18720;1;18720;18720;1780695788;709393584;0.000000e+00;1.460243e+00;1.498115e+03
42;dposv;36;0;1;1;0;720;121;18720;1;18720;18720;491705403;1918502651;0.000000e+00;1.460909e+00;1.497432e+03
43;dposv;36;0;1;1;0;720;121;18720;1;18720;18720;752392754;1474612399;0.000000e+00;1.454685e+00;1.503839e+03
44;dposv;36;0;1;1;0;720;121;18720;1;18720;18720;2053999932;1264095060;0.000000e+00;1.460063e+00;1.498300e+03
45;dposv;36;0;1;1;0;720;121;18720;1;18720;18720;1411549676;1843993368;0.000000e+00;1.457087e+00;1.501360e+03
46;dposv;36;0;1;1;0;720;121;18720;1;18720;18720;943947739;1984210012;0.000000e+00;1.456472e+00;1.501994e+03
47;dposv;36;0;1;1;0;720;121;18720;1;18720;18720;855636226;1749698586;0.000000e+00;1.455966e+00;1.502516e+03
48;dposv;36;0;1;1;0;720;121;18720;1;18720;18720;1469348094;1956297539;0.000000e+00;1.461323e+00;1.497008e+03
49;dposv;36;0;1;1;0;720;121;18720;1;18720;18720;1036140795;463480570;0.000000e+00;1.471370e+00;1.486786e+03
50;dposv;36;0;1;1;0;720;121;20880;1;20880;20880;2040651434;1975960378;0.000000e+00;1.965140e+00;1.544659e+03
51;dposv;36;0;1;1;0;720;121;20880;1;20880;20880;317097467;1892066601;0.000000e+00;1.968170e+00;1.542281e+03
52;dposv;36;0;1;1;0;720;121;20880;1;20880;20880;1376710097;927612902;0.000000e+00;1.964060e+00;1.545509e+03
53;dposv;36;0;1;1;0;720;121;20880;1;20880;20880;1330573317;603570492;0.000000e+00;1.975065e+00;1.536897e+03
54;dposv;36;0;1;1;0;720;121;20880;1;20880;20880;1687926652;660260756;0.000000e+00;1.949879e+00;1.556749e+03
55;dposv;36;0;1;1;0;720;121;20880;1;20880;20880;959997301;485560280;0.000000e+00;1.958576e+00;1.549836e+03
56;dposv;36;0;1;1;0;720;121;20880;1;20880;20880;402724286;593209441;0.000000e+00;1.967054e+00;1.543156e+03
57;dposv;36;0;1;1;0;720;121;20880;1;20880;20880;1194953865;894429689;0.000000e+00;1.959505e+00;1.549101e+03
58;dposv;36;0;1;1;0;720;121;20880;1;20880;20880;364228444;1947346619;0.000000e+00;1.973378e+00;1.538211e+03
59;dposv;36;0;1;1;0;720;121;20880;1;20880;20880;221558440;270744729;0.000000e+00;1.954074e+00;1.553407e+03
60;dposv;36;0;1;1;0;720;121;23040;1;23040;23040;1063958031;1633108117;0.000000e+00;2.592770e+00;1.572909e+03
61;dposv;36;0;1;1;0;720;121;23040;1;23040;23040;2114738097;2007905771;0.000000e+00;2.596553e+00;1.570617e+03
62;dposv;36;0;1;1;0;720;121;23040;1;23040;23040;1469834481;822890675;0.000000e+00;2.594949e+00;1.571588e+03
63;dposv;36;0;1;1;0;720;121;23040;1;23040;23040;1610120709;791698927;0.000000e+00;2.582788e+00;1.578988e+03
64;dposv;36;0;1;1;0;720;121;23040;1;23040;23040;631704567;498777856;0.000000e+00;2.591101e+00;1.573922e+03
65;dposv;36;0;1;1;0;720;121;23040;1;23040;23040;1255179497;524872353;0.000000e+00;2.585336e+00;1.577432e+03
66;dposv;36;0;1;1;0;720;121;23040;1;23040;23040;327254586;1572276965;0.000000e+00;2.598543e+00;1.569414e+03
67;dposv;36;0;1;1;0;720;121;23040;1;23040;23040;269455306;1703964683;0.000000e+00;2.595534e+00;1.571234e+03
68;dposv;36;0;1;1;0;720;121;23040;1;23040;23040;352406219;1600028624;0.000000e+00;2.592652e+00;1.572980e+03
69;dposv;36;0;1;1;0;720;121;23040;1;23040;23040;160051528;2040332871;0.000000e+00;2.578089e+00;1.581866e+03
70;dposv;36;0;1;1;0;720;121;25200;1;25200;25200;112805732;1120048829;0.000000e+00;3.340431e+00;1.597376e+03
71;dposv;36;0;1;1;0;720;121;25200;1;25200;25200;378409503;515530019;0.000000e+00;3.356287e+00;1.589829e+03
72;dposv;36;0;1;1;0;720;121;25200;1;25200;25200;1713258270;1573363368;0.000000e+00;3.343910e+00;1.595714e+03
73;dposv;36;0;1;1;0;720;121;25200;1;25200;25200;1409959708;2077486715;0.000000e+00;3.344108e+00;1.595619e+03
74;dposv;36;0;1;1;0;720;121;25200;1;25200;25200;1373226340;1631518149;0.000000e+00;3.350335e+00;1.592654e+03
75;dposv;36;0;1;1;0;720;121;25200;1;25200;25200;200747796;289700723;0.000000e+00;3.343327e+00;1.595992e+03
76;dposv;36;0;1;1;0;720;121;25200;1;25200;25200;1117142618;168002245;0.000000e+00;3.348192e+00;1.593673e+03
77;dposv;36;0;1;1;0;720;121;25200;1;25200;25200;150122846;439493451;0.000000e+00;3.348591e+00;1.593483e+03
78;dposv;36;0;1;1;0;720;121;25200;1;25200;25200;990892921;1760243555;0.000000e+00;3.346554e+00;1.594453e+03
79;dposv;36;0;1;1;0;720;121;25200;1;25200;25200;1231192379;1622597488;0.000000e+00;3.379347e+00;1.578981e+03
80;dposv;36;0;1;1;0;720;121;27360;1;27360;27360;111537764;338888228;0.000000e+00;4.261258e+00;1.602538e+03
81;dposv;36;0;1;1;0;720;121;27360;1;27360;27360;2147469841;438792350;0.000000e+00;4.267334e+00;1.600256e+03
82;dposv;36;0;1;1;0;720;121;27360;1;27360;27360;1911165193;269441500;0.000000e+00;4.275589e+00;1.597166e+03
83;dposv;36;0;1;1;0;720;121;27360;1;27360;27360;2142757034;116087764;0.000000e+00;4.272073e+00;1.598481e+03
84;dposv;36;0;1;1;0;720;121;27360;1;27360;27360;1869470124;155324914;0.000000e+00;4.272700e+00;1.598246e+03
85;dposv;36;0;1;1;0;720;121;27360;1;27360;27360;8936987;1982275856;0.000000e+00;4.272492e+00;1.598324e+03
86;dposv;36;0;1;1;0;720;121;27360;1;27360;27360;1275373743;387346491;0.000000e+00;4.282139e+00;1.594723e+03
87;dposv;36;0;1;1;0;720;121;27360;1;27360;27360;350322227;841148365;0.000000e+00;4.272538e+00;1.598307e+03
88;dposv;36;0;1;1;0;720;121;27360;1;27360;27360;1960709859;1760281936;0.000000e+00;4.282287e+00;1.594668e+03
89;dposv;36;0;1;1;0;720;121;27360;1;27360;27360;771151432;1186452551;0.000000e+00;4.272800e+00;1.598209e+03
