Id;Function;threads;gpus;P;Q;mtxfmt;nb;norm;uplo;n;lda;seedA;bump;tsub;time;gflops
0;dlansy;128;0;1;1;0;1024;171;121;1024;1024;1681692777;4.254358e-01;0.000000e+00;8.630753e-04;4.864466e+00
1;dlansy;128;0;1;1;0;1024;171;121;1024;1024;1957747793;4.892778e-01;0.000000e+00;1.181126e-03;3.554575e+00
2;dlansy;128;0;1;1;0;1024;171;121;1024;1024;719885386;3.777180e-01;0.000000e+00;1.199007e-03;3.501564e+00
3;dlansy;128;0;1;1;0;1024;171;121;1024;1024;596516649;-3.517510e-01;0.000000e+00;1.195908e-03;3.510639e+00
4;dlansy;128;0;1;1;0;1024;171;121;1024;1024;1025202362;4.000452e-01;0.000000e+00;1.167059e-03;3.597419e+00
5;dlansy;128;0;1;1;0;1024;171;121;1024;1024;783368690;3.744478e-01;0.000000e+00;9.222031e-04;4.552577e+00
6;dlansy;128;0;1;1;0;1024;171;121;1024;1024;2044897763;4.141058e-01;0.000000e+00;1.195908e-03;3.510639e+00
7;dlansy;128;0;1;1;0;1024;171;121;1024;1024;1365180540;-1.381986e-01;0.000000e+00;9.400845e-04;4.465982e+00
8;dlansy;128;0;1;1;0;1024;171;121;1024;1024;304089172;2.200654e-01;0.000000e+00;9.279251e-04;4.524503e+00
9;dlansy;128;0;1;1;0;1024;171;121;1024;1024;35005211;-1.757242e-01;0.000000e+00;1.179934e-03;3.558166e+00
10;dlansy;128;0;1;1;0;1024;171;121;2048;2048;294702567;-3.976154e-01;0.000000e+00;6.498814e-03;2.582842e+00
11;dlansy;128;0;1;1;0;1024;171;121;2048;2048;336465782;4.797187e-01;0.000000e+00;2.912045e-03;5.764132e+00
12;dlansy;128;0;1;1;0;1024;171;121;2048;2048;278722862;-3.098429e-01;0.000000e+00;2.756834e-03;6.088654e+00
13;dlansy;128;0;1;1;0;1024;171;121;2048;2048;2145174067;4.597866e-01;0.000000e+00;2.732038e-03;6.143913e+00
14;dlansy;128;0;1;1;0;1024;171;121;2048;2048;1101513929;3.332689e-02;0.000000e+00;3.508091e-03;4.784770e+00
15;dlansy;128;0;1;1;0;1024;171;121;2048;2048;1315634022;-3.123134e-01;0.000000e+00;3.038168e-03;5.524845e+00
16;dlansy;128;0;1;1;0;1024;171;121;2048;2048;1369133069;-2.396071e-01;0.000000e+00;4.917860e-03;3.413153e+00
17;dlansy;128;0;1;1;0;1024;171;121;2048;2048;1059961393;-4.405380e-01;0.000000e+00;2.453089e-03;6.842560e+00
18;dlansy;128;0;1;1;0;1024;171;121;2048;2048;628175011;-8.299381e-02;0.000000e+00;2.685785e-03;6.249721e+00
19;dlansy;128;0;1;1;0;1024;171;121;2048;2048;1131176229;-4.098657e-01;0.000000e+00;2.839088e-03;5.912253e+00
20;dlansy;128;0;1;1;0;1024;171;121;3072;3072;859484421;4.760135e-01;0.000000e+00;3.491163e-03;1.081617e+01
21;dlansy;128;0;1;1;0;1024;171;121;3072;3072;608413784;-2.172434e-01;0.000000e+00;6.565094e-03;5.751787e+00
22;dlansy;128;0;1;1;0;1024;171;121;3072;3072;1734575198;3.559216e-01;0.000000e+00;6.360054e-03;5.937217e+00
23;dlansy;128;0;1;1;0;1024;171;121;3072;3072;149798315;-3.746092e-01;0.000000e+00;5.427837e-03;6.956919e+00
24;dlansy;128;0;1;1;0;1024;171;121;3072;3072;1129566413;3.212047e-02;0.000000e+00;6.490946e-03;5.817492e+00
25;dlansy;128;0;1;1;0;1024;171;121;3072;3072;412776091;-3.302276e-01;0.000000e+00;5.976915e-03;6.317811e+00
26;dlansy;128;0;1;1;0;1024;171;121;3072;3072;1911759956;1.752074e-01;0.000000e+00;6.049156e-03;6.242362e+00
27;dlansy;128;0;1;1;0;1024;171;121;3072;3072;137806862;2.019681e-01;0.000000e+00;5.899906e-03;6.400275e+00
28;dlansy;128;0;1;1;0;1024;171;121;3072;3072;982906996;2.243788e-01;0.000000e+00;5.912066e-03;6.387112e+00
29;dlansy;128;0;1;1;0;1024;171;121;3072;3072;511702305;-1.333755e-01;0.000000e+00;5.568027e-03;6.781760e+00
30;dlansy;128;0;1;1;0;1024;171;121;4096;4096;1937477084;-3.694056e-01;0.000000e+00;8.263826e-03;8.122781e+00
31;dlansy;128;0;1;1;0;1024;171;121;4096;4096;572660336;-1.501402e-01;0.000000e+00;9.080887e-03;7.391926e+00
32;dlansy;128;0;1;1;0;1024;171;121;4096;4096;805750846;-1.383824e-01;0.000000e+00;8.651018e-03;7.759231e+00
33;dlansy;128;0;1;1;0;1024;171;121;4096;4096;1100661313;7.019839e-02;0.000000e+00;9.315014e-03;7.206135e+00
34;dlansy;128;0;1;1;0;1024;171;121;4096;4096;1141616124;-2.465265e-01;0.000000e+00;8.306026e-03;8.081511e+00
35;dlansy;128;0;1;1;0;1024;171;121;4096;4096;939819582;2.290667e-01;0.000000e+00;9.065151e-03;7.404758e+00
36;dlansy;128;0;1;1;0;1024;171;121;4096;4096;1998898814;-2.416937e-01;0.000000e+00;7.770061e-03;8.638960e+00
37;dlansy;128;0;1;1;0;1024;171;121;4096;4096;610515434;2.529978e-01;0.000000e+00;9.496212e-03;7.068634e+00
38;dlansy;128;0;1;1;0;1024;171;121;4096;4096;1374344043;-2.102271e-01;0.000000e+00;1.000404e-02;6.709812e+00
39;dlansy;128;0;1;1;0;1024;171;121;4096;4096;1477171087;-1.733443e-01;0.000000e+00;7.512093e-03;8.935626e+00
40;dlansy;128;0;1;1;0;1024;171;121;5120;5120;945117276;5.373797e-02;0.000000e+00;8.731127e-03;1.201198e+01
41;dlansy;128;0;1;1;0;1024;171;121;5120;5120;1780695788;-4.132594e-01;0.000000e+00;1.159286e-02;9.046778e+00
42;dlansy;128;0;1;1;0;1024;171;121;5120;5120;491705403;-2.237386e-01;0.000000e+00;9.799957e-03;1.070189e+01
43;dlansy;128;0;1;1;0;1024;171;121;5120;5120;752392754;-3.676393e-01;0.000000e+00;1.000881e-02;1.047857e+01
44;dlansy;128;0;1;1;0;1024;171;121;5120;5120;2053999932;-4.222437e-01;0.000000e+00;1.080680e-02;9.704824e+00
45;dlansy;128;0;1;1;0;1024;171;121;5120;5120;1411549676;3.886879e-01;0.000000e+00;1.554203e-02;6.748030e+00
46;dlansy;128;0;1;1;0;1024;171;121;5120;5120;943947739;1.866877e-01;0.000000e+00;1.433492e-02;7.316267e+00
47;dlansy;128;0;1;1;0;1024;171;121;5120;5120;855636226;-2.672705e-01;0.000000e+00;1.510787e-02;6.941950e+00
48;dlansy;128;0;1;1;0;1024;171;121;5120;5120;1469348094;-2.187391e-01;0.000000e+00;1.031590e-02;1.016665e+01
49;dlansy;128;0;1;1;0;1024;171;121;5120;5120;1036140795;-4.443388e-01;0.000000e+00;9.445906e-03;1.110302e+01
0;dlansy;128;0;1;1;0;1024;171;121;6144;6144;1681692777;4.254358e-01;0.000000e+00;2.261591e-02;6.677579e+00
1;dlansy;128;0;1;1;0;1024;171;121;6144;6144;1957747793;4.892778e-01;0.000000e+00;1.783514e-02;8.467526e+00
2;dlansy;128;0;1;1;0;1024;171;121;6144;6144;719885386;3.777180e-01;0.000000e+00;2.235103e-02;6.756715e+00
3;dlansy;128;0;1;1;0;1024;171;121;6144;6144;596516649;-3.517510e-01;0.000000e+00;1.351690e-02;1.117264e+01
4;dlansy;128;0;1;1;0;1024;171;121;6144;6144;1025202362;4.000452e-01;0.000000e+00;1.808214e-02;8.351860e+00
5;dlansy;128;0;1;1;0;1024;171;121;6144;6144;783368690;3.744478e-01;0.000000e+00;2.190208e-02;6.895212e+00
6;dlansy;128;0;1;1;0;1024;171;121;6144;6144;2044897763;4.141058e-01;0.000000e+00;2.136397e-02;7.068887e+00
7;dlansy;128;0;1;1;0;1024;171;121;6144;6144;1365180540;-1.381986e-01;0.000000e+00;2.110505e-02;7.155610e+00
8;dlansy;128;0;1;1;0;1024;171;121;6144;6144;304089172;2.200654e-01;0.000000e+00;1.412797e-02;1.068940e+01
9;dlansy;128;0;1;1;0;1024;171;121;6144;6144;35005211;-1.757242e-01;0.000000e+00;1.763797e-02;8.562184e+00
10;dlansy;128;0;1;1;0;1024;171;121;8192;8192;294702567;-3.976154e-01;0.000000e+00;3.215003e-02;8.350481e+00
11;dlansy;128;0;1;1;0;1024;171;121;8192;8192;336465782;4.797187e-01;0.000000e+00;3.012514e-02;8.911767e+00
12;dlansy;128;0;1;1;0;1024;171;121;8192;8192;278722862;-3.098429e-01;0.000000e+00;2.438784e-02;1.100828e+01
13;dlansy;128;0;1;1;0;1024;171;121;8192;8192;2145174067;4.597866e-01;0.000000e+00;2.800107e-02;9.587784e+00
14;dlansy;128;0;1;1;0;1024;171;121;8192;8192;1101513929;3.332689e-02;0.000000e+00;2.091599e-02;1.283555e+01
15;dlansy;128;0;1;1;0;1024;171;121;8192;8192;1315634022;-3.123134e-01;0.000000e+00;2.373409e-02;1.131150e+01
16;dlansy;128;0;1;1;0;1024;171;121;8192;8192;1369133069;-2.396071e-01;0.000000e+00;2.386999e-02;1.124710e+01
17;dlansy;128;0;1;1;0;1024;171;121;8192;8192;1059961393;-4.405380e-01;0.000000e+00;1.995897e-02;1.345100e+01
18;dlansy;128;0;1;1;0;1024;171;121;8192;8192;628175011;-8.299381e-02;0.000000e+00;1.818299e-02;1.476480e+01
19;dlansy;128;0;1;1;0;1024;171;121;8192;8192;1131176229;-4.098657e-01;0.000000e+00;2.132082e-02;1.259183e+01
20;dlansy;128;0;1;1;0;1024;171;121;10240;10240;859484421;4.760135e-01;0.000000e+00;3.162909e-02;1.326220e+01
21;dlansy;128;0;1;1;0;1024;171;121;10240;10240;608413784;-2.172434e-01;0.000000e+00;4.086995e-02;1.026356e+01
22;dlansy;128;0;1;1;0;1024;171;121;10240;10240;1734575198;3.559216e-01;0.000000e+00;2.845716e-02;1.474045e+01
23;dlansy;128;0;1;1;0;1024;171;121;10240;10240;149798315;-3.746092e-01;0.000000e+00;2.586198e-02;1.621962e+01
24;dlansy;128;0;1;1;0;1024;171;121;10240;10240;1129566413;3.212047e-02;0.000000e+00;2.894902e-02;1.449000e+01
25;dlansy;128;0;1;1;0;1024;171;121;10240;10240;412776091;-3.302276e-01;0.000000e+00;2.772093e-02;1.513194e+01
26;dlansy;128;0;1;1;0;1024;171;121;10240;10240;1911759956;1.752074e-01;0.000000e+00;3.144217e-02;1.334105e+01
27;dlansy;128;0;1;1;0;1024;171;121;10240;10240;137806862;2.019681e-01;0.000000e+00;3.199792e-02;1.310933e+01
28;dlansy;128;0;1;1;0;1024;171;121;10240;10240;982906996;2.243788e-01;0.000000e+00;2.430487e-02;1.725874e+01
29;dlansy;128;0;1;1;0;1024;171;121;10240;10240;511702305;-1.333755e-01;0.000000e+00;2.669406e-02;1.571403e+01
30;dlansy;128;0;1;1;0;1024;171;121;12288;12288;1937477084;-3.694056e-01;0.000000e+00;3.671503e-02;1.645182e+01
31;dlansy;128;0;1;1;0;1024;171;121;12288;12288;572660336;-1.501402e-01;0.000000e+00;4.134202e-02;1.461053e+01
32;dlansy;128;0;1;1;0;1024;171;121;12288;12288;805750846;-1.383824e-01;0.000000e+00;3.827000e-02;1.578335e+01
33;dlansy;128;0;1;1;0;1024;171;121;12288;12288;1100661313;7.019839e-02;0.000000e+00;3.673100e-02;1.644466e+01
34;dlansy;128;0;1;1;0;1024;171;121;12288;12288;1141616124;-2.465265e-01;0.000000e+00;4.587317e-02;1.316737e+01
35;dlansy;128;0;1;1;0;1024;171;121;12288;12288;939819582;2.290667e-01;0.000000e+00;4.106903e-02;1.470765e+01
36;dlansy;128;0;1;1;0;1024;171;121;12288;12288;1998898814;-2.416937e-01;0.000000e+00;4.013491e-02;1.504996e+01
37;dlansy;128;0;1;1;0;1024;171;121;12288;12288;610515434;2.529978e-01;0.000000e+00;4.333997e-02;1.393700e+01
38;dlansy;128;0;1;1;0;1024;171;121;12288;12288;1374344043;-2.102271e-01;0.000000e+00;4.099894e-02;1.473280e+01
39;dlansy;128;0;1;1;0;1024;171;121;12288;12288;1477171087;-1.733443e-01;0.000000e+00;3.477097e-02;1.737165e+01
40;dlansy;128;0;1;1;0;1024;171;121;14336;14336;945117276;5.373797e-02;0.000000e+00;5.470109e-02;1.502970e+01
41;dlansy;128;0;1;1;0;1024;171;121;14336;14336;1780695788;-4.132594e-01;0.000000e+00;5.016899e-02;1.638743e+01
42;dlansy;128;0;1;1;0;1024;171;121;14336;14336;491705403;-2.237386e-01;0.000000e+00;5.214691e-02;1.576586e+01
43;dlansy;128;0;1;1;0;1024;171;121;14336;14336;752392754;-3.676393e-01;0.000000e+00;4.862499e-02;1.690779e+01
44;dlansy;128;0;1;1;0;1024;171;121;14336;14336;2053999932;-4.222437e-01;0.000000e+00;5.032015e-02;1.633821e+01
45;dlansy;128;0;1;1;0;1024;171;121;14336;14336;1411549676;3.886879e-01;0.000000e+00;5.132389e-02;1.601868e+01
46;dlansy;128;0;1;1;0;1024;171;121;14336;14336;943947739;1.866877e-01;0.000000e+00;5.099487e-02;1.612203e+01
47;dlansy;128;0;1;1;0;1024;171;121;14336;14336;855636226;-2.672705e-01;0.000000e+00;4.813480e-02;1.707997e+01
48;dlansy;128;0;1;1;0;1024;171;121;14336;14336;1469348094;-2.187391e-01;0.000000e+00;5.006385e-02;1.642185e+01
49;dlansy;128;0;1;1;0;1024;171;121;14336;14336;1036140795;-4.443388e-01;0.000000e+00;4.907203e-02;1.675376e+01
50;dlansy;128;0;1;1;0;1024;171;121;16384;16384;2040651434;-4.033480e-01;0.000000e+00;6.962204e-02;1.542338e+01
51;dlansy;128;0;1;1;0;1024;171;121;16384;16384;317097467;-1.054364e-01;0.000000e+00;7.992387e-02;1.343538e+01
52;dlansy;128;0;1;1;0;1024;171;121;16384;16384;1376710097;-7.005727e-02;0.000000e+00;6.430793e-02;1.669790e+01
53;dlansy;128;0;1;1;0;1024;171;121;16384;16384;1330573317;1.333576e-02;0.000000e+00;8.385086e-02;1.280616e+01
54;dlansy;128;0;1;1;0;1024;171;121;16384;16384;1687926652;1.623906e-01;0.000000e+00;6.810904e-02;1.576600e+01
55;dlansy;128;0;1;1;0;1024;171;121;16384;16384;959997301;7.965982e-02;0.000000e+00;7.788610e-02;1.378689e+01
56;dlansy;128;0;1;1;0;1024;171;121;16384;16384;402724286;4.667617e-01;0.000000e+00;6.781697e-02;1.583390e+01
57;dlansy;128;0;1;1;0;1024;171;121;16384;16384;1194953865;-1.382589e-02;0.000000e+00;6.377697e-02;1.683691e+01
58;dlansy;128;0;1;1;0;1024;171;121;16384;16384;364228444;-4.175981e-01;0.000000e+00;6.393719e-02;1.679472e+01
59;dlansy;128;0;1;1;0;1024;171;121;16384;16384;221558440;3.770548e-01;0.000000e+00;6.058621e-02;1.772363e+01
60;dlansy;128;0;1;1;0;1024;171;121;18432;18432;1063958031;2.509115e-01;0.000000e+00;7.833791e-02;1.734828e+01
61;dlansy;128;0;1;1;0;1024;171;121;18432;18432;2114738097;-4.980996e-01;0.000000e+00;8.790493e-02;1.546020e+01
62;dlansy;128;0;1;1;0;1024;171;121;18432;18432;1469834481;1.376819e-01;0.000000e+00;8.306885e-02;1.636026e+01
63;dlansy;128;0;1;1;0;1024;171;121;18432;18432;1610120709;-3.776547e-01;0.000000e+00;9.006214e-02;1.508989e+01
64;dlansy;128;0;1;1;0;1024;171;121;18432;18432;631704567;-4.182928e-01;0.000000e+00;7.726192e-02;1.758988e+01
65;dlansy;128;0;1;1;0;1024;171;121;18432;18432;1255179497;-4.129313e-01;0.000000e+00;8.152080e-02;1.667094e+01
66;dlansy;128;0;1;1;0;1024;171;121;18432;18432;327254586;9.307665e-02;0.000000e+00;7.597089e-02;1.788880e+01
67;dlansy;128;0;1;1;0;1024;171;121;18432;18432;269455306;7.441780e-02;0.000000e+00;7.508779e-02;1.809919e+01
68;dlansy;128;0;1;1;0;1024;171;121;18432;18432;352406219;-2.374150e-01;0.000000e+00;7.841516e-02;1.733119e+01
69;dlansy;128;0;1;1;0;1024;171;121;18432;18432;160051528;2.807858e-01;0.000000e+00;7.513595e-02;1.808759e+01
70;dlansy;128;0;1;1;0;1024;171;121;20480;20480;112805732;-3.496214e-01;0.000000e+00;8.735800e-02;1.920607e+01
71;dlansy;128;0;1;1;0;1024;171;121;20480;20480;378409503;2.744957e-01;0.000000e+00;9.432793e-02;1.778692e+01
72;dlansy;128;0;1;1;0;1024;171;121;20480;20480;1713258270;1.571881e-01;0.000000e+00;8.454394e-02;1.984534e+01
73;dlansy;128;0;1;1;0;1024;171;121;20480;20480;1409959708;4.905056e-01;0.000000e+00;9.293985e-02;1.805257e+01
74;dlansy;128;0;1;1;0;1024;171;121;20480;20480;1373226340;9.546876e-03;0.000000e+00;9.196615e-02;1.824371e+01
75;dlansy;128;0;1;1;0;1024;171;121;20480;20480;200747796;3.618905e-02;0.000000e+00;9.167409e-02;1.830183e+01
76;dlansy;128;0;1;1;0;1024;171;121;20480;20480;1117142618;1.744033e-01;0.000000e+00;9.343314e-02;1.795726e+01
77;dlansy;128;0;1;1;0;1024;171;121;20480;20480;150122846;2.422071e-01;0.000000e+00;9.103012e-02;1.843130e+01
78;dlansy;128;0;1;1;0;1024;171;121;20480;20480;990892921;3.138195e-01;0.000000e+00;9.355688e-02;1.793351e+01
79;dlansy;128;0;1;1;0;1024;171;121;20480;20480;1231192379;-4.633856e-02;0.000000e+00;9.254193e-02;1.813020e+01
80;dlansy;128;0;1;1;0;1024;171;121;22528;22528;111537764;1.729012e-01;0.000000e+00;1.038680e-01;1.954532e+01
81;dlansy;128;0;1;1;0;1024;171;121;22528;22528;2147469841;2.072774e-01;0.000000e+00;1.048999e-01;1.935306e+01
82;dlansy;128;0;1;1;0;1024;171;121;22528;22528;1911165193;1.557539e-01;0.000000e+00;1.105170e-01;1.836942e+01
83;dlansy;128;0;1;1;0;1024;171;121;22528;22528;2142757034;-1.699027e-01;0.000000e+00;1.093340e-01;1.856818e+01
84;dlansy;128;0;1;1;0;1024;171;121;22528;22528;1869470124;9.513167e-02;0.000000e+00;9.752011e-02;2.081759e+01
85;dlansy;128;0;1;1;0;1024;171;121;22528;22528;8936987;3.813653e-01;0.000000e+00;1.094511e-01;1.854832e+01
86;dlansy;128;0;1;1;0;1024;171;121;22528;22528;1275373743;-3.952797e-01;0.000000e+00;1.030750e-01;1.969568e+01
87;dlansy;128;0;1;1;0;1024;171;121;22528;22528;350322227;4.007014e-01;0.000000e+00;1.078799e-01;1.881846e+01
88;dlansy;128;0;1;1;0;1024;171;121;22528;22528;1960709859;4.687312e-02;0.000000e+00;1.096408e-01;1.851621e+01
89;dlansy;128;0;1;1;0;1024;171;121;22528;22528;771151432;-3.651100e-01;0.000000e+00;9.534216e-02;2.129313e+01
90;dlansy;128;0;1;1;0;1024;171;121;24576;24576;1244316437;2.998675e-01;0.000000e+00;1.204281e-01;2.006191e+01
91;dlansy;128;0;1;1;0;1024;171;121;24576;24576;1476153275;-1.389722e-01;0.000000e+00;1.266470e-01;1.907678e+01
92;dlansy;128;0;1;1;0;1024;171;121;24576;24576;1139901474;3.395107e-01;0.000000e+00;1.177161e-01;2.052411e+01
93;dlansy;128;0;1;1;0;1024;171;121;24576;24576;653468858;-4.940599e-01;0.000000e+00;1.183770e-01;2.040952e+01
94;dlansy;128;0;1;1;0;1024;171;121;24576;24576;1239036029;9.508020e-02;0.000000e+00;1.288300e-01;1.875354e+01
95;dlansy;128;0;1;1;0;1024;171;121;24576;24576;1605908235;2.745396e-01;0.000000e+00;1.085429e-01;2.225864e+01
96;dlansy;128;0;1;1;0;1024;171;121;24576;24576;76065818;-4.585682e-01;0.000000e+00;1.156371e-01;2.089311e+01
97;dlansy;128;0;1;1;0;1024;171;121;24576;24576;1789366143;-3.356987e-01;0.000000e+00;1.210229e-01;1.996330e+01
98;dlansy;128;0;1;1;0;1024;171;121;24576;24576;1875335928;-1.061454e-01;0.000000e+00;1.263711e-01;1.911843e+01
99;dlansy;128;0;1;1;0;1024;171;121;24576;24576;2103318776;1.535754e-01;0.000000e+00;1.156061e-01;2.089871e+01
100;dlansy;128;0;1;1;0;1024;171;121;26624;26624;1939964443;-2.643760e-01;0.000000e+00;1.355929e-01;2.091153e+01
101;dlansy;128;0;1;1;0;1024;171;121;26624;26624;1432114613;2.725473e-01;0.000000e+00;1.335559e-01;2.123048e+01
102;dlansy;128;0;1;1;0;1024;171;121;26624;26624;352118606;3.241933e-01;0.000000e+00;1.397839e-01;2.028457e+01
103;dlansy;128;0;1;1;0;1024;171;121;26624;26624;1909002904;2.356442e-01;0.000000e+00;1.395481e-01;2.031885e+01
104;dlansy;128;0;1;1;0;1024;171;121;26624;26624;1395235128;-3.021529e-01;0.000000e+00;1.327419e-01;2.136067e+01
105;dlansy;128;0;1;1;0;1024;171;121;26624;26624;1351797369;-2.836412e-02;0.000000e+00;1.381841e-01;2.051941e+01
106;dlansy;128;0;1;1;0;1024;171;121;26624;26624;1504569917;-3.280447e-01;0.000000e+00;1.252031e-01;2.264685e+01
107;dlansy;128;0;1;1;0;1024;171;121;26624;26624;706043324;1.946189e-01;0.000000e+00;1.376200e-01;2.060352e+01
108;dlansy;128;0;1;1;0;1024;171;121;26624;26624;159259470;6.319147e-02;0.000000e+00;1.443272e-01;1.964603e+01
109;dlansy;128;0;1;1;0;1024;171;121;26624;26624;480298490;3.904790e-01;0.000000e+00;1.392362e-01;2.036436e+01
110;dlansy;128;0;1;1;0;1024;171;121;28672;28672;1096689772;-2.987393e-01;0.000000e+00;1.462049e-01;2.249205e+01
111;dlansy;128;0;1;1;0;1024;171;121;28672;28672;601385644;-4.403555e-01;0.000000e+00;1.569409e-01;2.095342e+01
112;dlansy;128;0;1;1;0;1024;171;121;28672;28672;1544617505;-3.120641e-01;0.000000e+00;1.550059e-01;2.121499e+01
113;dlansy;128;0;1;1;0;1024;171;121;28672;28672;1012502954;7.326981e-02;0.000000e+00;1.608100e-01;2.044928e+01
114;dlansy;128;0;1;1;0;1024;171;121;28672;28672;2027907669;4.440272e-01;0.000000e+00;1.530359e-01;2.148809e+01
115;dlansy;128;0;1;1;0;1024;171;121;28672;28672;722308542;-2.988812e-01;0.000000e+00;1.528559e-01;2.151340e+01
116;dlansy;128;0;1;1;0;1024;171;121;28672;28672;933110197;-1.017733e-01;0.000000e+00;1.547470e-01;2.125049e+01
117;dlansy;128;0;1;1;0;1024;171;121;28672;28672;740759355;-3.466130e-01;0.000000e+00;1.599240e-01;2.056257e+01
118;dlansy;128;0;1;1;0;1024;171;121;28672;28672;1789376348;3.725976e-01;0.000000e+00;1.494761e-01;2.199984e+01
119;dlansy;128;0;1;1;0;1024;171;121;28672;28672;1450573622;-2.731221e-01;0.000000e+00;1.618559e-01;2.031714e+01
120;dlansy;128;0;1;1;0;1024;171;121;30720;30720;1034949299;2.976161e-01;0.000000e+00;1.739440e-01;2.170237e+01
121;dlansy;128;0;1;1;0;1024;171;121;30720;30720;1529195746;1.985016e-01;0.000000e+00;1.718199e-01;2.197066e+01
122;dlansy;128;0;1;1;0;1024;171;121;30720;30720;1335354340;-3.384804e-01;0.000000e+00;1.645479e-01;2.294162e+01
123;dlansy;128;0;1;1;0;1024;171;121;30720;30720;889023311;-2.963290e-01;0.000000e+00;1.711080e-01;2.206207e+01
124;dlansy;128;0;1;1;0;1024;171;121;30720;30720;1447267605;-3.682695e-01;0.000000e+00;1.659660e-01;2.274560e+01
125;dlansy;128;0;1;1;0;1024;171;121;30720;30720;745425661;1.637426e-02;0.000000e+00;1.687069e-01;2.237607e+01
126;dlansy;128;0;1;1;0;1024;171;121;30720;30720;1308044878;3.002688e-01;0.000000e+00;1.724749e-01;2.188723e+01
127;dlansy;128;0;1;1;0;1024;171;121;30720;30720;1569229320;-2.878753e-01;0.000000e+00;1.749671e-01;2.157547e+01
128;dlansy;128;0;1;1;0;1024;171;121;30720;30720;1590079444;-6.664395e-02;0.000000e+00;1.842070e-01;2.049323e+01
129;dlansy;128;0;1;1;0;1024;171;121;30720;30720;1977648522;-2.996627e-01;0.000000e+00;1.777360e-01;2.123934e+01
130;dlansy;128;0;1;1;0;1024;171;121;32768;32768;1402586708;-4.466601e-01;0.000000e+00;1.901960e-01;2.258248e+01
131;dlansy;128;0;1;1;0;1024;171;121;32768;32768;1143408282;-3.095740e-01;0.000000e+00;1.864340e-01;2.303817e+01
132;dlansy;128;0;1;1;0;1024;171;121;32768;32768;559412924;1.008051e-01;0.000000e+00;2.022691e-01;2.123458e+01
133;dlansy;128;0;1;1;0;1024;171;121;32768;32768;1473442062;3.966201e-01;0.000000e+00;1.993310e-01;2.154756e+01
134;dlansy;128;0;1;1;0;1024;171;121;32768;32768;238962600;-2.291051e-01;0.000000e+00;1.909411e-01;2.249436e+01
135;dlansy;128;0;1;1;0;1024;171;121;32768;32768;1238433452;8.189833e-02;0.000000e+00;1.845860e-01;2.326881e+01
136;dlansy;128;0;1;1;0;1024;171;121;32768;32768;1431419379;-4.764616e-02;0.000000e+00;2.008271e-01;2.138704e+01
137;dlansy;128;0;1;1;0;1024;171;121;32768;32768;1665947468;1.684246e-01;0.000000e+00;1.919689e-01;2.237393e+01
138;dlansy;128;0;1;1;0;1024;171;121;32768;32768;707900973;-1.961373e-01;0.000000e+00;1.906352e-01;2.253046e+01
139;dlansy;128;0;1;1;0;1024;171;121;32768;32768;2113903881;4.689267e-01;0.000000e+00;1.865060e-01;2.302927e+01
140;dlansy;128;0;1;1;0;1024;171;121;34816;34816;1776808933;-4.926542e-01;0.000000e+00;2.145798e-01;2.259651e+01
141;dlansy;128;0;1;1;0;1024;171;121;34816;34816;404158660;-9.802407e-02;0.000000e+00;2.161081e-01;2.243671e+01
142;dlansy;128;0;1;1;0;1024;171;121;34816;34816;2058657199;1.886126e-01;0.000000e+00;2.243471e-01;2.161273e+01
143;dlansy;128;0;1;1;0;1024;171;121;34816;34816;1642548899;-7.383859e-02;0.000000e+00;2.065389e-01;2.347623e+01
144;dlansy;128;0;1;1;0;1024;171;121;34816;34816;260152959;-6.245404e-02;0.000000e+00;2.086120e-01;2.324294e+01
145;dlansy;128;0;1;1;0;1024;171;121;34816;34816;824272813;-3.703058e-01;0.000000e+00;2.169101e-01;2.235375e+01
146;dlansy;128;0;1;1;0;1024;171;121;34816;34816;2025187190;1.613464e-01;0.000000e+00;2.109280e-01;2.298773e+01
147;dlansy;128;0;1;1;0;1024;171;121;34816;34816;1850952926;-3.349140e-01;0.000000e+00;2.048252e-01;2.367265e+01
148;dlansy;128;0;1;1;0;1024;171;121;34816;34816;1704365084;2.019839e-01;0.000000e+00;2.038569e-01;2.378508e+01
149;dlansy;128;0;1;1;0;1024;171;121;34816;34816;638422090;2.766544e-01;0.000000e+00;2.115951e-01;2.291525e+01
150;dlansy;128;0;1;1;0;1024;171;121;36864;36864;1953443376;-2.797945e-01;0.000000e+00;2.294440e-01;2.369190e+01
151;dlansy;128;0;1;1;0;1024;171;121;36864;36864;1069755936;-4.205594e-01;0.000000e+00;2.516799e-01;2.159873e+01
152;dlansy;128;0;1;1;0;1024;171;121;36864;36864;349517445;3.646355e-01;0.000000e+00;2.486000e-01;2.186631e+01
153;dlansy;128;0;1;1;0;1024;171;121;36864;36864;1856669179;9.066373e-03;0.000000e+00;2.489700e-01;2.183381e+01
154;dlansy;128;0;1;1;0;1024;171;121;36864;36864;995706887;-2.496970e-01;0.000000e+00;2.422791e-01;2.243680e+01
155;dlansy;128;0;1;1;0;1024;171;121;36864;36864;1065103348;-2.655665e-01;0.000000e+00;2.421451e-01;2.244921e+01
156;dlansy;128;0;1;1;0;1024;171;121;36864;36864;387451659;9.058696e-02;0.000000e+00;2.418802e-01;2.247379e+01
157;dlansy;128;0;1;1;0;1024;171;121;36864;36864;1562402336;1.986549e-01;0.000000e+00;2.432702e-01;2.234539e+01
158;dlansy;128;0;1;1;0;1024;171;121;36864;36864;1295166342;3.808523e-01;0.000000e+00;2.388539e-01;2.275853e+01
159;dlansy;128;0;1;1;0;1024;171;121;36864;36864;1799878206;-5.773157e-02;0.000000e+00;2.430511e-01;2.236553e+01
160;dlansy;128;0;1;1;0;1024;171;121;38912;38912;382697713;-1.152934e-01;0.000000e+00;2.618082e-01;2.313423e+01
161;dlansy;128;0;1;1;0;1024;171;121;38912;38912;1070575321;-4.650331e-01;0.000000e+00;2.720499e-01;2.226331e+01
162;dlansy;128;0;1;1;0;1024;171;121;38912;38912;296864819;4.331828e-01;0.000000e+00;2.604060e-01;2.325880e+01
163;dlansy;128;0;1;1;0;1024;171;121;38912;38912;697517721;4.415959e-01;0.000000e+00;2.557769e-01;2.367974e+01
164;dlansy;128;0;1;1;0;1024;171;121;38912;38912;1950955939;-2.032396e-01;0.000000e+00;2.529759e-01;2.394192e+01
165;dlansy;128;0;1;1;0;1024;171;121;38912;38912;1797073940;1.460963e-01;0.000000e+00;2.618310e-01;2.313221e+01
166;dlansy;128;0;1;1;0;1024;171;121;38912;38912;1065311705;2.132438e-01;0.000000e+00;2.503328e-01;2.419471e+01
167;dlansy;128;0;1;1;0;1024;171;121;38912;38912;846811127;3.229169e-01;0.000000e+00;2.564781e-01;2.361500e+01
168;dlansy;128;0;1;1;0;1024;171;121;38912;38912;1307565984;1.990850e-01;0.000000e+00;2.539740e-01;2.384784e+01
169;dlansy;128;0;1;1;0;1024;171;121;38912;38912;324763920;-1.232803e-01;0.000000e+00;2.568769e-01;2.357833e+01
170;dlansy;128;0;1;1;0;1024;171;121;40960;40960;231602422;-5.968142e-02;0.000000e+00;2.827861e-01;2.373189e+01
171;dlansy;128;0;1;1;0;1024;171;121;40960;40960;780821396;3.404283e-01;0.000000e+00;2.987649e-01;2.246264e+01
172;dlansy;128;0;1;1;0;1024;171;121;40960;40960;711645630;3.779050e-01;0.000000e+00;2.744570e-01;2.445210e+01
173;dlansy;128;0;1;1;0;1024;171;121;40960;40960;917679292;-1.487947e-01;0.000000e+00;2.812281e-01;2.386337e+01
174;dlansy;128;0;1;1;0;1024;171;121;40960;40960;1253207672;-2.057583e-01;0.000000e+00;2.863069e-01;2.344006e+01
175;dlansy;128;0;1;1;0;1024;171;121;40960;40960;1414647625;-2.002110e-01;0.000000e+00;2.875302e-01;2.334033e+01
176;dlansy;128;0;1;1;0;1024;171;121;40960;40960;1046741222;-4.981229e-01;0.000000e+00;2.965069e-01;2.263371e+01
177;dlansy;128;0;1;1;0;1024;171;121;40960;40960;1896306640;-1.446566e-01;0.000000e+00;2.851989e-01;2.353112e+01
178;dlansy;128;0;1;1;0;1024;171;121;40960;40960;1111783898;7.285956e-02;0.000000e+00;2.978480e-01;2.253180e+01
179;dlansy;128;0;1;1;0;1024;171;121;40960;40960;1197352298;-2.994312e-01;0.000000e+00;2.892880e-01;2.319851e+01
180;dlansy;128;0;1;1;0;1024;171;121;43008;43008;1782280524;-4.406608e-01;0.000000e+00;3.131261e-01;2.362922e+01
181;dlansy;128;0;1;1;0;1024;171;121;43008;43008;524688209;-7.231379e-02;0.000000e+00;3.119991e-01;2.371457e+01
182;dlansy;128;0;1;1;0;1024;171;121;43008;43008;1566288819;-2.944065e-01;0.000000e+00;3.109951e-01;2.379113e+01
183;dlansy;128;0;1;1;0;1024;171;121;43008;43008;2114937732;4.808045e-01;0.000000e+00;3.136129e-01;2.359254e+01
184;dlansy;128;0;1;1;0;1024;171;121;43008;43008;1927495994;-2.840220e-01;0.000000e+00;2.991121e-01;2.473629e+01
185;dlansy;128;0;1;1;0;1024;171;121;43008;43008;882160379;-1.254201e-02;0.000000e+00;3.026428e-01;2.444771e+01
186;dlansy;128;0;1;1;0;1024;171;121;43008;43008;1682085273;9.597039e-02;0.000000e+00;3.073299e-01;2.407486e+01
187;dlansy;128;0;1;1;0;1024;171;121;43008;43008;630668850;2.283023e-01;0.000000e+00;3.048909e-01;2.426745e+01
188;dlansy;128;0;1;1;0;1024;171;121;43008;43008;1858721860;-5.737603e-03;0.000000e+00;3.116891e-01;2.373815e+01
189;dlansy;128;0;1;1;0;1024;171;121;43008;43008;105575579;3.629747e-01;0.000000e+00;3.148921e-01;2.349670e+01
190;dlansy;128;0;1;1;0;1024;171;121;45056;45056;2118421993;6.372750e-03;0.000000e+00;3.622100e-01;2.241891e+01
191;dlansy;128;0;1;1;0;1024;171;121;45056;45056;452867621;-4.022054e-01;0.000000e+00;3.633201e-01;2.235041e+01
192;dlansy;128;0;1;1;0;1024;171;121;45056;45056;1857962504;3.861964e-02;0.000000e+00;3.463550e-01;2.344518e+01
193;dlansy;128;0;1;1;0;1024;171;121;45056;45056;213801961;-1.863945e-02;0.000000e+00;3.472631e-01;2.338386e+01
194;dlansy;128;0;1;1;0;1024;171;121;45056;45056;648031326;2.911775e-01;0.000000e+00;3.405530e-01;2.384460e+01
195;dlansy;128;0;1;1;0;1024;171;121;45056;45056;1737518944;-4.808499e-01;0.000000e+00;3.533940e-01;2.297818e+01
196;dlansy;128;0;1;1;0;1024;171;121;45056;45056;110613202;-3.380140e-01;0.000000e+00;3.634660e-01;2.234144e+01
197;dlansy;128;0;1;1;0;1024;171;121;45056;45056;982936784;3.457331e-01;0.000000e+00;3.593478e-01;2.259747e+01
198;dlansy;128;0;1;1;0;1024;171;121;45056;45056;1486222842;4.200729e-01;0.000000e+00;3.437169e-01;2.362512e+01
199;dlansy;128;0;1;1;0;1024;171;121;45056;45056;255789528;4.026002e-01;0.000000e+00;3.506300e-01;2.315932e+01
200;dlansy;128;0;1;1;0;1024;171;121;47104;47104;1242608872;3.144040e-01;0.000000e+00;3.792701e-01;2.340110e+01
201;dlansy;128;0;1;1;0;1024;171;121;47104;47104;1277849958;-7.731044e-02;0.000000e+00;3.909860e-01;2.269988e+01
202;dlansy;128;0;1;1;0;1024;171;121;47104;47104;653448036;2.529461e-01;0.000000e+00;3.183880e-01;2.787585e+01
203;dlansy;128;0;1;1;0;1024;171;121;47104;47104;1023457753;4.253499e-01;0.000000e+00;3.270950e-01;2.713381e+01
204;dlansy;128;0;1;1;0;1024;171;121;47104;47104;1309383303;3.608416e-01;0.000000e+00;3.309820e-01;2.681516e+01
205;dlansy;128;0;1;1;0;1024;171;121;47104;47104;1329132133;-2.386045e-01;0.000000e+00;3.365951e-01;2.636799e+01
206;dlansy;128;0;1;1;0;1024;171;121;47104;47104;501772890;8.143046e-02;0.000000e+00;3.238668e-01;2.740427e+01
207;dlansy;128;0;1;1;0;1024;171;121;47104;47104;150517567;4.165643e-01;0.000000e+00;3.074410e-01;2.886842e+01
208;dlansy;128;0;1;1;0;1024;171;121;47104;47104;1983690368;-5.428046e-02;0.000000e+00;2.910700e-01;3.049210e+01
209;dlansy;128;0;1;1;0;1024;171;121;47104;47104;1034514500;3.618715e-01;0.000000e+00;2.893660e-01;3.067166e+01
210;dlansy;128;0;1;1;0;1024;171;121;49152;49152;1775473788;2.101964e-01;0.000000e+00;3.001020e-01;3.220196e+01
211;dlansy;128;0;1;1;0;1024;171;121;49152;49152;767066249;2.177558e-01;0.000000e+00;3.056810e-01;3.161424e+01
212;dlansy;128;0;1;1;0;1024;171;121;49152;49152;739273303;4.744193e-02;0.000000e+00;3.080790e-01;3.136816e+01
213;dlansy;128;0;1;1;0;1024;171;121;49152;49152;1415505363;-2.221872e-01;0.000000e+00;2.936831e-01;3.290579e+01
214;dlansy;128;0;1;1;0;1024;171;121;49152;49152;552910253;-4.765819e-01;0.000000e+00;3.107479e-01;3.109876e+01
215;dlansy;128;0;1;1;0;1024;171;121;49152;49152;1344247686;1.416166e-01;0.000000e+00;3.091440e-01;3.126010e+01
216;dlansy;128;0;1;1;0;1024;171;121;49152;49152;661761152;1.085222e-01;0.000000e+00;3.030939e-01;3.188409e+01
217;dlansy;128;0;1;1;0;1024;171;121;49152;49152;425245975;-2.107033e-01;0.000000e+00;3.031309e-01;3.188020e+01
218;dlansy;128;0;1;1;0;1024;171;121;49152;49152;235649157;3.456401e-01;0.000000e+00;2.980099e-01;3.242803e+01
219;dlansy;128;0;1;1;0;1024;171;121;49152;49152;1679895436;3.343596e-01;0.000000e+00;3.087459e-01;3.130041e+01
