Id;Function;threads;gpus;P;Q;mtxfmt;nb;uplo;n;nrhs;lda;ldb;seedA;seedB;tsub;time;gflops
0;dposv;128;0;1;1;1;300;121;900;1;900;900;1681692777;1714636915;0.000000e+00;1.202236e-02;2.038078e+01
1;dposv;128;0;1;1;1;300;121;900;1;900;900;1957747793;424238335;0.000000e+00;8.781341e-03;2.790293e+01
2;dposv;128;0;1;1;1;300;121;900;1;900;900;719885386;1649760492;0.000000e+00;1.076638e-02;2.275837e+01
3;dposv;128;0;1;1;1;300;121;900;1;900;900;596516649;1189641421;0.000000e+00;9.775036e-03;2.506642e+01
4;dposv;128;0;1;1;1;300;121;900;1;900;900;1025202362;1350490027;0.000000e+00;9.788962e-03;2.503076e+01
5;dposv;128;0;1;1;1;300;121;900;1;900;900;783368690;1102520059;0.000000e+00;9.250516e-03;2.648773e+01
6;dposv;128;0;1;1;1;300;121;900;1;900;900;2044897763;1967513926;0.000000e+00;9.275463e-03;2.641649e+01
7;dposv;128;0;1;1;1;300;121;900;1;900;900;1365180540;1540383426;0.000000e+00;9.281916e-03;2.639812e+01
8;dposv;128;0;1;1;1;300;121;900;1;900;900;304089172;1303455736;0.000000e+00;7.749215e-03;3.161935e+01
9;dposv;128;0;1;1;1;300;121;900;1;900;900;35005211;521595368;0.000000e+00;9.144129e-03;2.679590e+01
10;dposv;128;0;1;1;1;300;121;1800;1;1800;1800;294702567;1726956429;0.000000e+00;2.439307e-02;8.002683e+01
11;dposv;128;0;1;1;1;300;121;1800;1;1800;1800;336465782;861021530;0.000000e+00;2.341527e-02;8.336870e+01
12;dposv;128;0;1;1;1;300;121;1800;1;1800;1800;278722862;233665123;0.000000e+00;2.378077e-02;8.208735e+01
13;dposv;128;0;1;1;1;300;121;1800;1;1800;1800;2145174067;468703135;0.000000e+00;2.514132e-02;7.764510e+01
14;dposv;128;0;1;1;1;300;121;1800;1;1800;1800;1101513929;1801979802;0.000000e+00;2.397510e-02;8.142198e+01
15;dposv;128;0;1;1;1;300;121;1800;1;1800;1800;1315634022;635723058;0.000000e+00;4.241694e-02;4.602171e+01
16;dposv;128;0;1;1;1;300;121;1800;1;1800;1800;1369133069;1125898167;0.000000e+00;3.336828e-02;5.850167e+01
17;dposv;128;0;1;1;1;300;121;1800;1;1800;1800;1059961393;2089018456;0.000000e+00;2.024764e-02;9.641123e+01
18;dposv;128;0;1;1;1;300;121;1800;1;1800;1800;628175011;1656478042;0.000000e+00;2.535700e-02;7.698467e+01
19;dposv;128;0;1;1;1;300;121;1800;1;1800;1800;1131176229;1653377373;0.000000e+00;7.646938e-02;2.552787e+01
20;dposv;128;0;1;1;1;300;121;2700;1;2700;2700;859484421;1914544919;0.000000e+00;5.458800e-02;1.205251e+02
21;dposv;128;0;1;1;1;300;121;2700;1;2700;2700;608413784;756898537;0.000000e+00;4.168759e-02;1.578221e+02
22;dposv;128;0;1;1;1;300;121;2700;1;2700;2700;1734575198;1973594324;0.000000e+00;4.601832e-02;1.429697e+02
23;dposv;128;0;1;1;1;300;121;2700;1;2700;2700;149798315;2038664370;0.000000e+00;4.278957e-02;1.537577e+02
24;dposv;128;0;1;1;1;300;121;2700;1;2700;2700;1129566413;184803526;0.000000e+00;3.592184e-02;1.831539e+02
25;dposv;128;0;1;1;1;300;121;2700;1;2700;2700;412776091;1424268980;0.000000e+00;3.716550e-02;1.770251e+02
26;dposv;128;0;1;1;1;300;121;2700;1;2700;2700;1911759956;749241873;0.000000e+00;3.645201e-02;1.804901e+02
27;dposv;128;0;1;1;1;300;121;2700;1;2700;2700;137806862;42999170;0.000000e+00;4.334485e-02;1.517879e+02
28;dposv;128;0;1;1;1;300;121;2700;1;2700;2700;982906996;135497281;0.000000e+00;3.944284e-02;1.668040e+02
29;dposv;128;0;1;1;1;300;121;2700;1;2700;2700;511702305;2084420925;0.000000e+00;4.207058e-02;1.563854e+02
30;dposv;128;0;1;1;1;300;121;3600;1;3600;3600;1937477084;1827336327;0.000000e+00;5.561667e-02;2.802109e+02
31;dposv;128;0;1;1;1;300;121;3600;1;3600;3600;572660336;1159126505;0.000000e+00;4.983898e-02;3.126950e+02
32;dposv;128;0;1;1;1;300;121;3600;1;3600;3600;805750846;1632621729;0.000000e+00;6.365670e-02;2.448195e+02
33;dposv;128;0;1;1;1;300;121;3600;1;3600;3600;1100661313;1433925857;0.000000e+00;4.980932e-02;3.128812e+02
34;dposv;128;0;1;1;1;300;121;3600;1;3600;3600;1141616124;84353895;0.000000e+00;7.396557e-02;2.106980e+02
35;dposv;128;0;1;1;1;300;121;3600;1;3600;3600;939819582;2001100545;0.000000e+00;6.413341e-02;2.429997e+02
36;dposv;128;0;1;1;1;300;121;3600;1;3600;3600;1998898814;1548233367;0.000000e+00;5.886807e-02;2.647343e+02
37;dposv;128;0;1;1;1;300;121;3600;1;3600;3600;610515434;1585990364;0.000000e+00;6.863052e-02;2.270768e+02
38;dposv;128;0;1;1;1;300;121;3600;1;3600;3600;1374344043;760313750;0.000000e+00;5.579685e-02;2.793061e+02
39;dposv;128;0;1;1;1;300;121;3600;1;3600;3600;1477171087;356426808;0.000000e+00;6.383459e-02;2.441372e+02
40;dposv;128;0;1;1;1;300;121;4500;1;4500;4500;945117276;1889947178;0.000000e+00;8.202659e-02;3.709239e+02
41;dposv;128;0;1;1;1;300;121;4500;1;4500;4500;1780695788;709393584;0.000000e+00;6.488077e-02;4.689468e+02
42;dposv;128;0;1;1;1;300;121;4500;1;4500;4500;491705403;1918502651;0.000000e+00;6.536008e-02;4.655078e+02
43;dposv;128;0;1;1;1;300;121;4500;1;4500;4500;752392754;1474612399;0.000000e+00;7.425476e-02;4.097465e+02
44;dposv;128;0;1;1;1;300;121;4500;1;4500;4500;2053999932;1264095060;0.000000e+00;6.704065e-02;4.538385e+02
45;dposv;128;0;1;1;1;300;121;4500;1;4500;4500;1411549676;1843993368;0.000000e+00;6.882618e-02;4.420647e+02
46;dposv;128;0;1;1;1;300;121;4500;1;4500;4500;943947739;1984210012;0.000000e+00;6.801449e-02;4.473403e+02
47;dposv;128;0;1;1;1;300;121;4500;1;4500;4500;855636226;1749698586;0.000000e+00;8.006060e-02;3.800324e+02
48;dposv;128;0;1;1;1;300;121;4500;1;4500;4500;1469348094;1956297539;0.000000e+00;7.586272e-02;4.010616e+02
49;dposv;128;0;1;1;1;300;121;4500;1;4500;4500;1036140795;463480570;0.000000e+00;8.548900e-02;3.559011e+02
50;dposv;128;0;1;1;1;300;121;5400;1;5400;5400;2040651434;1975960378;0.000000e+00;8.841979e-02;5.944472e+02
51;dposv;128;0;1;1;1;300;121;5400;1;5400;5400;317097467;1892066601;0.000000e+00;8.684122e-02;6.052529e+02
52;dposv;128;0;1;1;1;300;121;5400;1;5400;5400;1376710097;927612902;0.000000e+00;8.816266e-02;5.961810e+02
53;dposv;128;0;1;1;1;300;121;5400;1;5400;5400;1330573317;603570492;0.000000e+00;8.433927e-02;6.232079e+02
54;dposv;128;0;1;1;1;300;121;5400;1;5400;5400;1687926652;660260756;0.000000e+00;9.358341e-02;5.616476e+02
55;dposv;128;0;1;1;1;300;121;5400;1;5400;5400;959997301;485560280;0.000000e+00;9.984608e-02;5.264193e+02
56;dposv;128;0;1;1;1;300;121;5400;1;5400;5400;402724286;593209441;0.000000e+00;8.594026e-02;6.115981e+02
57;dposv;128;0;1;1;1;300;121;5400;1;5400;5400;1194953865;894429689;0.000000e+00;9.181166e-02;5.724861e+02
58;dposv;128;0;1;1;1;300;121;5400;1;5400;5400;364228444;1947346619;0.000000e+00;1.279805e-01;4.106946e+02
59;dposv;128;0;1;1;1;300;121;5400;1;5400;5400;221558440;270744729;0.000000e+00;8.194982e-02;6.413791e+02
60;dposv;128;0;1;1;1;300;121;6300;1;6300;6300;1063958031;1633108117;0.000000e+00;1.152575e-01;7.240158e+02
61;dposv;128;0;1;1;1;300;121;6300;1;6300;6300;2114738097;2007905771;0.000000e+00;1.124325e-01;7.422076e+02
62;dposv;128;0;1;1;1;300;121;6300;1;6300;6300;1469834481;822890675;0.000000e+00;1.244006e-01;6.708025e+02
63;dposv;128;0;1;1;1;300;121;6300;1;6300;6300;1610120709;791698927;0.000000e+00;1.171130e-01;7.125447e+02
64;dposv;128;0;1;1;1;300;121;6300;1;6300;6300;631704567;498777856;0.000000e+00;1.035525e-01;8.058543e+02
65;dposv;128;0;1;1;1;300;121;6300;1;6300;6300;1255179497;524872353;0.000000e+00;2.055953e-01;4.058859e+02
66;dposv;128;0;1;1;1;300;121;6300;1;6300;6300;327254586;1572276965;0.000000e+00;1.267228e-01;6.585097e+02
67;dposv;128;0;1;1;1;300;121;6300;1;6300;6300;269455306;1703964683;0.000000e+00;9.913067e-02;8.418002e+02
68;dposv;128;0;1;1;1;300;121;6300;1;6300;6300;352406219;1600028624;0.000000e+00;1.110758e-01;7.512725e+02
69;dposv;128;0;1;1;1;300;121;6300;1;6300;6300;160051528;2040332871;0.000000e+00;1.016278e-01;8.211160e+02
70;dposv;128;0;1;1;1;300;121;7200;1;7200;7200;112805732;1120048829;0.000000e+00;1.323867e-01;9.407712e+02
71;dposv;128;0;1;1;1;300;121;7200;1;7200;7200;378409503;515530019;0.000000e+00;1.298244e-01;9.593387e+02
72;dposv;128;0;1;1;1;300;121;7200;1;7200;7200;1713258270;1573363368;0.000000e+00;1.454575e-01;8.562337e+02
73;dposv;128;0;1;1;1;300;121;7200;1;7200;7200;1409959708;2077486715;0.000000e+00;1.485085e-01;8.386428e+02
74;dposv;128;0;1;1;1;300;121;7200;1;7200;7200;1373226340;1631518149;0.000000e+00;1.477804e-01;8.427750e+02
75;dposv;128;0;1;1;1;300;121;7200;1;7200;7200;200747796;289700723;0.000000e+00;1.405531e-01;8.861107e+02
76;dposv;128;0;1;1;1;300;121;7200;1;7200;7200;1117142618;168002245;0.000000e+00;1.457879e-01;8.542929e+02
77;dposv;128;0;1;1;1;300;121;7200;1;7200;7200;150122846;439493451;0.000000e+00;1.416459e-01;8.792743e+02
78;dposv;128;0;1;1;1;300;121;7200;1;7200;7200;990892921;1760243555;0.000000e+00;1.315729e-01;9.465900e+02
79;dposv;128;0;1;1;1;300;121;7200;1;7200;7200;1231192379;1622597488;0.000000e+00;1.424205e-01;8.744923e+02
80;dposv;128;0;1;1;1;300;121;8100;1;8100;8100;111537764;338888228;0.000000e+00;2.259357e-01;7.847854e+02
81;dposv;128;0;1;1;1;300;121;8100;1;8100;8100;2147469841;438792350;0.000000e+00;1.557791e-01;1.138221e+03
82;dposv;128;0;1;1;1;300;121;8100;1;8100;8100;1911165193;269441500;0.000000e+00;1.686255e-01;1.051508e+03
83;dposv;128;0;1;1;1;300;121;8100;1;8100;8100;2142757034;116087764;0.000000e+00;1.737446e-01;1.020527e+03
84;dposv;128;0;1;1;1;300;121;8100;1;8100;8100;1869470124;155324914;0.000000e+00;1.546720e-01;1.146368e+03
85;dposv;128;0;1;1;1;300;121;8100;1;8100;8100;8936987;1982275856;0.000000e+00;1.565636e-01;1.132517e+03
86;dposv;128;0;1;1;1;300;121;8100;1;8100;8100;1275373743;387346491;0.000000e+00;1.739283e-01;1.019449e+03
87;dposv;128;0;1;1;1;300;121;8100;1;8100;8100;350322227;841148365;0.000000e+00;1.608812e-01;1.102124e+03
88;dposv;128;0;1;1;1;300;121;8100;1;8100;8100;1960709859;1760281936;0.000000e+00;1.590875e-01;1.114550e+03
89;dposv;128;0;1;1;1;300;121;8100;1;8100;8100;771151432;1186452551;0.000000e+00;1.667919e-01;1.063068e+03
90;dposv;128;0;1;1;1;300;121;9000;1;9000;9000;1244316437;971899228;0.000000e+00;1.964809e-01;1.237792e+03
91;dposv;128;0;1;1;1;300;121;9000;1;9000;9000;1476153275;213975407;0.000000e+00;1.831947e-01;1.327563e+03
92;dposv;128;0;1;1;1;300;121;9000;1;9000;9000;1139901474;1626276121;0.000000e+00;1.951849e-01;1.246011e+03
93;dposv;128;0;1;1;1;300;121;9000;1;9000;9000;653468858;2130794395;0.000000e+00;1.903579e-01;1.277606e+03
94;dposv;128;0;1;1;1;300;121;9000;1;9000;9000;1239036029;1884661237;0.000000e+00;1.959674e-01;1.241035e+03
95;dposv;128;0;1;1;1;300;121;9000;1;9000;9000;1605908235;1350573793;0.000000e+00;2.090048e-01;1.163622e+03
96;dposv;128;0;1;1;1;300;121;9000;1;9000;9000;76065818;1605894428;0.000000e+00;1.990915e-01;1.221562e+03
97;dposv;128;0;1;1;1;300;121;9000;1;9000;9000;1789366143;1987231011;0.000000e+00;2.393615e-01;1.016047e+03
98;dposv;128;0;1;1;1;300;121;9000;1;9000;9000;1875335928;1784639529;0.000000e+00;1.945703e-01;1.249947e+03
99;dposv;128;0;1;1;1;300;121;9000;1;9000;9000;2103318776;1597322404;0.000000e+00;1.901322e-01;1.279123e+03
0;dposv;128;0;1;1;1;300;121;9900;1;9900;9900;1681692777;1714636915;0.000000e+00;2.580985e-01;1.254087e+03
1;dposv;128;0;1;1;1;300;121;9900;1;9900;9900;1957747793;424238335;0.000000e+00;2.769563e-01;1.168697e+03
2;dposv;128;0;1;1;1;300;121;9900;1;9900;9900;719885386;1649760492;0.000000e+00;2.167523e-01;1.493309e+03
3;dposv;128;0;1;1;1;300;121;9900;1;9900;9900;596516649;1189641421;0.000000e+00;2.485952e-01;1.302028e+03
4;dposv;128;0;1;1;1;300;121;9900;1;9900;9900;1025202362;1350490027;0.000000e+00;2.825465e-01;1.145574e+03
5;dposv;128;0;1;1;1;300;121;9900;1;9900;9900;783368690;1102520059;0.000000e+00;2.289730e-01;1.413608e+03
6;dposv;128;0;1;1;1;300;121;9900;1;9900;9900;2044897763;1967513926;0.000000e+00;2.293283e-01;1.411418e+03
7;dposv;128;0;1;1;1;300;121;9900;1;9900;9900;1365180540;1540383426;0.000000e+00;2.218723e-01;1.458848e+03
8;dposv;128;0;1;1;1;300;121;9900;1;9900;9900;304089172;1303455736;0.000000e+00;2.280230e-01;1.419497e+03
9;dposv;128;0;1;1;1;300;121;9900;1;9900;9900;35005211;521595368;0.000000e+00;2.945533e-01;1.098877e+03
10;dposv;128;0;1;1;1;300;121;12300;1;12300;12300;294702567;1726956429;0.000000e+00;3.823108e-01;1.623463e+03
11;dposv;128;0;1;1;1;300;121;12300;1;12300;12300;336465782;861021530;0.000000e+00;3.785341e-01;1.639660e+03
12;dposv;128;0;1;1;1;300;121;12300;1;12300;12300;278722862;233665123;0.000000e+00;3.433487e-01;1.807687e+03
13;dposv;128;0;1;1;1;300;121;12300;1;12300;12300;2145174067;468703135;0.000000e+00;4.061635e-01;1.528122e+03
14;dposv;128;0;1;1;1;300;121;12300;1;12300;12300;1101513929;1801979802;0.000000e+00;3.537790e-01;1.754393e+03
15;dposv;128;0;1;1;1;300;121;12300;1;12300;12300;1315634022;635723058;0.000000e+00;3.456092e-01;1.795864e+03
16;dposv;128;0;1;1;1;300;121;12300;1;12300;12300;1369133069;1125898167;0.000000e+00;3.686312e-01;1.683708e+03
17;dposv;128;0;1;1;1;300;121;12300;1;12300;12300;1059961393;2089018456;0.000000e+00;3.728459e-01;1.664675e+03
18;dposv;128;0;1;1;1;300;121;12300;1;12300;12300;628175011;1656478042;0.000000e+00;5.104044e-01;1.216030e+03
19;dposv;128;0;1;1;1;300;121;12300;1;12300;12300;1131176229;1653377373;0.000000e+00;3.779154e-01;1.642344e+03
20;dposv;128;0;1;1;1;300;121;14700;1;14700;14700;859484421;1914544919;0.000000e+00;5.348014e-01;1.980887e+03
21;dposv;128;0;1;1;1;300;121;14700;1;14700;14700;608413784;756898537;0.000000e+00;5.470051e-01;1.936693e+03
22;dposv;128;0;1;1;1;300;121;14700;1;14700;14700;1734575198;1973594324;0.000000e+00;5.736365e-01;1.846781e+03
23;dposv;128;0;1;1;1;300;121;14700;1;14700;14700;149798315;2038664370;0.000000e+00;5.811166e-01;1.823010e+03
24;dposv;128;0;1;1;1;300;121;14700;1;14700;14700;1129566413;184803526;0.000000e+00;5.422148e-01;1.953803e+03
25;dposv;128;0;1;1;1;300;121;14700;1;14700;14700;412776091;1424268980;0.000000e+00;5.731676e-01;1.848292e+03
26;dposv;128;0;1;1;1;300;121;14700;1;14700;14700;1911759956;749241873;0.000000e+00;6.005427e-01;1.764040e+03
27;dposv;128;0;1;1;1;300;121;14700;1;14700;14700;137806862;42999170;0.000000e+00;5.822918e-01;1.819330e+03
28;dposv;128;0;1;1;1;300;121;14700;1;14700;14700;982906996;135497281;0.000000e+00;5.510767e-01;1.922384e+03
29;dposv;128;0;1;1;1;300;121;14700;1;14700;14700;511702305;2084420925;0.000000e+00;5.626301e-01;1.882909e+03
30;dposv;128;0;1;1;1;300;121;17100;1;17100;17100;1937477084;1827336327;0.000000e+00;8.570863e-01;1.945508e+03
31;dposv;128;0;1;1;1;300;121;17100;1;17100;17100;572660336;1159126505;0.000000e+00;8.475007e-01;1.967512e+03
32;dposv;128;0;1;1;1;300;121;17100;1;17100;17100;805750846;1632621729;0.000000e+00;9.254053e-01;1.801879e+03
33;dposv;128;0;1;1;1;300;121;17100;1;17100;17100;1100661313;1433925857;0.000000e+00;7.757759e-01;2.149420e+03
34;dposv;128;0;1;1;1;300;121;17100;1;17100;17100;1141616124;84353895;0.000000e+00;8.198218e-01;2.033940e+03
35;dposv;128;0;1;1;1;300;121;17100;1;17100;17100;939819582;2001100545;0.000000e+00;8.519348e-01;1.957272e+03
36;dposv;128;0;1;1;1;300;121;17100;1;17100;17100;1998898814;1548233367;0.000000e+00;8.032295e-01;2.075955e+03
37;dposv;128;0;1;1;1;300;121;17100;1;17100;17100;610515434;1585990364;0.000000e+00;8.591711e-01;1.940787e+03
38;dposv;128;0;1;1;1;300;121;17100;1;17100;17100;1374344043;760313750;0.000000e+00;8.145108e-01;2.047202e+03
39;dposv;128;0;1;1;1;300;121;17100;1;17100;17100;1477171087;356426808;0.000000e+00;8.158712e-01;2.043788e+03
40;dposv;128;0;1;1;1;300;121;19500;1;19500;19500;945117276;1889947178;0.000000e+00;1.195322e+00;2.068543e+03
41;dposv;128;0;1;1;1;300;121;19500;1;19500;19500;1780695788;709393584;0.000000e+00;1.169823e+00;2.113633e+03
42;dposv;128;0;1;1;1;300;121;19500;1;19500;19500;491705403;1918502651;0.000000e+00;1.133599e+00;2.181172e+03
43;dposv;128;0;1;1;1;300;121;19500;1;19500;19500;752392754;1474612399;0.000000e+00;1.215406e+00;2.034362e+03
44;dposv;128;0;1;1;1;300;121;19500;1;19500;19500;2053999932;1264095060;0.000000e+00;1.161992e+00;2.127877e+03
45;dposv;128;0;1;1;1;300;121;19500;1;19500;19500;1411549676;1843993368;0.000000e+00;1.124914e+00;2.198014e+03
46;dposv;128;0;1;1;1;300;121;19500;1;19500;19500;943947739;1984210012;0.000000e+00;1.201221e+00;2.058386e+03
47;dposv;128;0;1;1;1;300;121;19500;1;19500;19500;855636226;1749698586;0.000000e+00;1.183575e+00;2.089074e+03
48;dposv;128;0;1;1;1;300;121;19500;1;19500;19500;1469348094;1956297539;0.000000e+00;1.153433e+00;2.143667e+03
49;dposv;128;0;1;1;1;300;121;19500;1;19500;19500;1036140795;463480570;0.000000e+00;1.224072e+00;2.019959e+03
50;dposv;128;0;1;1;1;300;121;21900;1;21900;21900;2040651434;1975960378;0.000000e+00;1.591738e+00;2.200332e+03
51;dposv;128;0;1;1;1;300;121;21900;1;21900;21900;317097467;1892066601;0.000000e+00;1.691762e+00;2.070239e+03
52;dposv;128;0;1;1;1;300;121;21900;1;21900;21900;1376710097;927612902;0.000000e+00;1.616967e+00;2.166001e+03
53;dposv;128;0;1;1;1;300;121;21900;1;21900;21900;1330573317;603570492;0.000000e+00;1.691954e+00;2.070004e+03
54;dposv;128;0;1;1;1;300;121;21900;1;21900;21900;1687926652;660260756;0.000000e+00;1.604201e+00;2.183238e+03
55;dposv;128;0;1;1;1;300;121;21900;1;21900;21900;959997301;485560280;0.000000e+00;1.615007e+00;2.168630e+03
56;dposv;128;0;1;1;1;300;121;21900;1;21900;21900;402724286;593209441;0.000000e+00;1.655229e+00;2.115932e+03
57;dposv;128;0;1;1;1;300;121;21900;1;21900;21900;1194953865;894429689;0.000000e+00;1.644026e+00;2.130351e+03
58;dposv;128;0;1;1;1;300;121;21900;1;21900;21900;364228444;1947346619;0.000000e+00;1.706154e+00;2.052776e+03
59;dposv;128;0;1;1;1;300;121;21900;1;21900;21900;221558440;270744729;0.000000e+00;1.619366e+00;2.162792e+03
60;dposv;128;0;1;1;1;300;121;24300;1;24300;24300;1063958031;1633108117;0.000000e+00;2.224467e+00;2.150828e+03
61;dposv;128;0;1;1;1;300;121;24300;1;24300;24300;2114738097;2007905771;0.000000e+00;2.145420e+00;2.230074e+03
62;dposv;128;0;1;1;1;300;121;24300;1;24300;24300;1469834481;822890675;0.000000e+00;2.023214e+00;2.364775e+03
63;dposv;128;0;1;1;1;300;121;24300;1;24300;24300;1610120709;791698927;0.000000e+00;2.165291e+00;2.209608e+03
64;dposv;128;0;1;1;1;300;121;24300;1;24300;24300;631704567;498777856;0.000000e+00;2.243988e+00;2.132117e+03
65;dposv;128;0;1;1;1;300;121;24300;1;24300;24300;1255179497;524872353;0.000000e+00;2.299839e+00;2.080339e+03
66;dposv;128;0;1;1;1;300;121;24300;1;24300;24300;327254586;1572276965;0.000000e+00;2.291026e+00;2.088341e+03
67;dposv;128;0;1;1;1;300;121;24300;1;24300;24300;269455306;1703964683;0.000000e+00;2.174871e+00;2.199876e+03
68;dposv;128;0;1;1;1;300;121;24300;1;24300;24300;352406219;1600028624;0.000000e+00;2.189063e+00;2.185613e+03
69;dposv;128;0;1;1;1;300;121;24300;1;24300;24300;160051528;2040332871;0.000000e+00;2.160587e+00;2.214419e+03
70;dposv;128;0;1;1;1;300;121;26700;1;26700;26700;112805732;1120048829;0.000000e+00;2.919350e+00;2.173944e+03
71;dposv;128;0;1;1;1;300;121;26700;1;26700;26700;378409503;515530019;0.000000e+00;2.888905e+00;2.196854e+03
72;dposv;128;0;1;1;1;300;121;26700;1;26700;26700;1713258270;1573363368;0.000000e+00;3.041676e+00;2.086515e+03
73;dposv;128;0;1;1;1;300;121;26700;1;26700;26700;1409959708;2077486715;0.000000e+00;3.121495e+00;2.033161e+03
74;dposv;128;0;1;1;1;300;121;26700;1;26700;26700;1373226340;1631518149;0.000000e+00;2.919840e+00;2.173579e+03
75;dposv;128;0;1;1;1;300;121;26700;1;26700;26700;200747796;289700723;0.000000e+00;2.922948e+00;2.171268e+03
76;dposv;128;0;1;1;1;300;121;26700;1;26700;26700;1117142618;168002245;0.000000e+00;2.948087e+00;2.152753e+03
77;dposv;128;0;1;1;1;300;121;26700;1;26700;26700;150122846;439493451;0.000000e+00;2.950939e+00;2.150672e+03
78;dposv;128;0;1;1;1;300;121;26700;1;26700;26700;990892921;1760243555;0.000000e+00;2.937847e+00;2.160257e+03
79;dposv;128;0;1;1;1;300;121;26700;1;26700;26700;1231192379;1622597488;0.000000e+00;2.957688e+00;2.145765e+03
80;dposv;128;0;1;1;1;300;121;29100;1;29100;29100;111537764;338888228;0.000000e+00;3.860363e+00;2.128342e+03
81;dposv;128;0;1;1;1;300;121;29100;1;29100;29100;2147469841;438792350;0.000000e+00;3.719842e+00;2.208743e+03
82;dposv;128;0;1;1;1;300;121;29100;1;29100;29100;1911165193;269441500;0.000000e+00;3.770357e+00;2.179150e+03
83;dposv;128;0;1;1;1;300;121;29100;1;29100;29100;2142757034;116087764;0.000000e+00;3.759486e+00;2.185451e+03
84;dposv;128;0;1;1;1;300;121;29100;1;29100;29100;1869470124;155324914;0.000000e+00;3.818432e+00;2.151714e+03
85;dposv;128;0;1;1;1;300;121;29100;1;29100;29100;8936987;1982275856;0.000000e+00;3.739639e+00;2.197050e+03
86;dposv;128;0;1;1;1;300;121;29100;1;29100;29100;1275373743;387346491;0.000000e+00;3.769628e+00;2.179571e+03
87;dposv;128;0;1;1;1;300;121;29100;1;29100;29100;350322227;841148365;0.000000e+00;3.854791e+00;2.131419e+03
88;dposv;128;0;1;1;1;300;121;29100;1;29100;29100;1960709859;1760281936;0.000000e+00;3.813019e+00;2.154769e+03
89;dposv;128;0;1;1;1;300;121;29100;1;29100;29100;771151432;1186452551;0.000000e+00;3.884553e+00;2.115088e+03
