Id;Function;threads;gpus;P;Q;mtxfmt;nb;norm;uplo;n;lda;seedA;bump;tsub;time;gflops
0;dlansy;128;0;1;1;0;1024;171;121;1024;1024;1681692777;4.254358e-01;0.000000e+00;4.978180e-04;8.433604e+00
1;dlansy;128;0;1;1;0;1024;171;121;1024;1024;1957747793;4.892778e-01;0.000000e+00;5.049706e-04;8.314148e+00
2;dlansy;128;0;1;1;0;1024;171;121;1024;1024;719885386;3.777180e-01;0.000000e+00;4.990101e-04;8.413457e+00
3;dlansy;128;0;1;1;0;1024;171;121;1024;1024;596516649;-3.517510e-01;0.000000e+00;5.009174e-04;8.381421e+00
4;dlansy;128;0;1;1;0;1024;171;121;1024;1024;1025202362;4.000452e-01;0.000000e+00;5.049706e-04;8.314148e+00
5;dlansy;128;0;1;1;0;1024;171;121;1024;1024;783368690;3.744478e-01;0.000000e+00;5.071163e-04;8.278968e+00
6;dlansy;128;0;1;1;0;1024;171;121;1024;1024;2044897763;4.141058e-01;0.000000e+00;8.149147e-04;5.151950e+00
7;dlansy;128;0;1;1;0;1024;171;121;1024;1024;1365180540;-1.381986e-01;0.000000e+00;5.121231e-04;8.198029e+00
8;dlansy;128;0;1;1;0;1024;171;121;1024;1024;304089172;2.200654e-01;0.000000e+00;5.030632e-04;8.345671e+00
9;dlansy;128;0;1;1;0;1024;171;121;1024;1024;35005211;-1.757242e-01;0.000000e+00;5.049706e-04;8.314148e+00
10;dlansy;128;0;1;1;0;1024;171;121;2048;2048;294702567;-3.976154e-01;0.000000e+00;3.139973e-03;5.345718e+00
11;dlansy;128;0;1;1;0;1024;171;121;2048;2048;336465782;4.797187e-01;0.000000e+00;1.010180e-03;1.661626e+01
12;dlansy;128;0;1;1;0;1024;171;121;2048;2048;278722862;-3.098429e-01;0.000000e+00;1.144886e-03;1.466120e+01
13;dlansy;128;0;1;1;0;1024;171;121;2048;2048;2145174067;4.597866e-01;0.000000e+00;9.920597e-04;1.691976e+01
14;dlansy;128;0;1;1;0;1024;171;121;2048;2048;1101513929;3.332689e-02;0.000000e+00;1.001120e-03;1.676664e+01
15;dlansy;128;0;1;1;0;1024;171;121;2048;2048;1315634022;-3.123134e-01;0.000000e+00;1.037836e-03;1.617347e+01
16;dlansy;128;0;1;1;0;1024;171;121;2048;2048;1369133069;-2.396071e-01;0.000000e+00;1.412868e-03;1.188038e+01
17;dlansy;128;0;1;1;0;1024;171;121;2048;2048;1059961393;-4.405380e-01;0.000000e+00;1.120090e-03;1.498576e+01
18;dlansy;128;0;1;1;0;1024;171;121;2048;2048;628175011;-8.299381e-02;0.000000e+00;9.999275e-04;1.678662e+01
19;dlansy;128;0;1;1;0;1024;171;121;2048;2048;1131176229;-4.098657e-01;0.000000e+00;1.008034e-03;1.665163e+01
20;dlansy;128;0;1;1;0;1024;171;121;3072;3072;859484421;4.760135e-01;0.000000e+00;1.561880e-03;2.417665e+01
21;dlansy;128;0;1;1;0;1024;171;121;3072;3072;608413784;-2.172434e-01;0.000000e+00;1.745939e-03;2.162791e+01
22;dlansy;128;0;1;1;0;1024;171;121;3072;3072;1734575198;3.559216e-01;0.000000e+00;2.029181e-03;1.860900e+01
23;dlansy;128;0;1;1;0;1024;171;121;3072;3072;149798315;-3.746092e-01;0.000000e+00;1.867056e-03;2.022490e+01
24;dlansy;128;0;1;1;0;1024;171;121;3072;3072;1129566413;3.212047e-02;0.000000e+00;1.675129e-03;2.254216e+01
25;dlansy;128;0;1;1;0;1024;171;121;3072;3072;412776091;-3.302276e-01;0.000000e+00;2.059937e-03;1.833116e+01
26;dlansy;128;0;1;1;0;1024;171;121;3072;3072;1911759956;1.752074e-01;0.000000e+00;1.908064e-03;1.979023e+01
27;dlansy;128;0;1;1;0;1024;171;121;3072;3072;137806862;2.019681e-01;0.000000e+00;1.594067e-03;2.368849e+01
28;dlansy;128;0;1;1;0;1024;171;121;3072;3072;982906996;2.243788e-01;0.000000e+00;1.273870e-03;2.964275e+01
29;dlansy;128;0;1;1;0;1024;171;121;3072;3072;511702305;-1.333755e-01;0.000000e+00;1.534939e-03;2.460100e+01
30;dlansy;128;0;1;1;0;1024;171;121;4096;4096;1937477084;-3.694056e-01;0.000000e+00;3.583908e-03;1.872962e+01
31;dlansy;128;0;1;1;0;1024;171;121;4096;4096;572660336;-1.501402e-01;0.000000e+00;2.285004e-03;2.937643e+01
32;dlansy;128;0;1;1;0;1024;171;121;4096;4096;805750846;-1.383824e-01;0.000000e+00;3.872871e-03;1.733217e+01
33;dlansy;128;0;1;1;0;1024;171;121;4096;4096;1100661313;7.019839e-02;0.000000e+00;3.066063e-03;2.189298e+01
34;dlansy;128;0;1;1;0;1024;171;121;4096;4096;1141616124;-2.465265e-01;0.000000e+00;2.326012e-03;2.885852e+01
35;dlansy;128;0;1;1;0;1024;171;121;4096;4096;939819582;2.290667e-01;0.000000e+00;4.941940e-03;1.358277e+01
36;dlansy;128;0;1;1;0;1024;171;121;4096;4096;1998898814;-2.416937e-01;0.000000e+00;2.316952e-03;2.897136e+01
37;dlansy;128;0;1;1;0;1024;171;121;4096;4096;610515434;2.529978e-01;0.000000e+00;3.376961e-03;1.987741e+01
38;dlansy;128;0;1;1;0;1024;171;121;4096;4096;1374344043;-2.102271e-01;0.000000e+00;2.058029e-03;3.261628e+01
39;dlansy;128;0;1;1;0;1024;171;121;4096;4096;1477171087;-1.733443e-01;0.000000e+00;3.927946e-03;1.708915e+01
40;dlansy;128;0;1;1;0;1024;171;121;5120;5120;945117276;5.373797e-02;0.000000e+00;3.994942e-03;2.625272e+01
41;dlansy;128;0;1;1;0;1024;171;121;5120;5120;1780695788;-4.132594e-01;0.000000e+00;4.712105e-03;2.225716e+01
42;dlansy;128;0;1;1;0;1024;171;121;5120;5120;491705403;-2.237386e-01;0.000000e+00;3.823996e-03;2.742631e+01
43;dlansy;128;0;1;1;0;1024;171;121;5120;5120;752392754;-3.676393e-01;0.000000e+00;4.235983e-03;2.475885e+01
44;dlansy;128;0;1;1;0;1024;171;121;5120;5120;2053999932;-4.222437e-01;0.000000e+00;4.374981e-03;2.397224e+01
45;dlansy;128;0;1;1;0;1024;171;121;5120;5120;1411549676;3.886879e-01;0.000000e+00;4.214048e-03;2.488773e+01
46;dlansy;128;0;1;1;0;1024;171;121;5120;5120;943947739;1.866877e-01;0.000000e+00;7.933855e-03;1.321906e+01
47;dlansy;128;0;1;1;0;1024;171;121;5120;5120;855636226;-2.672705e-01;0.000000e+00;4.575014e-03;2.292410e+01
48;dlansy;128;0;1;1;0;1024;171;121;5120;5120;1469348094;-2.187391e-01;0.000000e+00;4.530907e-03;2.314726e+01
49;dlansy;128;0;1;1;0;1024;171;121;5120;5120;1036140795;-4.443388e-01;0.000000e+00;4.539967e-03;2.310107e+01
0;dlansy;128;0;1;1;0;1024;171;121;6144;6144;1681692777;4.254358e-01;0.000000e+00;1.619816e-02;9.323253e+00
1;dlansy;128;0;1;1;0;1024;171;121;6144;6144;1957747793;4.892778e-01;0.000000e+00;8.133173e-03;1.856834e+01
2;dlansy;128;0;1;1;0;1024;171;121;6144;6144;719885386;3.777180e-01;0.000000e+00;5.542040e-03;2.724981e+01
3;dlansy;128;0;1;1;0;1024;171;121;6144;6144;596516649;-3.517510e-01;0.000000e+00;1.720309e-02;8.778626e+00
4;dlansy;128;0;1;1;0;1024;171;121;6144;6144;1025202362;4.000452e-01;0.000000e+00;8.469105e-03;1.783182e+01
5;dlansy;128;0;1;1;0;1024;171;121;6144;6144;783368690;3.744478e-01;0.000000e+00;8.553028e-03;1.765685e+01
6;dlansy;128;0;1;1;0;1024;171;121;6144;6144;2044897763;4.141058e-01;0.000000e+00;1.349306e-02;1.119238e+01
7;dlansy;128;0;1;1;0;1024;171;121;6144;6144;1365180540;-1.381986e-01;0.000000e+00;6.741047e-03;2.240298e+01
8;dlansy;128;0;1;1;0;1024;171;121;6144;6144;304089172;2.200654e-01;0.000000e+00;5.586863e-03;2.703119e+01
9;dlansy;128;0;1;1;0;1024;171;121;6144;6144;35005211;-1.757242e-01;0.000000e+00;7.344007e-03;2.056364e+01
10;dlansy;128;0;1;1;0;1024;171;121;8192;8192;294702567;-3.976154e-01;0.000000e+00;2.097201e-02;1.280126e+01
11;dlansy;128;0;1;1;0;1024;171;121;8192;8192;336465782;4.797187e-01;0.000000e+00;1.566601e-02;1.713699e+01
12;dlansy;128;0;1;1;0;1024;171;121;8192;8192;278722862;-3.098429e-01;0.000000e+00;1.908112e-02;1.406984e+01
13;dlansy;128;0;1;1;0;1024;171;121;8192;8192;2145174067;4.597866e-01;0.000000e+00;2.289414e-02;1.172650e+01
14;dlansy;128;0;1;1;0;1024;171;121;8192;8192;1101513929;3.332689e-02;0.000000e+00;1.471591e-02;1.824340e+01
15;dlansy;128;0;1;1;0;1024;171;121;8192;8192;1315634022;-3.123134e-01;0.000000e+00;1.477718e-02;1.816775e+01
16;dlansy;128;0;1;1;0;1024;171;121;8192;8192;1369133069;-2.396071e-01;0.000000e+00;1.576996e-02;1.702403e+01
17;dlansy;128;0;1;1;0;1024;171;121;8192;8192;1059961393;-4.405380e-01;0.000000e+00;1.636600e-02;1.640402e+01
18;dlansy;128;0;1;1;0;1024;171;121;8192;8192;628175011;-8.299381e-02;0.000000e+00;1.514697e-02;1.772422e+01
19;dlansy;128;0;1;1;0;1024;171;121;8192;8192;1131176229;-4.098657e-01;0.000000e+00;1.588702e-02;1.689859e+01
20;dlansy;128;0;1;1;0;1024;171;121;10240;10240;859484421;4.760135e-01;0.000000e+00;2.370095e-02;1.769850e+01
21;dlansy;128;0;1;1;0;1024;171;121;10240;10240;608413784;-2.172434e-01;0.000000e+00;2.792096e-02;1.502353e+01
22;dlansy;128;0;1;1;0;1024;171;121;10240;10240;1734575198;3.559216e-01;0.000000e+00;2.799606e-02;1.498323e+01
23;dlansy;128;0;1;1;0;1024;171;121;10240;10240;149798315;-3.746092e-01;0.000000e+00;2.922392e-02;1.435370e+01
24;dlansy;128;0;1;1;0;1024;171;121;10240;10240;1129566413;3.212047e-02;0.000000e+00;2.794719e-02;1.500943e+01
25;dlansy;128;0;1;1;0;1024;171;121;10240;10240;412776091;-3.302276e-01;0.000000e+00;2.304602e-02;1.820147e+01
26;dlansy;128;0;1;1;0;1024;171;121;10240;10240;1911759956;1.752074e-01;0.000000e+00;2.480578e-02;1.691022e+01
27;dlansy;128;0;1;1;0;1024;171;121;10240;10240;137806862;2.019681e-01;0.000000e+00;2.337313e-02;1.794674e+01
28;dlansy;128;0;1;1;0;1024;171;121;10240;10240;982906996;2.243788e-01;0.000000e+00;2.617216e-02;1.602739e+01
29;dlansy;128;0;1;1;0;1024;171;121;10240;10240;511702305;-1.333755e-01;0.000000e+00;2.736902e-02;1.532650e+01
30;dlansy;128;0;1;1;0;1024;171;121;12288;12288;1937477084;-3.694056e-01;0.000000e+00;3.386402e-02;1.783689e+01
31;dlansy;128;0;1;1;0;1024;171;121;12288;12288;572660336;-1.501402e-01;0.000000e+00;2.937222e-02;2.056464e+01
32;dlansy;128;0;1;1;0;1024;171;121;12288;12288;805750846;-1.383824e-01;0.000000e+00;3.758311e-02;1.607182e+01
33;dlansy;128;0;1;1;0;1024;171;121;12288;12288;1100661313;7.019839e-02;0.000000e+00;3.355503e-02;1.800114e+01
34;dlansy;128;0;1;1;0;1024;171;121;12288;12288;1141616124;-2.465265e-01;0.000000e+00;3.346109e-02;1.805168e+01
35;dlansy;128;0;1;1;0;1024;171;121;12288;12288;939819582;2.290667e-01;0.000000e+00;3.463483e-02;1.743993e+01
36;dlansy;128;0;1;1;0;1024;171;121;12288;12288;1998898814;-2.416937e-01;0.000000e+00;3.610682e-02;1.672894e+01
37;dlansy;128;0;1;1;0;1024;171;121;12288;12288;610515434;2.529978e-01;0.000000e+00;3.822994e-02;1.579989e+01
38;dlansy;128;0;1;1;0;1024;171;121;12288;12288;1374344043;-2.102271e-01;0.000000e+00;3.461409e-02;1.745038e+01
39;dlansy;128;0;1;1;0;1024;171;121;12288;12288;1477171087;-1.733443e-01;0.000000e+00;3.191710e-02;1.892493e+01
40;dlansy;128;0;1;1;0;1024;171;121;14336;14336;945117276;5.373797e-02;0.000000e+00;4.409003e-02;1.864687e+01
41;dlansy;128;0;1;1;0;1024;171;121;14336;14336;1780695788;-4.132594e-01;0.000000e+00;3.988218e-02;2.061424e+01
42;dlansy;128;0;1;1;0;1024;171;121;14336;14336;491705403;-2.237386e-01;0.000000e+00;5.039001e-02;1.631556e+01
43;dlansy;128;0;1;1;0;1024;171;121;14336;14336;752392754;-3.676393e-01;0.000000e+00;4.220700e-02;1.947878e+01
44;dlansy;128;0;1;1;0;1024;171;121;14336;14336;2053999932;-4.222437e-01;0.000000e+00;4.198098e-02;1.958365e+01
45;dlansy;128;0;1;1;0;1024;171;121;14336;14336;1411549676;3.886879e-01;0.000000e+00;4.732108e-02;1.737367e+01
46;dlansy;128;0;1;1;0;1024;171;121;14336;14336;943947739;1.866877e-01;0.000000e+00;4.180193e-02;1.966754e+01
47;dlansy;128;0;1;1;0;1024;171;121;14336;14336;855636226;-2.672705e-01;0.000000e+00;5.340195e-02;1.539534e+01
48;dlansy;128;0;1;1;0;1024;171;121;14336;14336;1469348094;-2.187391e-01;0.000000e+00;4.805398e-02;1.710870e+01
49;dlansy;128;0;1;1;0;1024;171;121;14336;14336;1036140795;-4.443388e-01;0.000000e+00;4.195118e-02;1.959756e+01
50;dlansy;128;0;1;1;0;1024;171;121;16384;16384;2040651434;-4.033480e-01;0.000000e+00;5.367303e-02;2.000646e+01
51;dlansy;128;0;1;1;0;1024;171;121;16384;16384;317097467;-1.054364e-01;0.000000e+00;6.958699e-02;1.543115e+01
52;dlansy;128;0;1;1;0;1024;171;121;16384;16384;1376710097;-7.005727e-02;0.000000e+00;5.526090e-02;1.943159e+01
53;dlansy;128;0;1;1;0;1024;171;121;16384;16384;1330573317;1.333576e-02;0.000000e+00;5.086899e-02;2.110927e+01
54;dlansy;128;0;1;1;0;1024;171;121;16384;16384;1687926652;1.623906e-01;0.000000e+00;4.944301e-02;2.171808e+01
55;dlansy;128;0;1;1;0;1024;171;121;16384;16384;959997301;7.965982e-02;0.000000e+00;5.142307e-02;2.088182e+01
56;dlansy;128;0;1;1;0;1024;171;121;16384;16384;402724286;4.667617e-01;0.000000e+00;5.186296e-02;2.070471e+01
57;dlansy;128;0;1;1;0;1024;171;121;16384;16384;1194953865;-1.382589e-02;0.000000e+00;4.935503e-02;2.175680e+01
58;dlansy;128;0;1;1;0;1024;171;121;16384;16384;364228444;-4.175981e-01;0.000000e+00;6.024694e-02;1.782343e+01
59;dlansy;128;0;1;1;0;1024;171;121;16384;16384;221558440;3.770548e-01;0.000000e+00;5.416608e-02;1.982435e+01
60;dlansy;128;0;1;1;0;1024;171;121;18432;18432;1063958031;2.509115e-01;0.000000e+00;6.038904e-02;2.250455e+01
61;dlansy;128;0;1;1;0;1024;171;121;18432;18432;2114738097;-4.980996e-01;0.000000e+00;5.768704e-02;2.355864e+01
62;dlansy;128;0;1;1;0;1024;171;121;18432;18432;1469834481;1.376819e-01;0.000000e+00;5.941010e-02;2.287538e+01
63;dlansy;128;0;1;1;0;1024;171;121;18432;18432;1610120709;-3.776547e-01;0.000000e+00;5.854106e-02;2.321496e+01
64;dlansy;128;0;1;1;0;1024;171;121;18432;18432;631704567;-4.182928e-01;0.000000e+00;5.416298e-02;2.509146e+01
65;dlansy;128;0;1;1;0;1024;171;121;18432;18432;1255179497;-4.129313e-01;0.000000e+00;5.888581e-02;2.307904e+01
66;dlansy;128;0;1;1;0;1024;171;121;18432;18432;327254586;9.307665e-02;0.000000e+00;5.629992e-02;2.413908e+01
67;dlansy;128;0;1;1;0;1024;171;121;18432;18432;269455306;7.441780e-02;0.000000e+00;5.222416e-02;2.602298e+01
68;dlansy;128;0;1;1;0;1024;171;121;18432;18432;352406219;-2.374150e-01;0.000000e+00;5.770516e-02;2.355124e+01
69;dlansy;128;0;1;1;0;1024;171;121;18432;18432;160051528;2.807858e-01;0.000000e+00;6.496191e-02;2.092039e+01
70;dlansy;128;0;1;1;0;1024;171;121;20480;20480;112805732;-3.496214e-01;0.000000e+00;6.158900e-02;2.724193e+01
71;dlansy;128;0;1;1;0;1024;171;121;20480;20480;378409503;2.744957e-01;0.000000e+00;5.994105e-02;2.799089e+01
72;dlansy;128;0;1;1;0;1024;171;121;20480;20480;1713258270;1.571881e-01;0.000000e+00;6.551886e-02;2.560795e+01
73;dlansy;128;0;1;1;0;1024;171;121;20480;20480;1409959708;4.905056e-01;0.000000e+00;6.423593e-02;2.611940e+01
74;dlansy;128;0;1;1;0;1024;171;121;20480;20480;1373226340;9.546876e-03;0.000000e+00;6.858492e-02;2.446316e+01
75;dlansy;128;0;1;1;0;1024;171;121;20480;20480;200747796;3.618905e-02;0.000000e+00;6.341505e-02;2.645750e+01
76;dlansy;128;0;1;1;0;1024;171;121;20480;20480;1117142618;1.744033e-01;0.000000e+00;6.811690e-02;2.463124e+01
77;dlansy;128;0;1;1;0;1024;171;121;20480;20480;150122846;2.422071e-01;0.000000e+00;6.910086e-02;2.428050e+01
78;dlansy;128;0;1;1;0;1024;171;121;20480;20480;990892921;3.138195e-01;0.000000e+00;6.886888e-02;2.436229e+01
79;dlansy;128;0;1;1;0;1024;171;121;20480;20480;1231192379;-4.633856e-02;0.000000e+00;6.285596e-02;2.669283e+01
80;dlansy;128;0;1;1;0;1024;171;121;22528;22528;111537764;1.729012e-01;0.000000e+00;8.102107e-02;2.505686e+01
81;dlansy;128;0;1;1;0;1024;171;121;22528;22528;2147469841;2.072774e-01;0.000000e+00;7.590008e-02;2.674745e+01
82;dlansy;128;0;1;1;0;1024;171;121;22528;22528;1911165193;1.557539e-01;0.000000e+00;7.344985e-02;2.763972e+01
83;dlansy;128;0;1;1;0;1024;171;121;22528;22528;2142757034;-1.699027e-01;0.000000e+00;7.778692e-02;2.609864e+01
84;dlansy;128;0;1;1;0;1024;171;121;22528;22528;1869470124;9.513167e-02;0.000000e+00;7.397413e-02;2.744383e+01
85;dlansy;128;0;1;1;0;1024;171;121;22528;22528;8936987;3.813653e-01;0.000000e+00;7.012200e-02;2.895144e+01
86;dlansy;128;0;1;1;0;1024;171;121;22528;22528;1275373743;-3.952797e-01;0.000000e+00;7.360601e-02;2.758108e+01
87;dlansy;128;0;1;1;0;1024;171;121;22528;22528;350322227;4.007014e-01;0.000000e+00;7.572389e-02;2.680968e+01
88;dlansy;128;0;1;1;0;1024;171;121;22528;22528;1960709859;4.687312e-02;0.000000e+00;7.720900e-02;2.629400e+01
89;dlansy;128;0;1;1;0;1024;171;121;22528;22528;771151432;-3.651100e-01;0.000000e+00;7.335687e-02;2.767475e+01
90;dlansy;128;0;1;1;0;1024;171;121;24576;24576;1244316437;2.998675e-01;0.000000e+00;8.248496e-02;2.929040e+01
91;dlansy;128;0;1;1;0;1024;171;121;24576;24576;1476153275;-1.389722e-01;0.000000e+00;8.911705e-02;2.711061e+01
92;dlansy;128;0;1;1;0;1024;171;121;24576;24576;1139901474;3.395107e-01;0.000000e+00;8.850598e-02;2.729779e+01
93;dlansy;128;0;1;1;0;1024;171;121;24576;24576;653468858;-4.940599e-01;0.000000e+00;9.061289e-02;2.666307e+01
94;dlansy;128;0;1;1;0;1024;171;121;24576;24576;1239036029;9.508020e-02;0.000000e+00;8.634591e-02;2.798068e+01
95;dlansy;128;0;1;1;0;1024;171;121;24576;24576;1605908235;2.745396e-01;0.000000e+00;7.956791e-02;3.036422e+01
96;dlansy;128;0;1;1;0;1024;171;121;24576;24576;76065818;-4.585682e-01;0.000000e+00;9.170103e-02;2.634668e+01
97;dlansy;128;0;1;1;0;1024;171;121;24576;24576;1789366143;-3.356987e-01;0.000000e+00;8.208609e-02;2.943273e+01
98;dlansy;128;0;1;1;0;1024;171;121;24576;24576;1875335928;-1.061454e-01;0.000000e+00;9.182000e-02;2.631254e+01
99;dlansy;128;0;1;1;0;1024;171;121;24576;24576;2103318776;1.535754e-01;0.000000e+00;8.112907e-02;2.977992e+01
100;dlansy;128;0;1;1;0;1024;171;121;26624;26624;1939964443;-2.643760e-01;0.000000e+00;9.568000e-02;2.963478e+01
101;dlansy;128;0;1;1;0;1024;171;121;26624;26624;1432114613;2.725473e-01;0.000000e+00;8.705091e-02;3.257239e+01
102;dlansy;128;0;1;1;0;1024;171;121;26624;26624;352118606;3.241933e-01;0.000000e+00;1.028590e-01;2.756643e+01
103;dlansy;128;0;1;1;0;1024;171;121;26624;26624;1909002904;2.356442e-01;0.000000e+00;9.644699e-02;2.939911e+01
104;dlansy;128;0;1;1;0;1024;171;121;26624;26624;1395235128;-3.021529e-01;0.000000e+00;9.642792e-02;2.940493e+01
105;dlansy;128;0;1;1;0;1024;171;121;26624;26624;1351797369;-2.836412e-02;0.000000e+00;9.746289e-02;2.909267e+01
106;dlansy;128;0;1;1;0;1024;171;121;26624;26624;1504569917;-3.280447e-01;0.000000e+00;1.072431e-01;2.643953e+01
107;dlansy;128;0;1;1;0;1024;171;121;26624;26624;706043324;1.946189e-01;0.000000e+00;1.104808e-01;2.566470e+01
108;dlansy;128;0;1;1;0;1024;171;121;26624;26624;159259470;6.319147e-02;0.000000e+00;9.152007e-02;3.098179e+01
109;dlansy;128;0;1;1;0;1024;171;121;26624;26624;480298490;3.904790e-01;0.000000e+00;9.848905e-02;2.878956e+01
110;dlansy;128;0;1;1;0;1024;171;121;28672;28672;1096689772;-2.987393e-01;0.000000e+00;1.073251e-01;3.064008e+01
111;dlansy;128;0;1;1;0;1024;171;121;28672;28672;601385644;-4.403555e-01;0.000000e+00;1.099410e-01;2.991103e+01
112;dlansy;128;0;1;1;0;1024;171;121;28672;28672;1544617505;-3.120641e-01;0.000000e+00;1.056409e-01;3.112856e+01
113;dlansy;128;0;1;1;0;1024;171;121;28672;28672;1012502954;7.326981e-02;0.000000e+00;1.168692e-01;2.813786e+01
114;dlansy;128;0;1;1;0;1024;171;121;28672;28672;2027907669;4.440272e-01;0.000000e+00;1.183431e-01;2.778741e+01
115;dlansy;128;0;1;1;0;1024;171;121;28672;28672;722308542;-2.988812e-01;0.000000e+00;1.142929e-01;2.877213e+01
116;dlansy;128;0;1;1;0;1024;171;121;28672;28672;933110197;-1.017733e-01;0.000000e+00;1.131620e-01;2.905965e+01
117;dlansy;128;0;1;1;0;1024;171;121;28672;28672;740759355;-3.466130e-01;0.000000e+00;1.052902e-01;3.123225e+01
118;dlansy;128;0;1;1;0;1024;171;121;28672;28672;1789376348;3.725976e-01;0.000000e+00;1.134620e-01;2.898283e+01
119;dlansy;128;0;1;1;0;1024;171;121;28672;28672;1450573622;-2.731221e-01;0.000000e+00;1.072171e-01;3.067095e+01
120;dlansy;128;0;1;1;0;1024;171;121;30720;30720;1034949299;2.976161e-01;0.000000e+00;1.290641e-01;2.924901e+01
121;dlansy;128;0;1;1;0;1024;171;121;30720;30720;1529195746;1.985016e-01;0.000000e+00;1.223910e-01;3.084375e+01
122;dlansy;128;0;1;1;0;1024;171;121;30720;30720;1335354340;-3.384804e-01;0.000000e+00;1.269500e-01;2.973608e+01
123;dlansy;128;0;1;1;0;1024;171;121;30720;30720;889023311;-2.963290e-01;0.000000e+00;1.278870e-01;2.951822e+01
124;dlansy;128;0;1;1;0;1024;171;121;30720;30720;1447267605;-3.682695e-01;0.000000e+00;1.193261e-01;3.163596e+01
125;dlansy;128;0;1;1;0;1024;171;121;30720;30720;745425661;1.637426e-02;0.000000e+00;1.345291e-01;2.806081e+01
126;dlansy;128;0;1;1;0;1024;171;121;30720;30720;1308044878;3.002688e-01;0.000000e+00;1.345801e-01;2.805018e+01
127;dlansy;128;0;1;1;0;1024;171;121;30720;30720;1569229320;-2.878753e-01;0.000000e+00;1.253300e-01;3.012046e+01
128;dlansy;128;0;1;1;0;1024;171;121;30720;30720;1590079444;-6.664395e-02;0.000000e+00;1.322548e-01;2.854335e+01
129;dlansy;128;0;1;1;0;1024;171;121;30720;30720;1977648522;-2.996627e-01;0.000000e+00;1.311560e-01;2.878250e+01
130;dlansy;128;0;1;1;0;1024;171;121;32768;32768;1402586708;-4.466601e-01;0.000000e+00;1.366439e-01;3.143279e+01
131;dlansy;128;0;1;1;0;1024;171;121;32768;32768;1143408282;-3.095740e-01;0.000000e+00;1.393020e-01;3.083300e+01
132;dlansy;128;0;1;1;0;1024;171;121;32768;32768;559412924;1.008051e-01;0.000000e+00;1.490898e-01;2.880880e+01
133;dlansy;128;0;1;1;0;1024;171;121;32768;32768;1473442062;3.966201e-01;0.000000e+00;1.348412e-01;3.185301e+01
134;dlansy;128;0;1;1;0;1024;171;121;32768;32768;238962600;-2.291051e-01;0.000000e+00;1.536551e-01;2.795286e+01
135;dlansy;128;0;1;1;0;1024;171;121;32768;32768;1238433452;8.189833e-02;0.000000e+00;1.530972e-01;2.805472e+01
136;dlansy;128;0;1;1;0;1024;171;121;32768;32768;1431419379;-4.764616e-02;0.000000e+00;1.462610e-01;2.936599e+01
137;dlansy;128;0;1;1;0;1024;171;121;32768;32768;1665947468;1.684246e-01;0.000000e+00;1.364439e-01;3.147887e+01
138;dlansy;128;0;1;1;0;1024;171;121;32768;32768;707900973;-1.961373e-01;0.000000e+00;1.475360e-01;2.911220e+01
139;dlansy;128;0;1;1;0;1024;171;121;32768;32768;2113903881;4.689267e-01;0.000000e+00;1.271300e-01;3.378508e+01
140;dlansy;128;0;1;1;0;1024;171;121;34816;34816;1776808933;-4.926542e-01;0.000000e+00;1.615789e-01;3.000859e+01
141;dlansy;128;0;1;1;0;1024;171;121;34816;34816;404158660;-9.802407e-02;0.000000e+00;1.564350e-01;3.099533e+01
142;dlansy;128;0;1;1;0;1024;171;121;34816;34816;2058657199;1.886126e-01;0.000000e+00;1.526299e-01;3.176806e+01
143;dlansy;128;0;1;1;0;1024;171;121;34816;34816;1642548899;-7.383859e-02;0.000000e+00;1.531038e-01;3.166972e+01
144;dlansy;128;0;1;1;0;1024;171;121;34816;34816;260152959;-6.245404e-02;0.000000e+00;1.591580e-01;3.046504e+01
145;dlansy;128;0;1;1;0;1024;171;121;34816;34816;824272813;-3.703058e-01;0.000000e+00;1.610219e-01;3.011238e+01
146;dlansy;128;0;1;1;0;1024;171;121;34816;34816;2025187190;1.613464e-01;0.000000e+00;1.627700e-01;2.978899e+01
147;dlansy;128;0;1;1;0;1024;171;121;34816;34816;1850952926;-3.349140e-01;0.000000e+00;1.623430e-01;2.986734e+01
148;dlansy;128;0;1;1;0;1024;171;121;34816;34816;1704365084;2.019839e-01;0.000000e+00;1.644981e-01;2.947605e+01
149;dlansy;128;0;1;1;0;1024;171;121;34816;34816;638422090;2.766544e-01;0.000000e+00;1.569080e-01;3.090189e+01
150;dlansy;128;0;1;1;0;1024;171;121;36864;36864;1953443376;-2.797945e-01;0.000000e+00;1.720860e-01;3.158866e+01
151;dlansy;128;0;1;1;0;1024;171;121;36864;36864;1069755936;-4.205594e-01;0.000000e+00;1.738908e-01;3.126079e+01
152;dlansy;128;0;1;1;0;1024;171;121;36864;36864;349517445;3.646355e-01;0.000000e+00;1.861959e-01;2.919488e+01
153;dlansy;128;0;1;1;0;1024;171;121;36864;36864;1856669179;9.066373e-03;0.000000e+00;1.759892e-01;3.088807e+01
154;dlansy;128;0;1;1;0;1024;171;121;36864;36864;995706887;-2.496970e-01;0.000000e+00;1.838410e-01;2.956884e+01
155;dlansy;128;0;1;1;0;1024;171;121;36864;36864;1065103348;-2.655665e-01;0.000000e+00;1.767900e-01;3.074815e+01
156;dlansy;128;0;1;1;0;1024;171;121;36864;36864;387451659;9.058696e-02;0.000000e+00;1.758630e-01;3.091022e+01
157;dlansy;128;0;1;1;0;1024;171;121;36864;36864;1562402336;1.986549e-01;0.000000e+00;1.893799e-01;2.870402e+01
158;dlansy;128;0;1;1;0;1024;171;121;36864;36864;1295166342;3.808523e-01;0.000000e+00;1.685061e-01;3.225975e+01
159;dlansy;128;0;1;1;0;1024;171;121;36864;36864;1799878206;-5.773157e-02;0.000000e+00;1.873271e-01;2.901857e+01
160;dlansy;128;0;1;1;0;1024;171;121;38912;38912;382697713;-1.152934e-01;0.000000e+00;2.016900e-01;3.002991e+01
161;dlansy;128;0;1;1;0;1024;171;121;38912;38912;1070575321;-4.650331e-01;0.000000e+00;2.039192e-01;2.970162e+01
162;dlansy;128;0;1;1;0;1024;171;121;38912;38912;296864819;4.331828e-01;0.000000e+00;2.127590e-01;2.846756e+01
163;dlansy;128;0;1;1;0;1024;171;121;38912;38912;697517721;4.415959e-01;0.000000e+00;1.946781e-01;3.111152e+01
164;dlansy;128;0;1;1;0;1024;171;121;38912;38912;1950955939;-2.032396e-01;0.000000e+00;1.894648e-01;3.196758e+01
165;dlansy;128;0;1;1;0;1024;171;121;38912;38912;1797073940;1.460963e-01;0.000000e+00;2.023599e-01;2.993049e+01
166;dlansy;128;0;1;1;0;1024;171;121;38912;38912;1065311705;2.132438e-01;0.000000e+00;2.059648e-01;2.940663e+01
167;dlansy;128;0;1;1;0;1024;171;121;38912;38912;846811127;3.229169e-01;0.000000e+00;2.016170e-01;3.004077e+01
168;dlansy;128;0;1;1;0;1024;171;121;38912;38912;1307565984;1.990850e-01;0.000000e+00;2.041662e-01;2.966569e+01
169;dlansy;128;0;1;1;0;1024;171;121;38912;38912;324763920;-1.232803e-01;0.000000e+00;2.060850e-01;2.938948e+01
170;dlansy;128;0;1;1;0;1024;171;121;40960;40960;231602422;-5.968142e-02;0.000000e+00;2.186592e-01;3.069183e+01
171;dlansy;128;0;1;1;0;1024;171;121;40960;40960;780821396;3.404283e-01;0.000000e+00;2.187481e-01;3.067935e+01
172;dlansy;128;0;1;1;0;1024;171;121;40960;40960;711645630;3.779050e-01;0.000000e+00;2.263229e-01;2.965255e+01
173;dlansy;128;0;1;1;0;1024;171;121;40960;40960;917679292;-1.487947e-01;0.000000e+00;2.216871e-01;3.027263e+01
174;dlansy;128;0;1;1;0;1024;171;121;40960;40960;1253207672;-2.057583e-01;0.000000e+00;2.173982e-01;3.086986e+01
175;dlansy;128;0;1;1;0;1024;171;121;40960;40960;1414647625;-2.002110e-01;0.000000e+00;2.259150e-01;2.970609e+01
176;dlansy;128;0;1;1;0;1024;171;121;40960;40960;1046741222;-4.981229e-01;0.000000e+00;2.274091e-01;2.951091e+01
177;dlansy;128;0;1;1;0;1024;171;121;40960;40960;1896306640;-1.446566e-01;0.000000e+00;2.347012e-01;2.859402e+01
178;dlansy;128;0;1;1;0;1024;171;121;40960;40960;1111783898;7.285956e-02;0.000000e+00;2.265401e-01;2.962412e+01
179;dlansy;128;0;1;1;0;1024;171;121;40960;40960;1197352298;-2.994312e-01;0.000000e+00;2.266722e-01;2.960686e+01
180;dlansy;128;0;1;1;0;1024;171;121;43008;43008;1782280524;-4.406608e-01;0.000000e+00;2.410879e-01;3.068974e+01
181;dlansy;128;0;1;1;0;1024;171;121;43008;43008;524688209;-7.231379e-02;0.000000e+00;2.423549e-01;3.052930e+01
182;dlansy;128;0;1;1;0;1024;171;121;43008;43008;1566288819;-2.944065e-01;0.000000e+00;2.470050e-01;2.995455e+01
183;dlansy;128;0;1;1;0;1024;171;121;43008;43008;2114937732;4.808045e-01;0.000000e+00;2.370410e-01;3.121369e+01
184;dlansy;128;0;1;1;0;1024;171;121;43008;43008;1927495994;-2.840220e-01;0.000000e+00;2.460301e-01;3.007325e+01
185;dlansy;128;0;1;1;0;1024;171;121;43008;43008;882160379;-1.254201e-02;0.000000e+00;2.421751e-01;3.055196e+01
186;dlansy;128;0;1;1;0;1024;171;121;43008;43008;1682085273;9.597039e-02;0.000000e+00;2.369750e-01;3.122239e+01
187;dlansy;128;0;1;1;0;1024;171;121;43008;43008;630668850;2.283023e-01;0.000000e+00;2.361610e-01;3.133000e+01
188;dlansy;128;0;1;1;0;1024;171;121;43008;43008;1858721860;-5.737603e-03;0.000000e+00;2.336750e-01;3.166331e+01
189;dlansy;128;0;1;1;0;1024;171;121;43008;43008;105575579;3.629747e-01;0.000000e+00;2.227161e-01;3.322133e+01
190;dlansy;128;0;1;1;0;1024;171;121;45056;45056;2118421993;6.372750e-03;0.000000e+00;2.411902e-01;3.366784e+01
191;dlansy;128;0;1;1;0;1024;171;121;45056;45056;452867621;-4.022054e-01;0.000000e+00;2.432232e-01;3.338642e+01
192;dlansy;128;0;1;1;0;1024;171;121;45056;45056;1857962504;3.861964e-02;0.000000e+00;2.494390e-01;3.255446e+01
193;dlansy;128;0;1;1;0;1024;171;121;45056;45056;213801961;-1.863945e-02;0.000000e+00;2.467339e-01;3.291138e+01
194;dlansy;128;0;1;1;0;1024;171;121;45056;45056;648031326;2.911775e-01;0.000000e+00;2.437530e-01;3.331386e+01
195;dlansy;128;0;1;1;0;1024;171;121;45056;45056;1737518944;-4.808499e-01;0.000000e+00;2.491500e-01;3.259222e+01
196;dlansy;128;0;1;1;0;1024;171;121;45056;45056;110613202;-3.380140e-01;0.000000e+00;2.523949e-01;3.217320e+01
197;dlansy;128;0;1;1;0;1024;171;121;45056;45056;982936784;3.457331e-01;0.000000e+00;2.495010e-01;3.254637e+01
198;dlansy;128;0;1;1;0;1024;171;121;45056;45056;1486222842;4.200729e-01;0.000000e+00;2.303679e-01;3.524950e+01
199;dlansy;128;0;1;1;0;1024;171;121;45056;45056;255789528;4.026002e-01;0.000000e+00;2.511461e-01;3.233319e+01
200;dlansy;128;0;1;1;0;1024;171;121;47104;47104;1242608872;3.144040e-01;0.000000e+00;2.670951e-01;3.322912e+01
201;dlansy;128;0;1;1;0;1024;171;121;47104;47104;1277849958;-7.731044e-02;0.000000e+00;2.673860e-01;3.319298e+01
202;dlansy;128;0;1;1;0;1024;171;121;47104;47104;653448036;2.529461e-01;0.000000e+00;2.720120e-01;3.262847e+01
203;dlansy;128;0;1;1;0;1024;171;121;47104;47104;1023457753;4.253499e-01;0.000000e+00;2.615249e-01;3.393686e+01
204;dlansy;128;0;1;1;0;1024;171;121;47104;47104;1309383303;3.608416e-01;0.000000e+00;2.711320e-01;3.273437e+01
205;dlansy;128;0;1;1;0;1024;171;121;47104;47104;1329132133;-2.386045e-01;0.000000e+00;2.722161e-01;3.260401e+01
206;dlansy;128;0;1;1;0;1024;171;121;47104;47104;501772890;8.143046e-02;0.000000e+00;2.707469e-01;3.278093e+01
207;dlansy;128;0;1;1;0;1024;171;121;47104;47104;150517567;4.165643e-01;0.000000e+00;2.763531e-01;3.211592e+01
208;dlansy;128;0;1;1;0;1024;171;121;47104;47104;1983690368;-5.428046e-02;0.000000e+00;2.841990e-01;3.122930e+01
209;dlansy;128;0;1;1;0;1024;171;121;47104;47104;1034514500;3.618715e-01;0.000000e+00;2.682669e-01;3.308397e+01
210;dlansy;128;0;1;1;0;1024;171;121;49152;49152;1775473788;2.101964e-01;0.000000e+00;2.820749e-01;3.425995e+01
211;dlansy;128;0;1;1;0;1024;171;121;49152;49152;767066249;2.177558e-01;0.000000e+00;2.996330e-01;3.225236e+01
212;dlansy;128;0;1;1;0;1024;171;121;49152;49152;739273303;4.744193e-02;0.000000e+00;2.971971e-01;3.251671e+01
213;dlansy;128;0;1;1;0;1024;171;121;49152;49152;1415505363;-2.221872e-01;0.000000e+00;2.906129e-01;3.325342e+01
214;dlansy;128;0;1;1;0;1024;171;121;49152;49152;552910253;-4.765819e-01;0.000000e+00;2.890060e-01;3.343831e+01
215;dlansy;128;0;1;1;0;1024;171;121;49152;49152;1344247686;1.416166e-01;0.000000e+00;2.903631e-01;3.328203e+01
216;dlansy;128;0;1;1;0;1024;171;121;49152;49152;661761152;1.085222e-01;0.000000e+00;2.901790e-01;3.330314e+01
217;dlansy;128;0;1;1;0;1024;171;121;49152;49152;425245975;-2.107033e-01;0.000000e+00;2.870450e-01;3.366675e+01
218;dlansy;128;0;1;1;0;1024;171;121;49152;49152;235649157;3.456401e-01;0.000000e+00;2.911680e-01;3.319003e+01
219;dlansy;128;0;1;1;0;1024;171;121;49152;49152;1679895436;3.343596e-01;0.000000e+00;2.848468e-01;3.392657e+01
