Id;Function;threads;gpus;P;Q;mtxfmt;nb;m;n;lda;seedA;tsub;time;gflops
0;dgetrf;128;0;1;1;1;300;900;900;900;846930886;0.000000e+00;1.233554e-02;3.936560e+01
1;dgetrf;128;0;1;1;1;300;900;900;900;1681692777;0.000000e+00;1.452970e-02;3.342091e+01
2;dgetrf;128;0;1;1;1;300;900;900;900;1714636915;0.000000e+00;1.458881e-02;3.328549e+01
3;dgetrf;128;0;1;1;1;300;900;900;900;1957747793;0.000000e+00;1.285689e-02;3.776932e+01
4;dgetrf;128;0;1;1;1;300;900;900;900;424238335;0.000000e+00;1.707033e-02;2.844677e+01
5;dgetrf;128;0;1;1;1;300;900;900;900;719885386;0.000000e+00;1.906912e-02;2.546503e+01
6;dgetrf;128;0;1;1;1;300;900;900;900;1649760492;0.000000e+00;1.105613e-02;4.392094e+01
7;dgetrf;128;0;1;1;1;300;900;900;900;596516649;0.000000e+00;1.245828e-02;3.897774e+01
8;dgetrf;128;0;1;1;1;300;900;900;900;1189641421;0.000000e+00;1.116141e-02;4.350667e+01
9;dgetrf;128;0;1;1;1;300;900;900;900;1025202362;0.000000e+00;1.159975e-02;4.186259e+01
10;dgetrf;128;0;1;1;1;300;1800;1800;1800;1350490027;0.000000e+00;4.577390e-02;8.490388e+01
11;dgetrf;128;0;1;1;1;300;1800;1800;1800;783368690;0.000000e+00;3.181482e-02;1.221563e+02
12;dgetrf;128;0;1;1;1;300;1800;1800;1800;1102520059;0.000000e+00;2.821878e-02;1.377233e+02
13;dgetrf;128;0;1;1;1;300;1800;1800;1800;2044897763;0.000000e+00;2.760947e-02;1.407626e+02
14;dgetrf;128;0;1;1;1;300;1800;1800;1800;1967513926;0.000000e+00;2.983542e-02;1.302607e+02
15;dgetrf;128;0;1;1;1;300;1800;1800;1800;1365180540;0.000000e+00;3.114350e-02;1.247895e+02
16;dgetrf;128;0;1;1;1;300;1800;1800;1800;1540383426;0.000000e+00;2.857625e-02;1.360004e+02
17;dgetrf;128;0;1;1;1;300;1800;1800;1800;304089172;0.000000e+00;3.356145e-02;1.157990e+02
18;dgetrf;128;0;1;1;1;300;1800;1800;1800;1303455736;0.000000e+00;2.537130e-02;1.531802e+02
19;dgetrf;128;0;1;1;1;300;1800;1800;1800;35005211;0.000000e+00;2.772530e-02;1.401746e+02
20;dgetrf;128;0;1;1;1;300;2700;2700;2700;521595368;0.000000e+00;6.172753e-02;2.125204e+02
21;dgetrf;128;0;1;1;1;300;2700;2700;2700;294702567;0.000000e+00;5.657333e-02;2.318824e+02
22;dgetrf;128;0;1;1;1;300;2700;2700;2700;1726956429;0.000000e+00;5.024439e-02;2.610910e+02
23;dgetrf;128;0;1;1;1;300;2700;2700;2700;336465782;0.000000e+00;7.573127e-02;1.732225e+02
24;dgetrf;128;0;1;1;1;300;2700;2700;2700;861021530;0.000000e+00;5.026467e-02;2.609857e+02
25;dgetrf;128;0;1;1;1;300;2700;2700;2700;278722862;0.000000e+00;1.071650e-01;1.224127e+02
26;dgetrf;128;0;1;1;1;300;2700;2700;2700;233665123;0.000000e+00;5.097142e-02;2.573669e+02
27;dgetrf;128;0;1;1;1;300;2700;2700;2700;2145174067;0.000000e+00;6.101390e-02;2.150060e+02
28;dgetrf;128;0;1;1;1;300;2700;2700;2700;468703135;0.000000e+00;5.108612e-02;2.567891e+02
29;dgetrf;128;0;1;1;1;300;2700;2700;2700;1101513929;0.000000e+00;5.600623e-02;2.342303e+02
30;dgetrf;128;0;1;1;1;300;3600;3600;3600;1801979802;0.000000e+00;8.258785e-02;3.765387e+02
31;dgetrf;128;0;1;1;1;300;3600;3600;3600;1315634022;0.000000e+00;8.063536e-02;3.856562e+02
32;dgetrf;128;0;1;1;1;300;3600;3600;3600;635723058;0.000000e+00;1.120368e-01;2.775653e+02
33;dgetrf;128;0;1;1;1;300;3600;3600;3600;1369133069;0.000000e+00;9.209979e-02;3.376503e+02
34;dgetrf;128;0;1;1;1;300;3600;3600;3600;1125898167;0.000000e+00;8.244616e-02;3.771858e+02
35;dgetrf;128;0;1;1;1;300;3600;3600;3600;1059961393;0.000000e+00;6.477439e-02;4.800898e+02
36;dgetrf;128;0;1;1;1;300;3600;3600;3600;2089018456;0.000000e+00;1.339339e-01;2.321856e+02
37;dgetrf;128;0;1;1;1;300;3600;3600;3600;628175011;0.000000e+00;9.015226e-02;3.449445e+02
38;dgetrf;128;0;1;1;1;300;3600;3600;3600;1656478042;0.000000e+00;8.364617e-02;3.717746e+02
39;dgetrf;128;0;1;1;1;300;3600;3600;3600;1131176229;0.000000e+00;8.162556e-02;3.809778e+02
40;dgetrf;128;0;1;1;1;300;4500;4500;4500;1653377373;0.000000e+00;1.086805e-01;5.588851e+02
41;dgetrf;128;0;1;1;1;300;4500;4500;4500;859484421;0.000000e+00;1.105490e-01;5.494384e+02
42;dgetrf;128;0;1;1;1;300;4500;4500;4500;1914544919;0.000000e+00;1.300118e-01;4.671873e+02
43;dgetrf;128;0;1;1;1;300;4500;4500;4500;608413784;0.000000e+00;1.632319e-01;3.721079e+02
44;dgetrf;128;0;1;1;1;300;4500;4500;4500;756898537;0.000000e+00;9.615983e-02;6.316554e+02
45;dgetrf;128;0;1;1;1;300;4500;4500;4500;1734575198;0.000000e+00;9.900913e-02;6.134775e+02
46;dgetrf;128;0;1;1;1;300;4500;4500;4500;1973594324;0.000000e+00;1.005928e-01;6.038196e+02
47;dgetrf;128;0;1;1;1;300;4500;4500;4500;149798315;0.000000e+00;1.103027e-01;5.506655e+02
48;dgetrf;128;0;1;1;1;300;4500;4500;4500;2038664370;0.000000e+00;1.429882e-01;4.247896e+02
49;dgetrf;128;0;1;1;1;300;4500;4500;4500;1129566413;0.000000e+00;1.169244e-01;5.194797e+02
50;dgetrf;128;0;1;1;1;300;5400;5400;5400;184803526;0.000000e+00;1.211147e-01;8.666283e+02
51;dgetrf;128;0;1;1;1;300;5400;5400;5400;412776091;0.000000e+00;1.300068e-01;8.073533e+02
52;dgetrf;128;0;1;1;1;300;5400;5400;5400;1424268980;0.000000e+00;1.424148e-01;7.370118e+02
53;dgetrf;128;0;1;1;1;300;5400;5400;5400;1911759956;0.000000e+00;1.330434e-01;7.889265e+02
54;dgetrf;128;0;1;1;1;300;5400;5400;5400;749241873;0.000000e+00;1.467480e-01;7.152496e+02
55;dgetrf;128;0;1;1;1;300;5400;5400;5400;137806862;0.000000e+00;1.363938e-01;7.695471e+02
56;dgetrf;128;0;1;1;1;300;5400;5400;5400;42999170;0.000000e+00;1.226667e-01;8.556632e+02
57;dgetrf;128;0;1;1;1;300;5400;5400;5400;982906996;0.000000e+00;1.305281e-01;8.041290e+02
58;dgetrf;128;0;1;1;1;300;5400;5400;5400;135497281;0.000000e+00;1.390631e-01;7.547756e+02
59;dgetrf;128;0;1;1;1;300;5400;5400;5400;511702305;0.000000e+00;1.274943e-01;8.232638e+02
60;dgetrf;128;0;1;1;1;300;6300;6300;6300;2084420925;0.000000e+00;1.519377e-01;1.097016e+03
61;dgetrf;128;0;1;1;1;300;6300;6300;6300;1937477084;0.000000e+00;1.567113e-01;1.063600e+03
62;dgetrf;128;0;1;1;1;300;6300;6300;6300;1827336327;0.000000e+00;1.501514e-01;1.110067e+03
63;dgetrf;128;0;1;1;1;300;6300;6300;6300;572660336;0.000000e+00;1.610054e-01;1.035234e+03
64;dgetrf;128;0;1;1;1;300;6300;6300;6300;1159126505;0.000000e+00;1.482686e-01;1.124163e+03
65;dgetrf;128;0;1;1;1;300;6300;6300;6300;805750846;0.000000e+00;1.881980e-01;8.856531e+02
66;dgetrf;128;0;1;1;1;300;6300;6300;6300;1632621729;0.000000e+00;2.059729e-01;8.092236e+02
67;dgetrf;128;0;1;1;1;300;6300;6300;6300;1100661313;0.000000e+00;1.978613e-01;8.423989e+02
68;dgetrf;128;0;1;1;1;300;6300;6300;6300;1433925857;0.000000e+00;1.740891e-01;9.574304e+02
69;dgetrf;128;0;1;1;1;300;6300;6300;6300;1141616124;0.000000e+00;1.603818e-01;1.039258e+03
70;dgetrf;128;0;1;1;1;300;7200;7200;7200;84353895;0.000000e+00;2.069872e-01;1.202036e+03
71;dgetrf;128;0;1;1;1;300;7200;7200;7200;939819582;0.000000e+00;1.878778e-01;1.324297e+03
72;dgetrf;128;0;1;1;1;300;7200;7200;7200;2001100545;0.000000e+00;1.992569e-01;1.248670e+03
73;dgetrf;128;0;1;1;1;300;7200;7200;7200;1998898814;0.000000e+00;2.070140e-01;1.201880e+03
74;dgetrf;128;0;1;1;1;300;7200;7200;7200;1548233367;0.000000e+00;1.661840e-01;1.497172e+03
75;dgetrf;128;0;1;1;1;300;7200;7200;7200;610515434;0.000000e+00;2.341588e-01;1.062553e+03
76;dgetrf;128;0;1;1;1;300;7200;7200;7200;1585990364;0.000000e+00;1.928318e-01;1.290275e+03
77;dgetrf;128;0;1;1;1;300;7200;7200;7200;1374344043;0.000000e+00;2.078269e-01;1.197179e+03
78;dgetrf;128;0;1;1;1;300;7200;7200;7200;760313750;0.000000e+00;1.972386e-01;1.261447e+03
79;dgetrf;128;0;1;1;1;300;7200;7200;7200;1477171087;0.000000e+00;1.786138e-01;1.392984e+03
80;dgetrf;128;0;1;1;1;300;8100;8100;8100;356426808;0.000000e+00;2.471614e-01;1.433319e+03
81;dgetrf;128;0;1;1;1;300;8100;8100;8100;945117276;0.000000e+00;3.095772e-01;1.144339e+03
82;dgetrf;128;0;1;1;1;300;8100;8100;8100;1889947178;0.000000e+00;2.411813e-01;1.468858e+03
83;dgetrf;128;0;1;1;1;300;8100;8100;8100;1780695788;0.000000e+00;1.920967e-01;1.844182e+03
84;dgetrf;128;0;1;1;1;300;8100;8100;8100;709393584;0.000000e+00;2.498218e-01;1.418055e+03
85;dgetrf;128;0;1;1;1;300;8100;8100;8100;491705403;0.000000e+00;2.510229e-01;1.411271e+03
86;dgetrf;128;0;1;1;1;300;8100;8100;8100;1918502651;0.000000e+00;2.272775e-01;1.558716e+03
87;dgetrf;128;0;1;1;1;300;8100;8100;8100;752392754;0.000000e+00;2.138746e-01;1.656397e+03
88;dgetrf;128;0;1;1;1;300;8100;8100;8100;1474612399;0.000000e+00;2.179836e-01;1.625174e+03
89;dgetrf;128;0;1;1;1;300;8100;8100;8100;2053999932;0.000000e+00;2.264897e-01;1.564138e+03
90;dgetrf;128;0;1;1;1;300;9000;9000;9000;1264095060;0.000000e+00;2.844211e-01;1.708592e+03
91;dgetrf;128;0;1;1;1;300;9000;9000;9000;1411549676;0.000000e+00;3.012326e-01;1.613237e+03
92;dgetrf;128;0;1;1;1;300;9000;9000;9000;1843993368;0.000000e+00;3.091123e-01;1.572113e+03
93;dgetrf;128;0;1;1;1;300;9000;9000;9000;943947739;0.000000e+00;3.094306e-01;1.570496e+03
94;dgetrf;128;0;1;1;1;300;9000;9000;9000;1984210012;0.000000e+00;2.529609e-01;1.921086e+03
95;dgetrf;128;0;1;1;1;300;9000;9000;9000;855636226;0.000000e+00;3.398874e-01;1.429766e+03
96;dgetrf;128;0;1;1;1;300;9000;9000;9000;1749698586;0.000000e+00;3.440706e-01;1.412383e+03
97;dgetrf;128;0;1;1;1;300;9000;9000;9000;1469348094;0.000000e+00;3.006044e-01;1.616608e+03
98;dgetrf;128;0;1;1;1;300;9000;9000;9000;1956297539;0.000000e+00;2.697210e-01;1.801712e+03
99;dgetrf;128;0;1;1;1;300;9000;9000;9000;1036140795;0.000000e+00;2.613737e-01;1.859252e+03
0;dgetrf;128;0;1;1;1;300;9900;9900;9900;846930886;0.000000e+00;3.238848e-01;1.997059e+03
1;dgetrf;128;0;1;1;1;300;9900;9900;9900;1681692777;0.000000e+00;4.096312e-01;1.579023e+03
2;dgetrf;128;0;1;1;1;300;9900;9900;9900;1714636915;0.000000e+00;3.417817e-01;1.892486e+03
3;dgetrf;128;0;1;1;1;300;9900;9900;9900;1957747793;0.000000e+00;3.272220e-01;1.976691e+03
4;dgetrf;128;0;1;1;1;300;9900;9900;9900;424238335;0.000000e+00;3.317407e-01;1.949767e+03
5;dgetrf;128;0;1;1;1;300;9900;9900;9900;719885386;0.000000e+00;3.331295e-01;1.941638e+03
6;dgetrf;128;0;1;1;1;300;9900;9900;9900;1649760492;0.000000e+00;3.583048e-01;1.805214e+03
7;dgetrf;128;0;1;1;1;300;9900;9900;9900;596516649;0.000000e+00;3.500727e-01;1.847665e+03
8;dgetrf;128;0;1;1;1;300;9900;9900;9900;1189641421;0.000000e+00;3.478093e-01;1.859689e+03
9;dgetrf;128;0;1;1;1;300;9900;9900;9900;1025202362;0.000000e+00;3.415272e-01;1.893896e+03
10;dgetrf;128;0;1;1;1;300;12300;12300;12300;1350490027;0.000000e+00;5.527676e-01;2.244166e+03
11;dgetrf;128;0;1;1;1;300;12300;12300;12300;783368690;0.000000e+00;5.743700e-01;2.159762e+03
12;dgetrf;128;0;1;1;1;300;12300;12300;12300;1102520059;0.000000e+00;5.768174e-01;2.150598e+03
13;dgetrf;128;0;1;1;1;300;12300;12300;12300;2044897763;0.000000e+00;5.914233e-01;2.097486e+03
14;dgetrf;128;0;1;1;1;300;12300;12300;12300;1967513926;0.000000e+00;5.679324e-01;2.184243e+03
15;dgetrf;128;0;1;1;1;300;12300;12300;12300;1365180540;0.000000e+00;6.834185e-01;1.815143e+03
16;dgetrf;128;0;1;1;1;300;12300;12300;12300;1540383426;0.000000e+00;5.560390e-01;2.230963e+03
17;dgetrf;128;0;1;1;1;300;12300;12300;12300;304089172;0.000000e+00;6.009107e-01;2.064371e+03
18;dgetrf;128;0;1;1;1;300;12300;12300;12300;1303455736;0.000000e+00;6.043027e-01;2.052783e+03
19;dgetrf;128;0;1;1;1;300;12300;12300;12300;35005211;0.000000e+00;5.722284e-01;2.167845e+03
20;dgetrf;128;0;1;1;1;300;14700;14700;14700;521595368;0.000000e+00;8.794045e-01;2.407963e+03
21;dgetrf;128;0;1;1;1;300;14700;14700;14700;294702567;0.000000e+00;8.985104e-01;2.356761e+03
22;dgetrf;128;0;1;1;1;300;14700;14700;14700;1726956429;0.000000e+00;9.450530e-01;2.240693e+03
23;dgetrf;128;0;1;1;1;300;14700;14700;14700;336465782;0.000000e+00;9.311432e-01;2.274166e+03
24;dgetrf;128;0;1;1;1;300;14700;14700;14700;861021530;0.000000e+00;9.493864e-01;2.230466e+03
25;dgetrf;128;0;1;1;1;300;14700;14700;14700;278722862;0.000000e+00;9.369824e-01;2.259993e+03
26;dgetrf;128;0;1;1;1;300;14700;14700;14700;233665123;0.000000e+00;9.147361e-01;2.314956e+03
27;dgetrf;128;0;1;1;1;300;14700;14700;14700;2145174067;0.000000e+00;8.983430e-01;2.357200e+03
28;dgetrf;128;0;1;1;1;300;14700;14700;14700;468703135;0.000000e+00;9.939353e-01;2.130495e+03
29;dgetrf;128;0;1;1;1;300;14700;14700;14700;1101513929;0.000000e+00;9.514033e-01;2.225737e+03
30;dgetrf;128;0;1;1;1;300;17100;17100;17100;1801979802;0.000000e+00;1.359722e+00;2.451477e+03
31;dgetrf;128;0;1;1;1;300;17100;17100;17100;1315634022;0.000000e+00;1.417952e+00;2.350805e+03
32;dgetrf;128;0;1;1;1;300;17100;17100;17100;635723058;0.000000e+00;1.411481e+00;2.361581e+03
33;dgetrf;128;0;1;1;1;300;17100;17100;17100;1369133069;0.000000e+00;1.389287e+00;2.399308e+03
34;dgetrf;128;0;1;1;1;300;17100;17100;17100;1125898167;0.000000e+00;1.396753e+00;2.386483e+03
35;dgetrf;128;0;1;1;1;300;17100;17100;17100;1059961393;0.000000e+00;1.455572e+00;2.290047e+03
36;dgetrf;128;0;1;1;1;300;17100;17100;17100;2089018456;0.000000e+00;1.408487e+00;2.366602e+03
37;dgetrf;128;0;1;1;1;300;17100;17100;17100;628175011;0.000000e+00;1.405403e+00;2.371795e+03
38;dgetrf;128;0;1;1;1;300;17100;17100;17100;1656478042;0.000000e+00;1.344778e+00;2.478719e+03
39;dgetrf;128;0;1;1;1;300;17100;17100;17100;1131176229;0.000000e+00;1.393342e+00;2.392326e+03
40;dgetrf;128;0;1;1;1;300;19500;19500;19500;1653377373;0.000000e+00;2.044111e+00;2.418195e+03
41;dgetrf;128;0;1;1;1;300;19500;19500;19500;859484421;0.000000e+00;2.031862e+00;2.432773e+03
42;dgetrf;128;0;1;1;1;300;19500;19500;19500;1914544919;0.000000e+00;2.046741e+00;2.415088e+03
43;dgetrf;128;0;1;1;1;300;19500;19500;19500;608413784;0.000000e+00;2.065829e+00;2.392773e+03
44;dgetrf;128;0;1;1;1;300;19500;19500;19500;756898537;0.000000e+00;2.062636e+00;2.396477e+03
45;dgetrf;128;0;1;1;1;300;19500;19500;19500;1734575198;0.000000e+00;2.066196e+00;2.392348e+03
46;dgetrf;128;0;1;1;1;300;19500;19500;19500;1973594324;0.000000e+00;2.033723e+00;2.430547e+03
47;dgetrf;128;0;1;1;1;300;19500;19500;19500;149798315;0.000000e+00;2.043220e+00;2.419250e+03
48;dgetrf;128;0;1;1;1;300;19500;19500;19500;2038664370;0.000000e+00;2.083671e+00;2.372284e+03
49;dgetrf;128;0;1;1;1;300;19500;19500;19500;1129566413;0.000000e+00;2.020406e+00;2.446568e+03
50;dgetrf;128;0;1;1;1;300;21900;21900;21900;184803526;0.000000e+00;2.955797e+00;2.368927e+03
51;dgetrf;128;0;1;1;1;300;21900;21900;21900;412776091;0.000000e+00;2.920644e+00;2.397439e+03
52;dgetrf;128;0;1;1;1;300;21900;21900;21900;1424268980;0.000000e+00;2.945545e+00;2.377172e+03
53;dgetrf;128;0;1;1;1;300;21900;21900;21900;1911759956;0.000000e+00;2.907721e+00;2.408094e+03
54;dgetrf;128;0;1;1;1;300;21900;21900;21900;749241873;0.000000e+00;2.925220e+00;2.393689e+03
55;dgetrf;128;0;1;1;1;300;21900;21900;21900;137806862;0.000000e+00;2.849952e+00;2.456907e+03
56;dgetrf;128;0;1;1;1;300;21900;21900;21900;42999170;0.000000e+00;2.909498e+00;2.406623e+03
57;dgetrf;128;0;1;1;1;300;21900;21900;21900;982906996;0.000000e+00;2.842026e+00;2.463759e+03
58;dgetrf;128;0;1;1;1;300;21900;21900;21900;135497281;0.000000e+00;2.917503e+00;2.400020e+03
59;dgetrf;128;0;1;1;1;300;21900;21900;21900;511702305;0.000000e+00;2.913975e+00;2.402926e+03
60;dgetrf;128;0;1;1;1;300;24300;24300;24300;2084420925;0.000000e+00;4.061190e+00;2.355379e+03
61;dgetrf;128;0;1;1;1;300;24300;24300;24300;1937477084;0.000000e+00;3.974314e+00;2.406866e+03
62;dgetrf;128;0;1;1;1;300;24300;24300;24300;1827336327;0.000000e+00;3.975622e+00;2.406075e+03
63;dgetrf;128;0;1;1;1;300;24300;24300;24300;572660336;0.000000e+00;4.017433e+00;2.381034e+03
64;dgetrf;128;0;1;1;1;300;24300;24300;24300;1159126505;0.000000e+00;4.234094e+00;2.259195e+03
65;dgetrf;128;0;1;1;1;300;24300;24300;24300;805750846;0.000000e+00;4.019655e+00;2.379717e+03
66;dgetrf;128;0;1;1;1;300;24300;24300;24300;1632621729;0.000000e+00;3.988809e+00;2.398120e+03
67;dgetrf;128;0;1;1;1;300;24300;24300;24300;1100661313;0.000000e+00;4.041395e+00;2.366916e+03
68;dgetrf;128;0;1;1;1;300;24300;24300;24300;1433925857;0.000000e+00;3.976352e+00;2.405633e+03
69;dgetrf;128;0;1;1;1;300;24300;24300;24300;1141616124;0.000000e+00;4.000640e+00;2.391028e+03
70;dgetrf;128;0;1;1;1;300;26700;26700;26700;84353895;0.000000e+00;5.322554e+00;2.384022e+03
71;dgetrf;128;0;1;1;1;300;26700;26700;26700;939819582;0.000000e+00;5.365751e+00;2.364829e+03
72;dgetrf;128;0;1;1;1;300;26700;26700;26700;2001100545;0.000000e+00;5.374546e+00;2.360959e+03
73;dgetrf;128;0;1;1;1;300;26700;26700;26700;1998898814;0.000000e+00;5.331934e+00;2.379828e+03
74;dgetrf;128;0;1;1;1;300;26700;26700;26700;1548233367;0.000000e+00;5.373719e+00;2.361323e+03
75;dgetrf;128;0;1;1;1;300;26700;26700;26700;610515434;0.000000e+00;5.356946e+00;2.368717e+03
76;dgetrf;128;0;1;1;1;300;26700;26700;26700;1585990364;0.000000e+00;5.346569e+00;2.373314e+03
77;dgetrf;128;0;1;1;1;300;26700;26700;26700;1374344043;0.000000e+00;5.407296e+00;2.346660e+03
78;dgetrf;128;0;1;1;1;300;26700;26700;26700;760313750;0.000000e+00;5.325492e+00;2.382707e+03
79;dgetrf;128;0;1;1;1;300;26700;26700;26700;1477171087;0.000000e+00;5.409971e+00;2.345500e+03
80;dgetrf;128;0;1;1;1;300;29100;29100;29100;356426808;0.000000e+00;6.982588e+00;2.352665e+03
81;dgetrf;128;0;1;1;1;300;29100;29100;29100;945117276;0.000000e+00;7.013753e+00;2.342211e+03
82;dgetrf;128;0;1;1;1;300;29100;29100;29100;1889947178;0.000000e+00;7.051603e+00;2.329639e+03
83;dgetrf;128;0;1;1;1;300;29100;29100;29100;1780695788;0.000000e+00;7.079834e+00;2.320350e+03
84;dgetrf;128;0;1;1;1;300;29100;29100;29100;709393584;0.000000e+00;7.073991e+00;2.322266e+03
85;dgetrf;128;0;1;1;1;300;29100;29100;29100;491705403;0.000000e+00;7.000574e+00;2.346620e+03
86;dgetrf;128;0;1;1;1;300;29100;29100;29100;1918502651;0.000000e+00;7.002463e+00;2.345988e+03
87;dgetrf;128;0;1;1;1;300;29100;29100;29100;752392754;0.000000e+00;7.031632e+00;2.336256e+03
88;dgetrf;128;0;1;1;1;300;29100;29100;29100;1474612399;0.000000e+00;6.983386e+00;2.352396e+03
89;dgetrf;128;0;1;1;1;300;29100;29100;29100;2053999932;0.000000e+00;7.089577e+00;2.317161e+03
