Id;Function;threads;gpus;P;Q;mtxfmt;nb;uplo;n;lda;seedA;tsub;time;gflops
0;dpotrf;128;0;1;1;1;300;121;900;900;846930886;0.000000e+00;1.313087e-02;1.853687e+01
1;dpotrf;128;0;1;1;1;300;121;900;900;1681692777;0.000000e+00;9.030706e-03;2.695306e+01
2;dpotrf;128;0;1;1;1;300;121;900;900;1714636915;0.000000e+00;1.428297e-02;1.704163e+01
3;dpotrf;128;0;1;1;1;300;121;900;900;1957747793;0.000000e+00;7.560392e-03;3.219478e+01
4;dpotrf;128;0;1;1;1;300;121;900;900;424238335;0.000000e+00;8.941810e-03;2.722102e+01
5;dpotrf;128;0;1;1;1;300;121;900;900;719885386;0.000000e+00;9.222114e-03;2.639364e+01
6;dpotrf;128;0;1;1;1;300;121;900;900;1649760492;0.000000e+00;8.615221e-03;2.825292e+01
7;dpotrf;128;0;1;1;1;300;121;900;900;596516649;0.000000e+00;9.554173e-03;2.547632e+01
8;dpotrf;128;0;1;1;1;300;121;900;900;1189641421;0.000000e+00;1.103453e-02;2.205850e+01
9;dpotrf;128;0;1;1;1;300;121;900;900;1025202362;0.000000e+00;8.494846e-03;2.865327e+01
10;dpotrf;128;0;1;1;1;300;121;1800;1800;1350490027;0.000000e+00;2.372831e-02;8.199573e+01
11;dpotrf;128;0;1;1;1;300;121;1800;1800;783368690;0.000000e+00;2.360402e-02;8.242750e+01
12;dpotrf;128;0;1;1;1;300;121;1800;1800;1102520059;0.000000e+00;2.087207e-02;9.321646e+01
13;dpotrf;128;0;1;1;1;300;121;1800;1800;2044897763;0.000000e+00;2.150479e-02;9.047381e+01
14;dpotrf;128;0;1;1;1;300;121;1800;1800;1967513926;0.000000e+00;2.356126e-02;8.257709e+01
15;dpotrf;128;0;1;1;1;300;121;1800;1800;1365180540;0.000000e+00;2.150532e-02;9.047158e+01
16;dpotrf;128;0;1;1;1;300;121;1800;1800;1540383426;0.000000e+00;1.781842e-02;1.091915e+02
17;dpotrf;128;0;1;1;1;300;121;1800;1800;304089172;0.000000e+00;2.398958e-02;8.110273e+01
18;dpotrf;128;0;1;1;1;300;121;1800;1800;1303455736;0.000000e+00;1.982071e-02;9.816099e+01
19;dpotrf;128;0;1;1;1;300;121;1800;1800;35005211;0.000000e+00;2.063127e-02;9.430444e+01
20;dpotrf;128;0;1;1;1;300;121;2700;2700;521595368;0.000000e+00;3.338826e-02;1.966154e+02
21;dpotrf;128;0;1;1;1;300;121;2700;2700;294702567;0.000000e+00;3.466533e-02;1.893721e+02
22;dpotrf;128;0;1;1;1;300;121;2700;2700;1726956429;0.000000e+00;3.580753e-02;1.833314e+02
23;dpotrf;128;0;1;1;1;300;121;2700;2700;336465782;0.000000e+00;4.296136e-02;1.528035e+02
24;dpotrf;128;0;1;1;1;300;121;2700;2700;861021530;0.000000e+00;3.398207e-02;1.931797e+02
25;dpotrf;128;0;1;1;1;300;121;2700;2700;278722862;0.000000e+00;3.239196e-02;2.026628e+02
26;dpotrf;128;0;1;1;1;300;121;2700;2700;233665123;0.000000e+00;3.349212e-02;1.960057e+02
27;dpotrf;128;0;1;1;1;300;121;2700;2700;2145174067;0.000000e+00;5.826929e-02;1.126605e+02
28;dpotrf;128;0;1;1;1;300;121;2700;2700;468703135;0.000000e+00;4.046312e-02;1.622378e+02
29;dpotrf;128;0;1;1;1;300;121;2700;2700;1101513929;0.000000e+00;4.022146e-02;1.632125e+02
30;dpotrf;128;0;1;1;1;300;121;3600;3600;1801979802;0.000000e+00;5.630636e-02;2.763183e+02
31;dpotrf;128;0;1;1;1;300;121;3600;3600;1315634022;0.000000e+00;4.909792e-02;3.168867e+02
32;dpotrf;128;0;1;1;1;300;121;3600;3600;635723058;0.000000e+00;4.457325e-02;3.490542e+02
33;dpotrf;128;0;1;1;1;300;121;3600;3600;1369133069;0.000000e+00;4.680573e-02;3.324054e+02
34;dpotrf;128;0;1;1;1;300;121;3600;3600;1125898167;0.000000e+00;4.877293e-02;3.189983e+02
35;dpotrf;128;0;1;1;1;300;121;3600;3600;1059961393;0.000000e+00;4.896100e-02;3.177729e+02
36;dpotrf;128;0;1;1;1;300;121;3600;3600;2089018456;0.000000e+00;4.542409e-02;3.425160e+02
37;dpotrf;128;0;1;1;1;300;121;3600;3600;628175011;0.000000e+00;4.922361e-02;3.160776e+02
38;dpotrf;128;0;1;1;1;300;121;3600;3600;1656478042;0.000000e+00;4.570256e-02;3.404291e+02
39;dpotrf;128;0;1;1;1;300;121;3600;3600;1131176229;0.000000e+00;6.743048e-02;2.307336e+02
40;dpotrf;128;0;1;1;1;300;121;4500;4500;1653377373;0.000000e+00;5.890091e-02;5.158685e+02
41;dpotrf;128;0;1;1;1;300;121;4500;4500;859484421;0.000000e+00;6.478448e-02;4.690186e+02
42;dpotrf;128;0;1;1;1;300;121;4500;4500;1914544919;0.000000e+00;6.876651e-02;4.418594e+02
43;dpotrf;128;0;1;1;1;300;121;4500;4500;608413784;0.000000e+00;6.246588e-02;4.864275e+02
44;dpotrf;128;0;1;1;1;300;121;4500;4500;756898537;0.000000e+00;6.339210e-02;4.793204e+02
45;dpotrf;128;0;1;1;1;300;121;4500;4500;1734575198;0.000000e+00;6.138195e-02;4.950173e+02
46;dpotrf;128;0;1;1;1;300;121;4500;4500;1973594324;0.000000e+00;6.796225e-02;4.470883e+02
47;dpotrf;128;0;1;1;1;300;121;4500;4500;149798315;0.000000e+00;6.748146e-02;4.502737e+02
48;dpotrf;128;0;1;1;1;300;121;4500;4500;2038664370;0.000000e+00;7.348847e-02;4.134679e+02
49;dpotrf;128;0;1;1;1;300;121;4500;4500;1129566413;0.000000e+00;6.465528e-02;4.699558e+02
50;dpotrf;128;0;1;1;1;300;121;5400;5400;184803526;0.000000e+00;7.413872e-02;7.081668e+02
51;dpotrf;128;0;1;1;1;300;121;5400;5400;412776091;0.000000e+00;7.579415e-02;6.926996e+02
52;dpotrf;128;0;1;1;1;300;121;5400;5400;1424268980;0.000000e+00;7.400727e-02;7.094247e+02
53;dpotrf;128;0;1;1;1;300;121;5400;5400;1911759956;0.000000e+00;8.293769e-02;6.330365e+02
54;dpotrf;128;0;1;1;1;300;121;5400;5400;749241873;0.000000e+00;7.532547e-02;6.970097e+02
55;dpotrf;128;0;1;1;1;300;121;5400;5400;137806862;0.000000e+00;7.248972e-02;7.242762e+02
56;dpotrf;128;0;1;1;1;300;121;5400;5400;42999170;0.000000e+00;8.738521e-02;6.008177e+02
57;dpotrf;128;0;1;1;1;300;121;5400;5400;982906996;0.000000e+00;7.213141e-02;7.278740e+02
58;dpotrf;128;0;1;1;1;300;121;5400;5400;135497281;0.000000e+00;7.574468e-02;6.931521e+02
59;dpotrf;128;0;1;1;1;300;121;5400;5400;511702305;0.000000e+00;7.634407e-02;6.877100e+02
60;dpotrf;128;0;1;1;1;300;121;6300;6300;2084420925;0.000000e+00;1.375485e-01;6.061050e+02
61;dpotrf;128;0;1;1;1;300;121;6300;6300;1937477084;0.000000e+00;9.887839e-02;8.431452e+02
62;dpotrf;128;0;1;1;1;300;121;6300;6300;1827336327;0.000000e+00;9.533703e-02;8.744645e+02
63;dpotrf;128;0;1;1;1;300;121;6300;6300;572660336;0.000000e+00;9.881222e-02;8.437099e+02
64;dpotrf;128;0;1;1;1;300;121;6300;6300;1159126505;0.000000e+00;1.113239e-01;7.488853e+02
65;dpotrf;128;0;1;1;1;300;121;6300;6300;805750846;0.000000e+00;1.021162e-01;8.164113e+02
66;dpotrf;128;0;1;1;1;300;121;6300;6300;1632621729;0.000000e+00;1.395934e-01;5.972264e+02
67;dpotrf;128;0;1;1;1;300;121;6300;6300;1100661313;0.000000e+00;9.305156e-02;8.959424e+02
68;dpotrf;128;0;1;1;1;300;121;6300;6300;1433925857;0.000000e+00;9.226067e-02;9.036229e+02
69;dpotrf;128;0;1;1;1;300;121;6300;6300;1141616124;0.000000e+00;9.136867e-02;9.124446e+02
70;dpotrf;128;0;1;1;1;300;121;7200;7200;84353895;0.000000e+00;1.162111e-01;1.070826e+03
71;dpotrf;128;0;1;1;1;300;121;7200;7200;939819582;0.000000e+00;1.181364e-01;1.053375e+03
72;dpotrf;128;0;1;1;1;300;121;7200;7200;2001100545;0.000000e+00;1.544790e-01;8.055590e+02
73;dpotrf;128;0;1;1;1;300;121;7200;7200;1998898814;0.000000e+00;1.207203e-01;1.030828e+03
74;dpotrf;128;0;1;1;1;300;121;7200;7200;1548233367;0.000000e+00;1.146523e-01;1.085385e+03
75;dpotrf;128;0;1;1;1;300;121;7200;7200;610515434;0.000000e+00;1.166410e-01;1.066880e+03
76;dpotrf;128;0;1;1;1;300;121;7200;7200;1585990364;0.000000e+00;1.307274e-01;9.519190e+02
77;dpotrf;128;0;1;1;1;300;121;7200;7200;1374344043;0.000000e+00;1.223588e-01;1.017025e+03
78;dpotrf;128;0;1;1;1;300;121;7200;7200;760313750;0.000000e+00;1.460992e-01;8.517635e+02
79;dpotrf;128;0;1;1;1;300;121;7200;7200;1477171087;0.000000e+00;1.317642e-01;9.444287e+02
80;dpotrf;128;0;1;1;1;300;121;8100;8100;356426808;0.000000e+00;1.405965e-01;1.260201e+03
81;dpotrf;128;0;1;1;1;300;121;8100;8100;945117276;0.000000e+00;1.475826e-01;1.200547e+03
82;dpotrf;128;0;1;1;1;300;121;8100;8100;1889947178;0.000000e+00;1.432143e-01;1.237166e+03
83;dpotrf;128;0;1;1;1;300;121;8100;8100;1780695788;0.000000e+00;1.359262e-01;1.303500e+03
84;dpotrf;128;0;1;1;1;300;121;8100;8100;709393584;0.000000e+00;1.461083e-01;1.212660e+03
85;dpotrf;128;0;1;1;1;300;121;8100;8100;491705403;0.000000e+00;1.345701e-01;1.316636e+03
86;dpotrf;128;0;1;1;1;300;121;8100;8100;1918502651;0.000000e+00;1.504335e-01;1.177795e+03
87;dpotrf;128;0;1;1;1;300;121;8100;8100;752392754;0.000000e+00;1.546163e-01;1.145932e+03
88;dpotrf;128;0;1;1;1;300;121;8100;8100;1474612399;0.000000e+00;1.482764e-01;1.194930e+03
89;dpotrf;128;0;1;1;1;300;121;8100;8100;2053999932;0.000000e+00;1.318530e-01;1.343767e+03
90;dpotrf;128;0;1;1;1;300;121;9000;9000;1264095060;0.000000e+00;1.908363e-01;1.273555e+03
91;dpotrf;128;0;1;1;1;300;121;9000;9000;1411549676;0.000000e+00;1.764076e-01;1.377721e+03
92;dpotrf;128;0;1;1;1;300;121;9000;9000;1843993368;0.000000e+00;1.603231e-01;1.515942e+03
93;dpotrf;128;0;1;1;1;300;121;9000;9000;943947739;0.000000e+00;1.793002e-01;1.355495e+03
94;dpotrf;128;0;1;1;1;300;121;9000;9000;1984210012;0.000000e+00;1.648812e-01;1.474034e+03
95;dpotrf;128;0;1;1;1;300;121;9000;9000;855636226;0.000000e+00;1.592797e-01;1.525872e+03
96;dpotrf;128;0;1;1;1;300;121;9000;9000;1749698586;0.000000e+00;1.601160e-01;1.517903e+03
97;dpotrf;128;0;1;1;1;300;121;9000;9000;1469348094;0.000000e+00;1.731628e-01;1.403537e+03
98;dpotrf;128;0;1;1;1;300;121;9000;9000;1956297539;0.000000e+00;1.691078e-01;1.437193e+03
99;dpotrf;128;0;1;1;1;300;121;9000;9000;1036140795;0.000000e+00;1.698733e-01;1.430716e+03
0;dpotrf;128;0;1;1;1;300;121;9900;9900;846930886;0.000000e+00;2.110948e-01;1.532402e+03
1;dpotrf;128;0;1;1;1;300;121;9900;9900;1681692777;0.000000e+00;2.079590e-01;1.555508e+03
2;dpotrf;128;0;1;1;1;300;121;9900;9900;1714636915;0.000000e+00;1.946676e-01;1.661715e+03
3;dpotrf;128;0;1;1;1;300;121;9900;9900;1957747793;0.000000e+00;2.317100e-01;1.396064e+03
4;dpotrf;128;0;1;1;1;300;121;9900;9900;424238335;0.000000e+00;1.943668e-01;1.664287e+03
5;dpotrf;128;0;1;1;1;300;121;9900;9900;719885386;0.000000e+00;2.058351e-01;1.571559e+03
6;dpotrf;128;0;1;1;1;300;121;9900;9900;1649760492;0.000000e+00;2.320927e-01;1.393762e+03
7;dpotrf;128;0;1;1;1;300;121;9900;9900;596516649;0.000000e+00;2.333107e-01;1.386486e+03
8;dpotrf;128;0;1;1;1;300;121;9900;9900;1189641421;0.000000e+00;1.894530e-01;1.707452e+03
9;dpotrf;128;0;1;1;1;300;121;9900;9900;1025202362;0.000000e+00;2.137602e-01;1.513294e+03
10;dpotrf;128;0;1;1;1;300;121;12300;12300;1350490027;0.000000e+00;3.298829e-01;1.880560e+03
11;dpotrf;128;0;1;1;1;300;121;12300;12300;783368690;0.000000e+00;3.331081e-01;1.862352e+03
12;dpotrf;128;0;1;1;1;300;121;12300;12300;1102520059;0.000000e+00;3.621138e-01;1.713176e+03
13;dpotrf;128;0;1;1;1;300;121;12300;12300;2044897763;0.000000e+00;3.090840e-01;2.007107e+03
14;dpotrf;128;0;1;1;1;300;121;12300;12300;1967513926;0.000000e+00;3.487457e-01;1.778845e+03
15;dpotrf;128;0;1;1;1;300;121;12300;12300;1365180540;0.000000e+00;3.411526e-01;1.818437e+03
16;dpotrf;128;0;1;1;1;300;121;12300;12300;1540383426;0.000000e+00;3.365019e-01;1.843569e+03
17;dpotrf;128;0;1;1;1;300;121;12300;12300;304089172;0.000000e+00;3.402723e-01;1.823142e+03
18;dpotrf;128;0;1;1;1;300;121;12300;12300;1303455736;0.000000e+00;3.735665e-01;1.660654e+03
19;dpotrf;128;0;1;1;1;300;121;12300;12300;35005211;0.000000e+00;3.477466e-01;1.783956e+03
20;dpotrf;128;0;1;1;1;300;121;14700;14700;521595368;0.000000e+00;5.442396e-01;1.945741e+03
21;dpotrf;128;0;1;1;1;300;121;14700;14700;294702567;0.000000e+00;5.100806e-01;2.076043e+03
22;dpotrf;128;0;1;1;1;300;121;14700;14700;1726956429;0.000000e+00;5.148559e-01;2.056787e+03
23;dpotrf;128;0;1;1;1;300;121;14700;14700;336465782;0.000000e+00;5.477022e-01;1.933439e+03
24;dpotrf;128;0;1;1;1;300;121;14700;14700;861021530;0.000000e+00;5.296724e-01;1.999253e+03
25;dpotrf;128;0;1;1;1;300;121;14700;14700;278722862;0.000000e+00;5.263199e-01;2.011987e+03
26;dpotrf;128;0;1;1;1;300;121;14700;14700;233665123;0.000000e+00;5.221879e-01;2.027908e+03
27;dpotrf;128;0;1;1;1;300;121;14700;14700;2145174067;0.000000e+00;5.020851e-01;2.109103e+03
28;dpotrf;128;0;1;1;1;300;121;14700;14700;468703135;0.000000e+00;4.981713e-01;2.125673e+03
29;dpotrf;128;0;1;1;1;300;121;14700;14700;1101513929;0.000000e+00;5.152161e-01;2.055349e+03
30;dpotrf;128;0;1;1;1;300;121;17100;17100;1801979802;0.000000e+00;7.402478e-01;2.251791e+03
31;dpotrf;128;0;1;1;1;300;121;17100;17100;1315634022;0.000000e+00;7.641297e-01;2.181414e+03
32;dpotrf;128;0;1;1;1;300;121;17100;17100;635723058;0.000000e+00;6.972440e-01;2.390674e+03
33;dpotrf;128;0;1;1;1;300;121;17100;17100;1369133069;0.000000e+00;7.664553e-01;2.174795e+03
34;dpotrf;128;0;1;1;1;300;121;17100;17100;1125898167;0.000000e+00;7.578822e-01;2.199396e+03
35;dpotrf;128;0;1;1;1;300;121;17100;17100;1059961393;0.000000e+00;7.729250e-01;2.156591e+03
36;dpotrf;128;0;1;1;1;300;121;17100;17100;2089018456;0.000000e+00;8.044385e-01;2.072108e+03
37;dpotrf;128;0;1;1;1;300;121;17100;17100;628175011;0.000000e+00;7.453017e-01;2.236521e+03
38;dpotrf;128;0;1;1;1;300;121;17100;17100;1656478042;0.000000e+00;7.707239e-01;2.162750e+03
39;dpotrf;128;0;1;1;1;300;121;17100;17100;1131176229;0.000000e+00;7.683272e-01;2.169496e+03
40;dpotrf;128;0;1;1;1;300;121;19500;19500;1653377373;0.000000e+00;1.088191e+00;2.271489e+03
41;dpotrf;128;0;1;1;1;300;121;19500;19500;859484421;0.000000e+00;1.086136e+00;2.275788e+03
42;dpotrf;128;0;1;1;1;300;121;19500;19500;1914544919;0.000000e+00;1.213939e+00;2.036194e+03
43;dpotrf;128;0;1;1;1;300;121;19500;19500;608413784;0.000000e+00;1.120813e+00;2.205377e+03
44;dpotrf;128;0;1;1;1;300;121;19500;19500;756898537;0.000000e+00;1.074043e+00;2.301412e+03
45;dpotrf;128;0;1;1;1;300;121;19500;19500;1734575198;0.000000e+00;1.070978e+00;2.307997e+03
46;dpotrf;128;0;1;1;1;300;121;19500;19500;1973594324;0.000000e+00;1.033328e+00;2.392091e+03
47;dpotrf;128;0;1;1;1;300;121;19500;19500;149798315;0.000000e+00;1.147384e+00;2.154305e+03
48;dpotrf;128;0;1;1;1;300;121;19500;19500;2038664370;0.000000e+00;1.077428e+00;2.294181e+03
49;dpotrf;128;0;1;1;1;300;121;19500;19500;1129566413;0.000000e+00;1.060609e+00;2.330561e+03
50;dpotrf;128;0;1;1;1;300;121;21900;21900;184803526;0.000000e+00;1.548855e+00;2.260633e+03
51;dpotrf;128;0;1;1;1;300;121;21900;21900;412776091;0.000000e+00;1.552603e+00;2.255176e+03
52;dpotrf;128;0;1;1;1;300;121;21900;21900;1424268980;0.000000e+00;1.534375e+00;2.281967e+03
53;dpotrf;128;0;1;1;1;300;121;21900;21900;1911759956;0.000000e+00;1.613068e+00;2.170642e+03
54;dpotrf;128;0;1;1;1;300;121;21900;21900;749241873;0.000000e+00;1.504356e+00;2.327503e+03
55;dpotrf;128;0;1;1;1;300;121;21900;21900;137806862;0.000000e+00;1.484548e+00;2.358558e+03
56;dpotrf;128;0;1;1;1;300;121;21900;21900;42999170;0.000000e+00;1.559734e+00;2.244866e+03
57;dpotrf;128;0;1;1;1;300;121;21900;21900;982906996;0.000000e+00;1.540230e+00;2.273292e+03
58;dpotrf;128;0;1;1;1;300;121;21900;21900;135497281;0.000000e+00;1.485290e+00;2.357379e+03
59;dpotrf;128;0;1;1;1;300;121;21900;21900;511702305;0.000000e+00;1.505235e+00;2.326144e+03
60;dpotrf;128;0;1;1;1;300;121;24300;24300;2084420925;0.000000e+00;2.084178e+00;2.295037e+03
61;dpotrf;128;0;1;1;1;300;121;24300;24300;1937477084;0.000000e+00;2.129342e+00;2.246358e+03
62;dpotrf;128;0;1;1;1;300;121;24300;24300;1827336327;0.000000e+00;2.076250e+00;2.303800e+03
63;dpotrf;128;0;1;1;1;300;121;24300;24300;572660336;0.000000e+00;2.014135e+00;2.374847e+03
64;dpotrf;128;0;1;1;1;300;121;24300;24300;1159126505;0.000000e+00;2.044666e+00;2.339387e+03
65;dpotrf;128;0;1;1;1;300;121;24300;24300;805750846;0.000000e+00;2.138772e+00;2.236454e+03
66;dpotrf;128;0;1;1;1;300;121;24300;24300;1632621729;0.000000e+00;2.040886e+00;2.343720e+03
67;dpotrf;128;0;1;1;1;300;121;24300;24300;1100661313;0.000000e+00;2.128014e+00;2.247760e+03
68;dpotrf;128;0;1;1;1;300;121;24300;24300;1433925857;0.000000e+00;2.003790e+00;2.387109e+03
69;dpotrf;128;0;1;1;1;300;121;24300;24300;1141616124;0.000000e+00;2.045280e+00;2.338684e+03
70;dpotrf;128;0;1;1;1;300;121;26700;26700;84353895;0.000000e+00;2.826297e+00;2.245014e+03
71;dpotrf;128;0;1;1;1;300;121;26700;26700;939819582;0.000000e+00;2.661648e+00;2.383891e+03
72;dpotrf;128;0;1;1;1;300;121;26700;26700;2001100545;0.000000e+00;2.803208e+00;2.263506e+03
73;dpotrf;128;0;1;1;1;300;121;26700;26700;1998898814;0.000000e+00;2.786671e+00;2.276938e+03
74;dpotrf;128;0;1;1;1;300;121;26700;26700;1548233367;0.000000e+00;2.749916e+00;2.307372e+03
75;dpotrf;128;0;1;1;1;300;121;26700;26700;610515434;0.000000e+00;2.796909e+00;2.268604e+03
76;dpotrf;128;0;1;1;1;300;121;26700;26700;1585990364;0.000000e+00;2.870360e+00;2.210551e+03
77;dpotrf;128;0;1;1;1;300;121;26700;26700;1374344043;0.000000e+00;2.789823e+00;2.274365e+03
78;dpotrf;128;0;1;1;1;300;121;26700;26700;760313750;0.000000e+00;2.743440e+00;2.312818e+03
79;dpotrf;128;0;1;1;1;300;121;26700;26700;1477171087;0.000000e+00;2.740702e+00;2.315129e+03
80;dpotrf;128;0;1;1;1;300;121;29100;29100;356426808;0.000000e+00;3.757560e+00;2.186121e+03
81;dpotrf;128;0;1;1;1;300;121;29100;29100;945117276;0.000000e+00;3.542025e+00;2.319148e+03
82;dpotrf;128;0;1;1;1;300;121;29100;29100;1889947178;0.000000e+00;3.528676e+00;2.327921e+03
83;dpotrf;128;0;1;1;1;300;121;29100;29100;1780695788;0.000000e+00;3.764549e+00;2.182063e+03
84;dpotrf;128;0;1;1;1;300;121;29100;29100;709393584;0.000000e+00;3.580513e+00;2.294219e+03
85;dpotrf;128;0;1;1;1;300;121;29100;29100;491705403;0.000000e+00;3.647319e+00;2.252197e+03
86;dpotrf;128;0;1;1;1;300;121;29100;29100;1918502651;0.000000e+00;3.673126e+00;2.236373e+03
87;dpotrf;128;0;1;1;1;300;121;29100;29100;752392754;0.000000e+00;3.571489e+00;2.300015e+03
88;dpotrf;128;0;1;1;1;300;121;29100;29100;1474612399;0.000000e+00;3.711880e+00;2.213024e+03
89;dpotrf;128;0;1;1;1;300;121;29100;29100;2053999932;0.000000e+00;3.669180e+00;2.238779e+03
