Id;Function;threads;gpus;P;Q;mtxfmt;nb;transA;transB;m;n;k;lda;ldb;ldc;alpha;beta;seedA;seedB;seedC;tsub;time;gflops
0;dgemm;128;0;1;1;0;300;111;111;900;900;900;900;900;900;4.892778e-01;-1.846424e-01;1649760492;596516649;1189641421;0.000000e+00;8.029938e-03;1.815705e+02
1;dgemm;128;0;1;1;0;300;111;111;900;900;900;900;900;900;-2.410269e-01;4.000452e-01;783368690;1102520059;2044897763;0.000000e+00;1.405311e-02;1.037493e+02
2;dgemm;128;0;1;1;0;300;111;111;900;900;900;900;900;900;4.141058e-01;-3.017109e-01;1540383426;304089172;1303455736;0.000000e+00;1.294899e-02;1.125957e+02
3;dgemm;128;0;1;1;0;300;111;111;900;900;900;900;900;900;-3.054879e-01;-1.757242e-01;294702567;1726956429;336465782;0.000000e+00;6.647110e-03;2.193434e+02
4;dgemm;128;0;1;1;0;300;111;111;900;900;900;900;900;900;4.797187e-01;2.821215e-01;233665123;2145174067;468703135;0.000000e+00;1.470089e-02;9.917767e+01
5;dgemm;128;0;1;1;0;300;111;111;900;900;900;900;900;900;3.112590e-01;3.332689e-02;1315634022;635723058;1369133069;0.000000e+00;1.278591e-02;1.140318e+02
6;dgemm;128;0;1;1;0;300;111;111;900;900;900;900;900;900;-2.396071e-01;2.196488e-02;2089018456;628175011;1656478042;0.000000e+00;1.250482e-02;1.165951e+02
7;dgemm;128;0;1;1;0;300;111;111;900;900;900;900;900;900;5.576077e-02;-4.098657e-01;859484421;1914544919;608413784;0.000000e+00;1.300788e-02;1.120859e+02
8;dgemm;128;0;1;1;0;300;111;111;900;900;900;900;900;900;-2.172434e-01;3.304604e-01;1973594324;149798315;2038664370;0.000000e+00;1.235795e-02;1.179807e+02
9;dgemm;128;0;1;1;0;300;111;111;900;900;900;900;900;900;1.632813e-02;3.212047e-02;412776091;1424268980;1911759956;0.000000e+00;6.205797e-03;2.349416e+02
10;dgemm;128;0;1;1;0;300;111;111;1800;1800;1800;1800;1800;1800;1.752074e-01;-2.459049e-03;42999170;982906996;135497281;0.000000e+00;4.451704e-02;2.620120e+02
11;dgemm;128;0;1;1;0;300;111;111;1800;1800;1800;1800;1800;1800;-4.932447e-01;-1.333755e-01;1937477084;1827336327;572660336;0.000000e+00;3.581595e-02;3.256649e+02
12;dgemm;128;0;1;1;0;300;111;111;1800;1800;1800;1800;1800;1800;-1.501402e-01;2.390371e-01;1632621729;1100661313;1433925857;0.000000e+00;3.207612e-02;3.636350e+02
13;dgemm;128;0;1;1;0;300;111;111;1800;1800;1800;1800;1800;1800;2.189649e-01;-2.465265e-01;939819582;2001100545;1998898814;0.000000e+00;3.202605e-02;3.642035e+02
14;dgemm;128;0;1;1;0;300;111;111;1800;1800;1800;1800;1800;1800;-2.416937e-01;-1.401268e-01;1585990364;1374344043;760313750;0.000000e+00;3.125095e-02;3.732366e+02
15;dgemm;128;0;1;1;0;300;111;111;1800;1800;1800;1800;1800;1800;3.187297e-01;-1.733443e-01;945117276;1889947178;1780695788;0.000000e+00;3.241706e-02;3.598106e+02
16;dgemm;128;0;1;1;0;300;111;111;1800;1800;1800;1800;1800;1800;-4.132594e-01;7.699516e-02;1918502651;752392754;1474612399;0.000000e+00;2.709389e-02;4.305030e+02
17;dgemm;128;0;1;1;0;300;111;111;1800;1800;1800;1800;1800;1800;-1.543593e-01;-4.222437e-01;1411549676;1843993368;943947739;0.000000e+00;4.539990e-02;2.569168e+02
18;dgemm;128;0;1;1;0;300;111;111;1800;1800;1800;1800;1800;1800;1.866877e-01;-3.211111e-01;1749698586;1469348094;1956297539;0.000000e+00;3.804183e-02;3.066099e+02
19;dgemm;128;0;1;1;0;300;111;111;1800;1800;1800;1800;1800;1800;-3.490223e-01;-4.443388e-01;2040651434;1975960378;317097467;0.000000e+00;2.476406e-02;4.710051e+02
20;dgemm;128;0;1;1;0;300;111;111;2700;2700;2700;2700;2700;2700;-1.054364e-01;2.030082e-01;927612902;1330573317;603570492;0.000000e+00;5.589890e-02;7.042356e+02
21;dgemm;128;0;1;1;0;300;111;111;2700;2700;2700;2700;2700;2700;-4.352839e-01;1.623906e-01;959997301;485560280;402724286;0.000000e+00;5.722094e-02;6.879650e+02
22;dgemm;128;0;1;1;0;300;111;111;2700;2700;2700;2700;2700;2700;4.667617e-01;1.036922e-01;894429689;364228444;1947346619;0.000000e+00;5.860114e-02;6.717617e+02
23;dgemm;128;0;1;1;0;300;111;111;2700;2700;2700;2700;2700;2700;4.665847e-01;3.770548e-01;1063958031;1633108117;2114738097;0.000000e+00;6.674314e-02;5.898135e+02
24;dgemm;128;0;1;1;0;300;111;111;2700;2700;2700;2700;2700;2700;-4.980996e-01;2.856491e-01;822890675;1610120709;791698927;0.000000e+00;5.555296e-02;7.086211e+02
25;dgemm;128;0;1;1;0;300;111;111;2700;2700;2700;2700;2700;2700;3.592840e-01;-4.182928e-01;1255179497;524872353;327254586;0.000000e+00;4.951787e-02;7.949857e+02
26;dgemm;128;0;1;1;0;300;111;111;2700;2700;2700;2700;2700;2700;9.307665e-02;3.296821e-01;1703964683;352406219;1600028624;0.000000e+00;4.563212e-02;8.626817e+02
27;dgemm;128;0;1;1;0;300;111;111;2700;2700;2700;2700;2700;2700;-4.719053e-01;2.807858e-01;112805732;1120048829;378409503;0.000000e+00;4.664612e-02;8.439287e+02
28;dgemm;128;0;1;1;0;300;111;111;2700;2700;2700;2700;2700;2700;2.744957e-01;-3.785920e-02;1573363368;1409959708;2077486715;0.000000e+00;4.760599e-02;8.269127e+02
29;dgemm;128;0;1;1;0;300;111;111;2700;2700;2700;2700;2700;2700;1.799312e-01;9.546876e-03;200747796;289700723;1117142618;0.000000e+00;4.585195e-02;8.585459e+02
30;dgemm;128;0;1;1;0;300;111;111;3600;3600;3600;3600;3600;3600;1.744033e-01;3.861393e-01;439493451;990892921;1760243555;0.000000e+00;1.163168e-01;8.022229e+02
31;dgemm;128;0;1;1;0;300;111;111;3600;3600;3600;3600;3600;3600;3.018442e-01;-4.633856e-02;111537764;338888228;2147469841;0.000000e+00;1.132829e-01;8.237076e+02
32;dgemm;128;0;1;1;0;300;111;111;3600;3600;3600;3600;3600;3600;2.072774e-01;1.109783e-01;269441500;2142757034;116087764;0.000000e+00;1.130838e-01;8.251577e+02
33;dgemm;128;0;1;1;0;300;111;111;3600;3600;3600;3600;3600;3600;-2.366607e-01;9.513167e-02;8936987;1982275856;1275373743;0.000000e+00;1.119242e-01;8.337073e+02
34;dgemm;128;0;1;1;0;300;111;111;3600;3600;3600;3600;3600;3600;-3.952797e-01;-4.960891e-01;841148365;1960709859;1760281936;0.000000e+00;1.081450e-01;8.628416e+02
35;dgemm;128;0;1;1;0;300;111;111;3600;3600;3600;3600;3600;3600;-2.607432e-01;-3.651100e-01;1244316437;971899228;1476153275;0.000000e+00;1.050520e-01;8.882459e+02
36;dgemm;128;0;1;1;0;300;111;111;3600;3600;3600;3600;3600;3600;-1.389722e-01;-8.843738e-02;1626276121;653468858;2130794395;0.000000e+00;1.066949e-01;8.745682e+02
37;dgemm;128;0;1;1;0;300;111;111;3600;3600;3600;3600;3600;3600;9.367129e-02;9.508020e-02;1605908235;1350573793;76065818;0.000000e+00;1.135030e-01;8.221106e+02
38;dgemm;128;0;1;1;0;300;111;111;3600;3600;3600;3600;3600;3600;-4.585682e-01;3.268176e-01;1987231011;1875335928;1784639529;0.000000e+00;1.112590e-01;8.386918e+02
39;dgemm;128;0;1;1;0;300;111;111;3600;3600;3600;3600;3600;3600;-6.830955e-02;1.535754e-01;1939964443;2112255763;1432114613;0.000000e+00;1.093800e-01;8.530992e+02
40;dgemm;128;0;1;1;0;300;111;111;4500;4500;4500;4500;4500;4500;2.725473e-01;1.883941e-01;1782436840;1909002904;165344818;0.000000e+00;2.060990e-01;8.842836e+02
41;dgemm;128;0;1;1;0;300;111;111;4500;4500;4500;4500;4500;4500;2.191162e-01;-3.021529e-01;1351797369;492067917;1504569917;0.000000e+00;2.002189e-01;9.102537e+02
42;dgemm;128;0;1;1;0;300;111;111;4500;4500;4500;4500;4500;4500;-3.280447e-01;-3.223358e-01;496987743;159259470;1359512183;0.000000e+00;2.059960e-01;8.847258e+02
43;dgemm;128;0;1;1;0;300;111;111;4500;4500;4500;4500;4500;4500;-4.513911e-01;3.904790e-01;1096689772;2086206725;601385644;0.000000e+00;1.982009e-01;9.195214e+02
44;dgemm;128;0;1;1;0;300;111;111;4500;4500;4500;4500;4500;4500;-4.403555e-01;9.074247e-02;243268139;1012502954;1272469786;0.000000e+00;1.948600e-01;9.352870e+02
45;dgemm;128;0;1;1;0;300;111;111;4500;4500;4500;4500;4500;4500;1.908228e-02;4.440272e-01;722308542;1820388464;933110197;0.000000e+00;2.012870e-01;9.054235e+02
46;dgemm;128;0;1;1;0;300;111;111;4500;4500;4500;4500;4500;4500;-1.017733e-01;4.140073e-01;1285228804;1789376348;502278611;0.000000e+00;2.069440e-01;8.806731e+02
47;dgemm;128;0;1;1;0;300;111;111;4500;4500;4500;4500;4500;4500;-2.659684e-01;-2.731221e-01;1034949299;654887343;1529195746;0.000000e+00;2.062831e-01;8.834946e+02
48;dgemm;128;0;1;1;0;300;111;111;4500;4500;4500;4500;4500;4500;1.985016e-01;4.068633e-01;87755422;889023311;1494613810;0.000000e+00;1.978052e-01;9.213612e+02
49;dgemm;128;0;1;1;0;300;111;111;4500;4500;4500;4500;4500;4500;-4.302884e-01;-3.682695e-01;745425661;396473730;1308044878;0.000000e+00;2.175550e-01;8.377190e+02
50;dgemm;128;0;1;1;0;300;111;111;5400;5400;5400;5400;5400;5400;3.002688e-01;4.210193e-01;705178736;1590079444;434248626;0.000000e+00;2.814400e-01;1.118988e+03
51;dgemm;128;0;1;1;0;300;111;111;5400;5400;5400;5400;5400;5400;-3.696050e-01;-2.996627e-01;1402586708;552473416;1143408282;0.000000e+00;2.880890e-01;1.093162e+03
52;dgemm;128;0;1;1;0;300;111;111;5400;5400;5400;5400;5400;5400;-3.095740e-01;-1.111416e-01;1884167637;1473442062;201305624;0.000000e+00;2.843802e-01;1.107419e+03
53;dgemm;128;0;1;1;0;300;111;111;5400;5400;5400;5400;5400;5400;3.214526e-01;-2.291051e-01;1238433452;1273911899;1431419379;0.000000e+00;2.874932e-01;1.095428e+03
54;dgemm;128;0;1;1;0;300;111;111;5400;5400;5400;5400;5400;5400;-4.764616e-02;-2.823082e-01;619290071;707900973;407487131;0.000000e+00;2.863500e-01;1.099801e+03
55;dgemm;128;0;1;1;0;300;111;111;5400;5400;5400;5400;5400;5400;-2.829039e-01;4.689267e-01;1776808933;711845894;404158660;0.000000e+00;2.839360e-01;1.109151e+03
56;dgemm;128;0;1;1;0;300;111;111;5400;5400;5400;5400;5400;5400;-9.802407e-02;-3.473849e-01;1973387981;1642548899;1501252996;0.000000e+00;2.877810e-01;1.094332e+03
57;dgemm;128;0;1;1;0;300;111;111;5400;5400;5400;5400;5400;5400;-2.998149e-02;-6.245404e-02;824272813;1662739668;2025187190;0.000000e+00;2.923970e-01;1.077056e+03
58;dgemm;128;0;1;1;0;300;111;111;5400;5400;5400;5400;5400;5400;1.613464e-01;1.651206e-01;437116466;1704365084;1176911340;0.000000e+00;2.891781e-01;1.089045e+03
59;dgemm;128;0;1;1;0;300;111;111;5400;5400;5400;5400;5400;5400;-9.329343e-02;2.766544e-01;1953443376;1876855542;1069755936;0.000000e+00;2.894030e-01;1.088199e+03
60;dgemm;128;0;1;1;0;300;111;111;6300;6300;6300;6300;6300;6300;-4.205594e-01;1.129006e-01;588219756;1856669179;1057418418;0.000000e+00;3.477471e-01;1.438097e+03
61;dgemm;128;0;1;1;0;300;111;111;6300;6300;6300;6300;6300;6300;1.349872e-02;-2.496970e-01;1065103348;625032172;387451659;0.000000e+00;3.492041e-01;1.432097e+03
62;dgemm;128;0;1;1;0;300;111;111;6300;6300;6300;6300;6300;6300;9.058696e-02;7.370132e-02;298625210;1295166342;1057467587;0.000000e+00;3.526320e-01;1.418175e+03
63;dgemm;128;0;1;1;0;300;111;111;6300;6300;6300;6300;6300;6300;-3.018314e-02;-5.773157e-02;382697713;476667372;1070575321;0.000000e+00;3.509581e-01;1.424939e+03
64;dgemm;128;0;1;1;0;300;111;111;6300;6300;6300;6300;6300;6300;-4.650331e-01;-1.058972e-01;774044599;697517721;2001229904;0.000000e+00;3.596969e-01;1.390321e+03
65;dgemm;128;0;1;1;0;300;111;111;6300;6300;6300;6300;6300;6300;4.801672e-01;-2.032396e-01;1797073940;1756915667;1065311705;0.000000e+00;3.532951e-01;1.415514e+03
66;dgemm;128;0;1;1;0;300;111;111;6300;6300;6300;6300;6300;6300;2.132438e-01;1.658781e-01;1414829150;1307565984;555996658;0.000000e+00;3.505139e-01;1.426745e+03
67;dgemm;128;0;1;1;0;300;111;111;6300;6300;6300;6300;6300;6300;1.800331e-01;-1.232803e-01;231602422;1389867269;780821396;0.000000e+00;3.519931e-01;1.420750e+03
68;dgemm;128;0;1;1;0;300;111;111;6300;6300;6300;6300;6300;6300;3.404283e-01;-1.210446e-01;195740084;917679292;2006811972;0.000000e+00;3.425031e-01;1.460115e+03
69;dgemm;128;0;1;1;0;300;111;111;6300;6300;6300;6300;6300;6300;1.960490e-01;-2.057583e-01;1414647625;1635905385;1046741222;0.000000e+00;3.586040e-01;1.394558e+03
70;dgemm;128;0;1;1;0;300;111;111;7200;7200;7200;7200;7200;7200;-4.981229e-01;1.797563e-01;1343606042;1111783898;446340713;0.000000e+00;4.297731e-01;1.736954e+03
71;dgemm;128;0;1;1;0;300;111;111;7200;7200;7200;7200;7200;7200;1.449892e-01;-2.994312e-01;1782280524;846942590;524688209;0.000000e+00;4.255280e-01;1.754282e+03
72;dgemm;128;0;1;1;0;300;111;111;7200;7200;7200;7200;7200;7200;-7.231379e-02;2.098748e-01;1371499336;2114937732;726371155;0.000000e+00;4.262681e-01;1.751236e+03
73;dgemm;128;0;1;1;0;300;111;111;7200;7200;7200;7200;7200;7200;-2.503210e-01;-2.840220e-01;882160379;11614769;1682085273;0.000000e+00;4.212039e-01;1.772291e+03
74;dgemm;128;0;1;1;0;300;111;111;7200;7200;7200;7200;7200;7200;9.597039e-02;1.728868e-01;246247255;1858721860;1548348142;0.000000e+00;4.305501e-01;1.733819e+03
75;dgemm;128;0;1;1;0;300;111;111;7200;7200;7200;7200;7200;7200;-7.244259e-02;3.629747e-01;2118421993;1520223205;452867621;0.000000e+00;4.259322e-01;1.752617e+03
76;dgemm;128;0;1;1;0;300;111;111;7200;7200;7200;7200;7200;7200;-4.022054e-01;3.532503e-01;201690613;213801961;822262754;0.000000e+00;4.231510e-01;1.764136e+03
77;dgemm;128;0;1;1;0;300;111;111;7200;7200;7200;7200;7200;7200;-4.352033e-02;2.911775e-01;1737518944;282828202;110613202;0.000000e+00;4.238842e-01;1.761085e+03
78;dgemm;128;0;1;1;0;300;111;111;7200;7200;7200;7200;7200;7200;-3.380140e-01;-1.158719e-01;1676902021;1486222842;950390868;0.000000e+00;4.307380e-01;1.733063e+03
79;dgemm;128;0;1;1;0;300;111;111;7200;7200;7200;7200;7200;7200;-3.254125e-01;4.026002e-01;1242608872;1137949908;1277849958;0.000000e+00;4.298670e-01;1.736574e+03
80;dgemm;128;0;1;1;0;300;111;111;8100;8100;8100;8100;8100;8100;-7.731044e-02;2.584243e-01;1908518808;1023457753;364686248;0.000000e+00;5.572309e-01;1.907435e+03
81;dgemm;128;0;1;1;0;300;111;111;8100;8100;8100;8100;8100;8100;-3.124503e-01;3.608416e-01;1329132133;1280321648;501772890;0.000000e+00;5.580261e-01;1.904717e+03
82;dgemm;128;0;1;1;0;300;111;111;8100;8100;8100;8100;8100;8100;8.143046e-02;2.072399e-01;212251746;1983690368;364319529;0.000000e+00;5.489640e-01;1.936160e+03
83;dgemm;128;0;1;1;0;300;111;111;8100;8100;8100;8100;8100;8100;2.429254e-01;3.618715e-01;1775473788;624549797;767066249;0.000000e+00;5.617490e-01;1.892094e+03
84;dgemm;128;0;1;1;0;300;111;111;8100;8100;8100;8100;8100;8100;2.177558e-01;-2.828171e-01;1750003033;1415505363;78012497;0.000000e+00;6.037488e-01;1.760471e+03
85;dgemm;128;0;1;1;0;300;111;111;8100;8100;8100;8100;8100;8100;3.155647e-01;-4.765819e-01;1344247686;1795519125;661761152;0.000000e+00;7.097251e-01;1.497597e+03
86;dgemm;128;0;1;1;0;300;111;111;8100;8100;8100;8100;8100;8100;1.085222e-01;-8.764404e-02;1315209188;235649157;1448703729;0.000000e+00;7.381859e-01;1.439857e+03
87;dgemm;128;0;1;1;0;300;111;111;8100;8100;8100;8100;8100;8100;5.964717e-02;3.343596e-01;430253414;861543921;677870460;0.000000e+00;6.115069e-01;1.738136e+03
88;dgemm;128;0;1;1;0;300;111;111;8100;8100;8100;8100;8100;8100;-3.852038e-01;-3.449149e-01;828388027;1144278050;332266748;0.000000e+00;5.557959e-01;1.912360e+03
89;dgemm;128;0;1;1;0;300;111;111;8100;8100;8100;8100;8100;8100;-2.132347e-01;-3.266376e-02;816504794;820697697;655858699;0.000000e+00;5.535660e-01;1.920064e+03
90;dgemm;128;0;1;1;0;300;111;111;9000;9000;9000;9000;9000;9000;4.306626e-01;3.748097e-01;1395132002;1186090428;1974806403;0.000000e+00;8.758101e-01;1.664744e+03
91;dgemm;128;0;1;1;0;300;111;111;9000;9000;9000;9000;9000;9000;-2.001786e-01;4.867196e-01;1498617647;669908538;1387036159;0.000000e+00;8.014400e-01;1.819225e+03
92;dgemm;128;0;1;1;0;300;111;111;9000;9000;9000;9000;9000;9000;1.290300e-01;2.190988e-01;1812282134;1328104339;1380171692;0.000000e+00;8.559339e-01;1.703403e+03
93;dgemm;128;0;1;1;0;300;111;111;9000;9000;9000;9000;9000;9000;1.972368e-02;-3.289758e-01;777720504;1543755629;1722060049;0.000000e+00;7.805970e-01;1.867801e+03
94;dgemm;128;0;1;1;0;300;111;111;9000;9000;9000;9000;9000;9000;-1.628764e-01;-1.178982e-01;70636429;136495343;1472576335;0.000000e+00;8.585420e-01;1.698228e+03
95;dgemm;128;0;1;1;0;300;111;111;9000;9000;9000;9000;9000;9000;-3.497582e-01;-9.472418e-02;1503885238;1219407971;2416949;0.000000e+00;7.803202e-01;1.868464e+03
96;dgemm;128;0;1;1;0;300;111;111;9000;9000;9000;9000;9000;9000;-1.213255e-01;-3.664051e-01;561717988;1407392292;1841585795;0.000000e+00;8.425660e-01;1.730428e+03
97;dgemm;128;0;1;1;0;300;111;111;9000;9000;9000;9000;9000;9000;3.538300e-01;-4.514458e-01;1433102829;1887658390;1402961682;0.000000e+00;7.989690e-01;1.824852e+03
98;dgemm;128;0;1;1;0;300;111;111;9000;9000;9000;9000;9000;9000;-3.514624e-01;-2.320307e-01;400000569;337453826;1081174232;0.000000e+00;8.721931e-01;1.671648e+03
99;dgemm;128;0;1;1;0;300;111;111;9000;9000;9000;9000;9000;9000;-1.551027e-01;-2.203633e-01;1941690360;410409117;847228023;0.000000e+00;7.267530e-01;2.006184e+03
0;dgemm;128;0;1;1;0;300;111;111;9900;9900;9900;9900;9900;9900;4.892778e-01;-1.846424e-01;1649760492;596516649;1189641421;0.000000e+00;1.177487e+00;1.648085e+03
1;dgemm;128;0;1;1;0;300;111;111;9900;9900;9900;9900;9900;9900;-2.410269e-01;4.000452e-01;783368690;1102520059;2044897763;0.000000e+00;1.182063e+00;1.641704e+03
2;dgemm;128;0;1;1;0;300;111;111;9900;9900;9900;9900;9900;9900;4.141058e-01;-3.017109e-01;1540383426;304089172;1303455736;0.000000e+00;1.172607e+00;1.654943e+03
3;dgemm;128;0;1;1;0;300;111;111;9900;9900;9900;9900;9900;9900;-3.054879e-01;-1.757242e-01;294702567;1726956429;336465782;0.000000e+00;1.130421e+00;1.716704e+03
4;dgemm;128;0;1;1;0;300;111;111;9900;9900;9900;9900;9900;9900;4.797187e-01;2.821215e-01;233665123;2145174067;468703135;0.000000e+00;1.123665e+00;1.727026e+03
5;dgemm;128;0;1;1;0;300;111;111;9900;9900;9900;9900;9900;9900;3.112590e-01;3.332689e-02;1315634022;635723058;1369133069;0.000000e+00;1.190988e+00;1.629402e+03
6;dgemm;128;0;1;1;0;300;111;111;9900;9900;9900;9900;9900;9900;-2.396071e-01;2.196488e-02;2089018456;628175011;1656478042;0.000000e+00;1.176205e+00;1.649881e+03
7;dgemm;128;0;1;1;0;300;111;111;9900;9900;9900;9900;9900;9900;5.576077e-02;-4.098657e-01;859484421;1914544919;608413784;0.000000e+00;1.172288e+00;1.655393e+03
8;dgemm;128;0;1;1;0;300;111;111;9900;9900;9900;9900;9900;9900;-2.172434e-01;3.304604e-01;1973594324;149798315;2038664370;0.000000e+00;1.166839e+00;1.663124e+03
9;dgemm;128;0;1;1;0;300;111;111;9900;9900;9900;9900;9900;9900;1.632813e-02;3.212047e-02;412776091;1424268980;1911759956;0.000000e+00;1.172404e+00;1.655230e+03
10;dgemm;128;0;1;1;0;300;111;111;12300;12300;12300;12300;12300;12300;1.752074e-01;-2.459049e-03;42999170;982906996;135497281;0.000000e+00;2.031096e+00;1.832377e+03
11;dgemm;128;0;1;1;0;300;111;111;12300;12300;12300;12300;12300;12300;-4.932447e-01;-1.333755e-01;1937477084;1827336327;572660336;0.000000e+00;2.029714e+00;1.833625e+03
12;dgemm;128;0;1;1;0;300;111;111;12300;12300;12300;12300;12300;12300;-1.501402e-01;2.390371e-01;1632621729;1100661313;1433925857;0.000000e+00;2.026300e+00;1.836714e+03
13;dgemm;128;0;1;1;0;300;111;111;12300;12300;12300;12300;12300;12300;2.189649e-01;-2.465265e-01;939819582;2001100545;1998898814;0.000000e+00;1.960468e+00;1.898391e+03
14;dgemm;128;0;1;1;0;300;111;111;12300;12300;12300;12300;12300;12300;-2.416937e-01;-1.401268e-01;1585990364;1374344043;760313750;0.000000e+00;2.007937e+00;1.853511e+03
15;dgemm;128;0;1;1;0;300;111;111;12300;12300;12300;12300;12300;12300;3.187297e-01;-1.733443e-01;945117276;1889947178;1780695788;0.000000e+00;2.027748e+00;1.835403e+03
16;dgemm;128;0;1;1;0;300;111;111;12300;12300;12300;12300;12300;12300;-4.132594e-01;7.699516e-02;1918502651;752392754;1474612399;0.000000e+00;2.030408e+00;1.832998e+03
17;dgemm;128;0;1;1;0;300;111;111;12300;12300;12300;12300;12300;12300;-1.543593e-01;-4.222437e-01;1411549676;1843993368;943947739;0.000000e+00;2.039936e+00;1.824437e+03
18;dgemm;128;0;1;1;0;300;111;111;12300;12300;12300;12300;12300;12300;1.866877e-01;-3.211111e-01;1749698586;1469348094;1956297539;0.000000e+00;2.037033e+00;1.827037e+03
19;dgemm;128;0;1;1;0;300;111;111;12300;12300;12300;12300;12300;12300;-3.490223e-01;-4.443388e-01;2040651434;1975960378;317097467;0.000000e+00;1.949604e+00;1.908969e+03
20;dgemm;128;0;1;1;0;300;111;111;14700;14700;14700;14700;14700;14700;-1.054364e-01;2.030082e-01;927612902;1330573317;603570492;0.000000e+00;3.334733e+00;1.905114e+03
21;dgemm;128;0;1;1;0;300;111;111;14700;14700;14700;14700;14700;14700;-4.352839e-01;1.623906e-01;959997301;485560280;402724286;0.000000e+00;3.330133e+00;1.907745e+03
22;dgemm;128;0;1;1;0;300;111;111;14700;14700;14700;14700;14700;14700;4.667617e-01;1.036922e-01;894429689;364228444;1947346619;0.000000e+00;3.310561e+00;1.919024e+03
23;dgemm;128;0;1;1;0;300;111;111;14700;14700;14700;14700;14700;14700;4.665847e-01;3.770548e-01;1063958031;1633108117;2114738097;0.000000e+00;3.237187e+00;1.962521e+03
24;dgemm;128;0;1;1;0;300;111;111;14700;14700;14700;14700;14700;14700;-4.980996e-01;2.856491e-01;822890675;1610120709;791698927;0.000000e+00;3.318835e+00;1.914240e+03
25;dgemm;128;0;1;1;0;300;111;111;14700;14700;14700;14700;14700;14700;3.592840e-01;-4.182928e-01;1255179497;524872353;327254586;0.000000e+00;3.281848e+00;1.935814e+03
26;dgemm;128;0;1;1;0;300;111;111;14700;14700;14700;14700;14700;14700;9.307665e-02;3.296821e-01;1703964683;352406219;1600028624;0.000000e+00;3.318490e+00;1.914439e+03
27;dgemm;128;0;1;1;0;300;111;111;14700;14700;14700;14700;14700;14700;-4.719053e-01;2.807858e-01;112805732;1120048829;378409503;0.000000e+00;3.234111e+00;1.964387e+03
28;dgemm;128;0;1;1;0;300;111;111;14700;14700;14700;14700;14700;14700;2.744957e-01;-3.785920e-02;1573363368;1409959708;2077486715;0.000000e+00;3.267503e+00;1.944312e+03
29;dgemm;128;0;1;1;0;300;111;111;14700;14700;14700;14700;14700;14700;1.799312e-01;9.546876e-03;200747796;289700723;1117142618;0.000000e+00;3.382938e+00;1.877967e+03
30;dgemm;128;0;1;1;0;300;111;111;17100;17100;17100;17100;17100;17100;1.744033e-01;3.861393e-01;439493451;990892921;1760243555;0.000000e+00;5.157480e+00;1.939013e+03
31;dgemm;128;0;1;1;0;300;111;111;17100;17100;17100;17100;17100;17100;3.018442e-01;-4.633856e-02;111537764;338888228;2147469841;0.000000e+00;5.178624e+00;1.931096e+03
32;dgemm;128;0;1;1;0;300;111;111;17100;17100;17100;17100;17100;17100;2.072774e-01;1.109783e-01;269441500;2142757034;116087764;0.000000e+00;5.183804e+00;1.929167e+03
33;dgemm;128;0;1;1;0;300;111;111;17100;17100;17100;17100;17100;17100;-2.366607e-01;9.513167e-02;8936987;1982275856;1275373743;0.000000e+00;5.204664e+00;1.921435e+03
34;dgemm;128;0;1;1;0;300;111;111;17100;17100;17100;17100;17100;17100;-3.952797e-01;-4.960891e-01;841148365;1960709859;1760281936;0.000000e+00;5.185975e+00;1.928359e+03
35;dgemm;128;0;1;1;0;300;111;111;17100;17100;17100;17100;17100;17100;-2.607432e-01;-3.651100e-01;1244316437;971899228;1476153275;0.000000e+00;5.169810e+00;1.934389e+03
36;dgemm;128;0;1;1;0;300;111;111;17100;17100;17100;17100;17100;17100;-1.389722e-01;-8.843738e-02;1626276121;653468858;2130794395;0.000000e+00;5.114310e+00;1.955380e+03
37;dgemm;128;0;1;1;0;300;111;111;17100;17100;17100;17100;17100;17100;9.367129e-02;9.508020e-02;1605908235;1350573793;76065818;0.000000e+00;5.201830e+00;1.922482e+03
38;dgemm;128;0;1;1;0;300;111;111;17100;17100;17100;17100;17100;17100;-4.585682e-01;3.268176e-01;1987231011;1875335928;1784639529;0.000000e+00;5.205389e+00;1.921167e+03
39;dgemm;128;0;1;1;0;300;111;111;17100;17100;17100;17100;17100;17100;-6.830955e-02;1.535754e-01;1939964443;2112255763;1432114613;0.000000e+00;5.172502e+00;1.933382e+03
40;dgemm;128;0;1;1;0;300;111;111;19500;19500;19500;19500;19500;19500;2.725473e-01;1.883941e-01;1782436840;1909002904;165344818;0.000000e+00;7.663719e+00;1.935059e+03
41;dgemm;128;0;1;1;0;300;111;111;19500;19500;19500;19500;19500;19500;2.191162e-01;-3.021529e-01;1351797369;492067917;1504569917;0.000000e+00;7.620416e+00;1.946055e+03
42;dgemm;128;0;1;1;0;300;111;111;19500;19500;19500;19500;19500;19500;-3.280447e-01;-3.223358e-01;496987743;159259470;1359512183;0.000000e+00;7.608060e+00;1.949216e+03
43;dgemm;128;0;1;1;0;300;111;111;19500;19500;19500;19500;19500;19500;-4.513911e-01;3.904790e-01;1096689772;2086206725;601385644;0.000000e+00;7.577486e+00;1.957080e+03
44;dgemm;128;0;1;1;0;300;111;111;19500;19500;19500;19500;19500;19500;-4.403555e-01;9.074247e-02;243268139;1012502954;1272469786;0.000000e+00;7.634269e+00;1.942524e+03
45;dgemm;128;0;1;1;0;300;111;111;19500;19500;19500;19500;19500;19500;1.908228e-02;4.440272e-01;722308542;1820388464;933110197;0.000000e+00;7.659131e+00;1.936218e+03
46;dgemm;128;0;1;1;0;300;111;111;19500;19500;19500;19500;19500;19500;-1.017733e-01;4.140073e-01;1285228804;1789376348;502278611;0.000000e+00;7.662322e+00;1.935412e+03
47;dgemm;128;0;1;1;0;300;111;111;19500;19500;19500;19500;19500;19500;-2.659684e-01;-2.731221e-01;1034949299;654887343;1529195746;0.000000e+00;7.706451e+00;1.924329e+03
48;dgemm;128;0;1;1;0;300;111;111;19500;19500;19500;19500;19500;19500;1.985016e-01;4.068633e-01;87755422;889023311;1494613810;0.000000e+00;7.652394e+00;1.937923e+03
49;dgemm;128;0;1;1;0;300;111;111;19500;19500;19500;19500;19500;19500;-4.302884e-01;-3.682695e-01;745425661;396473730;1308044878;0.000000e+00;7.683512e+00;1.930074e+03
50;dgemm;128;0;1;1;0;300;111;111;21900;21900;21900;21900;21900;21900;3.002688e-01;4.210193e-01;705178736;1590079444;434248626;0.000000e+00;1.083427e+01;1.938933e+03
51;dgemm;128;0;1;1;0;300;111;111;21900;21900;21900;21900;21900;21900;-3.696050e-01;-2.996627e-01;1402586708;552473416;1143408282;0.000000e+00;1.081132e+01;1.943049e+03
52;dgemm;128;0;1;1;0;300;111;111;21900;21900;21900;21900;21900;21900;-3.095740e-01;-1.111416e-01;1884167637;1473442062;201305624;0.000000e+00;1.079935e+01;1.945202e+03
53;dgemm;128;0;1;1;0;300;111;111;21900;21900;21900;21900;21900;21900;3.214526e-01;-2.291051e-01;1238433452;1273911899;1431419379;0.000000e+00;1.078614e+01;1.947584e+03
54;dgemm;128;0;1;1;0;300;111;111;21900;21900;21900;21900;21900;21900;-4.764616e-02;-2.823082e-01;619290071;707900973;407487131;0.000000e+00;1.078411e+01;1.947952e+03
55;dgemm;128;0;1;1;0;300;111;111;21900;21900;21900;21900;21900;21900;-2.829039e-01;4.689267e-01;1776808933;711845894;404158660;0.000000e+00;1.082497e+01;1.940598e+03
56;dgemm;128;0;1;1;0;300;111;111;21900;21900;21900;21900;21900;21900;-9.802407e-02;-3.473849e-01;1973387981;1642548899;1501252996;0.000000e+00;1.076488e+01;1.951430e+03
57;dgemm;128;0;1;1;0;300;111;111;21900;21900;21900;21900;21900;21900;-2.998149e-02;-6.245404e-02;824272813;1662739668;2025187190;0.000000e+00;1.073350e+01;1.957136e+03
58;dgemm;128;0;1;1;0;300;111;111;21900;21900;21900;21900;21900;21900;1.613464e-01;1.651206e-01;437116466;1704365084;1176911340;0.000000e+00;1.080782e+01;1.943677e+03
59;dgemm;128;0;1;1;0;300;111;111;21900;21900;21900;21900;21900;21900;-9.329343e-02;2.766544e-01;1953443376;1876855542;1069755936;0.000000e+00;1.079555e+01;1.945886e+03
60;dgemm;128;0;1;1;0;300;111;111;24300;24300;24300;24300;24300;24300;-4.205594e-01;1.129006e-01;588219756;1856669179;1057418418;0.000000e+00;1.469603e+01;1.952760e+03
61;dgemm;128;0;1;1;0;300;111;111;24300;24300;24300;24300;24300;24300;1.349872e-02;-2.496970e-01;1065103348;625032172;387451659;0.000000e+00;1.474512e+01;1.946259e+03
62;dgemm;128;0;1;1;0;300;111;111;24300;24300;24300;24300;24300;24300;9.058696e-02;7.370132e-02;298625210;1295166342;1057467587;0.000000e+00;1.473674e+01;1.947365e+03
63;dgemm;128;0;1;1;0;300;111;111;24300;24300;24300;24300;24300;24300;-3.018314e-02;-5.773157e-02;382697713;476667372;1070575321;0.000000e+00;1.476570e+01;1.943546e+03
64;dgemm;128;0;1;1;0;300;111;111;24300;24300;24300;24300;24300;24300;-4.650331e-01;-1.058972e-01;774044599;697517721;2001229904;0.000000e+00;1.472916e+01;1.948367e+03
65;dgemm;128;0;1;1;0;300;111;111;24300;24300;24300;24300;24300;24300;4.801672e-01;-2.032396e-01;1797073940;1756915667;1065311705;0.000000e+00;1.473900e+01;1.947067e+03
66;dgemm;128;0;1;1;0;300;111;111;24300;24300;24300;24300;24300;24300;2.132438e-01;1.658781e-01;1414829150;1307565984;555996658;0.000000e+00;1.473620e+01;1.947437e+03
67;dgemm;128;0;1;1;0;300;111;111;24300;24300;24300;24300;24300;24300;1.800331e-01;-1.232803e-01;231602422;1389867269;780821396;0.000000e+00;1.474220e+01;1.946643e+03
68;dgemm;128;0;1;1;0;300;111;111;24300;24300;24300;24300;24300;24300;3.404283e-01;-1.210446e-01;195740084;917679292;2006811972;0.000000e+00;1.476569e+01;1.943547e+03
69;dgemm;128;0;1;1;0;300;111;111;24300;24300;24300;24300;24300;24300;1.960490e-01;-2.057583e-01;1414647625;1635905385;1046741222;0.000000e+00;1.474592e+01;1.946153e+03
70;dgemm;128;0;1;1;0;300;111;111;26700;26700;26700;26700;26700;26700;-4.981229e-01;1.797563e-01;1343606042;1111783898;446340713;0.000000e+00;1.967300e+01;1.935054e+03
71;dgemm;128;0;1;1;0;300;111;111;26700;26700;26700;26700;26700;26700;1.449892e-01;-2.994312e-01;1782280524;846942590;524688209;0.000000e+00;1.958793e+01;1.943458e+03
72;dgemm;128;0;1;1;0;300;111;111;26700;26700;26700;26700;26700;26700;-7.231379e-02;2.098748e-01;1371499336;2114937732;726371155;0.000000e+00;1.960351e+01;1.941914e+03
73;dgemm;128;0;1;1;0;300;111;111;26700;26700;26700;26700;26700;26700;-2.503210e-01;-2.840220e-01;882160379;11614769;1682085273;0.000000e+00;1.968410e+01;1.933963e+03
74;dgemm;128;0;1;1;0;300;111;111;26700;26700;26700;26700;26700;26700;9.597039e-02;1.728868e-01;246247255;1858721860;1548348142;0.000000e+00;1.974530e+01;1.927969e+03
75;dgemm;128;0;1;1;0;300;111;111;26700;26700;26700;26700;26700;26700;-7.244259e-02;3.629747e-01;2118421993;1520223205;452867621;0.000000e+00;1.930636e+01;1.971802e+03
76;dgemm;128;0;1;1;0;300;111;111;26700;26700;26700;26700;26700;26700;-4.022054e-01;3.532503e-01;201690613;213801961;822262754;0.000000e+00;1.957432e+01;1.944810e+03
77;dgemm;128;0;1;1;0;300;111;111;26700;26700;26700;26700;26700;26700;-4.352033e-02;2.911775e-01;1737518944;282828202;110613202;0.000000e+00;1.956846e+01;1.945392e+03
78;dgemm;128;0;1;1;0;300;111;111;26700;26700;26700;26700;26700;26700;-3.380140e-01;-1.158719e-01;1676902021;1486222842;950390868;0.000000e+00;1.958678e+01;1.943572e+03
79;dgemm;128;0;1;1;0;300;111;111;26700;26700;26700;26700;26700;26700;-3.254125e-01;4.026002e-01;1242608872;1137949908;1277849958;0.000000e+00;1.959024e+01;1.943229e+03
80;dgemm;128;0;1;1;0;300;111;111;29100;29100;29100;29100;29100;29100;-7.731044e-02;2.584243e-01;1908518808;1023457753;364686248;0.000000e+00;2.536610e+01;1.942921e+03
81;dgemm;128;0;1;1;0;300;111;111;29100;29100;29100;29100;29100;29100;-3.124503e-01;3.608416e-01;1329132133;1280321648;501772890;0.000000e+00;2.568377e+01;1.918891e+03
82;dgemm;128;0;1;1;0;300;111;111;29100;29100;29100;29100;29100;29100;8.143046e-02;2.072399e-01;212251746;1983690368;364319529;0.000000e+00;2.541258e+01;1.939368e+03
83;dgemm;128;0;1;1;0;300;111;111;29100;29100;29100;29100;29100;29100;2.429254e-01;3.618715e-01;1775473788;624549797;767066249;0.000000e+00;2.535694e+01;1.943624e+03
84;dgemm;128;0;1;1;0;300;111;111;29100;29100;29100;29100;29100;29100;2.177558e-01;-2.828171e-01;1750003033;1415505363;78012497;0.000000e+00;2.541393e+01;1.939265e+03
85;dgemm;128;0;1;1;0;300;111;111;29100;29100;29100;29100;29100;29100;3.155647e-01;-4.765819e-01;1344247686;1795519125;661761152;0.000000e+00;2.515067e+01;1.959564e+03
86;dgemm;128;0;1;1;0;300;111;111;29100;29100;29100;29100;29100;29100;1.085222e-01;-8.764404e-02;1315209188;235649157;1448703729;0.000000e+00;2.536586e+01;1.942940e+03
87;dgemm;128;0;1;1;0;300;111;111;29100;29100;29100;29100;29100;29100;5.964717e-02;3.343596e-01;430253414;861543921;677870460;0.000000e+00;2.528660e+01;1.949030e+03
88;dgemm;128;0;1;1;0;300;111;111;29100;29100;29100;29100;29100;29100;-3.852038e-01;-3.449149e-01;828388027;1144278050;332266748;0.000000e+00;2.532754e+01;1.945880e+03
89;dgemm;128;0;1;1;0;300;111;111;29100;29100;29100;29100;29100;29100;-2.132347e-01;-3.266376e-02;816504794;820697697;655858699;0.000000e+00;2.537043e+01;1.942590e+03
