Id;Function;threads;gpus;P;Q;mtxfmt;nb;uplo;n;lda;seedA;tsub;time;gflops
0;dpotrf;128;0;1;1;0;300;121;900;900;846930886;0.000000e+00;6.473064e-03;3.760277e+01
1;dpotrf;128;0;1;1;0;300;121;900;900;1681692777;0.000000e+00;6.914854e-03;3.520033e+01
2;dpotrf;128;0;1;1;0;300;121;900;900;1714636915;0.000000e+00;6.646872e-03;3.661951e+01
3;dpotrf;128;0;1;1;0;300;121;900;900;1957747793;0.000000e+00;1.301694e-02;1.869911e+01
4;dpotrf;128;0;1;1;0;300;121;900;900;424238335;0.000000e+00;6.213903e-03;3.917105e+01
5;dpotrf;128;0;1;1;0;300;121;900;900;719885386;0.000000e+00;1.226997e-02;1.983746e+01
6;dpotrf;128;0;1;1;0;300;121;900;900;1649760492;0.000000e+00;1.938987e-02;1.255321e+01
7;dpotrf;128;0;1;1;0;300;121;900;900;596516649;0.000000e+00;6.380081e-03;3.815079e+01
8;dpotrf;128;0;1;1;0;300;121;900;900;1189641421;0.000000e+00;5.884171e-03;4.136609e+01
9;dpotrf;128;0;1;1;0;300;121;900;900;1025202362;0.000000e+00;6.548882e-03;3.716744e+01
10;dpotrf;128;0;1;1;0;300;121;1800;1800;1350490027;0.000000e+00;3.025699e-02;6.430317e+01
11;dpotrf;128;0;1;1;0;300;121;1800;1800;783368690;0.000000e+00;3.827882e-02;5.082760e+01
12;dpotrf;128;0;1;1;0;300;121;1800;1800;1102520059;0.000000e+00;3.089786e-02;6.296943e+01
13;dpotrf;128;0;1;1;0;300;121;1800;1800;2044897763;0.000000e+00;2.624393e-02;7.413603e+01
14;dpotrf;128;0;1;1;0;300;121;1800;1800;1967513926;0.000000e+00;2.282190e-02;8.525232e+01
15;dpotrf;128;0;1;1;0;300;121;1800;1800;1365180540;0.000000e+00;2.451611e-02;7.936090e+01
16;dpotrf;128;0;1;1;0;300;121;1800;1800;1540383426;0.000000e+00;2.526307e-02;7.701440e+01
17;dpotrf;128;0;1;1;0;300;121;1800;1800;304089172;0.000000e+00;3.186917e-02;6.105023e+01
18;dpotrf;128;0;1;1;0;300;121;1800;1800;1303455736;0.000000e+00;2.664709e-02;7.301436e+01
19;dpotrf;128;0;1;1;0;300;121;1800;1800;35005211;0.000000e+00;1.649904e-02;1.179232e+02
20;dpotrf;128;0;1;1;0;300;121;2700;2700;521595368;0.000000e+00;5.485797e-02;1.196662e+02
21;dpotrf;128;0;1;1;0;300;121;2700;2700;294702567;0.000000e+00;5.956006e-02;1.102189e+02
22;dpotrf;128;0;1;1;0;300;121;2700;2700;1726956429;0.000000e+00;3.619003e-02;1.813937e+02
23;dpotrf;128;0;1;1;0;300;121;2700;2700;336465782;0.000000e+00;4.368210e-02;1.502823e+02
24;dpotrf;128;0;1;1;0;300;121;2700;2700;861021530;0.000000e+00;3.079081e-02;2.132015e+02
25;dpotrf;128;0;1;1;0;300;121;2700;2700;278722862;0.000000e+00;3.549004e-02;1.849715e+02
26;dpotrf;128;0;1;1;0;300;121;2700;2700;233665123;0.000000e+00;2.887392e-02;2.273555e+02
27;dpotrf;128;0;1;1;0;300;121;2700;2700;2145174067;0.000000e+00;2.995515e-02;2.191492e+02
28;dpotrf;128;0;1;1;0;300;121;2700;2700;468703135;0.000000e+00;3.042197e-02;2.157863e+02
29;dpotrf;128;0;1;1;0;300;121;2700;2700;1101513929;0.000000e+00;3.101516e-02;2.116593e+02
30;dpotrf;128;0;1;1;0;300;121;3600;3600;1801979802;0.000000e+00;5.317307e-02;2.926008e+02
31;dpotrf;128;0;1;1;0;300;121;3600;3600;1315634022;0.000000e+00;4.811692e-02;3.233474e+02
32;dpotrf;128;0;1;1;0;300;121;3600;3600;635723058;0.000000e+00;4.888582e-02;3.182616e+02
33;dpotrf;128;0;1;1;0;300;121;3600;3600;1369133069;0.000000e+00;5.140615e-02;3.026580e+02
34;dpotrf;128;0;1;1;0;300;121;3600;3600;1125898167;0.000000e+00;4.767108e-02;3.263715e+02
35;dpotrf;128;0;1;1;0;300;121;3600;3600;1059961393;0.000000e+00;4.671907e-02;3.330220e+02
36;dpotrf;128;0;1;1;0;300;121;3600;3600;2089018456;0.000000e+00;4.412198e-02;3.526243e+02
37;dpotrf;128;0;1;1;0;300;121;3600;3600;628175011;0.000000e+00;4.506183e-02;3.452696e+02
38;dpotrf;128;0;1;1;0;300;121;3600;3600;1656478042;0.000000e+00;5.073500e-02;3.066617e+02
39;dpotrf;128;0;1;1;0;300;121;3600;3600;1131176229;0.000000e+00;4.824114e-02;3.225148e+02
40;dpotrf;128;0;1;1;0;300;121;4500;4500;1653377373;0.000000e+00;6.389999e-02;4.755106e+02
41;dpotrf;128;0;1;1;0;300;121;4500;4500;859484421;0.000000e+00;6.588697e-02;4.611705e+02
42;dpotrf;128;0;1;1;0;300;121;4500;4500;1914544919;0.000000e+00;6.533289e-02;4.650816e+02
43;dpotrf;128;0;1;1;0;300;121;4500;4500;608413784;0.000000e+00;6.747484e-02;4.503178e+02
44;dpotrf;128;0;1;1;0;300;121;4500;4500;756898537;0.000000e+00;7.425904e-02;4.091775e+02
45;dpotrf;128;0;1;1;0;300;121;4500;4500;1734575198;0.000000e+00;6.807590e-02;4.463419e+02
46;dpotrf;128;0;1;1;0;300;121;4500;4500;1973594324;0.000000e+00;6.942701e-02;4.376557e+02
47;dpotrf;128;0;1;1;0;300;121;4500;4500;149798315;0.000000e+00;6.750011e-02;4.501492e+02
48;dpotrf;128;0;1;1;0;300;121;4500;4500;2038664370;0.000000e+00;6.387401e-02;4.757041e+02
49;dpotrf;128;0;1;1;0;300;121;4500;4500;1129566413;0.000000e+00;6.976008e-02;4.355661e+02
50;dpotrf;128;0;1;1;0;300;121;5400;5400;184803526;0.000000e+00;8.992410e-02;5.838544e+02
51;dpotrf;128;0;1;1;0;300;121;5400;5400;412776091;0.000000e+00;9.527898e-02;5.510406e+02
52;dpotrf;128;0;1;1;0;300;121;5400;5400;1424268980;0.000000e+00;8.748698e-02;6.001188e+02
53;dpotrf;128;0;1;1;0;300;121;5400;5400;1911759956;0.000000e+00;8.603096e-02;6.102754e+02
54;dpotrf;128;0;1;1;0;300;121;5400;5400;749241873;0.000000e+00;8.638501e-02;6.077742e+02
55;dpotrf;128;0;1;1;0;300;121;5400;5400;137806862;0.000000e+00;9.019399e-02;5.821073e+02
56;dpotrf;128;0;1;1;0;300;121;5400;5400;42999170;0.000000e+00;9.432697e-02;5.566020e+02
57;dpotrf;128;0;1;1;0;300;121;5400;5400;982906996;0.000000e+00;9.585500e-02;5.477292e+02
58;dpotrf;128;0;1;1;0;300;121;5400;5400;135497281;0.000000e+00;9.464002e-02;5.547609e+02
59;dpotrf;128;0;1;1;0;300;121;5400;5400;511702305;0.000000e+00;9.220791e-02;5.693935e+02
60;dpotrf;128;0;1;1;0;300;121;6300;6300;2084420925;0.000000e+00;1.143749e-01;7.289087e+02
61;dpotrf;128;0;1;1;0;300;121;6300;6300;1937477084;0.000000e+00;1.161082e-01;7.180273e+02
62;dpotrf;128;0;1;1;0;300;121;6300;6300;1827336327;0.000000e+00;1.120930e-01;7.437473e+02
63;dpotrf;128;0;1;1;0;300;121;6300;6300;572660336;0.000000e+00;1.185451e-01;7.032672e+02
64;dpotrf;128;0;1;1;0;300;121;6300;6300;1159126505;0.000000e+00;1.093221e-01;7.625985e+02
65;dpotrf;128;0;1;1;0;300;121;6300;6300;805750846;0.000000e+00;1.188500e-01;7.014628e+02
66;dpotrf;128;0;1;1;0;300;121;6300;6300;1632621729;0.000000e+00;1.151519e-01;7.239903e+02
67;dpotrf;128;0;1;1;0;300;121;6300;6300;1100661313;0.000000e+00;1.185689e-01;7.031258e+02
68;dpotrf;128;0;1;1;0;300;121;6300;6300;1433925857;0.000000e+00;1.220980e-01;6.828029e+02
69;dpotrf;128;0;1;1;0;300;121;6300;6300;1141616124;0.000000e+00;1.078849e-01;7.727574e+02
70;dpotrf;128;0;1;1;0;300;121;7200;7200;84353895;0.000000e+00;1.567609e-01;7.938325e+02
71;dpotrf;128;0;1;1;0;300;121;7200;7200;939819582;0.000000e+00;1.563962e-01;7.956840e+02
72;dpotrf;128;0;1;1;0;300;121;7200;7200;2001100545;0.000000e+00;1.494730e-01;8.325381e+02
73;dpotrf;128;0;1;1;0;300;121;7200;7200;1998898814;0.000000e+00;1.473570e-01;8.444928e+02
74;dpotrf;128;0;1;1;0;300;121;7200;7200;1548233367;0.000000e+00;1.456070e-01;8.546425e+02
75;dpotrf;128;0;1;1;0;300;121;7200;7200;610515434;0.000000e+00;1.489680e-01;8.353602e+02
76;dpotrf;128;0;1;1;0;300;121;7200;7200;1585990364;0.000000e+00;1.398740e-01;8.896717e+02
77;dpotrf;128;0;1;1;0;300;121;7200;7200;1374344043;0.000000e+00;1.452391e-01;8.568072e+02
78;dpotrf;128;0;1;1;0;300;121;7200;7200;760313750;0.000000e+00;1.477041e-01;8.425081e+02
79;dpotrf;128;0;1;1;0;300;121;7200;7200;1477171087;0.000000e+00;1.467988e-01;8.477037e+02
80;dpotrf;128;0;1;1;0;300;121;8100;8100;356426808;0.000000e+00;1.889741e-01;9.375876e+02
81;dpotrf;128;0;1;1;0;300;121;8100;8100;945117276;0.000000e+00;1.840940e-01;9.624423e+02
82;dpotrf;128;0;1;1;0;300;121;8100;8100;1889947178;0.000000e+00;1.804960e-01;9.816275e+02
83;dpotrf;128;0;1;1;0;300;121;8100;8100;1780695788;0.000000e+00;1.841998e-01;9.618892e+02
84;dpotrf;128;0;1;1;0;300;121;8100;8100;709393584;0.000000e+00;1.856508e-01;9.543712e+02
85;dpotrf;128;0;1;1;0;300;121;8100;8100;491705403;0.000000e+00;1.802020e-01;9.832288e+02
86;dpotrf;128;0;1;1;0;300;121;8100;8100;1918502651;0.000000e+00;1.820252e-01;9.733807e+02
87;dpotrf;128;0;1;1;0;300;121;8100;8100;752392754;0.000000e+00;1.813538e-01;9.769842e+02
88;dpotrf;128;0;1;1;0;300;121;8100;8100;1474612399;0.000000e+00;1.776071e-01;9.975944e+02
89;dpotrf;128;0;1;1;0;300;121;8100;8100;2053999932;0.000000e+00;1.854441e-01;9.554350e+02
90;dpotrf;128;0;1;1;0;300;121;9000;9000;1264095060;0.000000e+00;2.272978e-01;1.069260e+03
91;dpotrf;128;0;1;1;0;300;121;9000;9000;1411549676;0.000000e+00;2.169011e-01;1.120513e+03
92;dpotrf;128;0;1;1;0;300;121;9000;9000;1843993368;0.000000e+00;2.216780e-01;1.096367e+03
93;dpotrf;128;0;1;1;0;300;121;9000;9000;943947739;0.000000e+00;2.190459e-01;1.109542e+03
94;dpotrf;128;0;1;1;0;300;121;9000;9000;1984210012;0.000000e+00;2.120762e-01;1.146006e+03
95;dpotrf;128;0;1;1;0;300;121;9000;9000;855636226;0.000000e+00;2.207592e-01;1.100931e+03
96;dpotrf;128;0;1;1;0;300;121;9000;9000;1749698586;0.000000e+00;2.204061e-01;1.102694e+03
97;dpotrf;128;0;1;1;0;300;121;9000;9000;1469348094;0.000000e+00;2.131832e-01;1.140055e+03
98;dpotrf;128;0;1;1;0;300;121;9000;9000;1956297539;0.000000e+00;2.228899e-01;1.090406e+03
99;dpotrf;128;0;1;1;0;300;121;9000;9000;1036140795;0.000000e+00;2.200210e-01;1.104624e+03
0;dpotrf;128;0;1;1;0;300;121;9900;9900;846930886;0.000000e+00;2.817059e-01;1.148297e+03
1;dpotrf;128;0;1;1;0;300;121;9900;9900;1681692777;0.000000e+00;2.812989e-01;1.149958e+03
2;dpotrf;128;0;1;1;0;300;121;9900;9900;1714636915;0.000000e+00;2.728651e-01;1.185502e+03
3;dpotrf;128;0;1;1;0;300;121;9900;9900;1957747793;0.000000e+00;2.631888e-01;1.229087e+03
4;dpotrf;128;0;1;1;0;300;121;9900;9900;424238335;0.000000e+00;2.773790e-01;1.166209e+03
5;dpotrf;128;0;1;1;0;300;121;9900;9900;719885386;0.000000e+00;2.718751e-01;1.189818e+03
6;dpotrf;128;0;1;1;0;300;121;9900;9900;1649760492;0.000000e+00;2.758942e-01;1.172486e+03
7;dpotrf;128;0;1;1;0;300;121;9900;9900;596516649;0.000000e+00;2.827928e-01;1.143883e+03
8;dpotrf;128;0;1;1;0;300;121;9900;9900;1189641421;0.000000e+00;2.791431e-01;1.158839e+03
9;dpotrf;128;0;1;1;0;300;121;9900;9900;1025202362;0.000000e+00;2.779191e-01;1.163943e+03
10;dpotrf;128;0;1;1;0;300;121;12300;12300;1350490027;0.000000e+00;4.230931e-01;1.466260e+03
11;dpotrf;128;0;1;1;0;300;121;12300;12300;783368690;0.000000e+00;4.109221e-01;1.509689e+03
12;dpotrf;128;0;1;1;0;300;121;12300;12300;1102520059;0.000000e+00;4.109871e-01;1.509450e+03
13;dpotrf;128;0;1;1;0;300;121;12300;12300;2044897763;0.000000e+00;4.097672e-01;1.513944e+03
14;dpotrf;128;0;1;1;0;300;121;12300;12300;1967513926;0.000000e+00;4.155240e-01;1.492969e+03
15;dpotrf;128;0;1;1;0;300;121;12300;12300;1365180540;0.000000e+00;4.148810e-01;1.495283e+03
16;dpotrf;128;0;1;1;0;300;121;12300;12300;1540383426;0.000000e+00;4.195449e-01;1.478661e+03
17;dpotrf;128;0;1;1;0;300;121;12300;12300;304089172;0.000000e+00;4.162869e-01;1.490233e+03
18;dpotrf;128;0;1;1;0;300;121;12300;12300;1303455736;0.000000e+00;4.099400e-01;1.513306e+03
19;dpotrf;128;0;1;1;0;300;121;12300;12300;35005211;0.000000e+00;4.148619e-01;1.495352e+03
20;dpotrf;128;0;1;1;0;300;121;14700;14700;521595368;0.000000e+00;5.992332e-01;1.767174e+03
21;dpotrf;128;0;1;1;0;300;121;14700;14700;294702567;0.000000e+00;6.129491e-01;1.727630e+03
22;dpotrf;128;0;1;1;0;300;121;14700;14700;1726956429;0.000000e+00;6.151731e-01;1.721384e+03
23;dpotrf;128;0;1;1;0;300;121;14700;14700;336465782;0.000000e+00;6.080821e-01;1.741457e+03
24;dpotrf;128;0;1;1;0;300;121;14700;14700;861021530;0.000000e+00;6.143489e-01;1.723693e+03
25;dpotrf;128;0;1;1;0;300;121;14700;14700;278722862;0.000000e+00;6.093371e-01;1.737871e+03
26;dpotrf;128;0;1;1;0;300;121;14700;14700;233665123;0.000000e+00;6.097009e-01;1.736834e+03
27;dpotrf;128;0;1;1;0;300;121;14700;14700;2145174067;0.000000e+00;6.180601e-01;1.713343e+03
28;dpotrf;128;0;1;1;0;300;121;14700;14700;468703135;0.000000e+00;5.999799e-01;1.764974e+03
29;dpotrf;128;0;1;1;0;300;121;14700;14700;1101513929;0.000000e+00;6.131790e-01;1.726982e+03
30;dpotrf;128;0;1;1;0;300;121;17100;17100;1801979802;0.000000e+00;8.621800e-01;1.933336e+03
31;dpotrf;128;0;1;1;0;300;121;17100;17100;1315634022;0.000000e+00;8.702381e-01;1.915434e+03
32;dpotrf;128;0;1;1;0;300;121;17100;17100;635723058;0.000000e+00;8.663702e-01;1.923985e+03
33;dpotrf;128;0;1;1;0;300;121;17100;17100;1369133069;0.000000e+00;8.659041e-01;1.925021e+03
34;dpotrf;128;0;1;1;0;300;121;17100;17100;1125898167;0.000000e+00;8.614759e-01;1.934916e+03
35;dpotrf;128;0;1;1;0;300;121;17100;17100;1059961393;0.000000e+00;8.654740e-01;1.925977e+03
36;dpotrf;128;0;1;1;0;300;121;17100;17100;2089018456;0.000000e+00;8.649540e-01;1.927135e+03
37;dpotrf;128;0;1;1;0;300;121;17100;17100;628175011;0.000000e+00;8.672071e-01;1.922128e+03
38;dpotrf;128;0;1;1;0;300;121;17100;17100;1656478042;0.000000e+00;8.768041e-01;1.901090e+03
39;dpotrf;128;0;1;1;0;300;121;17100;17100;1131176229;0.000000e+00;8.682520e-01;1.919815e+03
40;dpotrf;128;0;1;1;0;300;121;19500;19500;1653377373;0.000000e+00;1.191186e+00;2.075088e+03
41;dpotrf;128;0;1;1;0;300;121;19500;19500;859484421;0.000000e+00;1.192962e+00;2.071998e+03
42;dpotrf;128;0;1;1;0;300;121;19500;19500;1914544919;0.000000e+00;1.176863e+00;2.100342e+03
43;dpotrf;128;0;1;1;0;300;121;19500;19500;608413784;0.000000e+00;1.178570e+00;2.097300e+03
44;dpotrf;128;0;1;1;0;300;121;19500;19500;756898537;0.000000e+00;1.211249e+00;2.040716e+03
45;dpotrf;128;0;1;1;0;300;121;19500;19500;1734575198;0.000000e+00;1.180796e+00;2.093347e+03
46;dpotrf;128;0;1;1;0;300;121;19500;19500;1973594324;0.000000e+00;1.202420e+00;2.055700e+03
47;dpotrf;128;0;1;1;0;300;121;19500;19500;149798315;0.000000e+00;1.197611e+00;2.063955e+03
48;dpotrf;128;0;1;1;0;300;121;19500;19500;2038664370;0.000000e+00;1.174449e+00;2.104659e+03
49;dpotrf;128;0;1;1;0;300;121;19500;19500;1129566413;0.000000e+00;1.196651e+00;2.065611e+03
50;dpotrf;128;0;1;1;0;300;121;21900;21900;184803526;0.000000e+00;1.597285e+00;2.192090e+03
51;dpotrf;128;0;1;1;0;300;121;21900;21900;412776091;0.000000e+00;1.623061e+00;2.157277e+03
52;dpotrf;128;0;1;1;0;300;121;21900;21900;1424268980;0.000000e+00;1.616698e+00;2.165768e+03
53;dpotrf;128;0;1;1;0;300;121;21900;21900;1911759956;0.000000e+00;1.600723e+00;2.187382e+03
54;dpotrf;128;0;1;1;0;300;121;21900;21900;749241873;0.000000e+00;1.610139e+00;2.174590e+03
55;dpotrf;128;0;1;1;0;300;121;21900;21900;137806862;0.000000e+00;1.624699e+00;2.155102e+03
56;dpotrf;128;0;1;1;0;300;121;21900;21900;42999170;0.000000e+00;1.613257e+00;2.170388e+03
57;dpotrf;128;0;1;1;0;300;121;21900;21900;982906996;0.000000e+00;1.609459e+00;2.175509e+03
58;dpotrf;128;0;1;1;0;300;121;21900;21900;135497281;0.000000e+00;1.597020e+00;2.192454e+03
59;dpotrf;128;0;1;1;0;300;121;21900;21900;511702305;0.000000e+00;1.604787e+00;2.181843e+03
60;dpotrf;128;0;1;1;0;300;121;24300;24300;2084420925;0.000000e+00;2.130391e+00;2.245252e+03
61;dpotrf;128;0;1;1;0;300;121;24300;24300;1937477084;0.000000e+00;2.130829e+00;2.244790e+03
62;dpotrf;128;0;1;1;0;300;121;24300;24300;1827336327;0.000000e+00;2.125698e+00;2.250209e+03
63;dpotrf;128;0;1;1;0;300;121;24300;24300;572660336;0.000000e+00;2.123768e+00;2.252254e+03
64;dpotrf;128;0;1;1;0;300;121;24300;24300;1159126505;0.000000e+00;2.126272e+00;2.249601e+03
65;dpotrf;128;0;1;1;0;300;121;24300;24300;805750846;0.000000e+00;2.129906e+00;2.245763e+03
66;dpotrf;128;0;1;1;0;300;121;24300;24300;1632621729;0.000000e+00;2.110454e+00;2.266462e+03
67;dpotrf;128;0;1;1;0;300;121;24300;24300;1100661313;0.000000e+00;2.147130e+00;2.227748e+03
68;dpotrf;128;0;1;1;0;300;121;24300;24300;1433925857;0.000000e+00;2.134519e+00;2.240910e+03
69;dpotrf;128;0;1;1;0;300;121;24300;24300;1141616124;0.000000e+00;2.123246e+00;2.252807e+03
70;dpotrf;128;0;1;1;0;300;121;26700;26700;84353895;0.000000e+00;2.760467e+00;2.298552e+03
71;dpotrf;128;0;1;1;0;300;121;26700;26700;939819582;0.000000e+00;2.744037e+00;2.312315e+03
72;dpotrf;128;0;1;1;0;300;121;26700;26700;2001100545;0.000000e+00;2.742610e+00;2.313518e+03
73;dpotrf;128;0;1;1;0;300;121;26700;26700;1998898814;0.000000e+00;2.739771e+00;2.315915e+03
74;dpotrf;128;0;1;1;0;300;121;26700;26700;1548233367;0.000000e+00;2.748691e+00;2.308400e+03
75;dpotrf;128;0;1;1;0;300;121;26700;26700;610515434;0.000000e+00;2.751614e+00;2.305947e+03
76;dpotrf;128;0;1;1;0;300;121;26700;26700;1585990364;0.000000e+00;2.751342e+00;2.306175e+03
77;dpotrf;128;0;1;1;0;300;121;26700;26700;1374344043;0.000000e+00;2.745339e+00;2.311218e+03
78;dpotrf;128;0;1;1;0;300;121;26700;26700;760313750;0.000000e+00;2.738645e+00;2.316868e+03
79;dpotrf;128;0;1;1;0;300;121;26700;26700;1477171087;0.000000e+00;2.753953e+00;2.303989e+03
80;dpotrf;128;0;1;1;0;300;121;29100;29100;356426808;0.000000e+00;3.455504e+00;2.377216e+03
81;dpotrf;128;0;1;1;0;300;121;29100;29100;945117276;0.000000e+00;3.517928e+00;2.335034e+03
82;dpotrf;128;0;1;1;0;300;121;29100;29100;1889947178;0.000000e+00;3.512069e+00;2.338929e+03
83;dpotrf;128;0;1;1;0;300;121;29100;29100;1780695788;0.000000e+00;3.506489e+00;2.342651e+03
84;dpotrf;128;0;1;1;0;300;121;29100;29100;709393584;0.000000e+00;3.512146e+00;2.338878e+03
85;dpotrf;128;0;1;1;0;300;121;29100;29100;491705403;0.000000e+00;3.515911e+00;2.336373e+03
86;dpotrf;128;0;1;1;0;300;121;29100;29100;1918502651;0.000000e+00;3.501131e+00;2.346236e+03
87;dpotrf;128;0;1;1;0;300;121;29100;29100;752392754;0.000000e+00;3.518841e+00;2.334428e+03
88;dpotrf;128;0;1;1;0;300;121;29100;29100;1474612399;0.000000e+00;3.536790e+00;2.322581e+03
89;dpotrf;128;0;1;1;0;300;121;29100;29100;2053999932;0.000000e+00;3.497508e+00;2.348667e+03
