Id;Function;threads;gpus;P;Q;mtxfmt;nb;uplo;n;lda;seedA;tsub;time;gflops
0;dpoinv;128;0;1;1;1;300;121;900;900;846930886;0.000000e+00;1.566005e-02;4.660336e+01
1;dpoinv;128;0;1;1;1;300;121;900;900;1681692777;0.000000e+00;1.412106e-02;5.168246e+01
2;dpoinv;128;0;1;1;1;300;121;900;900;1714636915;0.000000e+00;2.719903e-02;2.683224e+01
3;dpoinv;128;0;1;1;1;300;121;900;900;1957747793;0.000000e+00;1.469493e-02;4.966413e+01
4;dpoinv;128;0;1;1;1;300;121;900;900;424238335;0.000000e+00;1.901007e-02;3.839076e+01
5;dpoinv;128;0;1;1;1;300;121;900;900;719885386;0.000000e+00;2.027607e-02;3.599371e+01
6;dpoinv;128;0;1;1;1;300;121;900;900;1649760492;0.000000e+00;1.467705e-02;4.972464e+01
7;dpoinv;128;0;1;1;1;300;121;900;900;596516649;0.000000e+00;1.617312e-02;4.512492e+01
8;dpoinv;128;0;1;1;1;300;121;900;900;1189641421;0.000000e+00;2.287197e-02;3.190853e+01
9;dpoinv;128;0;1;1;1;300;121;900;900;1025202362;0.000000e+00;1.501203e-02;4.861508e+01
10;dpoinv;128;0;1;1;1;300;121;1800;1800;1350490027;0.000000e+00;5.875707e-02;9.931132e+01
11;dpoinv;128;0;1;1;1;300;121;1800;1800;783368690;0.000000e+00;4.657888e-02;1.252765e+02
12;dpoinv;128;0;1;1;1;300;121;1800;1800;1102520059;0.000000e+00;4.414916e-02;1.321711e+02
13;dpoinv;128;0;1;1;1;300;121;1800;1800;2044897763;0.000000e+00;5.053687e-02;1.154650e+02
14;dpoinv;128;0;1;1;1;300;121;1800;1800;1967513926;0.000000e+00;5.337596e-02;1.093234e+02
15;dpoinv;128;0;1;1;1;300;121;1800;1800;1365180540;0.000000e+00;4.716802e-02;1.237118e+02
16;dpoinv;128;0;1;1;1;300;121;1800;1800;1540383426;0.000000e+00;2.887797e-02;2.020655e+02
17;dpoinv;128;0;1;1;1;300;121;1800;1800;304089172;0.000000e+00;5.013299e-02;1.163952e+02
18;dpoinv;128;0;1;1;1;300;121;1800;1800;1303455736;0.000000e+00;6.026888e-02;9.682015e+01
19;dpoinv;128;0;1;1;1;300;121;1800;1800;35005211;0.000000e+00;3.134799e-02;1.861440e+02
20;dpoinv;128;0;1;1;1;300;121;2700;2700;521595368;0.000000e+00;8.856010e-02;2.223382e+02
21;dpoinv;128;0;1;1;1;300;121;2700;2700;294702567;0.000000e+00;6.851387e-02;2.873913e+02
22;dpoinv;128;0;1;1;1;300;121;2700;2700;1726956429;0.000000e+00;6.885600e-02;2.859634e+02
23;dpoinv;128;0;1;1;1;300;121;2700;2700;336465782;0.000000e+00;6.515884e-02;3.021891e+02
24;dpoinv;128;0;1;1;1;300;121;2700;2700;861021530;0.000000e+00;5.329394e-02;3.694659e+02
25;dpoinv;128;0;1;1;1;300;121;2700;2700;278722862;0.000000e+00;5.739808e-02;3.430479e+02
26;dpoinv;128;0;1;1;1;300;121;2700;2700;233665123;0.000000e+00;5.089283e-02;3.868972e+02
27;dpoinv;128;0;1;1;1;300;121;2700;2700;2145174067;0.000000e+00;6.097603e-02;3.229186e+02
28;dpoinv;128;0;1;1;1;300;121;2700;2700;468703135;0.000000e+00;5.263090e-02;3.741204e+02
29;dpoinv;128;0;1;1;1;300;121;2700;2700;1101513929;0.000000e+00;5.950785e-02;3.308857e+02
30;dpoinv;128;0;1;1;1;300;121;3600;3600;1801979802;0.000000e+00;7.706690e-02;6.055643e+02
31;dpoinv;128;0;1;1;1;300;121;3600;3600;1315634022;0.000000e+00;7.154179e-02;6.523315e+02
32;dpoinv;128;0;1;1;1;300;121;3600;3600;635723058;0.000000e+00;7.150197e-02;6.526948e+02
33;dpoinv;128;0;1;1;1;300;121;3600;3600;1369133069;0.000000e+00;7.493091e-02;6.228266e+02
34;dpoinv;128;0;1;1;1;300;121;3600;3600;1125898167;0.000000e+00;7.387900e-02;6.316945e+02
35;dpoinv;128;0;1;1;1;300;121;3600;3600;1059961393;0.000000e+00;6.577396e-02;7.095355e+02
36;dpoinv;128;0;1;1;1;300;121;3600;3600;2089018456;0.000000e+00;7.080483e-02;6.591211e+02
37;dpoinv;128;0;1;1;1;300;121;3600;3600;628175011;0.000000e+00;7.139111e-02;6.537084e+02
38;dpoinv;128;0;1;1;1;300;121;3600;3600;1656478042;0.000000e+00;6.613803e-02;7.056298e+02
39;dpoinv;128;0;1;1;1;300;121;3600;3600;1131176229;0.000000e+00;6.817293e-02;6.845674e+02
40;dpoinv;128;0;1;1;1;300;121;4500;4500;1653377373;0.000000e+00;8.665395e-02;1.051830e+03
41;dpoinv;128;0;1;1;1;300;121;4500;4500;859484421;0.000000e+00;8.396387e-02;1.085529e+03
42;dpoinv;128;0;1;1;1;300;121;4500;4500;1914544919;0.000000e+00;8.207798e-02;1.110471e+03
43;dpoinv;128;0;1;1;1;300;121;4500;4500;608413784;0.000000e+00;8.196306e-02;1.112028e+03
44;dpoinv;128;0;1;1;1;300;121;4500;4500;756898537;0.000000e+00;8.576298e-02;1.062758e+03
45;dpoinv;128;0;1;1;1;300;121;4500;4500;1734575198;0.000000e+00;8.322811e-02;1.095126e+03
46;dpoinv;128;0;1;1;1;300;121;4500;4500;1973594324;0.000000e+00;8.158207e-02;1.117222e+03
47;dpoinv;128;0;1;1;1;300;121;4500;4500;149798315;0.000000e+00;8.165908e-02;1.116168e+03
48;dpoinv;128;0;1;1;1;300;121;4500;4500;2038664370;0.000000e+00;8.203101e-02;1.111107e+03
49;dpoinv;128;0;1;1;1;300;121;4500;4500;1129566413;0.000000e+00;8.676100e-02;1.050533e+03
50;dpoinv;128;0;1;1;1;300;121;5400;5400;184803526;0.000000e+00;1.041889e-01;1.511611e+03
51;dpoinv;128;0;1;1;1;300;121;5400;5400;412776091;0.000000e+00;1.088140e-01;1.447361e+03
52;dpoinv;128;0;1;1;1;300;121;5400;5400;1424268980;0.000000e+00;1.067719e-01;1.475043e+03
53;dpoinv;128;0;1;1;1;300;121;5400;5400;1911759956;0.000000e+00;1.007171e-01;1.563719e+03
54;dpoinv;128;0;1;1;1;300;121;5400;5400;749241873;0.000000e+00;1.045220e-01;1.506795e+03
55;dpoinv;128;0;1;1;1;300;121;5400;5400;137806862;0.000000e+00;1.043360e-01;1.509480e+03
56;dpoinv;128;0;1;1;1;300;121;5400;5400;42999170;0.000000e+00;1.034119e-01;1.522969e+03
57;dpoinv;128;0;1;1;1;300;121;5400;5400;982906996;0.000000e+00;1.062479e-01;1.482318e+03
58;dpoinv;128;0;1;1;1;300;121;5400;5400;135497281;0.000000e+00;1.015379e-01;1.551077e+03
59;dpoinv;128;0;1;1;1;300;121;5400;5400;511702305;0.000000e+00;1.002889e-01;1.570395e+03
60;dpoinv;128;0;1;1;1;300;121;6300;6300;2084420925;0.000000e+00;1.616931e-01;1.546675e+03
61;dpoinv;128;0;1;1;1;300;121;6300;6300;1937477084;0.000000e+00;1.607578e-01;1.555674e+03
62;dpoinv;128;0;1;1;1;300;121;6300;6300;1827336327;0.000000e+00;1.662970e-01;1.503856e+03
63;dpoinv;128;0;1;1;1;300;121;6300;6300;572660336;0.000000e+00;1.579461e-01;1.583367e+03
64;dpoinv;128;0;1;1;1;300;121;6300;6300;1159126505;0.000000e+00;1.671100e-01;1.496540e+03
65;dpoinv;128;0;1;1;1;300;121;6300;6300;805750846;0.000000e+00;1.751080e-01;1.428186e+03
66;dpoinv;128;0;1;1;1;300;121;6300;6300;1632621729;0.000000e+00;1.634490e-01;1.530059e+03
67;dpoinv;128;0;1;1;1;300;121;6300;6300;1100661313;0.000000e+00;1.624660e-01;1.539317e+03
68;dpoinv;128;0;1;1;1;300;121;6300;6300;1433925857;0.000000e+00;1.626990e-01;1.537113e+03
69;dpoinv;128;0;1;1;1;300;121;6300;6300;1141616124;0.000000e+00;1.655240e-01;1.510879e+03
70;dpoinv;128;0;1;1;1;300;121;7200;7200;84353895;0.000000e+00;2.774580e-01;1.345429e+03
71;dpoinv;128;0;1;1;1;300;121;7200;7200;939819582;0.000000e+00;2.814670e-01;1.326265e+03
72;dpoinv;128;0;1;1;1;300;121;7200;7200;2001100545;0.000000e+00;3.269811e-01;1.141656e+03
73;dpoinv;128;0;1;1;1;300;121;7200;7200;1998898814;0.000000e+00;2.655652e-01;1.405681e+03
74;dpoinv;128;0;1;1;1;300;121;7200;7200;1548233367;0.000000e+00;2.729859e-01;1.367469e+03
75;dpoinv;128;0;1;1;1;300;121;7200;7200;610515434;0.000000e+00;2.643402e-01;1.412195e+03
76;dpoinv;128;0;1;1;1;300;121;7200;7200;1585990364;0.000000e+00;2.675259e-01;1.395378e+03
77;dpoinv;128;0;1;1;1;300;121;7200;7200;1374344043;0.000000e+00;2.649601e-01;1.408891e+03
78;dpoinv;128;0;1;1;1;300;121;7200;7200;760313750;0.000000e+00;2.760930e-01;1.352080e+03
79;dpoinv;128;0;1;1;1;300;121;7200;7200;1477171087;0.000000e+00;2.666109e-01;1.400167e+03
80;dpoinv;128;0;1;1;1;300;121;8100;8100;356426808;0.000000e+00;3.724670e-01;1.426990e+03
81;dpoinv;128;0;1;1;1;300;121;8100;8100;945117276;0.000000e+00;3.743782e-01;1.419705e+03
82;dpoinv;128;0;1;1;1;300;121;8100;8100;1889947178;0.000000e+00;3.867509e-01;1.374287e+03
83;dpoinv;128;0;1;1;1;300;121;8100;8100;1780695788;0.000000e+00;3.773041e-01;1.408696e+03
84;dpoinv;128;0;1;1;1;300;121;8100;8100;709393584;0.000000e+00;3.679149e-01;1.444645e+03
85;dpoinv;128;0;1;1;1;300;121;8100;8100;491705403;0.000000e+00;3.771689e-01;1.409201e+03
86;dpoinv;128;0;1;1;1;300;121;8100;8100;1918502651;0.000000e+00;3.732100e-01;1.424149e+03
87;dpoinv;128;0;1;1;1;300;121;8100;8100;752392754;0.000000e+00;3.702610e-01;1.435492e+03
88;dpoinv;128;0;1;1;1;300;121;8100;8100;1474612399;0.000000e+00;3.826149e-01;1.389143e+03
89;dpoinv;128;0;1;1;1;300;121;8100;8100;2053999932;0.000000e+00;3.790412e-01;1.402240e+03
90;dpoinv;128;0;1;1;1;300;121;9000;9000;1264095060;0.000000e+00;4.819739e-01;1.512698e+03
91;dpoinv;128;0;1;1;1;300;121;9000;9000;1411549676;0.000000e+00;4.892581e-01;1.490177e+03
92;dpoinv;128;0;1;1;1;300;121;9000;9000;1843993368;0.000000e+00;4.855161e-01;1.501662e+03
93;dpoinv;128;0;1;1;1;300;121;9000;9000;943947739;0.000000e+00;4.759080e-01;1.531979e+03
94;dpoinv;128;0;1;1;1;300;121;9000;9000;1984210012;0.000000e+00;4.791560e-01;1.521594e+03
95;dpoinv;128;0;1;1;1;300;121;9000;9000;855636226;0.000000e+00;4.828341e-01;1.510003e+03
96;dpoinv;128;0;1;1;1;300;121;9000;9000;1749698586;0.000000e+00;4.946289e-01;1.473996e+03
97;dpoinv;128;0;1;1;1;300;121;9000;9000;1469348094;0.000000e+00;4.871480e-01;1.496631e+03
98;dpoinv;128;0;1;1;1;300;121;9000;9000;1956297539;0.000000e+00;4.848981e-01;1.503576e+03
99;dpoinv;128;0;1;1;1;300;121;9000;9000;1036140795;0.000000e+00;4.806221e-01;1.516953e+03
0;dpoinv;128;0;1;1;1;300;121;9900;9900;846930886;0.000000e+00;6.305730e-01;1.538913e+03
1;dpoinv;128;0;1;1;1;300;121;9900;9900;1681692777;0.000000e+00;7.181191e-01;1.351304e+03
2;dpoinv;128;0;1;1;1;300;121;9900;9900;1714636915;0.000000e+00;6.039770e-01;1.606679e+03
3;dpoinv;128;0;1;1;1;300;121;9900;9900;1957747793;0.000000e+00;6.012039e-01;1.614090e+03
4;dpoinv;128;0;1;1;1;300;121;9900;9900;424238335;0.000000e+00;6.182239e-01;1.569653e+03
5;dpoinv;128;0;1;1;1;300;121;9900;9900;719885386;0.000000e+00;6.141608e-01;1.580037e+03
6;dpoinv;128;0;1;1;1;300;121;9900;9900;1649760492;0.000000e+00;5.898709e-01;1.645101e+03
7;dpoinv;128;0;1;1;1;300;121;9900;9900;596516649;0.000000e+00;5.893722e-01;1.646493e+03
8;dpoinv;128;0;1;1;1;300;121;9900;9900;1189641421;0.000000e+00;5.976999e-01;1.623552e+03
9;dpoinv;128;0;1;1;1;300;121;9900;9900;1025202362;0.000000e+00;6.277740e-01;1.545774e+03
10;dpoinv;128;0;1;1;1;300;121;12300;12300;1350490027;0.000000e+00;1.169803e+00;1.590882e+03
11;dpoinv;128;0;1;1;1;300;121;12300;12300;783368690;0.000000e+00;1.171559e+00;1.588497e+03
12;dpoinv;128;0;1;1;1;300;121;12300;12300;1102520059;0.000000e+00;1.177481e+00;1.580508e+03
13;dpoinv;128;0;1;1;1;300;121;12300;12300;2044897763;0.000000e+00;1.165474e+00;1.596791e+03
14;dpoinv;128;0;1;1;1;300;121;12300;12300;1967513926;0.000000e+00;1.161283e+00;1.602554e+03
15;dpoinv;128;0;1;1;1;300;121;12300;12300;1365180540;0.000000e+00;1.162761e+00;1.600517e+03
16;dpoinv;128;0;1;1;1;300;121;12300;12300;1540383426;0.000000e+00;1.153422e+00;1.613475e+03
17;dpoinv;128;0;1;1;1;300;121;12300;12300;304089172;0.000000e+00;1.180160e+00;1.576920e+03
18;dpoinv;128;0;1;1;1;300;121;12300;12300;1303455736;0.000000e+00;1.166544e+00;1.595326e+03
19;dpoinv;128;0;1;1;1;300;121;12300;12300;35005211;0.000000e+00;1.142338e+00;1.629131e+03
20;dpoinv;128;0;1;1;1;300;121;14700;14700;521595368;0.000000e+00;1.859263e+00;1.708601e+03
21;dpoinv;128;0;1;1;1;300;121;14700;14700;294702567;0.000000e+00;1.894952e+00;1.676422e+03
22;dpoinv;128;0;1;1;1;300;121;14700;14700;1726956429;0.000000e+00;1.872142e+00;1.696847e+03
23;dpoinv;128;0;1;1;1;300;121;14700;14700;336465782;0.000000e+00;1.876418e+00;1.692981e+03
24;dpoinv;128;0;1;1;1;300;121;14700;14700;861021530;0.000000e+00;1.867260e+00;1.701284e+03
25;dpoinv;128;0;1;1;1;300;121;14700;14700;278722862;0.000000e+00;1.855977e+00;1.711626e+03
26;dpoinv;128;0;1;1;1;300;121;14700;14700;233665123;0.000000e+00;1.878756e+00;1.690874e+03
27;dpoinv;128;0;1;1;1;300;121;14700;14700;2145174067;0.000000e+00;1.868746e+00;1.699931e+03
28;dpoinv;128;0;1;1;1;300;121;14700;14700;468703135;0.000000e+00;1.874313e+00;1.694882e+03
29;dpoinv;128;0;1;1;1;300;121;14700;14700;1101513929;0.000000e+00;1.860076e+00;1.707855e+03
30;dpoinv;128;0;1;1;1;300;121;17100;17100;1801979802;0.000000e+00;2.701524e+00;1.850994e+03
31;dpoinv;128;0;1;1;1;300;121;17100;17100;1315634022;0.000000e+00;2.686063e+00;1.861648e+03
32;dpoinv;128;0;1;1;1;300;121;17100;17100;635723058;0.000000e+00;2.698726e+00;1.852912e+03
33;dpoinv;128;0;1;1;1;300;121;17100;17100;1369133069;0.000000e+00;2.669810e+00;1.872981e+03
34;dpoinv;128;0;1;1;1;300;121;17100;17100;1125898167;0.000000e+00;2.679532e+00;1.866185e+03
35;dpoinv;128;0;1;1;1;300;121;17100;17100;1059961393;0.000000e+00;2.675010e+00;1.869340e+03
36;dpoinv;128;0;1;1;1;300;121;17100;17100;2089018456;0.000000e+00;2.679261e+00;1.866374e+03
37;dpoinv;128;0;1;1;1;300;121;17100;17100;628175011;0.000000e+00;2.670361e+00;1.872595e+03
38;dpoinv;128;0;1;1;1;300;121;17100;17100;1656478042;0.000000e+00;2.703439e+00;1.849682e+03
39;dpoinv;128;0;1;1;1;300;121;17100;17100;1131176229;0.000000e+00;2.658209e+00;1.881155e+03
40;dpoinv;128;0;1;1;1;300;121;19500;19500;1653377373;0.000000e+00;3.660983e+00;2.025482e+03
41;dpoinv;128;0;1;1;1;300;121;19500;19500;859484421;0.000000e+00;3.667972e+00;2.021623e+03
42;dpoinv;128;0;1;1;1;300;121;19500;19500;1914544919;0.000000e+00;3.663149e+00;2.024284e+03
43;dpoinv;128;0;1;1;1;300;121;19500;19500;608413784;0.000000e+00;3.677197e+00;2.016551e+03
44;dpoinv;128;0;1;1;1;300;121;19500;19500;756898537;0.000000e+00;3.673577e+00;2.018538e+03
45;dpoinv;128;0;1;1;1;300;121;19500;19500;1734575198;0.000000e+00;3.681097e+00;2.014415e+03
46;dpoinv;128;0;1;1;1;300;121;19500;19500;1973594324;0.000000e+00;3.636928e+00;2.038879e+03
47;dpoinv;128;0;1;1;1;300;121;19500;19500;149798315;0.000000e+00;3.633871e+00;2.040594e+03
48;dpoinv;128;0;1;1;1;300;121;19500;19500;2038664370;0.000000e+00;3.666924e+00;2.022200e+03
49;dpoinv;128;0;1;1;1;300;121;19500;19500;1129566413;0.000000e+00;3.678309e+00;2.015941e+03
50;dpoinv;128;0;1;1;1;300;121;21900;21900;184803526;0.000000e+00;4.913659e+00;2.137702e+03
51;dpoinv;128;0;1;1;1;300;121;21900;21900;412776091;0.000000e+00;4.930902e+00;2.130227e+03
52;dpoinv;128;0;1;1;1;300;121;21900;21900;1424268980;0.000000e+00;4.915885e+00;2.136734e+03
53;dpoinv;128;0;1;1;1;300;121;21900;21900;1911759956;0.000000e+00;4.912144e+00;2.138361e+03
54;dpoinv;128;0;1;1;1;300;121;21900;21900;749241873;0.000000e+00;4.935460e+00;2.128259e+03
55;dpoinv;128;0;1;1;1;300;121;21900;21900;137806862;0.000000e+00;4.910446e+00;2.139101e+03
56;dpoinv;128;0;1;1;1;300;121;21900;21900;42999170;0.000000e+00;4.956343e+00;2.119292e+03
57;dpoinv;128;0;1;1;1;300;121;21900;21900;982906996;0.000000e+00;4.900333e+00;2.143515e+03
58;dpoinv;128;0;1;1;1;300;121;21900;21900;135497281;0.000000e+00;4.903319e+00;2.142210e+03
59;dpoinv;128;0;1;1;1;300;121;21900;21900;511702305;0.000000e+00;4.898320e+00;2.144396e+03
60;dpoinv;128;0;1;1;1;300;121;24300;24300;2084420925;0.000000e+00;6.489965e+00;2.211029e+03
61;dpoinv;128;0;1;1;1;300;121;24300;24300;1937477084;0.000000e+00;6.499967e+00;2.207626e+03
62;dpoinv;128;0;1;1;1;300;121;24300;24300;1827336327;0.000000e+00;6.465520e+00;2.219388e+03
63;dpoinv;128;0;1;1;1;300;121;24300;24300;572660336;0.000000e+00;6.449659e+00;2.224846e+03
64;dpoinv;128;0;1;1;1;300;121;24300;24300;1159126505;0.000000e+00;6.499687e+00;2.207721e+03
65;dpoinv;128;0;1;1;1;300;121;24300;24300;805750846;0.000000e+00;6.498377e+00;2.208166e+03
66;dpoinv;128;0;1;1;1;300;121;24300;24300;1632621729;0.000000e+00;6.458867e+00;2.221674e+03
67;dpoinv;128;0;1;1;1;300;121;24300;24300;1100661313;0.000000e+00;6.525791e+00;2.198890e+03
68;dpoinv;128;0;1;1;1;300;121;24300;24300;1433925857;0.000000e+00;6.479622e+00;2.214558e+03
69;dpoinv;128;0;1;1;1;300;121;24300;24300;1141616124;0.000000e+00;6.497779e+00;2.208370e+03
70;dpoinv;128;0;1;1;1;300;121;26700;26700;84353895;0.000000e+00;8.409531e+00;2.263488e+03
71;dpoinv;128;0;1;1;1;300;121;26700;26700;939819582;0.000000e+00;8.423361e+00;2.259772e+03
72;dpoinv;128;0;1;1;1;300;121;26700;26700;2001100545;0.000000e+00;8.442816e+00;2.254565e+03
73;dpoinv;128;0;1;1;1;300;121;26700;26700;1998898814;0.000000e+00;8.451932e+00;2.252133e+03
74;dpoinv;128;0;1;1;1;300;121;26700;26700;1548233367;0.000000e+00;8.446196e+00;2.253663e+03
75;dpoinv;128;0;1;1;1;300;121;26700;26700;610515434;0.000000e+00;8.404647e+00;2.264804e+03
76;dpoinv;128;0;1;1;1;300;121;26700;26700;1585990364;0.000000e+00;8.406737e+00;2.264241e+03
77;dpoinv;128;0;1;1;1;300;121;26700;26700;1374344043;0.000000e+00;8.423617e+00;2.259703e+03
78;dpoinv;128;0;1;1;1;300;121;26700;26700;760313750;0.000000e+00;8.423444e+00;2.259750e+03
79;dpoinv;128;0;1;1;1;300;121;26700;26700;1477171087;0.000000e+00;8.454513e+00;2.251446e+03
80;dpoinv;128;0;1;1;1;300;121;29100;29100;356426808;0.000000e+00;1.074964e+01;2.292451e+03
81;dpoinv;128;0;1;1;1;300;121;29100;29100;945117276;0.000000e+00;1.080810e+01;2.280051e+03
82;dpoinv;128;0;1;1;1;300;121;29100;29100;1889947178;0.000000e+00;1.077183e+01;2.287728e+03
83;dpoinv;128;0;1;1;1;300;121;29100;29100;1780695788;0.000000e+00;1.073046e+01;2.296548e+03
84;dpoinv;128;0;1;1;1;300;121;29100;29100;709393584;0.000000e+00;1.071733e+01;2.299362e+03
85;dpoinv;128;0;1;1;1;300;121;29100;29100;491705403;0.000000e+00;1.073598e+01;2.295368e+03
86;dpoinv;128;0;1;1;1;300;121;29100;29100;1918502651;0.000000e+00;1.069795e+01;2.303527e+03
87;dpoinv;128;0;1;1;1;300;121;29100;29100;752392754;0.000000e+00;1.078044e+01;2.285901e+03
88;dpoinv;128;0;1;1;1;300;121;29100;29100;1474612399;0.000000e+00;1.073163e+01;2.296298e+03
89;dpoinv;128;0;1;1;1;300;121;29100;29100;2053999932;0.000000e+00;1.069447e+01;2.304276e+03
