Id;Function;threads;gpus;P;Q;mtxfmt;nb;norm;m;n;lda;seedA;tsub;time;gflops
0;dlange;128;0;1;1;1;1024;171;1024;1024;1024;846930886;0.000000e+00;1.195937e-03;7.014256e+00
1;dlange;128;0;1;1;1;1024;171;1024;1024;1024;1681692777;0.000000e+00;3.461875e-03;2.423140e+00
2;dlange;128;0;1;1;1;1024;171;1024;1024;1024;1714636915;0.000000e+00;1.743946e-03;4.810131e+00
3;dlange;128;0;1;1;1;1024;171;1024;1024;1024;1957747793;0.000000e+00;1.276606e-03;6.571023e+00
4;dlange;128;0;1;1;1;1024;171;1024;1024;1024;424238335;0.000000e+00;1.832572e-03;4.577505e+00
5;dlange;128;0;1;1;1;1024;171;1024;1024;1024;719885386;0.000000e+00;1.125826e-03;7.451070e+00
6;dlange;128;0;1;1;1;1024;171;1024;1024;1024;1649760492;0.000000e+00;1.025966e-02;8.176301e-01
7;dlange;128;0;1;1;1;1024;171;1024;1024;1024;596516649;0.000000e+00;1.147587e-03;7.309780e+00
8;dlange;128;0;1;1;1;1024;171;1024;1024;1024;1189641421;0.000000e+00;1.089678e-03;7.698245e+00
9;dlange;128;0;1;1;1;1024;171;1024;1024;1024;1025202362;0.000000e+00;4.622707e-03;1.814653e+00
10;dlange;128;0;1;1;1;1024;171;2048;2048;2048;1350490027;0.000000e+00;4.753961e-03;7.058205e+00
11;dlange;128;0;1;1;1;1024;171;2048;2048;2048;783368690;0.000000e+00;5.064950e-03;6.624830e+00
12;dlange;128;0;1;1;1;1024;171;2048;2048;2048;1102520059;0.000000e+00;3.170823e-03;1.058225e+01
13;dlange;128;0;1;1;1;1024;171;2048;2048;2048;2044897763;0.000000e+00;2.616902e-03;1.282220e+01
14;dlange;128;0;1;1;1;1024;171;2048;2048;2048;1967513926;0.000000e+00;2.639203e-03;1.271385e+01
15;dlange;128;0;1;1;1;1024;171;2048;2048;2048;1365180540;0.000000e+00;2.818958e-03;1.190313e+01
16;dlange;128;0;1;1;1;1024;171;2048;2048;2048;1540383426;0.000000e+00;2.641768e-03;1.270151e+01
17;dlange;128;0;1;1;1;1024;171;2048;2048;2048;304089172;0.000000e+00;1.530309e-03;2.192657e+01
18;dlange;128;0;1;1;1;1024;171;2048;2048;2048;1303455736;0.000000e+00;1.627721e-03;2.061436e+01
19;dlange;128;0;1;1;1;1024;171;2048;2048;2048;35005211;0.000000e+00;1.643490e-03;2.041657e+01
20;dlange;128;0;1;1;1;1024;171;3072;3072;3072;521595368;0.000000e+00;5.424900e-03;1.391684e+01
21;dlange;128;0;1;1;1;1024;171;3072;3072;3072;294702567;0.000000e+00;6.996857e-03;1.079020e+01
22;dlange;128;0;1;1;1;1024;171;3072;3072;3072;1726956429;0.000000e+00;5.152192e-03;1.465347e+01
23;dlange;128;0;1;1;1;1024;171;3072;3072;3072;336465782;0.000000e+00;2.491859e-03;3.029765e+01
24;dlange;128;0;1;1;1;1024;171;3072;3072;3072;861021530;0.000000e+00;6.372874e-03;1.184669e+01
25;dlange;128;0;1;1;1;1024;171;3072;3072;3072;278722862;0.000000e+00;8.829759e-03;8.550343e+00
26;dlange;128;0;1;1;1;1024;171;3072;3072;3072;233665123;0.000000e+00;5.446861e-03;1.386073e+01
27;dlange;128;0;1;1;1;1024;171;3072;3072;3072;2145174067;0.000000e+00;2.738197e-03;2.757197e+01
28;dlange;128;0;1;1;1;1024;171;3072;3072;3072;468703135;0.000000e+00;2.613856e-03;2.888356e+01
29;dlange;128;0;1;1;1;1024;171;3072;3072;3072;1101513929;0.000000e+00;6.026901e-03;1.252675e+01
30;dlange;128;0;1;1;1;1024;171;4096;4096;4096;1801979802;0.000000e+00;8.962817e-03;1.497495e+01
31;dlange;128;0;1;1;1;1024;171;4096;4096;4096;1315634022;0.000000e+00;4.251365e-03;3.157050e+01
32;dlange;128;0;1;1;1;1024;171;4096;4096;4096;635723058;0.000000e+00;8.158358e-03;1.645156e+01
33;dlange;128;0;1;1;1;1024;171;4096;4096;4096;1369133069;0.000000e+00;5.754504e-03;2.332394e+01
34;dlange;128;0;1;1;1;1024;171;4096;4096;4096;1125898167;0.000000e+00;8.224421e-03;1.631941e+01
35;dlange;128;0;1;1;1;1024;171;4096;4096;4096;1059961393;0.000000e+00;8.743588e-03;1.535042e+01
36;dlange;128;0;1;1;1;1024;171;4096;4096;4096;2089018456;0.000000e+00;5.278968e-03;2.542499e+01
37;dlange;128;0;1;1;1;1024;171;4096;4096;4096;628175011;0.000000e+00;1.548906e-02;8.665326e+00
38;dlange;128;0;1;1;1;1024;171;4096;4096;4096;1656478042;0.000000e+00;5.724799e-03;2.344497e+01
39;dlange;128;0;1;1;1;1024;171;4096;4096;4096;1131176229;0.000000e+00;8.791738e-03;1.526635e+01
40;dlange;128;0;1;1;1;1024;171;5120;5120;5120;1653377373;0.000000e+00;1.379133e-02;1.520631e+01
41;dlange;128;0;1;1;1;1024;171;5120;5120;5120;859484421;0.000000e+00;1.286379e-02;1.630275e+01
42;dlange;128;0;1;1;1;1024;171;5120;5120;5120;1914544919;0.000000e+00;1.243633e-02;1.686311e+01
43;dlange;128;0;1;1;1;1024;171;5120;5120;5120;608413784;0.000000e+00;1.283859e-02;1.633475e+01
44;dlange;128;0;1;1;1;1024;171;5120;5120;5120;756898537;0.000000e+00;1.520371e-02;1.379369e+01
45;dlange;128;0;1;1;1;1024;171;5120;5120;5120;1734575198;0.000000e+00;1.107298e-02;1.893937e+01
46;dlange;128;0;1;1;1;1024;171;5120;5120;5120;1973594324;0.000000e+00;1.301579e-02;1.611237e+01
47;dlange;128;0;1;1;1;1024;171;5120;5120;5120;149798315;0.000000e+00;1.665069e-02;1.259499e+01
48;dlange;128;0;1;1;1;1024;171;5120;5120;5120;2038664370;0.000000e+00;1.698139e-02;1.234970e+01
49;dlange;128;0;1;1;1;1024;171;5120;5120;5120;1129566413;0.000000e+00;1.340474e-02;1.564486e+01
0;dlange;128;0;1;1;1;1024;171;6144;6144;6144;846930886;0.000000e+00;1.719896e-02;1.755861e+01
1;dlange;128;0;1;1;1;1024;171;6144;6144;6144;1681692777;0.000000e+00;1.860906e-02;1.622811e+01
2;dlange;128;0;1;1;1;1024;171;6144;6144;6144;1714636915;0.000000e+00;1.656846e-02;1.822680e+01
3;dlange;128;0;1;1;1;1024;171;6144;6144;6144;1957747793;0.000000e+00;1.300010e-02;2.322981e+01
4;dlange;128;0;1;1;1;1024;171;6144;6144;6144;424238335;0.000000e+00;1.675486e-02;1.802401e+01
5;dlange;128;0;1;1;1;1024;171;6144;6144;6144;719885386;0.000000e+00;1.889770e-02;1.598024e+01
6;dlange;128;0;1;1;1;1024;171;6144;6144;6144;1649760492;0.000000e+00;1.852195e-02;1.630443e+01
7;dlange;128;0;1;1;1;1024;171;6144;6144;6144;596516649;0.000000e+00;2.416723e-02;1.249584e+01
8;dlange;128;0;1;1;1;1024;171;6144;6144;6144;1189641421;0.000000e+00;3.025692e-02;9.980853e+00
9;dlange;128;0;1;1;1;1024;171;6144;6144;6144;1025202362;0.000000e+00;2.165545e-02;1.394522e+01
10;dlange;128;0;1;1;1;1024;171;8192;8192;8192;1350490027;0.000000e+00;2.586218e-02;2.075892e+01
11;dlange;128;0;1;1;1;1024;171;8192;8192;8192;783368690;0.000000e+00;1.602744e-02;3.349699e+01
12;dlange;128;0;1;1;1;1024;171;8192;8192;8192;1102520059;0.000000e+00;2.894509e-02;1.854791e+01
13;dlange;128;0;1;1;1;1024;171;8192;8192;8192;2044897763;0.000000e+00;2.619580e-02;2.049454e+01
14;dlange;128;0;1;1;1;1024;171;8192;8192;8192;1967513926;0.000000e+00;2.739823e-02;1.959510e+01
15;dlange;128;0;1;1;1;1024;171;8192;8192;8192;1365180540;0.000000e+00;2.848642e-02;1.884656e+01
16;dlange;128;0;1;1;1;1024;171;8192;8192;8192;1540383426;0.000000e+00;2.298293e-02;2.335955e+01
17;dlange;128;0;1;1;1;1024;171;8192;8192;8192;304089172;0.000000e+00;3.161527e-02;1.698138e+01
18;dlange;128;0;1;1;1;1024;171;8192;8192;8192;1303455736;0.000000e+00;2.329346e-02;2.304814e+01
19;dlange;128;0;1;1;1;1024;171;8192;8192;8192;35005211;0.000000e+00;3.103398e-02;1.729946e+01
20;dlange;128;0;1;1;1;1024;171;10240;10240;10240;521595368;0.000000e+00;4.522608e-02;1.854817e+01
21;dlange;128;0;1;1;1;1024;171;10240;10240;10240;294702567;0.000000e+00;5.647941e-02;1.485251e+01
22;dlange;128;0;1;1;1;1024;171;10240;10240;10240;1726956429;0.000000e+00;4.584419e-02;1.829808e+01
23;dlange;128;0;1;1;1;1024;171;10240;10240;10240;336465782;0.000000e+00;4.330377e-02;1.937154e+01
24;dlange;128;0;1;1;1;1024;171;10240;10240;10240;861021530;0.000000e+00;4.860534e-02;1.725861e+01
25;dlange;128;0;1;1;1;1024;171;10240;10240;10240;278722862;0.000000e+00;4.585534e-02;1.829363e+01
26;dlange;128;0;1;1;1;1024;171;10240;10240;10240;233665123;0.000000e+00;4.786983e-02;1.752379e+01
27;dlange;128;0;1;1;1;1024;171;10240;10240;10240;2145174067;0.000000e+00;4.824537e-02;1.738738e+01
28;dlange;128;0;1;1;1;1024;171;10240;10240;10240;468703135;0.000000e+00;4.938209e-02;1.698715e+01
29;dlange;128;0;1;1;1;1024;171;10240;10240;10240;1101513929;0.000000e+00;4.597667e-02;1.824536e+01
30;dlange;128;0;1;1;1;1024;171;12288;12288;12288;1801979802;0.000000e+00;5.708513e-02;2.116067e+01
31;dlange;128;0;1;1;1;1024;171;12288;12288;12288;1315634022;0.000000e+00;5.368704e-02;2.250002e+01
32;dlange;128;0;1;1;1;1024;171;12288;12288;12288;635723058;0.000000e+00;5.674957e-02;2.128579e+01
33;dlange;128;0;1;1;1;1024;171;12288;12288;12288;1369133069;0.000000e+00;5.486428e-02;2.201723e+01
34;dlange;128;0;1;1;1;1024;171;12288;12288;12288;1125898167;0.000000e+00;5.757207e-02;2.098170e+01
35;dlange;128;0;1;1;1;1024;171;12288;12288;12288;1059961393;0.000000e+00;4.932621e-02;2.448920e+01
36;dlange;128;0;1;1;1;1024;171;12288;12288;12288;2089018456;0.000000e+00;5.277276e-02;2.288983e+01
37;dlange;128;0;1;1;1;1024;171;12288;12288;12288;628175011;0.000000e+00;5.420363e-02;2.228558e+01
38;dlange;128;0;1;1;1;1024;171;12288;12288;12288;1656478042;0.000000e+00;5.850925e-02;2.064562e+01
39;dlange;128;0;1;1;1;1024;171;12288;12288;12288;1131176229;0.000000e+00;5.220996e-02;2.313657e+01
40;dlange;128;0;1;1;1;1024;171;14336;14336;14336;1653377373;0.000000e+00;4.719320e-02;3.483907e+01
41;dlange;128;0;1;1;1;1024;171;14336;14336;14336;859484421;0.000000e+00;4.734864e-02;3.472470e+01
42;dlange;128;0;1;1;1;1024;171;14336;14336;14336;1914544919;0.000000e+00;5.362826e-02;3.065859e+01
43;dlange;128;0;1;1;1;1024;171;14336;14336;14336;608413784;0.000000e+00;4.761074e-02;3.453354e+01
44;dlange;128;0;1;1;1;1024;171;14336;14336;14336;756898537;0.000000e+00;5.313293e-02;3.094441e+01
45;dlange;128;0;1;1;1;1024;171;14336;14336;14336;1734575198;0.000000e+00;4.889625e-02;3.362563e+01
46;dlange;128;0;1;1;1;1024;171;14336;14336;14336;1973594324;0.000000e+00;4.620060e-02;3.558757e+01
47;dlange;128;0;1;1;1;1024;171;14336;14336;14336;149798315;0.000000e+00;4.578762e-02;3.590856e+01
48;dlange;128;0;1;1;1;1024;171;14336;14336;14336;2038664370;0.000000e+00;4.644987e-02;3.539660e+01
49;dlange;128;0;1;1;1;1024;171;14336;14336;14336;1129566413;0.000000e+00;4.718038e-02;3.484854e+01
50;dlange;128;0;1;1;1;1024;171;16384;16384;16384;184803526;0.000000e+00;6.478822e-02;3.314621e+01
51;dlange;128;0;1;1;1;1024;171;16384;16384;16384;412776091;0.000000e+00;4.717428e-02;4.552234e+01
52;dlange;128;0;1;1;1;1024;171;16384;16384;16384;1424268980;0.000000e+00;4.664646e-02;4.603744e+01
53;dlange;128;0;1;1;1;1024;171;16384;16384;16384;1911759956;0.000000e+00;4.543712e-02;4.726276e+01
54;dlange;128;0;1;1;1;1024;171;16384;16384;16384;749241873;0.000000e+00;6.118791e-02;3.509654e+01
55;dlange;128;0;1;1;1;1024;171;16384;16384;16384;137806862;0.000000e+00;5.466221e-02;3.928644e+01
56;dlange;128;0;1;1;1;1024;171;16384;16384;16384;42999170;0.000000e+00;5.440121e-02;3.947492e+01
57;dlange;128;0;1;1;1;1024;171;16384;16384;16384;982906996;0.000000e+00;6.202773e-02;3.462135e+01
58;dlange;128;0;1;1;1;1024;171;16384;16384;16384;135497281;0.000000e+00;4.751875e-02;4.519234e+01
59;dlange;128;0;1;1;1;1024;171;16384;16384;16384;511702305;0.000000e+00;5.066261e-02;4.238794e+01
60;dlange;128;0;1;1;1;1024;171;18432;18432;18432;2084420925;0.000000e+00;5.152740e-02;5.274687e+01
61;dlange;128;0;1;1;1;1024;171;18432;18432;18432;1937477084;0.000000e+00;5.463875e-02;4.974325e+01
62;dlange;128;0;1;1;1;1024;171;18432;18432;18432;1827336327;0.000000e+00;6.520362e-02;4.168340e+01
63;dlange;128;0;1;1;1;1024;171;18432;18432;18432;572660336;0.000000e+00;5.708629e-02;4.761054e+01
64;dlange;128;0;1;1;1;1024;171;18432;18432;18432;1159126505;0.000000e+00;4.633101e-02;5.866285e+01
65;dlange;128;0;1;1;1;1024;171;18432;18432;18432;805750846;0.000000e+00;5.802854e-02;4.683745e+01
66;dlange;128;0;1;1;1;1024;171;18432;18432;18432;1632621729;0.000000e+00;6.969897e-02;3.899497e+01
67;dlange;128;0;1;1;1;1024;171;18432;18432;18432;1100661313;0.000000e+00;6.413784e-02;4.237606e+01
68;dlange;128;0;1;1;1;1024;171;18432;18432;18432;1433925857;0.000000e+00;5.809042e-02;4.678756e+01
69;dlange;128;0;1;1;1;1024;171;18432;18432;18432;1141616124;0.000000e+00;5.362387e-02;5.068469e+01
70;dlange;128;0;1;1;1;1024;171;20480;20480;20480;84353895;0.000000e+00;6.666549e-02;5.033253e+01
71;dlange;128;0;1;1;1;1024;171;20480;20480;20480;939819582;0.000000e+00;5.993332e-02;5.598627e+01
72;dlange;128;0;1;1;1;1024;171;20480;20480;20480;2001100545;0.000000e+00;4.824164e-02;6.955491e+01
73;dlange;128;0;1;1;1;1024;171;20480;20480;20480;1998898814;0.000000e+00;5.712087e-02;5.874285e+01
74;dlange;128;0;1;1;1;1024;171;20480;20480;20480;1548233367;0.000000e+00;6.819515e-02;4.920354e+01
75;dlange;128;0;1;1;1;1024;171;20480;20480;20480;610515434;0.000000e+00;6.987448e-02;4.802101e+01
76;dlange;128;0;1;1;1;1024;171;20480;20480;20480;1585990364;0.000000e+00;5.382171e-02;6.234367e+01
77;dlange;128;0;1;1;1;1024;171;20480;20480;20480;1374344043;0.000000e+00;6.441782e-02;5.208874e+01
78;dlange;128;0;1;1;1;1024;171;20480;20480;20480;760313750;0.000000e+00;7.026190e-02;4.775623e+01
79;dlange;128;0;1;1;1;1024;171;20480;20480;20480;1477171087;0.000000e+00;5.354949e-02;6.266061e+01
80;dlange;128;0;1;1;1;1024;171;22528;22528;22528;356426808;0.000000e+00;7.510031e-02;5.406218e+01
81;dlange;128;0;1;1;1;1024;171;22528;22528;22528;945117276;0.000000e+00;5.563885e-02;7.297215e+01
82;dlange;128;0;1;1;1;1024;171;22528;22528;22528;1889947178;0.000000e+00;5.647393e-02;7.189311e+01
83;dlange;128;0;1;1;1;1024;171;22528;22528;22528;1780695788;0.000000e+00;1.003236e-01;4.046989e+01
84;dlange;128;0;1;1;1;1024;171;22528;22528;22528;709393584;0.000000e+00;7.361856e-02;5.515031e+01
85;dlange;128;0;1;1;1;1024;171;22528;22528;22528;491705403;0.000000e+00;6.293970e-02;6.450756e+01
86;dlange;128;0;1;1;1;1024;171;22528;22528;22528;1918502651;0.000000e+00;4.865269e-02;8.345040e+01
87;dlange;128;0;1;1;1;1024;171;22528;22528;22528;752392754;0.000000e+00;5.358024e-02;7.577581e+01
88;dlange;128;0;1;1;1;1024;171;22528;22528;22528;1474612399;0.000000e+00;6.315882e-02;6.428376e+01
89;dlange;128;0;1;1;1;1024;171;22528;22528;22528;2053999932;0.000000e+00;6.368929e-02;6.374833e+01
90;dlange;128;0;1;1;1;1024;171;24576;24576;24576;1264095060;0.000000e+00;6.688132e-02;7.224496e+01
91;dlange;128;0;1;1;1;1024;171;24576;24576;24576;1411549676;0.000000e+00;5.997653e-02;8.056215e+01
92;dlange;128;0;1;1;1;1024;171;24576;24576;24576;1843993368;0.000000e+00;6.916752e-02;6.985704e+01
93;dlange;128;0;1;1;1;1024;171;24576;24576;24576;943947739;0.000000e+00;7.378231e-02;6.548776e+01
94;dlange;128;0;1;1;1;1024;171;24576;24576;24576;1984210012;0.000000e+00;7.258411e-02;6.656881e+01
95;dlange;128;0;1;1;1;1024;171;24576;24576;24576;855636226;0.000000e+00;7.949368e-02;6.078267e+01
96;dlange;128;0;1;1;1;1024;171;24576;24576;24576;1749698586;0.000000e+00;8.192233e-02;5.898072e+01
97;dlange;128;0;1;1;1;1024;171;24576;24576;24576;1469348094;0.000000e+00;8.370966e-02;5.772140e+01
98;dlange;128;0;1;1;1;1024;171;24576;24576;24576;1956297539;0.000000e+00;6.100554e-02;7.920327e+01
99;dlange;128;0;1;1;1;1024;171;24576;24576;24576;1036140795;0.000000e+00;7.439481e-02;6.494859e+01
100;dlange;128;0;1;1;1;1024;171;26624;26624;26624;463480570;0.000000e+00;7.856406e-02;7.217930e+01
101;dlange;128;0;1;1;1;1024;171;26624;26624;26624;2040651434;0.000000e+00;7.236649e-02;7.836084e+01
102;dlange;128;0;1;1;1;1024;171;26624;26624;26624;1975960378;0.000000e+00;6.646898e-02;8.531347e+01
103;dlange;128;0;1;1;1;1024;171;26624;26624;26624;317097467;0.000000e+00;7.444787e-02;7.617006e+01
104;dlange;128;0;1;1;1;1024;171;26624;26624;26624;1892066601;0.000000e+00;7.518418e-02;7.542409e+01
105;dlange;128;0;1;1;1;1024;171;26624;26624;26624;1376710097;0.000000e+00;7.037958e-02;8.057307e+01
106;dlange;128;0;1;1;1;1024;171;26624;26624;26624;927612902;0.000000e+00;7.365595e-02;7.698901e+01
107;dlange;128;0;1;1;1;1024;171;26624;26624;26624;1330573317;0.000000e+00;7.586246e-02;7.474974e+01
108;dlange;128;0;1;1;1;1024;171;26624;26624;26624;603570492;0.000000e+00;6.638700e-02;8.541882e+01
109;dlange;128;0;1;1;1;1024;171;26624;26624;26624;1687926652;0.000000e+00;7.541199e-02;7.519625e+01
110;dlange;128;0;1;1;1;1024;171;28672;28672;28672;660260756;0.000000e+00;8.288248e-02;7.934933e+01
111;dlange;128;0;1;1;1;1024;171;28672;28672;28672;959997301;0.000000e+00;7.595626e-02;8.658494e+01
112;dlange;128;0;1;1;1;1024;171;28672;28672;28672;485560280;0.000000e+00;7.539943e-02;8.722439e+01
113;dlange;128;0;1;1;1;1024;171;28672;28672;28672;402724286;0.000000e+00;9.341316e-02;7.040409e+01
114;dlange;128;0;1;1;1;1024;171;28672;28672;28672;593209441;0.000000e+00;1.030710e-01;6.380715e+01
115;dlange;128;0;1;1;1;1024;171;28672;28672;28672;1194953865;0.000000e+00;8.768410e-02;7.500412e+01
116;dlange;128;0;1;1;1;1024;171;28672;28672;28672;894429689;0.000000e+00;7.880093e-02;8.345928e+01
117;dlange;128;0;1;1;1;1024;171;28672;28672;28672;364228444;0.000000e+00;7.552170e-02;8.708316e+01
118;dlange;128;0;1;1;1;1024;171;28672;28672;28672;1947346619;0.000000e+00;8.086810e-02;8.132587e+01
119;dlange;128;0;1;1;1;1024;171;28672;28672;28672;221558440;0.000000e+00;1.146219e-01;5.737705e+01
120;dlange;128;0;1;1;1;1024;171;30720;30720;30720;270744729;0.000000e+00;1.096192e-01;6.887251e+01
121;dlange;128;0;1;1;1;1024;171;30720;30720;30720;1063958031;0.000000e+00;9.273642e-02;8.141081e+01
122;dlange;128;0;1;1;1;1024;171;30720;30720;30720;1633108117;0.000000e+00;8.700739e-02;8.677134e+01
123;dlange;128;0;1;1;1;1024;171;30720;30720;30720;2114738097;0.000000e+00;1.041753e-01;7.247153e+01
124;dlange;128;0;1;1;1;1024;171;30720;30720;30720;2007905771;0.000000e+00;9.541425e-02;7.912599e+01
125;dlange;128;0;1;1;1;1024;171;30720;30720;30720;1469834481;0.000000e+00;1.250420e-01;6.037768e+01
126;dlange;128;0;1;1;1;1024;171;30720;30720;30720;822890675;0.000000e+00;1.044796e-01;7.226046e+01
127;dlange;128;0;1;1;1;1024;171;30720;30720;30720;1610120709;0.000000e+00;9.584739e-02;7.876841e+01
128;dlange;128;0;1;1;1;1024;171;30720;30720;30720;791698927;0.000000e+00;1.053638e-01;7.165408e+01
129;dlange;128;0;1;1;1;1024;171;30720;30720;30720;631704567;0.000000e+00;1.053461e-01;7.166613e+01
130;dlange;128;0;1;1;1;1024;171;32768;32768;32768;498777856;0.000000e+00;1.185461e-01;7.246073e+01
131;dlange;128;0;1;1;1;1024;171;32768;32768;32768;1255179497;0.000000e+00;1.082810e-01;7.933006e+01
132;dlange;128;0;1;1;1;1024;171;32768;32768;32768;524872353;0.000000e+00;1.233381e-01;6.964540e+01
133;dlange;128;0;1;1;1;1024;171;32768;32768;32768;327254586;0.000000e+00;1.467679e-01;5.852732e+01
134;dlange;128;0;1;1;1;1024;171;32768;32768;32768;1572276965;0.000000e+00;1.192623e-01;7.202559e+01
135;dlange;128;0;1;1;1;1024;171;32768;32768;32768;269455306;0.000000e+00;1.295536e-01;6.630411e+01
136;dlange;128;0;1;1;1;1024;171;32768;32768;32768;1703964683;0.000000e+00;1.401747e-01;6.128022e+01
137;dlange;128;0;1;1;1;1024;171;32768;32768;32768;352406219;0.000000e+00;1.410854e-01;6.088467e+01
138;dlange;128;0;1;1;1;1024;171;32768;32768;32768;1600028624;0.000000e+00;1.285927e-01;6.679954e+01
139;dlange;128;0;1;1;1;1024;171;32768;32768;32768;160051528;0.000000e+00;1.025093e-01;8.379664e+01
140;dlange;128;0;1;1;1;1024;171;34816;34816;34816;2040332871;0.000000e+00;1.360757e-01;7.126352e+01
141;dlange;128;0;1;1;1;1024;171;34816;34816;34816;112805732;0.000000e+00;1.336995e-01;7.253006e+01
142;dlange;128;0;1;1;1;1024;171;34816;34816;34816;1120048829;0.000000e+00;1.665025e-01;5.824075e+01
143;dlange;128;0;1;1;1;1024;171;34816;34816;34816;378409503;0.000000e+00;1.319250e-01;7.350561e+01
144;dlange;128;0;1;1;1;1024;171;34816;34816;34816;515530019;0.000000e+00;1.205238e-01;8.045903e+01
145;dlange;128;0;1;1;1;1024;171;34816;34816;34816;1713258270;0.000000e+00;1.345415e-01;7.207611e+01
146;dlange;128;0;1;1;1;1024;171;34816;34816;34816;1573363368;0.000000e+00;1.178181e-01;8.230683e+01
147;dlange;128;0;1;1;1;1024;171;34816;34816;34816;1409959708;0.000000e+00;1.297608e-01;7.473161e+01
148;dlange;128;0;1;1;1;1024;171;34816;34816;34816;2077486715;0.000000e+00;1.214006e-01;7.987796e+01
149;dlange;128;0;1;1;1;1024;171;34816;34816;34816;1373226340;0.000000e+00;1.243501e-01;7.798331e+01
150;dlange;128;0;1;1;1;1024;171;36864;36864;36864;1631518149;0.000000e+00;1.487953e-01;7.306437e+01
151;dlange;128;0;1;1;1;1024;171;36864;36864;36864;200747796;0.000000e+00;1.446792e-01;7.514307e+01
152;dlange;128;0;1;1;1;1024;171;36864;36864;36864;289700723;0.000000e+00;1.431780e-01;7.593089e+01
153;dlange;128;0;1;1;1;1024;171;36864;36864;36864;1117142618;0.000000e+00;1.605778e-01;6.770324e+01
154;dlange;128;0;1;1;1;1024;171;36864;36864;36864;168002245;0.000000e+00;1.693353e-01;6.420184e+01
155;dlange;128;0;1;1;1;1024;171;36864;36864;36864;150122846;0.000000e+00;1.466839e-01;7.411609e+01
156;dlange;128;0;1;1;1;1024;171;36864;36864;36864;439493451;0.000000e+00;1.401001e-01;7.759904e+01
157;dlange;128;0;1;1;1;1024;171;36864;36864;36864;990892921;0.000000e+00;1.468981e-01;7.400799e+01
158;dlange;128;0;1;1;1;1024;171;36864;36864;36864;1760243555;0.000000e+00;1.386294e-01;7.842228e+01
159;dlange;128;0;1;1;1;1024;171;36864;36864;36864;1231192379;0.000000e+00;1.656854e-01;6.561614e+01
160;dlange;128;0;1;1;1;1024;171;38912;38912;38912;1622597488;0.000000e+00;1.559144e-01;7.769104e+01
161;dlange;128;0;1;1;1;1024;171;38912;38912;38912;111537764;0.000000e+00;1.588164e-01;7.627143e+01
162;dlange;128;0;1;1;1;1024;171;38912;38912;38912;338888228;0.000000e+00;1.565851e-01;7.735823e+01
163;dlange;128;0;1;1;1;1024;171;38912;38912;38912;2147469841;0.000000e+00;1.643513e-01;7.370278e+01
164;dlange;128;0;1;1;1;1024;171;38912;38912;38912;438792350;0.000000e+00;1.563019e-01;7.749840e+01
165;dlange;128;0;1;1;1;1024;171;38912;38912;38912;1911165193;0.000000e+00;1.550074e-01;7.814564e+01
166;dlange;128;0;1;1;1;1024;171;38912;38912;38912;269441500;0.000000e+00;1.577025e-01;7.681015e+01
167;dlange;128;0;1;1;1;1024;171;38912;38912;38912;2142757034;0.000000e+00;1.543440e-01;7.848151e+01
168;dlange;128;0;1;1;1;1024;171;38912;38912;38912;116087764;0.000000e+00;1.525025e-01;7.942921e+01
169;dlange;128;0;1;1;1;1024;171;38912;38912;38912;1869470124;0.000000e+00;1.586243e-01;7.636379e+01
170;dlange;128;0;1;1;1;1024;171;40960;40960;40960;155324914;0.000000e+00;1.957310e-01;6.857254e+01
171;dlange;128;0;1;1;1;1024;171;40960;40960;40960;8936987;0.000000e+00;1.667835e-01;8.047422e+01
172;dlange;128;0;1;1;1;1024;171;40960;40960;40960;1982275856;0.000000e+00;1.660886e-01;8.081092e+01
173;dlange;128;0;1;1;1;1024;171;40960;40960;40960;1275373743;0.000000e+00;1.576992e-01;8.510995e+01
174;dlange;128;0;1;1;1;1024;171;40960;40960;40960;387346491;0.000000e+00;1.783413e-01;7.525893e+01
175;dlange;128;0;1;1;1;1024;171;40960;40960;40960;350322227;0.000000e+00;2.058492e-01;6.520198e+01
176;dlange;128;0;1;1;1;1024;171;40960;40960;40960;841148365;0.000000e+00;1.935459e-01;6.934672e+01
177;dlange;128;0;1;1;1;1024;171;40960;40960;40960;1960709859;0.000000e+00;1.854838e-01;7.236091e+01
178;dlange;128;0;1;1;1;1024;171;40960;40960;40960;1760281936;0.000000e+00;1.871189e-01;7.172858e+01
179;dlange;128;0;1;1;1;1024;171;40960;40960;40960;771151432;0.000000e+00;1.644882e-01;8.159719e+01
180;dlange;128;0;1;1;1;1024;171;43008;43008;43008;1186452551;0.000000e+00;1.846005e-01;8.015961e+01
181;dlange;128;0;1;1;1;1024;171;43008;43008;43008;1244316437;0.000000e+00;2.034549e-01;7.273112e+01
182;dlange;128;0;1;1;1;1024;171;43008;43008;43008;971899228;0.000000e+00;1.869763e-01;7.914107e+01
183;dlange;128;0;1;1;1;1024;171;43008;43008;43008;1476153275;0.000000e+00;1.842828e-01;8.029782e+01
184;dlange;128;0;1;1;1;1024;171;43008;43008;43008;213975407;0.000000e+00;1.985907e-01;7.451258e+01
185;dlange;128;0;1;1;1;1024;171;43008;43008;43008;1139901474;0.000000e+00;2.049258e-01;7.220909e+01
186;dlange;128;0;1;1;1;1024;171;43008;43008;43008;1626276121;0.000000e+00;1.934311e-01;7.650015e+01
187;dlange;128;0;1;1;1;1024;171;43008;43008;43008;653468858;0.000000e+00;1.909375e-01;7.749919e+01
188;dlange;128;0;1;1;1;1024;171;43008;43008;43008;2130794395;0.000000e+00;1.908980e-01;7.751523e+01
189;dlange;128;0;1;1;1;1024;171;43008;43008;43008;1239036029;0.000000e+00;1.757124e-01;8.421435e+01
190;dlange;128;0;1;1;1;1024;171;45056;45056;45056;1884661237;0.000000e+00;2.282392e-01;7.115494e+01
191;dlange;128;0;1;1;1;1024;171;45056;45056;45056;1605908235;0.000000e+00;2.250092e-01;7.217635e+01
192;dlange;128;0;1;1;1;1024;171;45056;45056;45056;1350573793;0.000000e+00;2.030657e-01;7.997582e+01
193;dlange;128;0;1;1;1;1024;171;45056;45056;45056;76065818;0.000000e+00;2.257506e-01;7.193932e+01
194;dlange;128;0;1;1;1;1024;171;45056;45056;45056;1605894428;0.000000e+00;2.022805e-01;8.028625e+01
195;dlange;128;0;1;1;1;1024;171;45056;45056;45056;1789366143;0.000000e+00;2.155094e-01;7.535796e+01
196;dlange;128;0;1;1;1;1024;171;45056;45056;45056;1987231011;0.000000e+00;2.333805e-01;6.958742e+01
197;dlange;128;0;1;1;1;1024;171;45056;45056;45056;1875335928;0.000000e+00;2.667602e-01;6.087995e+01
198;dlange;128;0;1;1;1;1024;171;45056;45056;45056;1784639529;0.000000e+00;2.198052e-01;7.388518e+01
199;dlange;128;0;1;1;1;1024;171;45056;45056;45056;2103318776;0.000000e+00;2.369925e-01;6.852682e+01
200;dlange;128;0;1;1;1;1024;171;47104;47104;47104;1597322404;0.000000e+00;2.252053e-01;7.881828e+01
201;dlange;128;0;1;1;1;1024;171;47104;47104;47104;1939964443;0.000000e+00;2.516934e-01;7.052348e+01
202;dlange;128;0;1;1;1;1024;171;47104;47104;47104;2112255763;0.000000e+00;2.258617e-01;7.858921e+01
203;dlange;128;0;1;1;1;1024;171;47104;47104;47104;1432114613;0.000000e+00;2.388016e-01;7.433072e+01
204;dlange;128;0;1;1;1;1024;171;47104;47104;47104;1067854538;0.000000e+00;2.486200e-01;7.139527e+01
205;dlange;128;0;1;1;1;1024;171;47104;47104;47104;352118606;0.000000e+00;2.231268e-01;7.955249e+01
206;dlange;128;0;1;1;1;1024;171;47104;47104;47104;1782436840;0.000000e+00;2.223060e-01;7.984621e+01
207;dlange;128;0;1;1;1;1024;171;47104;47104;47104;1909002904;0.000000e+00;2.398340e-01;7.401074e+01
208;dlange;128;0;1;1;1;1024;171;47104;47104;47104;165344818;0.000000e+00;2.511556e-01;7.067448e+01
209;dlange;128;0;1;1;1;1024;171;47104;47104;47104;1395235128;0.000000e+00;2.302333e-01;7.709699e+01
210;dlange;128;0;1;1;1;1024;171;49152;49152;49152;532670688;0.000000e+00;2.640941e-01;7.318360e+01
211;dlange;128;0;1;1;1;1024;171;49152;49152;49152;1351797369;0.000000e+00;2.338491e-01;8.264882e+01
212;dlange;128;0;1;1;1;1024;171;49152;49152;49152;492067917;0.000000e+00;2.788091e-01;6.932110e+01
213;dlange;128;0;1;1;1;1024;171;49152;49152;49152;1504569917;0.000000e+00;2.516528e-01;7.680167e+01
214;dlange;128;0;1;1;1;1024;171;49152;49152;49152;680466996;0.000000e+00;2.401285e-01;8.048755e+01
215;dlange;128;0;1;1;1;1024;171;49152;49152;49152;706043324;0.000000e+00;2.647878e-01;7.299185e+01
216;dlange;128;0;1;1;1;1024;171;49152;49152;49152;496987743;0.000000e+00;2.695334e-01;7.170672e+01
217;dlange;128;0;1;1;1;1024;171;49152;49152;49152;159259470;0.000000e+00;2.486385e-01;7.773273e+01
218;dlange;128;0;1;1;1;1024;171;49152;49152;49152;1359512183;0.000000e+00;2.382322e-01;8.112822e+01
219;dlange;128;0;1;1;1;1024;171;49152;49152;49152;480298490;0.000000e+00;2.422584e-01;7.977992e+01
