Id;Function;threads;gpus;P;Q;mtxfmt;nb;side;uplo;trans;diag;m;n;lda;ldb;alpha;seedA;seedB;tsub;time;gflops
0;dtrsm;128;0;1;1;0;300;141;121;111;131;900;900;900;900;4.254358e-01;1957747793;424238335;0.000000e+00;1.750052e-02;4.170219e+01
1;dtrsm;128;0;1;1;0;300;141;121;111;131;900;900;900;900;-1.846424e-01;1649760492;596516649;0.000000e+00;1.128006e-02;6.469910e+01
2;dtrsm;128;0;1;1;0;300;141;121;111;131;900;900;900;900;-3.517510e-01;1025202362;1350490027;0.000000e+00;1.069852e-02;6.821597e+01
3;dtrsm;128;0;1;1;0;300;141;121;111;131;900;900;900;900;-4.247478e-01;1102520059;2044897763;0.000000e+00;9.967651e-03;7.321785e+01
4;dtrsm;128;0;1;1;0;300;141;121;111;131;900;900;900;900;4.141058e-01;1365180540;1540383426;0.000000e+00;3.725219e-02;1.959106e+01
5;dtrsm;128;0;1;1;0;300;141;121;111;131;900;900;900;900;4.499299e-01;1303455736;35005211;0.000000e+00;9.785982e-03;7.457708e+01
6;dtrsm;128;0;1;1;0;300;141;121;111;131;900;900;900;900;-1.757242e-01;294702567;1726956429;0.000000e+00;9.699942e-03;7.523859e+01
7;dtrsm;128;0;1;1;0;300;141;121;111;131;900;900;900;900;4.401991e-01;861021530;278722862;0.000000e+00;1.121325e-02;6.508461e+01
8;dtrsm;128;0;1;1;0;300;141;121;111;131;900;900;900;900;-3.098429e-01;2145174067;468703135;0.000000e+00;1.038206e-02;7.029528e+01
9;dtrsm;128;0;1;1;0;300;141;121;111;131;900;900;900;900;3.112590e-01;1801979802;1315634022;0.000000e+00;9.508425e-03;7.675404e+01
10;dtrsm;128;0;1;1;0;300;141;121;111;131;1800;1800;1800;1800;-3.123134e-01;1369133069;1125898167;0.000000e+00;2.493389e-02;2.340285e+02
11;dtrsm;128;0;1;1;0;300;141;121;111;131;1800;1800;1800;1800;2.196488e-02;2089018456;628175011;0.000000e+00;2.322505e-02;2.512477e+02
12;dtrsm;128;0;1;1;0;300;141;121;111;131;1800;1800;1800;1800;-8.299381e-02;1131176229;1653377373;0.000000e+00;2.230437e-02;2.616187e+02
13;dtrsm;128;0;1;1;0;300;141;121;111;131;1800;1800;1800;1800;1.651013e-01;1914544919;608413784;0.000000e+00;2.271590e-02;2.568791e+02
14;dtrsm;128;0;1;1;0;300;141;121;111;131;1800;1800;1800;1800;-2.172434e-01;1734575198;1973594324;0.000000e+00;2.685599e-02;2.172789e+02
15;dtrsm;128;0;1;1;0;300;141;121;111;131;1800;1800;1800;1800;4.926079e-01;2038664370;1129566413;0.000000e+00;2.396951e-02;2.434442e+02
16;dtrsm;128;0;1;1;0;300;141;121;111;131;1800;1800;1800;1800;3.212047e-02;412776091;1424268980;0.000000e+00;2.231023e-02;2.615499e+02
17;dtrsm;128;0;1;1;0;300;141;121;111;131;1800;1800;1800;1800;7.179686e-02;749241873;137806862;0.000000e+00;2.376432e-02;2.455462e+02
18;dtrsm;128;0;1;1;0;300;141;121;111;131;1800;1800;1800;1800;2.019681e-01;982906996;135497281;0.000000e+00;3.839271e-02;1.519882e+02
19;dtrsm;128;0;1;1;0;300;141;121;111;131;1800;1800;1800;1800;-4.932447e-01;2084420925;1937477084;0.000000e+00;2.310075e-02;2.525996e+02
20;dtrsm;128;0;1;1;0;300;141;121;111;131;2700;2700;2700;2700;-3.694056e-01;572660336;1159126505;0.000000e+00;3.572116e-02;5.512221e+02
21;dtrsm;128;0;1;1;0;300;141;121;111;131;2700;2700;2700;2700;2.390371e-01;1632621729;1100661313;0.000000e+00;3.765465e-02;5.229179e+02
22;dtrsm;128;0;1;1;0;300;141;121;111;131;2700;2700;2700;2700;7.019839e-02;1141616124;84353895;0.000000e+00;3.813212e-02;5.163701e+02
23;dtrsm;128;0;1;1;0;300;141;121;111;131;2700;2700;2700;2700;-4.916174e-01;2001100545;1998898814;0.000000e+00;4.392294e-02;4.482917e+02
24;dtrsm;128;0;1;1;0;300;141;121;111;131;2700;2700;2700;2700;-2.416937e-01;610515434;1585990364;0.000000e+00;6.756344e-02;2.914341e+02
25;dtrsm;128;0;1;1;0;300;141;121;111;131;2700;2700;2700;2700;-3.772229e-02;760313750;1477171087;0.000000e+00;5.138370e-02;3.832011e+02
26;dtrsm;128;0;1;1;0;300;141;121;111;131;2700;2700;2700;2700;-1.733443e-01;945117276;1889947178;0.000000e+00;3.722634e-02;5.289344e+02
27;dtrsm;128;0;1;1;0;300;141;121;111;131;2700;2700;2700;2700;3.414286e-01;709393584;491705403;0.000000e+00;3.652767e-02;5.390514e+02
28;dtrsm;128;0;1;1;0;300;141;121;111;131;2700;2700;2700;2700;-2.237386e-01;752392754;1474612399;0.000000e+00;3.817692e-02;5.157643e+02
29;dtrsm;128;0;1;1;0;300;141;121;111;131;2700;2700;2700;2700;-1.543593e-01;1264095060;1411549676;0.000000e+00;3.710973e-02;5.305964e+02
30;dtrsm;128;0;1;1;0;300;141;121;111;131;3600;3600;3600;3600;3.886879e-01;943947739;1984210012;0.000000e+00;4.986782e-02;9.358533e+02
31;dtrsm;128;0;1;1;0;300;141;121;111;131;3600;3600;3600;3600;-3.211111e-01;1749698586;1469348094;0.000000e+00;5.229516e-02;8.924146e+02
32;dtrsm;128;0;1;1;0;300;141;121;111;131;3600;3600;3600;3600;-2.187391e-01;1036140795;463480570;0.000000e+00;5.298134e-02;8.808566e+02
33;dtrsm;128;0;1;1;0;300;141;121;111;131;3600;3600;3600;3600;3.797349e-01;1975960378;317097467;0.000000e+00;5.034100e-02;9.270567e+02
34;dtrsm;128;0;1;1;0;300;141;121;111;131;3600;3600;3600;3600;-1.054364e-01;1376710097;927612902;0.000000e+00;5.093136e-02;9.163109e+02
35;dtrsm;128;0;1;1;0;300;141;121;111;131;3600;3600;3600;3600;-4.388869e-03;603570492;1687926652;0.000000e+00;8.897018e-02;5.245461e+02
36;dtrsm;128;0;1;1;0;300;141;121;111;131;3600;3600;3600;3600;1.623906e-01;959997301;485560280;0.000000e+00;5.045042e-02;9.250459e+02
37;dtrsm;128;0;1;1;0;300;141;121;111;131;3600;3600;3600;3600;6.417844e-02;593209441;1194953865;0.000000e+00;5.149076e-02;9.063560e+02
38;dtrsm;128;0;1;1;0;300;141;121;111;131;3600;3600;3600;3600;-1.382589e-02;364228444;1947346619;0.000000e+00;5.111394e-02;9.130378e+02
39;dtrsm;128;0;1;1;0;300;141;121;111;131;3600;3600;3600;3600;4.665847e-01;270744729;1063958031;0.000000e+00;5.310029e-02;8.788834e+02
40;dtrsm;128;0;1;1;0;300;141;121;111;131;4500;4500;4500;4500;2.509115e-01;2114738097;2007905771;0.000000e+00;6.944967e-02;1.312393e+03
41;dtrsm;128;0;1;1;0;300;141;121;111;131;4500;4500;4500;4500;2.856491e-01;822890675;1610120709;0.000000e+00;6.688611e-02;1.362693e+03
42;dtrsm;128;0;1;1;0;300;141;121;111;131;4500;4500;4500;4500;-3.776547e-01;631704567;498777856;0.000000e+00;6.890546e-02;1.322758e+03
43;dtrsm;128;0;1;1;0;300;141;121;111;131;4500;4500;4500;4500;2.300707e-02;524872353;327254586;0.000000e+00;7.119729e-02;1.280179e+03
44;dtrsm;128;0;1;1;0;300;141;121;111;131;4500;4500;4500;4500;9.307665e-02;269455306;1703964683;0.000000e+00;7.170414e-02;1.271130e+03
45;dtrsm;128;0;1;1;0;300;141;121;111;131;4500;4500;4500;4500;-1.289308e-01;1600028624;160051528;0.000000e+00;6.830963e-02;1.334296e+03
46;dtrsm;128;0;1;1;0;300;141;121;111;131;4500;4500;4500;4500;2.807858e-01;112805732;1120048829;0.000000e+00;6.699640e-02;1.360450e+03
47;dtrsm;128;0;1;1;0;300;141;121;111;131;4500;4500;4500;4500;2.084955e-01;515530019;1713258270;0.000000e+00;1.024988e-01;8.892320e+02
48;dtrsm;128;0;1;1;0;300;141;121;111;131;4500;4500;4500;4500;1.571881e-01;1409959708;2077486715;0.000000e+00;7.233267e-02;1.260084e+03
49;dtrsm;128;0;1;1;0;300;141;121;111;131;4500;4500;4500;4500;1.799312e-01;1631518149;200747796;0.000000e+00;6.757287e-02;1.348844e+03
50;dtrsm;128;0;1;1;0;300;141;121;111;131;5400;5400;5400;5400;3.618905e-02;1117142618;168002245;0.000000e+00;1.002797e-01;1.570540e+03
51;dtrsm;128;0;1;1;0;300;141;121;111;131;5400;5400;5400;5400;3.861393e-01;439493451;990892921;0.000000e+00;1.128387e-01;1.395737e+03
52;dtrsm;128;0;1;1;0;300;141;121;111;131;5400;5400;5400;5400;3.138195e-01;1231192379;1622597488;0.000000e+00;1.098045e-01;1.434305e+03
53;dtrsm;128;0;1;1;0;300;141;121;111;131;5400;5400;5400;5400;3.358679e-01;338888228;2147469841;0.000000e+00;9.435011e-02;1.669242e+03
54;dtrsm;128;0;1;1;0;300;141;121;111;131;5400;5400;5400;5400;2.072774e-01;1911165193;269441500;0.000000e+00;9.440885e-02;1.668203e+03
55;dtrsm;128;0;1;1;0;300;141;121;111;131;5400;5400;5400;5400;-2.810129e-01;116087764;1869470124;0.000000e+00;1.056663e-01;1.490477e+03
56;dtrsm;128;0;1;1;0;300;141;121;111;131;5400;5400;5400;5400;9.513167e-02;8936987;1982275856;0.000000e+00;1.103535e-01;1.427169e+03
57;dtrsm;128;0;1;1;0;300;141;121;111;131;5400;5400;5400;5400;-4.094893e-01;387346491;350322227;0.000000e+00;1.091713e-01;1.442624e+03
58;dtrsm;128;0;1;1;0;300;141;121;111;131;5400;5400;5400;5400;4.007014e-01;1960709859;1760281936;0.000000e+00;1.101998e-01;1.429160e+03
59;dtrsm;128;0;1;1;0;300;141;121;111;131;5400;5400;5400;5400;-2.607432e-01;1186452551;1244316437;0.000000e+00;1.073421e-01;1.467208e+03
60;dtrsm;128;0;1;1;0;300;141;121;111;131;6300;6300;6300;6300;2.998675e-01;1476153275;213975407;0.000000e+00;1.399118e-01;1.787460e+03
61;dtrsm;128;0;1;1;0;300;141;121;111;131;6300;6300;6300;6300;-8.843738e-02;1626276121;653468858;0.000000e+00;1.369647e-01;1.825921e+03
62;dtrsm;128;0;1;1;0;300;141;121;111;131;6300;6300;6300;6300;-4.940599e-01;1239036029;1884661237;0.000000e+00;1.452074e-01;1.722272e+03
63;dtrsm;128;0;1;1;0;300;141;121;111;131;6300;6300;6300;6300;3.076514e-01;1350573793;76065818;0.000000e+00;1.850106e-01;1.351742e+03
64;dtrsm;128;0;1;1;0;300;141;121;111;131;6300;6300;6300;6300;-4.585682e-01;1789366143;1987231011;0.000000e+00;1.636941e-01;1.527768e+03
65;dtrsm;128;0;1;1;0;300;141;121;111;131;6300;6300;6300;6300;-4.578138e-01;1784639529;2103318776;0.000000e+00;1.476844e-01;1.693386e+03
66;dtrsm;128;0;1;1;0;300;141;121;111;131;6300;6300;6300;6300;1.535754e-01;1939964443;2112255763;0.000000e+00;1.497580e-01;1.669939e+03
67;dtrsm;128;0;1;1;0;300;141;121;111;131;6300;6300;6300;6300;-2.471817e-02;1067854538;352118606;0.000000e+00;1.485533e-01;1.683481e+03
68;dtrsm;128;0;1;1;0;300;141;121;111;131;6300;6300;6300;6300;3.241933e-01;1909002904;165344818;0.000000e+00;1.588797e-01;1.574063e+03
69;dtrsm;128;0;1;1;0;300;141;121;111;131;6300;6300;6300;6300;2.191162e-01;532670688;1351797369;0.000000e+00;1.549569e-01;1.613911e+03
70;dtrsm;128;0;1;1;0;300;141;121;111;131;7200;7200;7200;7200;-2.836412e-02;1504569917;680466996;0.000000e+00;2.392387e-01;1.560366e+03
71;dtrsm;128;0;1;1;0;300;141;121;111;131;7200;7200;7200;7200;-3.223358e-01;496987743;159259470;0.000000e+00;2.216339e-01;1.684309e+03
72;dtrsm;128;0;1;1;0;300;141;121;111;131;7200;7200;7200;7200;6.319147e-02;480298490;1398295499;0.000000e+00;2.088051e-01;1.787791e+03
73;dtrsm;128;0;1;1;0;300;141;121;111;131;7200;7200;7200;7200;6.321520e-03;2086206725;601385644;0.000000e+00;2.366894e-01;1.577172e+03
74;dtrsm;128;0;1;1;0;300;141;121;111;131;7200;7200;7200;7200;-4.403555e-01;1544617505;243268139;0.000000e+00;2.094158e-01;1.782577e+03
75;dtrsm;128;0;1;1;0;300;141;121;111;131;7200;7200;7200;7200;-3.357130e-01;1272469786;2027907669;0.000000e+00;2.057813e-01;1.814061e+03
76;dtrsm;128;0;1;1;0;300;141;121;111;131;7200;7200;7200;7200;4.440272e-01;722308542;1820388464;0.000000e+00;1.934882e-01;1.929316e+03
77;dtrsm;128;0;1;1;0;300;141;121;111;131;7200;7200;7200;7200;2.770102e-02;6939507;740759355;0.000000e+00;1.804540e-01;2.068670e+03
78;dtrsm;128;0;1;1;0;300;141;121;111;131;7200;7200;7200;7200;-3.466130e-01;1789376348;502278611;0.000000e+00;2.097426e-01;1.779800e+03
79;dtrsm;128;0;1;1;0;300;141;121;111;131;7200;7200;7200;7200;-2.659684e-01;1037127828;1034949299;0.000000e+00;2.083297e-01;1.791871e+03
80;dtrsm;128;0;1;1;0;300;141;121;111;131;8100;8100;8100;8100;2.976161e-01;1529195746;392035568;0.000000e+00;2.740215e-01;1.939653e+03
81;dtrsm;128;0;1;1;0;300;141;121;111;131;8100;8100;8100;8100;4.068633e-01;87755422;889023311;0.000000e+00;2.758780e-01;1.926600e+03
82;dtrsm;128;0;1;1;0;300;141;121;111;131;8100;8100;8100;8100;-2.963290e-01;1447267605;1369321801;0.000000e+00;2.726950e-01;1.949088e+03
83;dtrsm;128;0;1;1;0;300;141;121;111;131;8100;8100;8100;8100;-5.780017e-02;396473730;1308044878;0.000000e+00;2.622907e-01;2.026403e+03
84;dtrsm;128;0;1;1;0;300;141;121;111;131;8100;8100;8100;8100;3.002688e-01;1569229320;705178736;0.000000e+00;2.866342e-01;1.854303e+03
85;dtrsm;128;0;1;1;0;300;141;121;111;131;8100;8100;8100;8100;-1.667948e-01;434248626;1977648522;0.000000e+00;2.882374e-01;1.843989e+03
86;dtrsm;128;0;1;1;0;300;141;121;111;131;8100;8100;8100;8100;-2.996627e-01;1402586708;552473416;0.000000e+00;2.632569e-01;2.018965e+03
87;dtrsm;128;0;1;1;0;300;141;121;111;131;8100;8100;8100;8100;-1.582027e-01;188213258;559412924;0.000000e+00;3.348941e-01;1.587088e+03
88;dtrsm;128;0;1;1;0;300;141;121;111;131;8100;8100;8100;8100;1.008051e-01;1473442062;201305624;0.000000e+00;2.633861e-01;2.017975e+03
89;dtrsm;128;0;1;1;0;300;141;121;111;131;8100;8100;8100;8100;3.214526e-01;776532036;1238433452;0.000000e+00;2.521639e-01;2.107782e+03
90;dtrsm;128;0;1;1;0;300;141;121;111;131;9000;9000;9000;9000;8.189833e-02;1431419379;620145550;0.000000e+00;3.892481e-01;1.873050e+03
91;dtrsm;128;0;1;1;0;300;141;121;111;131;9000;9000;9000;9000;-2.823082e-01;619290071;707900973;0.000000e+00;3.717565e-01;1.961179e+03
92;dtrsm;128;0;1;1;0;300;141;121;111;131;9000;9000;9000;9000;-1.961373e-01;2113903881;7684930;0.000000e+00;3.730460e-01;1.954400e+03
93;dtrsm;128;0;1;1;0;300;141;121;111;131;9000;9000;9000;9000;-1.271150e-01;711845894;404158660;0.000000e+00;3.918909e-01;1.860418e+03
94;dtrsm;128;0;1;1;0;300;141;121;111;131;9000;9000;9000;9000;-9.802407e-02;2058657199;1973387981;0.000000e+00;4.123238e-01;1.768224e+03
95;dtrsm;128;0;1;1;0;300;141;121;111;131;9000;9000;9000;9000;4.591011e-01;1501252996;260152959;0.000000e+00;3.400351e-01;2.144135e+03
96;dtrsm;128;0;1;1;0;300;141;121;111;131;9000;9000;9000;9000;-6.245404e-02;824272813;1662739668;0.000000e+00;3.702109e-01;1.969367e+03
97;dtrsm;128;0;1;1;0;300;141;121;111;131;9000;9000;9000;9000;-7.182229e-02;1967681095;1850952926;0.000000e+00;3.671567e-01;1.985749e+03
98;dtrsm;128;0;1;1;0;300;141;121;111;131;9000;9000;9000;9000;-3.349140e-01;1704365084;1176911340;0.000000e+00;3.567869e-01;2.043464e+03
99;dtrsm;128;0;1;1;0;300;141;121;111;131;9000;9000;9000;9000;-9.329343e-02;1943327684;1953443376;0.000000e+00;3.546996e-01;2.055488e+03
0;dtrsm;128;0;1;1;0;300;141;121;111;131;9900;9900;9900;9900;4.254358e-01;1957747793;424238335;0.000000e+00;5.534640e-01;1.753315e+03
1;dtrsm;128;0;1;1;0;300;141;121;111;131;9900;9900;9900;9900;-1.846424e-01;1649760492;596516649;0.000000e+00;4.816511e-01;2.014730e+03
2;dtrsm;128;0;1;1;0;300;141;121;111;131;9900;9900;9900;9900;-3.517510e-01;1025202362;1350490027;0.000000e+00;4.456860e-01;2.177311e+03
3;dtrsm;128;0;1;1;0;300;141;121;111;131;9900;9900;9900;9900;-4.247478e-01;1102520059;2044897763;0.000000e+00;4.884416e-01;1.986720e+03
4;dtrsm;128;0;1;1;0;300;141;121;111;131;9900;9900;9900;9900;4.141058e-01;1365180540;1540383426;0.000000e+00;4.674035e-01;2.076144e+03
5;dtrsm;128;0;1;1;0;300;141;121;111;131;9900;9900;9900;9900;4.499299e-01;1303455736;35005211;0.000000e+00;4.879660e-01;1.988657e+03
6;dtrsm;128;0;1;1;0;300;141;121;111;131;9900;9900;9900;9900;-1.757242e-01;294702567;1726956429;0.000000e+00;4.803921e-01;2.020010e+03
7;dtrsm;128;0;1;1;0;300;141;121;111;131;9900;9900;9900;9900;4.401991e-01;861021530;278722862;0.000000e+00;4.688722e-01;2.069641e+03
8;dtrsm;128;0;1;1;0;300;141;121;111;131;9900;9900;9900;9900;-3.098429e-01;2145174067;468703135;0.000000e+00;5.149399e-01;1.884486e+03
9;dtrsm;128;0;1;1;0;300;141;121;111;131;9900;9900;9900;9900;3.112590e-01;1801979802;1315634022;0.000000e+00;4.880744e-01;1.988215e+03
10;dtrsm;128;0;1;1;0;300;141;121;111;131;12300;12300;12300;12300;-3.123134e-01;1369133069;1125898167;0.000000e+00;8.674104e-01;2.145488e+03
11;dtrsm;128;0;1;1;0;300;141;121;111;131;12300;12300;12300;12300;2.196488e-02;2089018456;628175011;0.000000e+00;8.418498e-01;2.210630e+03
12;dtrsm;128;0;1;1;0;300;141;121;111;131;12300;12300;12300;12300;-8.299381e-02;1131176229;1653377373;0.000000e+00;8.395622e-01;2.216653e+03
13;dtrsm;128;0;1;1;0;300;141;121;111;131;12300;12300;12300;12300;1.651013e-01;1914544919;608413784;0.000000e+00;8.788700e-01;2.117512e+03
14;dtrsm;128;0;1;1;0;300;141;121;111;131;12300;12300;12300;12300;-2.172434e-01;1734575198;1973594324;0.000000e+00;8.649591e-01;2.151568e+03
15;dtrsm;128;0;1;1;0;300;141;121;111;131;12300;12300;12300;12300;4.926079e-01;2038664370;1129566413;0.000000e+00;8.429362e-01;2.207781e+03
16;dtrsm;128;0;1;1;0;300;141;121;111;131;12300;12300;12300;12300;3.212047e-02;412776091;1424268980;0.000000e+00;8.749941e-01;2.126892e+03
17;dtrsm;128;0;1;1;0;300;141;121;111;131;12300;12300;12300;12300;7.179686e-02;749241873;137806862;0.000000e+00;8.317165e-01;2.237563e+03
18;dtrsm;128;0;1;1;0;300;141;121;111;131;12300;12300;12300;12300;2.019681e-01;982906996;135497281;0.000000e+00;8.382650e-01;2.220083e+03
19;dtrsm;128;0;1;1;0;300;141;121;111;131;12300;12300;12300;12300;-4.932447e-01;2084420925;1937477084;0.000000e+00;8.740700e-01;2.129141e+03
20;dtrsm;128;0;1;1;0;300;141;121;111;131;14700;14700;14700;14700;-3.694056e-01;572660336;1159126505;0.000000e+00;1.471120e+00;2.159402e+03
21;dtrsm;128;0;1;1;0;300;141;121;111;131;14700;14700;14700;14700;2.390371e-01;1632621729;1100661313;0.000000e+00;1.507354e+00;2.107494e+03
22;dtrsm;128;0;1;1;0;300;141;121;111;131;14700;14700;14700;14700;7.019839e-02;1141616124;84353895;0.000000e+00;1.505792e+00;2.109680e+03
23;dtrsm;128;0;1;1;0;300;141;121;111;131;14700;14700;14700;14700;-4.916174e-01;2001100545;1998898814;0.000000e+00;1.475889e+00;2.152424e+03
24;dtrsm;128;0;1;1;0;300;141;121;111;131;14700;14700;14700;14700;-2.416937e-01;610515434;1585990364;0.000000e+00;1.482918e+00;2.142222e+03
25;dtrsm;128;0;1;1;0;300;141;121;111;131;14700;14700;14700;14700;-3.772229e-02;760313750;1477171087;0.000000e+00;1.519514e+00;2.090628e+03
26;dtrsm;128;0;1;1;0;300;141;121;111;131;14700;14700;14700;14700;-1.733443e-01;945117276;1889947178;0.000000e+00;1.547687e+00;2.052572e+03
27;dtrsm;128;0;1;1;0;300;141;121;111;131;14700;14700;14700;14700;3.414286e-01;709393584;491705403;0.000000e+00;1.532987e+00;2.072255e+03
28;dtrsm;128;0;1;1;0;300;141;121;111;131;14700;14700;14700;14700;-2.237386e-01;752392754;1474612399;0.000000e+00;1.407135e+00;2.257593e+03
29;dtrsm;128;0;1;1;0;300;141;121;111;131;14700;14700;14700;14700;-1.543593e-01;1264095060;1411549676;0.000000e+00;1.459743e+00;2.176231e+03
30;dtrsm;128;0;1;1;0;300;141;121;111;131;17100;17100;17100;17100;3.886879e-01;943947739;1984210012;0.000000e+00;2.471634e+00;2.023157e+03
31;dtrsm;128;0;1;1;0;300;141;121;111;131;17100;17100;17100;17100;-3.211111e-01;1749698586;1469348094;0.000000e+00;2.247066e+00;2.225347e+03
32;dtrsm;128;0;1;1;0;300;141;121;111;131;17100;17100;17100;17100;-2.187391e-01;1036140795;463480570;0.000000e+00;2.304933e+00;2.169479e+03
33;dtrsm;128;0;1;1;0;300;141;121;111;131;17100;17100;17100;17100;3.797349e-01;1975960378;317097467;0.000000e+00;2.277118e+00;2.195979e+03
34;dtrsm;128;0;1;1;0;300;141;121;111;131;17100;17100;17100;17100;-1.054364e-01;1376710097;927612902;0.000000e+00;2.359752e+00;2.119080e+03
35;dtrsm;128;0;1;1;0;300;141;121;111;131;17100;17100;17100;17100;-4.388869e-03;603570492;1687926652;0.000000e+00;2.390457e+00;2.091861e+03
36;dtrsm;128;0;1;1;0;300;141;121;111;131;17100;17100;17100;17100;1.623906e-01;959997301;485560280;0.000000e+00;2.453352e+00;2.038233e+03
37;dtrsm;128;0;1;1;0;300;141;121;111;131;17100;17100;17100;17100;6.417844e-02;593209441;1194953865;0.000000e+00;2.390309e+00;2.091991e+03
38;dtrsm;128;0;1;1;0;300;141;121;111;131;17100;17100;17100;17100;-1.382589e-02;364228444;1947346619;0.000000e+00;2.400852e+00;2.082804e+03
39;dtrsm;128;0;1;1;0;300;141;121;111;131;17100;17100;17100;17100;4.665847e-01;270744729;1063958031;0.000000e+00;2.429949e+00;2.057864e+03
40;dtrsm;128;0;1;1;0;300;141;121;111;131;19500;19500;19500;19500;2.509115e-01;2114738097;2007905771;0.000000e+00;2.968080e+00;2.498334e+03
41;dtrsm;128;0;1;1;0;300;141;121;111;131;19500;19500;19500;19500;2.856491e-01;822890675;1610120709;0.000000e+00;2.920954e+00;2.538641e+03
42;dtrsm;128;0;1;1;0;300;141;121;111;131;19500;19500;19500;19500;-3.776547e-01;631704567;498777856;0.000000e+00;2.999587e+00;2.472092e+03
43;dtrsm;128;0;1;1;0;300;141;121;111;131;19500;19500;19500;19500;2.300707e-02;524872353;327254586;0.000000e+00;2.964930e+00;2.500988e+03
44;dtrsm;128;0;1;1;0;300;141;121;111;131;19500;19500;19500;19500;9.307665e-02;269455306;1703964683;0.000000e+00;2.957776e+00;2.507037e+03
45;dtrsm;128;0;1;1;0;300;141;121;111;131;19500;19500;19500;19500;-1.289308e-01;1600028624;160051528;0.000000e+00;3.023578e+00;2.452477e+03
46;dtrsm;128;0;1;1;0;300;141;121;111;131;19500;19500;19500;19500;2.807858e-01;112805732;1120048829;0.000000e+00;3.003671e+00;2.468731e+03
47;dtrsm;128;0;1;1;0;300;141;121;111;131;19500;19500;19500;19500;2.084955e-01;515530019;1713258270;0.000000e+00;2.976483e+00;2.491281e+03
48;dtrsm;128;0;1;1;0;300;141;121;111;131;19500;19500;19500;19500;1.571881e-01;1409959708;2077486715;0.000000e+00;2.982371e+00;2.486363e+03
49;dtrsm;128;0;1;1;0;300;141;121;111;131;19500;19500;19500;19500;1.799312e-01;1631518149;200747796;0.000000e+00;2.912608e+00;2.545916e+03
50;dtrsm;128;0;1;1;0;300;141;121;111;131;21900;21900;21900;21900;3.618905e-02;1117142618;168002245;0.000000e+00;5.886969e+00;1.784269e+03
51;dtrsm;128;0;1;1;0;300;141;121;111;131;21900;21900;21900;21900;3.861393e-01;439493451;990892921;0.000000e+00;5.468714e+00;1.920733e+03
52;dtrsm;128;0;1;1;0;300;141;121;111;131;21900;21900;21900;21900;3.138195e-01;1231192379;1622597488;0.000000e+00;5.524559e+00;1.901317e+03
53;dtrsm;128;0;1;1;0;300;141;121;111;131;21900;21900;21900;21900;3.358679e-01;338888228;2147469841;0.000000e+00;5.826020e+00;1.802936e+03
54;dtrsm;128;0;1;1;0;300;141;121;111;131;21900;21900;21900;21900;2.072774e-01;1911165193;269441500;0.000000e+00;5.563951e+00;1.887856e+03
55;dtrsm;128;0;1;1;0;300;141;121;111;131;21900;21900;21900;21900;-2.810129e-01;116087764;1869470124;0.000000e+00;5.497143e+00;1.910800e+03
56;dtrsm;128;0;1;1;0;300;141;121;111;131;21900;21900;21900;21900;9.513167e-02;8936987;1982275856;0.000000e+00;5.717360e+00;1.837201e+03
57;dtrsm;128;0;1;1;0;300;141;121;111;131;21900;21900;21900;21900;-4.094893e-01;387346491;350322227;0.000000e+00;5.527969e+00;1.900144e+03
58;dtrsm;128;0;1;1;0;300;141;121;111;131;21900;21900;21900;21900;4.007014e-01;1960709859;1760281936;0.000000e+00;5.745530e+00;1.828193e+03
59;dtrsm;128;0;1;1;0;300;141;121;111;131;21900;21900;21900;21900;-2.607432e-01;1186452551;1244316437;0.000000e+00;6.104348e+00;1.720731e+03
60;dtrsm;128;0;1;1;0;300;141;121;111;131;24300;24300;24300;24300;2.998675e-01;1476153275;213975407;0.000000e+00;7.508663e+00;1.911059e+03
61;dtrsm;128;0;1;1;0;300;141;121;111;131;24300;24300;24300;24300;-8.843738e-02;1626276121;653468858;0.000000e+00;7.330257e+00;1.957571e+03
62;dtrsm;128;0;1;1;0;300;141;121;111;131;24300;24300;24300;24300;-4.940599e-01;1239036029;1884661237;0.000000e+00;7.664793e+00;1.872131e+03
63;dtrsm;128;0;1;1;0;300;141;121;111;131;24300;24300;24300;24300;3.076514e-01;1350573793;76065818;0.000000e+00;7.684027e+00;1.867445e+03
64;dtrsm;128;0;1;1;0;300;141;121;111;131;24300;24300;24300;24300;-4.585682e-01;1789366143;1987231011;0.000000e+00;7.870822e+00;1.823126e+03
65;dtrsm;128;0;1;1;0;300;141;121;111;131;24300;24300;24300;24300;-4.578138e-01;1784639529;2103318776;0.000000e+00;7.820095e+00;1.834952e+03
66;dtrsm;128;0;1;1;0;300;141;121;111;131;24300;24300;24300;24300;1.535754e-01;1939964443;2112255763;0.000000e+00;7.608949e+00;1.885871e+03
67;dtrsm;128;0;1;1;0;300;141;121;111;131;24300;24300;24300;24300;-2.471817e-02;1067854538;352118606;0.000000e+00;7.364743e+00;1.948404e+03
68;dtrsm;128;0;1;1;0;300;141;121;111;131;24300;24300;24300;24300;3.241933e-01;1909002904;165344818;0.000000e+00;7.599975e+00;1.888098e+03
69;dtrsm;128;0;1;1;0;300;141;121;111;131;24300;24300;24300;24300;2.191162e-01;532670688;1351797369;0.000000e+00;7.546250e+00;1.901540e+03
70;dtrsm;128;0;1;1;0;300;141;121;111;131;26700;26700;26700;26700;-2.836412e-02;1504569917;680466996;0.000000e+00;1.090083e+01;1.746185e+03
71;dtrsm;128;0;1;1;0;300;141;121;111;131;26700;26700;26700;26700;-3.223358e-01;496987743;159259470;0.000000e+00;1.058148e+01;1.798886e+03
72;dtrsm;128;0;1;1;0;300;141;121;111;131;26700;26700;26700;26700;6.319147e-02;480298490;1398295499;0.000000e+00;1.078712e+01;1.764593e+03
73;dtrsm;128;0;1;1;0;300;141;121;111;131;26700;26700;26700;26700;6.321520e-03;2086206725;601385644;0.000000e+00;1.032657e+01;1.843291e+03
74;dtrsm;128;0;1;1;0;300;141;121;111;131;26700;26700;26700;26700;-4.403555e-01;1544617505;243268139;0.000000e+00;1.054031e+01;1.805912e+03
75;dtrsm;128;0;1;1;0;300;141;121;111;131;26700;26700;26700;26700;-3.357130e-01;1272469786;2027907669;0.000000e+00;1.065604e+01;1.786299e+03
76;dtrsm;128;0;1;1;0;300;141;121;111;131;26700;26700;26700;26700;4.440272e-01;722308542;1820388464;0.000000e+00;1.064058e+01;1.788895e+03
77;dtrsm;128;0;1;1;0;300;141;121;111;131;26700;26700;26700;26700;2.770102e-02;6939507;740759355;0.000000e+00;1.019271e+01;1.867499e+03
78;dtrsm;128;0;1;1;0;300;141;121;111;131;26700;26700;26700;26700;-3.466130e-01;1789376348;502278611;0.000000e+00;1.057543e+01;1.799915e+03
79;dtrsm;128;0;1;1;0;300;141;121;111;131;26700;26700;26700;26700;-2.659684e-01;1037127828;1034949299;0.000000e+00;1.111151e+01;1.713077e+03
80;dtrsm;128;0;1;1;0;300;141;121;111;131;29100;29100;29100;29100;2.976161e-01;1529195746;392035568;0.000000e+00;1.372673e+01;1.795258e+03
81;dtrsm;128;0;1;1;0;300;141;121;111;131;29100;29100;29100;29100;4.068633e-01;87755422;889023311;0.000000e+00;1.336370e+01;1.844026e+03
82;dtrsm;128;0;1;1;0;300;141;121;111;131;29100;29100;29100;29100;-2.963290e-01;1447267605;1369321801;0.000000e+00;1.265262e+01;1.947662e+03
83;dtrsm;128;0;1;1;0;300;141;121;111;131;29100;29100;29100;29100;-5.780017e-02;396473730;1308044878;0.000000e+00;1.306938e+01;1.885554e+03
84;dtrsm;128;0;1;1;0;300;141;121;111;131;29100;29100;29100;29100;3.002688e-01;1569229320;705178736;0.000000e+00;1.301655e+01;1.893207e+03
85;dtrsm;128;0;1;1;0;300;141;121;111;131;29100;29100;29100;29100;-1.667948e-01;434248626;1977648522;0.000000e+00;1.342513e+01;1.835588e+03
86;dtrsm;128;0;1;1;0;300;141;121;111;131;29100;29100;29100;29100;-2.996627e-01;1402586708;552473416;0.000000e+00;1.262724e+01;1.951575e+03
87;dtrsm;128;0;1;1;0;300;141;121;111;131;29100;29100;29100;29100;-1.582027e-01;188213258;559412924;0.000000e+00;1.325048e+01;1.859783e+03
88;dtrsm;128;0;1;1;0;300;141;121;111;131;29100;29100;29100;29100;1.008051e-01;1473442062;201305624;0.000000e+00;1.276959e+01;1.929821e+03
89;dtrsm;128;0;1;1;0;300;141;121;111;131;29100;29100;29100;29100;3.214526e-01;776532036;1238433452;0.000000e+00;1.305239e+01;1.888008e+03
