Id;Function;threads;gpus;P;Q;mtxfmt;nb;n;nrhs;lda;ldb;seedA;seedB;tsub;time;gflops
0;dgesv;128;0;1;1;0;300;900;1;900;900;1681692777;1714636915;0.000000e+00;7.657051e-03;6.362957e+01
1;dgesv;128;0;1;1;0;300;900;1;900;900;1957747793;424238335;0.000000e+00;8.448839e-03;5.766648e+01
2;dgesv;128;0;1;1;0;300;900;1;900;900;719885386;1649760492;0.000000e+00;1.019502e-02;4.778951e+01
3;dgesv;128;0;1;1;0;300;900;1;900;900;596516649;1189641421;0.000000e+00;7.681847e-03;6.342418e+01
4;dgesv;128;0;1;1;0;300;900;1;900;900;1025202362;1350490027;0.000000e+00;1.472306e-02;3.309195e+01
5;dgesv;128;0;1;1;0;300;900;1;900;900;783368690;1102520059;0.000000e+00;8.198977e-03;5.942386e+01
6;dgesv;128;0;1;1;0;300;900;1;900;900;2044897763;1967513926;0.000000e+00;8.383036e-03;5.811914e+01
7;dgesv;128;0;1;1;0;300;900;1;900;900;1365180540;1540383426;0.000000e+00;8.705854e-03;5.596405e+01
8;dgesv;128;0;1;1;0;300;900;1;900;900;304089172;1303455736;0.000000e+00;1.755905e-02;2.774722e+01
9;dgesv;128;0;1;1;0;300;900;1;900;900;35005211;521595368;0.000000e+00;1.350212e-02;3.608432e+01
10;dgesv;128;0;1;1;0;300;1800;1;1800;1800;294702567;1726956429;0.000000e+00;3.303003e-02;1.178582e+02
11;dgesv;128;0;1;1;0;300;1800;1;1800;1800;336465782;861021530;0.000000e+00;4.765797e-02;8.168329e+01
12;dgesv;128;0;1;1;0;300;1800;1;1800;1800;278722862;233665123;0.000000e+00;3.943801e-02;9.870832e+01
13;dgesv;128;0;1;1;0;300;1800;1;1800;1800;2145174067;468703135;0.000000e+00;4.343486e-02;8.962524e+01
14;dgesv;128;0;1;1;0;300;1800;1;1800;1800;1101513929;1801979802;0.000000e+00;3.653407e-02;1.065542e+02
15;dgesv;128;0;1;1;0;300;1800;1;1800;1800;1315634022;635723058;0.000000e+00;3.195691e-02;1.218159e+02
16;dgesv;128;0;1;1;0;300;1800;1;1800;1800;1369133069;1125898167;0.000000e+00;3.274393e-02;1.188880e+02
17;dgesv;128;0;1;1;0;300;1800;1;1800;1800;1059961393;2089018456;0.000000e+00;3.457403e-02;1.125949e+02
18;dgesv;128;0;1;1;0;300;1800;1;1800;1800;628175011;1656478042;0.000000e+00;4.375291e-02;8.897373e+01
19;dgesv;128;0;1;1;0;300;1800;1;1800;1800;1131176229;1653377373;0.000000e+00;3.098106e-02;1.256529e+02
20;dgesv;128;0;1;1;0;300;2700;1;2700;2700;859484421;1914544919;0.000000e+00;6.570411e-02;1.998800e+02
21;dgesv;128;0;1;1;0;300;2700;1;2700;2700;608413784;756898537;0.000000e+00;5.782795e-02;2.271036e+02
22;dgesv;128;0;1;1;0;300;2700;1;2700;2700;1734575198;1973594324;0.000000e+00;5.392098e-02;2.435589e+02
23;dgesv;128;0;1;1;0;300;2700;1;2700;2700;149798315;2038664370;0.000000e+00;4.246807e-02;3.092425e+02
24;dgesv;128;0;1;1;0;300;2700;1;2700;2700;1129566413;184803526;0.000000e+00;3.784490e-02;3.470200e+02
25;dgesv;128;0;1;1;0;300;2700;1;2700;2700;412776091;1424268980;0.000000e+00;3.661394e-02;3.586867e+02
26;dgesv;128;0;1;1;0;300;2700;1;2700;2700;1911759956;749241873;0.000000e+00;4.267502e-02;3.077429e+02
27;dgesv;128;0;1;1;0;300;2700;1;2700;2700;137806862;42999170;0.000000e+00;3.745103e-02;3.506695e+02
28;dgesv;128;0;1;1;0;300;2700;1;2700;2700;982906996;135497281;0.000000e+00;3.870583e-02;3.393012e+02
29;dgesv;128;0;1;1;0;300;2700;1;2700;2700;511702305;2084420925;0.000000e+00;3.865385e-02;3.397575e+02
30;dgesv;128;0;1;1;0;300;3600;1;3600;3600;1937477084;1827336327;0.000000e+00;5.947280e-02;5.233223e+02
31;dgesv;128;0;1;1;0;300;3600;1;3600;3600;572660336;1159126505;0.000000e+00;5.670094e-02;5.489051e+02
32;dgesv;128;0;1;1;0;300;3600;1;3600;3600;805750846;1632621729;0.000000e+00;5.318809e-02;5.851581e+02
33;dgesv;128;0;1;1;0;300;3600;1;3600;3600;1100661313;1433925857;0.000000e+00;5.891705e-02;5.282587e+02
34;dgesv;128;0;1;1;0;300;3600;1;3600;3600;1141616124;84353895;0.000000e+00;5.400896e-02;5.762644e+02
35;dgesv;128;0;1;1;0;300;3600;1;3600;3600;939819582;2001100545;0.000000e+00;5.962992e-02;5.219434e+02
36;dgesv;128;0;1;1;0;300;3600;1;3600;3600;1998898814;1548233367;0.000000e+00;5.626583e-02;5.531499e+02
37;dgesv;128;0;1;1;0;300;3600;1;3600;3600;610515434;1585990364;0.000000e+00;5.727386e-02;5.434143e+02
38;dgesv;128;0;1;1;0;300;3600;1;3600;3600;1374344043;760313750;0.000000e+00;6.086302e-02;5.113687e+02
39;dgesv;128;0;1;1;0;300;3600;1;3600;3600;1477171087;356426808;0.000000e+00;5.923605e-02;5.254138e+02
40;dgesv;128;0;1;1;0;300;4500;1;4500;4500;945117276;1889947178;0.000000e+00;7.871604e-02;7.721473e+02
41;dgesv;128;0;1;1;0;300;4500;1;4500;4500;1780695788;709393584;0.000000e+00;8.357000e-02;7.272989e+02
42;dgesv;128;0;1;1;0;300;4500;1;4500;4500;491705403;1918502651;0.000000e+00;8.117509e-02;7.487565e+02
43;dgesv;128;0;1;1;0;300;4500;1;4500;4500;752392754;1474612399;0.000000e+00;8.049703e-02;7.550636e+02
44;dgesv;128;0;1;1;0;300;4500;1;4500;4500;2053999932;1264095060;0.000000e+00;8.740997e-02;6.953483e+02
45;dgesv;128;0;1;1;0;300;4500;1;4500;4500;1411549676;1843993368;0.000000e+00;8.616400e-02;7.054034e+02
46;dgesv;128;0;1;1;0;300;4500;1;4500;4500;943947739;1984210012;0.000000e+00;8.449388e-02;7.193465e+02
47;dgesv;128;0;1;1;0;300;4500;1;4500;4500;855636226;1749698586;0.000000e+00;8.205914e-02;7.406898e+02
48;dgesv;128;0;1;1;0;300;4500;1;4500;4500;1469348094;1956297539;0.000000e+00;8.823490e-02;6.888473e+02
49;dgesv;128;0;1;1;0;300;4500;1;4500;4500;1036140795;463480570;0.000000e+00;8.218288e-02;7.395746e+02
50;dgesv;128;0;1;1;0;300;5400;1;5400;5400;2040651434;1975960378;0.000000e+00;1.257541e-01;8.351197e+02
51;dgesv;128;0;1;1;0;300;5400;1;5400;5400;317097467;1892066601;0.000000e+00;1.185679e-01;8.857347e+02
52;dgesv;128;0;1;1;0;300;5400;1;5400;5400;1376710097;927612902;0.000000e+00;1.169400e-01;8.980650e+02
53;dgesv;128;0;1;1;0;300;5400;1;5400;5400;1330573317;603570492;0.000000e+00;1.215489e-01;8.640123e+02
54;dgesv;128;0;1;1;0;300;5400;1;5400;5400;1687926652;660260756;0.000000e+00;1.205389e-01;8.712515e+02
55;dgesv;128;0;1;1;0;300;5400;1;5400;5400;959997301;485560280;0.000000e+00;1.282010e-01;8.191803e+02
56;dgesv;128;0;1;1;0;300;5400;1;5400;5400;402724286;593209441;0.000000e+00;1.214669e-01;8.645957e+02
57;dgesv;128;0;1;1;0;300;5400;1;5400;5400;1194953865;894429689;0.000000e+00;1.206601e-01;8.703769e+02
58;dgesv;128;0;1;1;0;300;5400;1;5400;5400;364228444;1947346619;0.000000e+00;1.150501e-01;9.128176e+02
59;dgesv;128;0;1;1;0;300;5400;1;5400;5400;221558440;270744729;0.000000e+00;1.224699e-01;8.575147e+02
60;dgesv;128;0;1;1;0;300;6300;1;6300;6300;1063958031;1633108117;0.000000e+00;1.609490e-01;1.036089e+03
61;dgesv;128;0;1;1;0;300;6300;1;6300;6300;2114738097;2007905771;0.000000e+00;1.605911e-01;1.038398e+03
62;dgesv;128;0;1;1;0;300;6300;1;6300;6300;1469834481;822890675;0.000000e+00;1.555469e-01;1.072072e+03
63;dgesv;128;0;1;1;0;300;6300;1;6300;6300;1610120709;791698927;0.000000e+00;1.548960e-01;1.076577e+03
64;dgesv;128;0;1;1;0;300;6300;1;6300;6300;631704567;498777856;0.000000e+00;1.634822e-01;1.020035e+03
65;dgesv;128;0;1;1;0;300;6300;1;6300;6300;1255179497;524872353;0.000000e+00;1.567330e-01;1.063959e+03
66;dgesv;128;0;1;1;0;300;6300;1;6300;6300;327254586;1572276965;0.000000e+00;1.587050e-01;1.050739e+03
67;dgesv;128;0;1;1;0;300;6300;1;6300;6300;269455306;1703964683;0.000000e+00;1.574969e-01;1.058799e+03
68;dgesv;128;0;1;1;0;300;6300;1;6300;6300;352406219;1600028624;0.000000e+00;1.694551e-01;9.840812e+02
69;dgesv;128;0;1;1;0;300;6300;1;6300;6300;160051528;2040332871;0.000000e+00;1.582441e-01;1.053799e+03
70;dgesv;128;0;1;1;0;300;7200;1;7200;7200;112805732;1120048829;0.000000e+00;2.052441e-01;1.212750e+03
71;dgesv;128;0;1;1;0;300;7200;1;7200;7200;378409503;515530019;0.000000e+00;2.085440e-01;1.193560e+03
72;dgesv;128;0;1;1;0;300;7200;1;7200;7200;1713258270;1573363368;0.000000e+00;2.055190e-01;1.211128e+03
73;dgesv;128;0;1;1;0;300;7200;1;7200;7200;1409959708;2077486715;0.000000e+00;1.922290e-01;1.294860e+03
74;dgesv;128;0;1;1;0;300;7200;1;7200;7200;1373226340;1631518149;0.000000e+00;2.114770e-01;1.177006e+03
75;dgesv;128;0;1;1;0;300;7200;1;7200;7200;200747796;289700723;0.000000e+00;1.973469e-01;1.261280e+03
76;dgesv;128;0;1;1;0;300;7200;1;7200;7200;1117142618;168002245;0.000000e+00;2.090170e-01;1.190859e+03
77;dgesv;128;0;1;1;0;300;7200;1;7200;7200;150122846;439493451;0.000000e+00;1.953080e-01;1.274448e+03
78;dgesv;128;0;1;1;0;300;7200;1;7200;7200;990892921;1760243555;0.000000e+00;2.063029e-01;1.206526e+03
79;dgesv;128;0;1;1;0;300;7200;1;7200;7200;1231192379;1622597488;0.000000e+00;2.004061e-01;1.242027e+03
80;dgesv;128;0;1;1;0;300;8100;1;8100;8100;111537764;338888228;0.000000e+00;2.551839e-01;1.388772e+03
81;dgesv;128;0;1;1;0;300;8100;1;8100;8100;2147469841;438792350;0.000000e+00;2.393880e-01;1.480410e+03
82;dgesv;128;0;1;1;0;300;8100;1;8100;8100;1911165193;269441500;0.000000e+00;2.378759e-01;1.489820e+03
83;dgesv;128;0;1;1;0;300;8100;1;8100;8100;2142757034;116087764;0.000000e+00;2.517769e-01;1.407565e+03
84;dgesv;128;0;1;1;0;300;8100;1;8100;8100;1869470124;155324914;0.000000e+00;2.454350e-01;1.443936e+03
85;dgesv;128;0;1;1;0;300;8100;1;8100;8100;8936987;1982275856;0.000000e+00;2.394390e-01;1.480095e+03
86;dgesv;128;0;1;1;0;300;8100;1;8100;8100;1275373743;387346491;0.000000e+00;2.385790e-01;1.485430e+03
87;dgesv;128;0;1;1;0;300;8100;1;8100;8100;350322227;841148365;0.000000e+00;2.494140e-01;1.420900e+03
88;dgesv;128;0;1;1;0;300;8100;1;8100;8100;1960709859;1760281936;0.000000e+00;2.418821e-01;1.465145e+03
89;dgesv;128;0;1;1;0;300;8100;1;8100;8100;771151432;1186452551;0.000000e+00;2.544429e-01;1.392817e+03
90;dgesv;128;0;1;1;0;300;9000;1;9000;9000;1244316437;971899228;0.000000e+00;2.990201e-01;1.625715e+03
91;dgesv;128;0;1;1;0;300;9000;1;9000;9000;1476153275;213975407;0.000000e+00;2.909510e-01;1.670802e+03
92;dgesv;128;0;1;1;0;300;9000;1;9000;9000;1139901474;1626276121;0.000000e+00;3.023651e-01;1.607730e+03
93;dgesv;128;0;1;1;0;300;9000;1;9000;9000;653468858;2130794395;0.000000e+00;3.002961e-01;1.618807e+03
94;dgesv;128;0;1;1;0;300;9000;1;9000;9000;1239036029;1884661237;0.000000e+00;3.101270e-01;1.567492e+03
95;dgesv;128;0;1;1;0;300;9000;1;9000;9000;1605908235;1350573793;0.000000e+00;3.057709e-01;1.589823e+03
96;dgesv;128;0;1;1;0;300;9000;1;9000;9000;76065818;1605894428;0.000000e+00;3.085821e-01;1.575339e+03
97;dgesv;128;0;1;1;0;300;9000;1;9000;9000;1789366143;1987231011;0.000000e+00;3.029492e-01;1.604630e+03
98;dgesv;128;0;1;1;0;300;9000;1;9000;9000;1875335928;1784639529;0.000000e+00;2.953160e-01;1.646106e+03
99;dgesv;128;0;1;1;0;300;9000;1;9000;9000;2103318776;1597322404;0.000000e+00;2.853489e-01;1.703604e+03
0;dgesv;128;0;1;1;0;300;9900;1;9900;9900;1681692777;1714636915;0.000000e+00;3.805611e-01;1.700155e+03
1;dgesv;128;0;1;1;0;300;9900;1;9900;9900;1957747793;424238335;0.000000e+00;3.724670e-01;1.737101e+03
2;dgesv;128;0;1;1;0;300;9900;1;9900;9900;719885386;1649760492;0.000000e+00;3.887930e-01;1.664158e+03
3;dgesv;128;0;1;1;0;300;9900;1;9900;9900;596516649;1189641421;0.000000e+00;3.898690e-01;1.659565e+03
4;dgesv;128;0;1;1;0;300;9900;1;9900;9900;1025202362;1350490027;0.000000e+00;3.648541e-01;1.773347e+03
5;dgesv;128;0;1;1;0;300;9900;1;9900;9900;783368690;1102520059;0.000000e+00;3.732178e-01;1.733607e+03
6;dgesv;128;0;1;1;0;300;9900;1;9900;9900;2044897763;1967513926;0.000000e+00;3.719509e-01;1.739512e+03
7;dgesv;128;0;1;1;0;300;9900;1;9900;9900;1365180540;1540383426;0.000000e+00;3.682151e-01;1.757161e+03
8;dgesv;128;0;1;1;0;300;9900;1;9900;9900;304089172;1303455736;0.000000e+00;3.708529e-01;1.744662e+03
9;dgesv;128;0;1;1;0;300;9900;1;9900;9900;35005211;521595368;0.000000e+00;3.806491e-01;1.699762e+03
10;dgesv;128;0;1;1;0;300;12300;1;12300;12300;294702567;1726956429;0.000000e+00;6.167841e-01;2.011733e+03
11;dgesv;128;0;1;1;0;300;12300;1;12300;12300;336465782;861021530;0.000000e+00;6.023219e-01;2.060036e+03
12;dgesv;128;0;1;1;0;300;12300;1;12300;12300;278722862;233665123;0.000000e+00;6.199379e-01;2.001499e+03
13;dgesv;128;0;1;1;0;300;12300;1;12300;12300;2145174067;468703135;0.000000e+00;6.137290e-01;2.021747e+03
14;dgesv;128;0;1;1;0;300;12300;1;12300;12300;1101513929;1801979802;0.000000e+00;6.136010e-01;2.022169e+03
15;dgesv;128;0;1;1;0;300;12300;1;12300;12300;1315634022;635723058;0.000000e+00;6.583052e-01;1.884848e+03
16;dgesv;128;0;1;1;0;300;12300;1;12300;12300;1369133069;1125898167;0.000000e+00;6.275110e-01;1.977344e+03
17;dgesv;128;0;1;1;0;300;12300;1;12300;12300;1059961393;2089018456;0.000000e+00;6.307280e-01;1.967258e+03
18;dgesv;128;0;1;1;0;300;12300;1;12300;12300;628175011;1656478042;0.000000e+00;6.115711e-01;2.028881e+03
19;dgesv;128;0;1;1;0;300;12300;1;12300;12300;1131176229;1653377373;0.000000e+00;6.020899e-01;2.060830e+03
20;dgesv;128;0;1;1;0;300;14700;1;14700;14700;859484421;1914544919;0.000000e+00;9.670770e-01;2.190111e+03
21;dgesv;128;0;1;1;0;300;14700;1;14700;14700;608413784;756898537;0.000000e+00;9.843481e-01;2.151684e+03
22;dgesv;128;0;1;1;0;300;14700;1;14700;14700;1734575198;1973594324;0.000000e+00;9.650500e-01;2.194711e+03
23;dgesv;128;0;1;1;0;300;14700;1;14700;14700;149798315;2038664370;0.000000e+00;9.800100e-01;2.161209e+03
24;dgesv;128;0;1;1;0;300;14700;1;14700;14700;1129566413;184803526;0.000000e+00;9.652569e-01;2.194241e+03
25;dgesv;128;0;1;1;0;300;14700;1;14700;14700;412776091;1424268980;0.000000e+00;9.827640e-01;2.155152e+03
26;dgesv;128;0;1;1;0;300;14700;1;14700;14700;1911759956;749241873;0.000000e+00;9.679270e-01;2.188188e+03
27;dgesv;128;0;1;1;0;300;14700;1;14700;14700;137806862;42999170;0.000000e+00;9.716120e-01;2.179889e+03
28;dgesv;128;0;1;1;0;300;14700;1;14700;14700;982906996;135497281;0.000000e+00;9.907520e-01;2.137776e+03
29;dgesv;128;0;1;1;0;300;14700;1;14700;14700;511702305;2084420925;0.000000e+00;9.811859e-01;2.158619e+03
30;dgesv;128;0;1;1;0;300;17100;1;17100;17100;1937477084;1827336327;0.000000e+00;1.458936e+00;2.285167e+03
31;dgesv;128;0;1;1;0;300;17100;1;17100;17100;572660336;1159126505;0.000000e+00;1.448620e+00;2.301440e+03
32;dgesv;128;0;1;1;0;300;17100;1;17100;17100;805750846;1632621729;0.000000e+00;1.464300e+00;2.276796e+03
33;dgesv;128;0;1;1;0;300;17100;1;17100;17100;1100661313;1433925857;0.000000e+00;1.469834e+00;2.268224e+03
34;dgesv;128;0;1;1;0;300;17100;1;17100;17100;1141616124;84353895;0.000000e+00;1.468136e+00;2.270847e+03
35;dgesv;128;0;1;1;0;300;17100;1;17100;17100;939819582;2001100545;0.000000e+00;1.469268e+00;2.269098e+03
36;dgesv;128;0;1;1;0;300;17100;1;17100;17100;1998898814;1548233367;0.000000e+00;1.454750e+00;2.291743e+03
37;dgesv;128;0;1;1;0;300;17100;1;17100;17100;610515434;1585990364;0.000000e+00;1.455702e+00;2.290244e+03
38;dgesv;128;0;1;1;0;300;17100;1;17100;17100;1374344043;760313750;0.000000e+00;1.457668e+00;2.287155e+03
39;dgesv;128;0;1;1;0;300;17100;1;17100;17100;1477171087;356426808;0.000000e+00;1.468658e+00;2.270040e+03
40;dgesv;128;0;1;1;0;300;19500;1;19500;19500;945117276;1889947178;0.000000e+00;2.110070e+00;2.342965e+03
41;dgesv;128;0;1;1;0;300;19500;1;19500;19500;1780695788;709393584;0.000000e+00;2.127994e+00;2.323231e+03
42;dgesv;128;0;1;1;0;300;19500;1;19500;19500;491705403;1918502651;0.000000e+00;2.138554e+00;2.311758e+03
43;dgesv;128;0;1;1;0;300;19500;1;19500;19500;752392754;1474612399;0.000000e+00;2.115765e+00;2.336659e+03
44;dgesv;128;0;1;1;0;300;19500;1;19500;19500;2053999932;1264095060;0.000000e+00;2.109154e+00;2.343983e+03
45;dgesv;128;0;1;1;0;300;19500;1;19500;19500;1411549676;1843993368;0.000000e+00;2.111332e+00;2.341565e+03
46;dgesv;128;0;1;1;0;300;19500;1;19500;19500;943947739;1984210012;0.000000e+00;2.121011e+00;2.330879e+03
47;dgesv;128;0;1;1;0;300;19500;1;19500;19500;855636226;1749698586;0.000000e+00;2.117779e+00;2.334436e+03
48;dgesv;128;0;1;1;0;300;19500;1;19500;19500;1469348094;1956297539;0.000000e+00;2.108112e+00;2.345141e+03
49;dgesv;128;0;1;1;0;300;19500;1;19500;19500;1036140795;463480570;0.000000e+00;2.132973e+00;2.317807e+03
50;dgesv;128;0;1;1;0;300;21900;1;21900;21900;2040651434;1975960378;0.000000e+00;2.977730e+00;2.351800e+03
51;dgesv;128;0;1;1;0;300;21900;1;21900;21900;317097467;1892066601;0.000000e+00;2.994733e+00;2.338447e+03
52;dgesv;128;0;1;1;0;300;21900;1;21900;21900;1376710097;927612902;0.000000e+00;3.013854e+00;2.323611e+03
53;dgesv;128;0;1;1;0;300;21900;1;21900;21900;1330573317;603570492;0.000000e+00;3.003689e+00;2.331475e+03
54;dgesv;128;0;1;1;0;300;21900;1;21900;21900;1687926652;660260756;0.000000e+00;3.007556e+00;2.328477e+03
55;dgesv;128;0;1;1;0;300;21900;1;21900;21900;959997301;485560280;0.000000e+00;2.971124e+00;2.357029e+03
56;dgesv;128;0;1;1;0;300;21900;1;21900;21900;402724286;593209441;0.000000e+00;2.986381e+00;2.344987e+03
57;dgesv;128;0;1;1;0;300;21900;1;21900;21900;1194953865;894429689;0.000000e+00;3.003894e+00;2.331316e+03
58;dgesv;128;0;1;1;0;300;21900;1;21900;21900;364228444;1947346619;0.000000e+00;2.986337e+00;2.345022e+03
59;dgesv;128;0;1;1;0;300;21900;1;21900;21900;221558440;270744729;0.000000e+00;3.004063e+00;2.331185e+03
60;dgesv;128;0;1;1;0;300;24300;1;24300;24300;1063958031;1633108117;0.000000e+00;4.076788e+00;2.346657e+03
61;dgesv;128;0;1;1;0;300;24300;1;24300;24300;2114738097;2007905771;0.000000e+00;4.062588e+00;2.354859e+03
62;dgesv;128;0;1;1;0;300;24300;1;24300;24300;1469834481;822890675;0.000000e+00;4.063958e+00;2.354066e+03
63;dgesv;128;0;1;1;0;300;24300;1;24300;24300;1610120709;791698927;0.000000e+00;4.066658e+00;2.352503e+03
64;dgesv;128;0;1;1;0;300;24300;1;24300;24300;631704567;498777856;0.000000e+00;4.078784e+00;2.345509e+03
65;dgesv;128;0;1;1;0;300;24300;1;24300;24300;1255179497;524872353;0.000000e+00;4.050159e+00;2.362086e+03
66;dgesv;128;0;1;1;0;300;24300;1;24300;24300;327254586;1572276965;0.000000e+00;4.080647e+00;2.344438e+03
67;dgesv;128;0;1;1;0;300;24300;1;24300;24300;269455306;1703964683;0.000000e+00;4.073710e+00;2.348430e+03
68;dgesv;128;0;1;1;0;300;24300;1;24300;24300;352406219;1600028624;0.000000e+00;4.072209e+00;2.349296e+03
69;dgesv;128;0;1;1;0;300;24300;1;24300;24300;160051528;2040332871;0.000000e+00;4.038696e+00;2.368790e+03
70;dgesv;128;0;1;1;0;300;26700;1;26700;26700;112805732;1120048829;0.000000e+00;5.396475e+00;2.351630e+03
71;dgesv;128;0;1;1;0;300;26700;1;26700;26700;378409503;515530019;0.000000e+00;5.380650e+00;2.358546e+03
72;dgesv;128;0;1;1;0;300;26700;1;26700;26700;1713258270;1573363368;0.000000e+00;5.383923e+00;2.357112e+03
73;dgesv;128;0;1;1;0;300;26700;1;26700;26700;1409959708;2077486715;0.000000e+00;5.428110e+00;2.337925e+03
74;dgesv;128;0;1;1;0;300;26700;1;26700;26700;1373226340;1631518149;0.000000e+00;5.413719e+00;2.344139e+03
75;dgesv;128;0;1;1;0;300;26700;1;26700;26700;200747796;289700723;0.000000e+00;5.398835e+00;2.350602e+03
76;dgesv;128;0;1;1;0;300;26700;1;26700;26700;1117142618;168002245;0.000000e+00;5.421883e+00;2.340610e+03
77;dgesv;128;0;1;1;0;300;26700;1;26700;26700;150122846;439493451;0.000000e+00;5.398663e+00;2.350677e+03
78;dgesv;128;0;1;1;0;300;26700;1;26700;26700;990892921;1760243555;0.000000e+00;5.424228e+00;2.339598e+03
79;dgesv;128;0;1;1;0;300;26700;1;26700;26700;1231192379;1622597488;0.000000e+00;5.417066e+00;2.342691e+03
80;dgesv;128;0;1;1;0;300;29100;1;29100;29100;111537764;338888228;0.000000e+00;7.007324e+00;2.344602e+03
81;dgesv;128;0;1;1;0;300;29100;1;29100;29100;2147469841;438792350;0.000000e+00;7.045413e+00;2.331926e+03
82;dgesv;128;0;1;1;0;300;29100;1;29100;29100;1911165193;269441500;0.000000e+00;7.006090e+00;2.345015e+03
83;dgesv;128;0;1;1;0;300;29100;1;29100;29100;2142757034;116087764;0.000000e+00;6.995377e+00;2.348606e+03
84;dgesv;128;0;1;1;0;300;29100;1;29100;29100;1869470124;155324914;0.000000e+00;7.004453e+00;2.345563e+03
85;dgesv;128;0;1;1;0;300;29100;1;29100;29100;8936987;1982275856;0.000000e+00;7.062635e+00;2.326240e+03
86;dgesv;128;0;1;1;0;300;29100;1;29100;29100;1275373743;387346491;0.000000e+00;7.037122e+00;2.334674e+03
87;dgesv;128;0;1;1;0;300;29100;1;29100;29100;350322227;841148365;0.000000e+00;7.026321e+00;2.338263e+03
88;dgesv;128;0;1;1;0;300;29100;1;29100;29100;1960709859;1760281936;0.000000e+00;6.997025e+00;2.348053e+03
89;dgesv;128;0;1;1;0;300;29100;1;29100;29100;771151432;1186452551;0.000000e+00;7.009034e+00;2.344030e+03
