Id;Function;threads;gpus;P;Q;mtxfmt;nb;transA;transB;m;n;k;lda;ldb;ldc;alpha;beta;seedA;seedB;seedC;tsub;time;gflops
0;dgemm;128;0;1;1;0;300;111;111;900;900;900;900;900;900;4.892778e-01;-1.846424e-01;1649760492;596516649;1189641421;0.000000e+00;9.674771e-03;1.507012e+02
1;dgemm;128;0;1;1;0;300;111;111;900;900;900;900;900;900;-2.410269e-01;4.000452e-01;783368690;1102520059;2044897763;0.000000e+00;9.637431e-03;1.512851e+02
2;dgemm;128;0;1;1;0;300;111;111;900;900;900;900;900;900;4.141058e-01;-3.017109e-01;1540383426;304089172;1303455736;0.000000e+00;8.906832e-03;1.636946e+02
3;dgemm;128;0;1;1;0;300;111;111;900;900;900;900;900;900;-3.054879e-01;-1.757242e-01;294702567;1726956429;336465782;0.000000e+00;8.914537e-03;1.635531e+02
4;dgemm;128;0;1;1;0;300;111;111;900;900;900;900;900;900;4.797187e-01;2.821215e-01;233665123;2145174067;468703135;0.000000e+00;8.382486e-03;1.739341e+02
5;dgemm;128;0;1;1;0;300;111;111;900;900;900;900;900;900;3.112590e-01;3.332689e-02;1315634022;635723058;1369133069;0.000000e+00;8.551670e-03;1.704930e+02
6;dgemm;128;0;1;1;0;300;111;111;900;900;900;900;900;900;-2.396071e-01;2.196488e-02;2089018456;628175011;1656478042;0.000000e+00;8.195367e-03;1.779054e+02
7;dgemm;128;0;1;1;0;300;111;111;900;900;900;900;900;900;5.576077e-02;-4.098657e-01;859484421;1914544919;608413784;0.000000e+00;8.140625e-03;1.791017e+02
8;dgemm;128;0;1;1;0;300;111;111;900;900;900;900;900;900;-2.172434e-01;3.304604e-01;1973594324;149798315;2038664370;0.000000e+00;8.405939e-03;1.734488e+02
9;dgemm;128;0;1;1;0;300;111;111;900;900;900;900;900;900;1.632813e-02;3.212047e-02;412776091;1424268980;1911759956;0.000000e+00;7.715314e-03;1.889748e+02
10;dgemm;128;0;1;1;0;300;111;111;1800;1800;1800;1800;1800;1800;1.752074e-01;-2.459049e-03;42999170;982906996;135497281;0.000000e+00;2.108312e-02;5.532388e+02
11;dgemm;128;0;1;1;0;300;111;111;1800;1800;1800;1800;1800;1800;-4.932447e-01;-1.333755e-01;1937477084;1827336327;572660336;0.000000e+00;2.165043e-02;5.387423e+02
12;dgemm;128;0;1;1;0;300;111;111;1800;1800;1800;1800;1800;1800;-1.501402e-01;2.390371e-01;1632621729;1100661313;1433925857;0.000000e+00;2.085049e-02;5.594114e+02
13;dgemm;128;0;1;1;0;300;111;111;1800;1800;1800;1800;1800;1800;2.189649e-01;-2.465265e-01;939819582;2001100545;1998898814;0.000000e+00;2.037943e-02;5.723418e+02
14;dgemm;128;0;1;1;0;300;111;111;1800;1800;1800;1800;1800;1800;-2.416937e-01;-1.401268e-01;1585990364;1374344043;760313750;0.000000e+00;2.062982e-02;5.653953e+02
15;dgemm;128;0;1;1;0;300;111;111;1800;1800;1800;1800;1800;1800;3.187297e-01;-1.733443e-01;945117276;1889947178;1780695788;0.000000e+00;2.051511e-02;5.685565e+02
16;dgemm;128;0;1;1;0;300;111;111;1800;1800;1800;1800;1800;1800;-4.132594e-01;7.699516e-02;1918502651;752392754;1474612399;0.000000e+00;2.108531e-02;5.531815e+02
17;dgemm;128;0;1;1;0;300;111;111;1800;1800;1800;1800;1800;1800;-1.543593e-01;-4.222437e-01;1411549676;1843993368;943947739;0.000000e+00;2.234056e-02;5.220997e+02
18;dgemm;128;0;1;1;0;300;111;111;1800;1800;1800;1800;1800;1800;1.866877e-01;-3.211111e-01;1749698586;1469348094;1956297539;0.000000e+00;2.560763e-02;4.554892e+02
19;dgemm;128;0;1;1;0;300;111;111;1800;1800;1800;1800;1800;1800;-3.490223e-01;-4.443388e-01;2040651434;1975960378;317097467;0.000000e+00;2.804476e-02;4.159066e+02
20;dgemm;128;0;1;1;0;300;111;111;2700;2700;2700;2700;2700;2700;-1.054364e-01;2.030082e-01;927612902;1330573317;603570492;0.000000e+00;3.710560e-02;1.060918e+03
21;dgemm;128;0;1;1;0;300;111;111;2700;2700;2700;2700;2700;2700;-4.352839e-01;1.623906e-01;959997301;485560280;402724286;0.000000e+00;3.801858e-02;1.035441e+03
22;dgemm;128;0;1;1;0;300;111;111;2700;2700;2700;2700;2700;2700;4.667617e-01;1.036922e-01;894429689;364228444;1947346619;0.000000e+00;4.585139e-02;8.585563e+02
23;dgemm;128;0;1;1;0;300;111;111;2700;2700;2700;2700;2700;2700;4.665847e-01;3.770548e-01;1063958031;1633108117;2114738097;0.000000e+00;4.628386e-02;8.505341e+02
24;dgemm;128;0;1;1;0;300;111;111;2700;2700;2700;2700;2700;2700;-4.980996e-01;2.856491e-01;822890675;1610120709;791698927;0.000000e+00;4.591434e-02;8.573792e+02
25;dgemm;128;0;1;1;0;300;111;111;2700;2700;2700;2700;2700;2700;3.592840e-01;-4.182928e-01;1255179497;524872353;327254586;0.000000e+00;4.455754e-02;8.834868e+02
26;dgemm;128;0;1;1;0;300;111;111;2700;2700;2700;2700;2700;2700;9.307665e-02;3.296821e-01;1703964683;352406219;1600028624;0.000000e+00;4.540012e-02;8.670902e+02
27;dgemm;128;0;1;1;0;300;111;111;2700;2700;2700;2700;2700;2700;-4.719053e-01;2.807858e-01;112805732;1120048829;378409503;0.000000e+00;4.695879e-02;8.383095e+02
28;dgemm;128;0;1;1;0;300;111;111;2700;2700;2700;2700;2700;2700;2.744957e-01;-3.785920e-02;1573363368;1409959708;2077486715;0.000000e+00;4.529203e-02;8.691595e+02
29;dgemm;128;0;1;1;0;300;111;111;2700;2700;2700;2700;2700;2700;1.799312e-01;9.546876e-03;200747796;289700723;1117142618;0.000000e+00;3.792444e-02;1.038011e+03
30;dgemm;128;0;1;1;0;300;111;111;3600;3600;3600;3600;3600;3600;1.744033e-01;3.861393e-01;439493451;990892921;1760243555;0.000000e+00;6.881335e-02;1.356016e+03
31;dgemm;128;0;1;1;0;300;111;111;3600;3600;3600;3600;3600;3600;3.018442e-01;-4.633856e-02;111537764;338888228;2147469841;0.000000e+00;7.123782e-02;1.309866e+03
32;dgemm;128;0;1;1;0;300;111;111;3600;3600;3600;3600;3600;3600;2.072774e-01;1.109783e-01;269441500;2142757034;116087764;0.000000e+00;7.424688e-02;1.256780e+03
33;dgemm;128;0;1;1;0;300;111;111;3600;3600;3600;3600;3600;3600;-2.366607e-01;9.513167e-02;8936987;1982275856;1275373743;0.000000e+00;7.371174e-02;1.265904e+03
34;dgemm;128;0;1;1;0;300;111;111;3600;3600;3600;3600;3600;3600;-3.952797e-01;-4.960891e-01;841148365;1960709859;1760281936;0.000000e+00;9.080744e-02;1.027581e+03
35;dgemm;128;0;1;1;0;300;111;111;3600;3600;3600;3600;3600;3600;-2.607432e-01;-3.651100e-01;1244316437;971899228;1476153275;0.000000e+00;7.826565e-02;1.192247e+03
36;dgemm;128;0;1;1;0;300;111;111;3600;3600;3600;3600;3600;3600;-1.389722e-01;-8.843738e-02;1626276121;653468858;2130794395;0.000000e+00;7.461670e-02;1.250551e+03
37;dgemm;128;0;1;1;0;300;111;111;3600;3600;3600;3600;3600;3600;9.367129e-02;9.508020e-02;1605908235;1350573793;76065818;0.000000e+00;6.877079e-02;1.356855e+03
38;dgemm;128;0;1;1;0;300;111;111;3600;3600;3600;3600;3600;3600;-4.585682e-01;3.268176e-01;1987231011;1875335928;1784639529;0.000000e+00;7.792992e-02;1.197383e+03
39;dgemm;128;0;1;1;0;300;111;111;3600;3600;3600;3600;3600;3600;-6.830955e-02;1.535754e-01;1939964443;2112255763;1432114613;0.000000e+00;7.286541e-02;1.280608e+03
40;dgemm;128;0;1;1;0;300;111;111;4500;4500;4500;4500;4500;4500;2.725473e-01;1.883941e-01;1782436840;1909002904;165344818;0.000000e+00;1.192150e-01;1.528751e+03
41;dgemm;128;0;1;1;0;300;111;111;4500;4500;4500;4500;4500;4500;2.191162e-01;-3.021529e-01;1351797369;492067917;1504569917;0.000000e+00;1.355151e-01;1.344869e+03
42;dgemm;128;0;1;1;0;300;111;111;4500;4500;4500;4500;4500;4500;-3.280447e-01;-3.223358e-01;496987743;159259470;1359512183;0.000000e+00;1.416936e-01;1.286226e+03
43;dgemm;128;0;1;1;0;300;111;111;4500;4500;4500;4500;4500;4500;-4.513911e-01;3.904790e-01;1096689772;2086206725;601385644;0.000000e+00;1.258104e-01;1.448608e+03
44;dgemm;128;0;1;1;0;300;111;111;4500;4500;4500;4500;4500;4500;-4.403555e-01;9.074247e-02;243268139;1012502954;1272469786;0.000000e+00;1.452838e-01;1.254442e+03
45;dgemm;128;0;1;1;0;300;111;111;4500;4500;4500;4500;4500;4500;1.908228e-02;4.440272e-01;722308542;1820388464;933110197;0.000000e+00;1.410957e-01;1.291676e+03
46;dgemm;128;0;1;1;0;300;111;111;4500;4500;4500;4500;4500;4500;-1.017733e-01;4.140073e-01;1285228804;1789376348;502278611;0.000000e+00;1.434187e-01;1.270755e+03
47;dgemm;128;0;1;1;0;300;111;111;4500;4500;4500;4500;4500;4500;-2.659684e-01;-2.731221e-01;1034949299;654887343;1529195746;0.000000e+00;1.309667e-01;1.391575e+03
48;dgemm;128;0;1;1;0;300;111;111;4500;4500;4500;4500;4500;4500;1.985016e-01;4.068633e-01;87755422;889023311;1494613810;0.000000e+00;1.411203e-01;1.291451e+03
49;dgemm;128;0;1;1;0;300;111;111;4500;4500;4500;4500;4500;4500;-4.302884e-01;-3.682695e-01;745425661;396473730;1308044878;0.000000e+00;1.311602e-01;1.389522e+03
50;dgemm;128;0;1;1;0;300;111;111;5400;5400;5400;5400;5400;5400;3.002688e-01;4.210193e-01;705178736;1590079444;434248626;0.000000e+00;2.144746e-01;1.468369e+03
51;dgemm;128;0;1;1;0;300;111;111;5400;5400;5400;5400;5400;5400;-3.696050e-01;-2.996627e-01;1402586708;552473416;1143408282;0.000000e+00;2.239241e-01;1.406405e+03
52;dgemm;128;0;1;1;0;300;111;111;5400;5400;5400;5400;5400;5400;-3.095740e-01;-1.111416e-01;1884167637;1473442062;201305624;0.000000e+00;2.310093e-01;1.363270e+03
53;dgemm;128;0;1;1;0;300;111;111;5400;5400;5400;5400;5400;5400;3.214526e-01;-2.291051e-01;1238433452;1273911899;1431419379;0.000000e+00;2.124095e-01;1.482645e+03
54;dgemm;128;0;1;1;0;300;111;111;5400;5400;5400;5400;5400;5400;-4.764616e-02;-2.823082e-01;619290071;707900973;407487131;0.000000e+00;2.160783e-01;1.457472e+03
55;dgemm;128;0;1;1;0;300;111;111;5400;5400;5400;5400;5400;5400;-2.829039e-01;4.689267e-01;1776808933;711845894;404158660;0.000000e+00;2.180700e-01;1.444160e+03
56;dgemm;128;0;1;1;0;300;111;111;5400;5400;5400;5400;5400;5400;-9.802407e-02;-3.473849e-01;1973387981;1642548899;1501252996;0.000000e+00;2.159149e-01;1.458575e+03
57;dgemm;128;0;1;1;0;300;111;111;5400;5400;5400;5400;5400;5400;-2.998149e-02;-6.245404e-02;824272813;1662739668;2025187190;0.000000e+00;2.097663e-01;1.501328e+03
58;dgemm;128;0;1;1;0;300;111;111;5400;5400;5400;5400;5400;5400;1.613464e-01;1.651206e-01;437116466;1704365084;1176911340;0.000000e+00;2.143076e-01;1.469514e+03
59;dgemm;128;0;1;1;0;300;111;111;5400;5400;5400;5400;5400;5400;-9.329343e-02;2.766544e-01;1953443376;1876855542;1069755936;0.000000e+00;2.216039e-01;1.421130e+03
60;dgemm;128;0;1;1;0;300;111;111;6300;6300;6300;6300;6300;6300;-4.205594e-01;1.129006e-01;588219756;1856669179;1057418418;0.000000e+00;2.989253e-01;1.672973e+03
61;dgemm;128;0;1;1;0;300;111;111;6300;6300;6300;6300;6300;6300;1.349872e-02;-2.496970e-01;1065103348;625032172;387451659;0.000000e+00;3.046012e-01;1.641799e+03
62;dgemm;128;0;1;1;0;300;111;111;6300;6300;6300;6300;6300;6300;9.058696e-02;7.370132e-02;298625210;1295166342;1057467587;0.000000e+00;3.268698e-01;1.529948e+03
63;dgemm;128;0;1;1;0;300;111;111;6300;6300;6300;6300;6300;6300;-3.018314e-02;-5.773157e-02;382697713;476667372;1070575321;0.000000e+00;3.452209e-01;1.448620e+03
64;dgemm;128;0;1;1;0;300;111;111;6300;6300;6300;6300;6300;6300;-4.650331e-01;-1.058972e-01;774044599;697517721;2001229904;0.000000e+00;3.235842e-01;1.545483e+03
65;dgemm;128;0;1;1;0;300;111;111;6300;6300;6300;6300;6300;6300;4.801672e-01;-2.032396e-01;1797073940;1756915667;1065311705;0.000000e+00;3.205079e-01;1.560317e+03
66;dgemm;128;0;1;1;0;300;111;111;6300;6300;6300;6300;6300;6300;2.132438e-01;1.658781e-01;1414829150;1307565984;555996658;0.000000e+00;3.237309e-01;1.544783e+03
67;dgemm;128;0;1;1;0;300;111;111;6300;6300;6300;6300;6300;6300;1.800331e-01;-1.232803e-01;231602422;1389867269;780821396;0.000000e+00;3.301503e-01;1.514747e+03
68;dgemm;128;0;1;1;0;300;111;111;6300;6300;6300;6300;6300;6300;3.404283e-01;-1.210446e-01;195740084;917679292;2006811972;0.000000e+00;3.279183e-01;1.525056e+03
69;dgemm;128;0;1;1;0;300;111;111;6300;6300;6300;6300;6300;6300;1.960490e-01;-2.057583e-01;1414647625;1635905385;1046741222;0.000000e+00;3.199017e-01;1.563274e+03
70;dgemm;128;0;1;1;0;300;111;111;7200;7200;7200;7200;7200;7200;-4.981229e-01;1.797563e-01;1343606042;1111783898;446340713;0.000000e+00;4.774557e-01;1.563487e+03
71;dgemm;128;0;1;1;0;300;111;111;7200;7200;7200;7200;7200;7200;1.449892e-01;-2.994312e-01;1782280524;846942590;524688209;0.000000e+00;4.666198e-01;1.599795e+03
72;dgemm;128;0;1;1;0;300;111;111;7200;7200;7200;7200;7200;7200;-7.231379e-02;2.098748e-01;1371499336;2114937732;726371155;0.000000e+00;4.763135e-01;1.567237e+03
73;dgemm;128;0;1;1;0;300;111;111;7200;7200;7200;7200;7200;7200;-2.503210e-01;-2.840220e-01;882160379;11614769;1682085273;0.000000e+00;4.472989e-01;1.668898e+03
74;dgemm;128;0;1;1;0;300;111;111;7200;7200;7200;7200;7200;7200;9.597039e-02;1.728868e-01;246247255;1858721860;1548348142;0.000000e+00;4.710690e-01;1.584685e+03
75;dgemm;128;0;1;1;0;300;111;111;7200;7200;7200;7200;7200;7200;-7.244259e-02;3.629747e-01;2118421993;1520223205;452867621;0.000000e+00;4.736140e-01;1.576170e+03
76;dgemm;128;0;1;1;0;300;111;111;7200;7200;7200;7200;7200;7200;-4.022054e-01;3.532503e-01;201690613;213801961;822262754;0.000000e+00;4.638200e-01;1.609452e+03
77;dgemm;128;0;1;1;0;300;111;111;7200;7200;7200;7200;7200;7200;-4.352033e-02;2.911775e-01;1737518944;282828202;110613202;0.000000e+00;4.600456e-01;1.622657e+03
78;dgemm;128;0;1;1;0;300;111;111;7200;7200;7200;7200;7200;7200;-3.380140e-01;-1.158719e-01;1676902021;1486222842;950390868;0.000000e+00;4.901218e-01;1.523083e+03
79;dgemm;128;0;1;1;0;300;111;111;7200;7200;7200;7200;7200;7200;-3.254125e-01;4.026002e-01;1242608872;1137949908;1277849958;0.000000e+00;4.680768e-01;1.594815e+03
80;dgemm;128;0;1;1;0;300;111;111;8100;8100;8100;8100;8100;8100;-7.731044e-02;2.584243e-01;1908518808;1023457753;364686248;0.000000e+00;6.032764e-01;1.761849e+03
81;dgemm;128;0;1;1;0;300;111;111;8100;8100;8100;8100;8100;8100;-3.124503e-01;3.608416e-01;1329132133;1280321648;501772890;0.000000e+00;6.328094e-01;1.679624e+03
82;dgemm;128;0;1;1;0;300;111;111;8100;8100;8100;8100;8100;8100;8.143046e-02;2.072399e-01;212251746;1983690368;364319529;0.000000e+00;6.366455e-01;1.669504e+03
83;dgemm;128;0;1;1;0;300;111;111;8100;8100;8100;8100;8100;8100;2.429254e-01;3.618715e-01;1775473788;624549797;767066249;0.000000e+00;6.227472e-01;1.706763e+03
84;dgemm;128;0;1;1;0;300;111;111;8100;8100;8100;8100;8100;8100;2.177558e-01;-2.828171e-01;1750003033;1415505363;78012497;0.000000e+00;5.959012e-01;1.783655e+03
85;dgemm;128;0;1;1;0;300;111;111;8100;8100;8100;8100;8100;8100;3.155647e-01;-4.765819e-01;1344247686;1795519125;661761152;0.000000e+00;6.257885e-01;1.698469e+03
86;dgemm;128;0;1;1;0;300;111;111;8100;8100;8100;8100;8100;8100;1.085222e-01;-8.764404e-02;1315209188;235649157;1448703729;0.000000e+00;5.956089e-01;1.784530e+03
87;dgemm;128;0;1;1;0;300;111;111;8100;8100;8100;8100;8100;8100;5.964717e-02;3.343596e-01;430253414;861543921;677870460;0.000000e+00;6.212418e-01;1.710899e+03
88;dgemm;128;0;1;1;0;300;111;111;8100;8100;8100;8100;8100;8100;-3.852038e-01;-3.449149e-01;828388027;1144278050;332266748;0.000000e+00;6.130746e-01;1.733691e+03
89;dgemm;128;0;1;1;0;300;111;111;8100;8100;8100;8100;8100;8100;-2.132347e-01;-3.266376e-02;816504794;820697697;655858699;0.000000e+00;6.630250e-01;1.603080e+03
90;dgemm;128;0;1;1;0;300;111;111;9000;9000;9000;9000;9000;9000;4.306626e-01;3.748097e-01;1395132002;1186090428;1974806403;0.000000e+00;8.182580e-01;1.781834e+03
91;dgemm;128;0;1;1;0;300;111;111;9000;9000;9000;9000;9000;9000;-2.001786e-01;4.867196e-01;1498617647;669908538;1387036159;0.000000e+00;8.012025e-01;1.819765e+03
92;dgemm;128;0;1;1;0;300;111;111;9000;9000;9000;9000;9000;9000;1.290300e-01;2.190988e-01;1812282134;1328104339;1380171692;0.000000e+00;7.873569e-01;1.851765e+03
93;dgemm;128;0;1;1;0;300;111;111;9000;9000;9000;9000;9000;9000;1.972368e-02;-3.289758e-01;777720504;1543755629;1722060049;0.000000e+00;8.018013e-01;1.818406e+03
94;dgemm;128;0;1;1;0;300;111;111;9000;9000;9000;9000;9000;9000;-1.628764e-01;-1.178982e-01;70636429;136495343;1472576335;0.000000e+00;8.332266e-01;1.749824e+03
95;dgemm;128;0;1;1;0;300;111;111;9000;9000;9000;9000;9000;9000;-3.497582e-01;-9.472418e-02;1503885238;1219407971;2416949;0.000000e+00;7.617669e-01;1.913971e+03
96;dgemm;128;0;1;1;0;300;111;111;9000;9000;9000;9000;9000;9000;-1.213255e-01;-3.664051e-01;561717988;1407392292;1841585795;0.000000e+00;8.066323e-01;1.807515e+03
97;dgemm;128;0;1;1;0;300;111;111;9000;9000;9000;9000;9000;9000;3.538300e-01;-4.514458e-01;1433102829;1887658390;1402961682;0.000000e+00;7.916756e-01;1.841664e+03
98;dgemm;128;0;1;1;0;300;111;111;9000;9000;9000;9000;9000;9000;-3.514624e-01;-2.320307e-01;400000569;337453826;1081174232;0.000000e+00;8.345293e-01;1.747093e+03
99;dgemm;128;0;1;1;0;300;111;111;9000;9000;9000;9000;9000;9000;-1.551027e-01;-2.203633e-01;1941690360;410409117;847228023;0.000000e+00;8.042079e-01;1.812964e+03
0;dgemm;128;0;1;1;0;300;111;111;9900;9900;9900;9900;9900;9900;4.892778e-01;-1.846424e-01;1649760492;596516649;1189641421;0.000000e+00;9.471388e-01;2.048906e+03
1;dgemm;128;0;1;1;0;300;111;111;9900;9900;9900;9900;9900;9900;-2.410269e-01;4.000452e-01;783368690;1102520059;2044897763;0.000000e+00;8.910036e-01;2.177991e+03
2;dgemm;128;0;1;1;0;300;111;111;9900;9900;9900;9900;9900;9900;4.141058e-01;-3.017109e-01;1540383426;304089172;1303455736;0.000000e+00;9.221519e-01;2.104423e+03
3;dgemm;128;0;1;1;0;300;111;111;9900;9900;9900;9900;9900;9900;-3.054879e-01;-1.757242e-01;294702567;1726956429;336465782;0.000000e+00;9.806051e-01;1.978980e+03
4;dgemm;128;0;1;1;0;300;111;111;9900;9900;9900;9900;9900;9900;4.797187e-01;2.821215e-01;233665123;2145174067;468703135;0.000000e+00;9.388095e-01;2.067084e+03
5;dgemm;128;0;1;1;0;300;111;111;9900;9900;9900;9900;9900;9900;3.112590e-01;3.332689e-02;1315634022;635723058;1369133069;0.000000e+00;8.952519e-01;2.167656e+03
6;dgemm;128;0;1;1;0;300;111;111;9900;9900;9900;9900;9900;9900;-2.396071e-01;2.196488e-02;2089018456;628175011;1656478042;0.000000e+00;1.019389e+00;1.903687e+03
7;dgemm;128;0;1;1;0;300;111;111;9900;9900;9900;9900;9900;9900;5.576077e-02;-4.098657e-01;859484421;1914544919;608413784;0.000000e+00;1.005732e+00;1.929537e+03
8;dgemm;128;0;1;1;0;300;111;111;9900;9900;9900;9900;9900;9900;-2.172434e-01;3.304604e-01;1973594324;149798315;2038664370;0.000000e+00;1.040642e+00;1.864808e+03
9;dgemm;128;0;1;1;0;300;111;111;9900;9900;9900;9900;9900;9900;1.632813e-02;3.212047e-02;412776091;1424268980;1911759956;0.000000e+00;9.375664e-01;2.069825e+03
10;dgemm;128;0;1;1;0;300;111;111;12300;12300;12300;12300;12300;12300;1.752074e-01;-2.459049e-03;42999170;982906996;135497281;0.000000e+00;1.818238e+00;2.046890e+03
11;dgemm;128;0;1;1;0;300;111;111;12300;12300;12300;12300;12300;12300;-4.932447e-01;-1.333755e-01;1937477084;1827336327;572660336;0.000000e+00;1.944362e+00;1.914116e+03
12;dgemm;128;0;1;1;0;300;111;111;12300;12300;12300;12300;12300;12300;-1.501402e-01;2.390371e-01;1632621729;1100661313;1433925857;0.000000e+00;1.790236e+00;2.078907e+03
13;dgemm;128;0;1;1;0;300;111;111;12300;12300;12300;12300;12300;12300;2.189649e-01;-2.465265e-01;939819582;2001100545;1998898814;0.000000e+00;1.915914e+00;1.942537e+03
14;dgemm;128;0;1;1;0;300;111;111;12300;12300;12300;12300;12300;12300;-2.416937e-01;-1.401268e-01;1585990364;1374344043;760313750;0.000000e+00;1.748100e+00;2.129016e+03
15;dgemm;128;0;1;1;0;300;111;111;12300;12300;12300;12300;12300;12300;3.187297e-01;-1.733443e-01;945117276;1889947178;1780695788;0.000000e+00;2.028480e+00;1.834740e+03
16;dgemm;128;0;1;1;0;300;111;111;12300;12300;12300;12300;12300;12300;-4.132594e-01;7.699516e-02;1918502651;752392754;1474612399;0.000000e+00;1.820013e+00;2.044895e+03
17;dgemm;128;0;1;1;0;300;111;111;12300;12300;12300;12300;12300;12300;-1.543593e-01;-4.222437e-01;1411549676;1843993368;943947739;0.000000e+00;1.850352e+00;2.011365e+03
18;dgemm;128;0;1;1;0;300;111;111;12300;12300;12300;12300;12300;12300;1.866877e-01;-3.211111e-01;1749698586;1469348094;1956297539;0.000000e+00;1.754976e+00;2.120675e+03
19;dgemm;128;0;1;1;0;300;111;111;12300;12300;12300;12300;12300;12300;-3.490223e-01;-4.443388e-01;2040651434;1975960378;317097467;0.000000e+00;1.766447e+00;2.106903e+03
20;dgemm;128;0;1;1;0;300;111;111;14700;14700;14700;14700;14700;14700;-1.054364e-01;2.030082e-01;927612902;1330573317;603570492;0.000000e+00;3.125760e+00;2.032481e+03
21;dgemm;128;0;1;1;0;300;111;111;14700;14700;14700;14700;14700;14700;-4.352839e-01;1.623906e-01;959997301;485560280;402724286;0.000000e+00;3.056927e+00;2.078246e+03
22;dgemm;128;0;1;1;0;300;111;111;14700;14700;14700;14700;14700;14700;4.667617e-01;1.036922e-01;894429689;364228444;1947346619;0.000000e+00;3.055763e+00;2.079038e+03
23;dgemm;128;0;1;1;0;300;111;111;14700;14700;14700;14700;14700;14700;4.665847e-01;3.770548e-01;1063958031;1633108117;2114738097;0.000000e+00;2.907680e+00;2.184919e+03
24;dgemm;128;0;1;1;0;300;111;111;14700;14700;14700;14700;14700;14700;-4.980996e-01;2.856491e-01;822890675;1610120709;791698927;0.000000e+00;3.016718e+00;2.105947e+03
25;dgemm;128;0;1;1;0;300;111;111;14700;14700;14700;14700;14700;14700;3.592840e-01;-4.182928e-01;1255179497;524872353;327254586;0.000000e+00;3.094717e+00;2.052868e+03
26;dgemm;128;0;1;1;0;300;111;111;14700;14700;14700;14700;14700;14700;9.307665e-02;3.296821e-01;1703964683;352406219;1600028624;0.000000e+00;3.086994e+00;2.058004e+03
27;dgemm;128;0;1;1;0;300;111;111;14700;14700;14700;14700;14700;14700;-4.719053e-01;2.807858e-01;112805732;1120048829;378409503;0.000000e+00;3.008327e+00;2.111821e+03
28;dgemm;128;0;1;1;0;300;111;111;14700;14700;14700;14700;14700;14700;2.744957e-01;-3.785920e-02;1573363368;1409959708;2077486715;0.000000e+00;3.118975e+00;2.036902e+03
29;dgemm;128;0;1;1;0;300;111;111;14700;14700;14700;14700;14700;14700;1.799312e-01;9.546876e-03;200747796;289700723;1117142618;0.000000e+00;3.206121e+00;1.981536e+03
30;dgemm;128;0;1;1;0;300;111;111;17100;17100;17100;17100;17100;17100;1.744033e-01;3.861393e-01;439493451;990892921;1760243555;0.000000e+00;4.579533e+00;2.183721e+03
31;dgemm;128;0;1;1;0;300;111;111;17100;17100;17100;17100;17100;17100;3.018442e-01;-4.633856e-02;111537764;338888228;2147469841;0.000000e+00;4.844835e+00;2.064141e+03
32;dgemm;128;0;1;1;0;300;111;111;17100;17100;17100;17100;17100;17100;2.072774e-01;1.109783e-01;269441500;2142757034;116087764;0.000000e+00;4.332169e+00;2.308410e+03
33;dgemm;128;0;1;1;0;300;111;111;17100;17100;17100;17100;17100;17100;-2.366607e-01;9.513167e-02;8936987;1982275856;1275373743;0.000000e+00;4.809734e+00;2.079205e+03
34;dgemm;128;0;1;1;0;300;111;111;17100;17100;17100;17100;17100;17100;-3.952797e-01;-4.960891e-01;841148365;1960709859;1760281936;0.000000e+00;4.574816e+00;2.185972e+03
35;dgemm;128;0;1;1;0;300;111;111;17100;17100;17100;17100;17100;17100;-2.607432e-01;-3.651100e-01;1244316437;971899228;1476153275;0.000000e+00;4.776260e+00;2.093777e+03
36;dgemm;128;0;1;1;0;300;111;111;17100;17100;17100;17100;17100;17100;-1.389722e-01;-8.843738e-02;1626276121;653468858;2130794395;0.000000e+00;4.421751e+00;2.261643e+03
37;dgemm;128;0;1;1;0;300;111;111;17100;17100;17100;17100;17100;17100;9.367129e-02;9.508020e-02;1605908235;1350573793;76065818;0.000000e+00;4.774811e+00;2.094412e+03
38;dgemm;128;0;1;1;0;300;111;111;17100;17100;17100;17100;17100;17100;-4.585682e-01;3.268176e-01;1987231011;1875335928;1784639529;0.000000e+00;4.290250e+00;2.330965e+03
39;dgemm;128;0;1;1;0;300;111;111;17100;17100;17100;17100;17100;17100;-6.830955e-02;1.535754e-01;1939964443;2112255763;1432114613;0.000000e+00;4.382999e+00;2.281639e+03
40;dgemm;128;0;1;1;0;300;111;111;19500;19500;19500;19500;19500;19500;2.725473e-01;1.883941e-01;1782436840;1909002904;165344818;0.000000e+00;6.825753e+00;2.172618e+03
41;dgemm;128;0;1;1;0;300;111;111;19500;19500;19500;19500;19500;19500;2.191162e-01;-3.021529e-01;1351797369;492067917;1504569917;0.000000e+00;6.900310e+00;2.149142e+03
42;dgemm;128;0;1;1;0;300;111;111;19500;19500;19500;19500;19500;19500;-3.280447e-01;-3.223358e-01;496987743;159259470;1359512183;0.000000e+00;6.820515e+00;2.174286e+03
43;dgemm;128;0;1;1;0;300;111;111;19500;19500;19500;19500;19500;19500;-4.513911e-01;3.904790e-01;1096689772;2086206725;601385644;0.000000e+00;6.415065e+00;2.311707e+03
44;dgemm;128;0;1;1;0;300;111;111;19500;19500;19500;19500;19500;19500;-4.403555e-01;9.074247e-02;243268139;1012502954;1272469786;0.000000e+00;6.434832e+00;2.304606e+03
45;dgemm;128;0;1;1;0;300;111;111;19500;19500;19500;19500;19500;19500;1.908228e-02;4.440272e-01;722308542;1820388464;933110197;0.000000e+00;6.744210e+00;2.198886e+03
46;dgemm;128;0;1;1;0;300;111;111;19500;19500;19500;19500;19500;19500;-1.017733e-01;4.140073e-01;1285228804;1789376348;502278611;0.000000e+00;6.555476e+00;2.262193e+03
47;dgemm;128;0;1;1;0;300;111;111;19500;19500;19500;19500;19500;19500;-2.659684e-01;-2.731221e-01;1034949299;654887343;1529195746;0.000000e+00;6.799768e+00;2.180920e+03
48;dgemm;128;0;1;1;0;300;111;111;19500;19500;19500;19500;19500;19500;1.985016e-01;4.068633e-01;87755422;889023311;1494613810;0.000000e+00;6.737544e+00;2.201062e+03
49;dgemm;128;0;1;1;0;300;111;111;19500;19500;19500;19500;19500;19500;-4.302884e-01;-3.682695e-01;745425661;396473730;1308044878;0.000000e+00;6.831650e+00;2.170742e+03
50;dgemm;128;0;1;1;0;300;111;111;21900;21900;21900;21900;21900;21900;3.002688e-01;4.210193e-01;705178736;1590079444;434248626;0.000000e+00;9.729145e+00;2.159174e+03
51;dgemm;128;0;1;1;0;300;111;111;21900;21900;21900;21900;21900;21900;-3.696050e-01;-2.996627e-01;1402586708;552473416;1143408282;0.000000e+00;9.298419e+00;2.259193e+03
52;dgemm;128;0;1;1;0;300;111;111;21900;21900;21900;21900;21900;21900;-3.095740e-01;-1.111416e-01;1884167637;1473442062;201305624;0.000000e+00;9.351341e+00;2.246407e+03
53;dgemm;128;0;1;1;0;300;111;111;21900;21900;21900;21900;21900;21900;3.214526e-01;-2.291051e-01;1238433452;1273911899;1431419379;0.000000e+00;9.909844e+00;2.119803e+03
54;dgemm;128;0;1;1;0;300;111;111;21900;21900;21900;21900;21900;21900;-4.764616e-02;-2.823082e-01;619290071;707900973;407487131;0.000000e+00;9.522520e+00;2.206025e+03
55;dgemm;128;0;1;1;0;300;111;111;21900;21900;21900;21900;21900;21900;-2.829039e-01;4.689267e-01;1776808933;711845894;404158660;0.000000e+00;9.596878e+00;2.188933e+03
56;dgemm;128;0;1;1;0;300;111;111;21900;21900;21900;21900;21900;21900;-9.802407e-02;-3.473849e-01;1973387981;1642548899;1501252996;0.000000e+00;9.098419e+00;2.308854e+03
57;dgemm;128;0;1;1;0;300;111;111;21900;21900;21900;21900;21900;21900;-2.998149e-02;-6.245404e-02;824272813;1662739668;2025187190;0.000000e+00;9.673056e+00;2.171694e+03
58;dgemm;128;0;1;1;0;300;111;111;21900;21900;21900;21900;21900;21900;1.613464e-01;1.651206e-01;437116466;1704365084;1176911340;0.000000e+00;9.926847e+00;2.116172e+03
59;dgemm;128;0;1;1;0;300;111;111;21900;21900;21900;21900;21900;21900;-9.329343e-02;2.766544e-01;1953443376;1876855542;1069755936;0.000000e+00;9.477787e+00;2.216437e+03
60;dgemm;128;0;1;1;0;300;111;111;24300;24300;24300;24300;24300;24300;-4.205594e-01;1.129006e-01;588219756;1856669179;1057418418;0.000000e+00;1.296694e+01;2.213153e+03
61;dgemm;128;0;1;1;0;300;111;111;24300;24300;24300;24300;24300;24300;1.349872e-02;-2.496970e-01;1065103348;625032172;387451659;0.000000e+00;1.217743e+01;2.356639e+03
62;dgemm;128;0;1;1;0;300;111;111;24300;24300;24300;24300;24300;24300;9.058696e-02;7.370132e-02;298625210;1295166342;1057467587;0.000000e+00;1.293631e+01;2.218392e+03
63;dgemm;128;0;1;1;0;300;111;111;24300;24300;24300;24300;24300;24300;-3.018314e-02;-5.773157e-02;382697713;476667372;1070575321;0.000000e+00;1.299293e+01;2.208726e+03
64;dgemm;128;0;1;1;0;300;111;111;24300;24300;24300;24300;24300;24300;-4.650331e-01;-1.058972e-01;774044599;697517721;2001229904;0.000000e+00;1.323511e+01;2.168309e+03
65;dgemm;128;0;1;1;0;300;111;111;24300;24300;24300;24300;24300;24300;4.801672e-01;-2.032396e-01;1797073940;1756915667;1065311705;0.000000e+00;1.325937e+01;2.164341e+03
66;dgemm;128;0;1;1;0;300;111;111;24300;24300;24300;24300;24300;24300;2.132438e-01;1.658781e-01;1414829150;1307565984;555996658;0.000000e+00;1.326956e+01;2.162680e+03
67;dgemm;128;0;1;1;0;300;111;111;24300;24300;24300;24300;24300;24300;1.800331e-01;-1.232803e-01;231602422;1389867269;780821396;0.000000e+00;1.238802e+01;2.316578e+03
68;dgemm;128;0;1;1;0;300;111;111;24300;24300;24300;24300;24300;24300;3.404283e-01;-1.210446e-01;195740084;917679292;2006811972;0.000000e+00;1.326530e+01;2.163374e+03
69;dgemm;128;0;1;1;0;300;111;111;24300;24300;24300;24300;24300;24300;1.960490e-01;-2.057583e-01;1414647625;1635905385;1046741222;0.000000e+00;1.280261e+01;2.241560e+03
70;dgemm;128;0;1;1;0;300;111;111;26700;26700;26700;26700;26700;26700;-4.981229e-01;1.797563e-01;1343606042;1111783898;446340713;0.000000e+00;1.743757e+01;2.183121e+03
71;dgemm;128;0;1;1;0;300;111;111;26700;26700;26700;26700;26700;26700;1.449892e-01;-2.994312e-01;1782280524;846942590;524688209;0.000000e+00;1.746933e+01;2.179152e+03
72;dgemm;128;0;1;1;0;300;111;111;26700;26700;26700;26700;26700;26700;-7.231379e-02;2.098748e-01;1371499336;2114937732;726371155;0.000000e+00;1.790242e+01;2.126435e+03
73;dgemm;128;0;1;1;0;300;111;111;26700;26700;26700;26700;26700;26700;-2.503210e-01;-2.840220e-01;882160379;11614769;1682085273;0.000000e+00;1.730906e+01;2.199330e+03
74;dgemm;128;0;1;1;0;300;111;111;26700;26700;26700;26700;26700;26700;9.597039e-02;1.728868e-01;246247255;1858721860;1548348142;0.000000e+00;1.789960e+01;2.126770e+03
75;dgemm;128;0;1;1;0;300;111;111;26700;26700;26700;26700;26700;26700;-7.244259e-02;3.629747e-01;2118421993;1520223205;452867621;0.000000e+00;1.727839e+01;2.203234e+03
76;dgemm;128;0;1;1;0;300;111;111;26700;26700;26700;26700;26700;26700;-4.022054e-01;3.532503e-01;201690613;213801961;822262754;0.000000e+00;1.703481e+01;2.234737e+03
77;dgemm;128;0;1;1;0;300;111;111;26700;26700;26700;26700;26700;26700;-4.352033e-02;2.911775e-01;1737518944;282828202;110613202;0.000000e+00;1.750009e+01;2.175321e+03
78;dgemm;128;0;1;1;0;300;111;111;26700;26700;26700;26700;26700;26700;-3.380140e-01;-1.158719e-01;1676902021;1486222842;950390868;0.000000e+00;1.649141e+01;2.308373e+03
79;dgemm;128;0;1;1;0;300;111;111;26700;26700;26700;26700;26700;26700;-3.254125e-01;4.026002e-01;1242608872;1137949908;1277849958;0.000000e+00;1.752925e+01;2.171703e+03
80;dgemm;128;0;1;1;0;300;111;111;29100;29100;29100;29100;29100;29100;-7.731044e-02;2.584243e-01;1908518808;1023457753;364686248;0.000000e+00;2.271566e+01;2.169620e+03
81;dgemm;128;0;1;1;0;300;111;111;29100;29100;29100;29100;29100;29100;-3.124503e-01;3.608416e-01;1329132133;1280321648;501772890;0.000000e+00;2.262687e+01;2.178133e+03
82;dgemm;128;0;1;1;0;300;111;111;29100;29100;29100;29100;29100;29100;8.143046e-02;2.072399e-01;212251746;1983690368;364319529;0.000000e+00;2.309321e+01;2.134149e+03
83;dgemm;128;0;1;1;0;300;111;111;29100;29100;29100;29100;29100;29100;2.429254e-01;3.618715e-01;1775473788;624549797;767066249;0.000000e+00;2.252127e+01;2.188347e+03
84;dgemm;128;0;1;1;0;300;111;111;29100;29100;29100;29100;29100;29100;2.177558e-01;-2.828171e-01;1750003033;1415505363;78012497;0.000000e+00;2.239086e+01;2.201092e+03
85;dgemm;128;0;1;1;0;300;111;111;29100;29100;29100;29100;29100;29100;3.155647e-01;-4.765819e-01;1344247686;1795519125;661761152;0.000000e+00;2.324056e+01;2.120618e+03
86;dgemm;128;0;1;1;0;300;111;111;29100;29100;29100;29100;29100;29100;1.085222e-01;-8.764404e-02;1315209188;235649157;1448703729;0.000000e+00;2.144379e+01;2.298304e+03
87;dgemm;128;0;1;1;0;300;111;111;29100;29100;29100;29100;29100;29100;5.964717e-02;3.343596e-01;430253414;861543921;677870460;0.000000e+00;2.275912e+01;2.165476e+03
88;dgemm;128;0;1;1;0;300;111;111;29100;29100;29100;29100;29100;29100;-3.852038e-01;-3.449149e-01;828388027;1144278050;332266748;0.000000e+00;2.205396e+01;2.234716e+03
89;dgemm;128;0;1;1;0;300;111;111;29100;29100;29100;29100;29100;29100;-2.132347e-01;-3.266376e-02;816504794;820697697;655858699;0.000000e+00;2.238097e+01;2.202065e+03
