Id;Function;threads;gpus;P;Q;mtxfmt;nb;side;uplo;trans;diag;m;n;lda;ldb;alpha;seedA;seedB;tsub;time;gflops
0;dtrsm;64;0;1;1;0;300;141;121;111;131;900;900;900;900;4.254358e-01;1957747793;424238335;0.000000e+00;3.312898e-02;2.202936e+01
1;dtrsm;64;0;1;1;0;300;141;121;111;131;900;900;900;900;-1.846424e-01;1649760492;596516649;0.000000e+00;2.855802e-02;2.555535e+01
2;dtrsm;64;0;1;1;0;300;141;121;111;131;900;900;900;900;-3.517510e-01;1025202362;1350490027;0.000000e+00;1.261115e-02;5.787021e+01
3;dtrsm;64;0;1;1;0;300;141;121;111;131;900;900;900;900;-4.247478e-01;1102520059;2044897763;0.000000e+00;2.581191e-02;2.827416e+01
4;dtrsm;64;0;1;1;0;300;141;121;111;131;900;900;900;900;4.141058e-01;1365180540;1540383426;0.000000e+00;2.059388e-02;3.543820e+01
5;dtrsm;64;0;1;1;0;300;141;121;111;131;900;900;900;900;4.499299e-01;1303455736;35005211;0.000000e+00;3.225088e-02;2.262915e+01
6;dtrsm;64;0;1;1;0;300;141;121;111;131;900;900;900;900;-1.757242e-01;294702567;1726956429;0.000000e+00;2.811408e-02;2.595888e+01
7;dtrsm;64;0;1;1;0;300;141;121;111;131;900;900;900;900;4.401991e-01;861021530;278722862;0.000000e+00;1.997995e-02;3.652711e+01
8;dtrsm;64;0;1;1;0;300;141;121;111;131;900;900;900;900;-3.098429e-01;2145174067;468703135;0.000000e+00;2.822900e-02;2.585320e+01
9;dtrsm;64;0;1;1;0;300;141;121;111;131;900;900;900;900;3.112590e-01;1801979802;1315634022;0.000000e+00;3.524899e-02;2.070442e+01
10;dtrsm;64;0;1;1;0;300;141;121;111;131;1800;1800;1800;1800;-3.123134e-01;1369133069;1125898167;0.000000e+00;6.771302e-02;8.617604e+01
11;dtrsm;64;0;1;1;0;300;141;121;111;131;1800;1800;1800;1800;2.196488e-02;2089018456;628175011;0.000000e+00;4.877806e-02;1.196284e+02
12;dtrsm;64;0;1;1;0;300;141;121;111;131;1800;1800;1800;1800;-8.299381e-02;1131176229;1653377373;0.000000e+00;2.559018e-02;2.280265e+02
13;dtrsm;64;0;1;1;0;300;141;121;111;131;1800;1800;1800;1800;1.651013e-01;1914544919;608413784;0.000000e+00;2.841377e-02;2.053666e+02
14;dtrsm;64;0;1;1;0;300;141;121;111;131;1800;1800;1800;1800;-2.172434e-01;1734575198;1973594324;0.000000e+00;2.443504e-02;2.388062e+02
15;dtrsm;64;0;1;1;0;300;141;121;111;131;1800;1800;1800;1800;4.926079e-01;2038664370;1129566413;0.000000e+00;2.385902e-02;2.445716e+02
16;dtrsm;64;0;1;1;0;300;141;121;111;131;1800;1800;1800;1800;3.212047e-02;412776091;1424268980;0.000000e+00;2.449489e-02;2.382228e+02
17;dtrsm;64;0;1;1;0;300;141;121;111;131;1800;1800;1800;1800;7.179686e-02;749241873;137806862;0.000000e+00;2.400899e-02;2.430440e+02
18;dtrsm;64;0;1;1;0;300;141;121;111;131;1800;1800;1800;1800;2.019681e-01;982906996;135497281;0.000000e+00;2.462912e-02;2.369245e+02
19;dtrsm;64;0;1;1;0;300;141;121;111;131;1800;1800;1800;1800;-4.932447e-01;2084420925;1937477084;0.000000e+00;2.349710e-02;2.483387e+02
20;dtrsm;64;0;1;1;0;300;141;121;111;131;2700;2700;2700;2700;-3.694056e-01;572660336;1159126505;0.000000e+00;4.759789e-02;4.136799e+02
21;dtrsm;64;0;1;1;0;300;141;121;111;131;2700;2700;2700;2700;2.390371e-01;1632621729;1100661313;0.000000e+00;4.606414e-02;4.274538e+02
22;dtrsm;64;0;1;1;0;300;141;121;111;131;2700;2700;2700;2700;7.019839e-02;1141616124;84353895;0.000000e+00;4.660988e-02;4.224489e+02
23;dtrsm;64;0;1;1;0;300;141;121;111;131;2700;2700;2700;2700;-4.916174e-01;2001100545;1998898814;0.000000e+00;4.635406e-02;4.247803e+02
24;dtrsm;64;0;1;1;0;300;141;121;111;131;2700;2700;2700;2700;-2.416937e-01;610515434;1585990364;0.000000e+00;4.636693e-02;4.246624e+02
25;dtrsm;64;0;1;1;0;300;141;121;111;131;2700;2700;2700;2700;-3.772229e-02;760313750;1477171087;0.000000e+00;4.719615e-02;4.172012e+02
26;dtrsm;64;0;1;1;0;300;141;121;111;131;2700;2700;2700;2700;-1.733443e-01;945117276;1889947178;0.000000e+00;4.593801e-02;4.286274e+02
27;dtrsm;64;0;1;1;0;300;141;121;111;131;2700;2700;2700;2700;3.414286e-01;709393584;491705403;0.000000e+00;4.613090e-02;4.268352e+02
28;dtrsm;64;0;1;1;0;300;141;121;111;131;2700;2700;2700;2700;-2.237386e-01;752392754;1474612399;0.000000e+00;4.701710e-02;4.187900e+02
29;dtrsm;64;0;1;1;0;300;141;121;111;131;2700;2700;2700;2700;-1.543593e-01;1264095060;1411549676;0.000000e+00;4.776001e-02;4.122757e+02
30;dtrsm;64;0;1;1;0;300;141;121;111;131;3600;3600;3600;3600;3.886879e-01;943947739;1984210012;0.000000e+00;7.008600e-02;6.658813e+02
31;dtrsm;64;0;1;1;0;300;141;121;111;131;3600;3600;3600;3600;-3.211111e-01;1749698586;1469348094;0.000000e+00;7.320309e-02;6.375272e+02
32;dtrsm;64;0;1;1;0;300;141;121;111;131;3600;3600;3600;3600;-2.187391e-01;1036140795;463480570;0.000000e+00;7.257605e-02;6.430353e+02
33;dtrsm;64;0;1;1;0;300;141;121;111;131;3600;3600;3600;3600;3.797349e-01;1975960378;317097467;0.000000e+00;7.266593e-02;6.422399e+02
34;dtrsm;64;0;1;1;0;300;141;121;111;131;3600;3600;3600;3600;-1.054364e-01;1376710097;927612902;0.000000e+00;7.117414e-02;6.557010e+02
35;dtrsm;64;0;1;1;0;300;141;121;111;131;3600;3600;3600;3600;-4.388869e-03;603570492;1687926652;0.000000e+00;7.244992e-02;6.441547e+02
36;dtrsm;64;0;1;1;0;300;141;121;111;131;3600;3600;3600;3600;1.623906e-01;959997301;485560280;0.000000e+00;7.395220e-02;6.310693e+02
37;dtrsm;64;0;1;1;0;300;141;121;111;131;3600;3600;3600;3600;6.417844e-02;593209441;1194953865;0.000000e+00;7.086897e-02;6.585246e+02
38;dtrsm;64;0;1;1;0;300;141;121;111;131;3600;3600;3600;3600;-1.382589e-02;364228444;1947346619;0.000000e+00;7.471800e-02;6.246013e+02
39;dtrsm;64;0;1;1;0;300;141;121;111;131;3600;3600;3600;3600;4.665847e-01;270744729;1063958031;0.000000e+00;7.477784e-02;6.241015e+02
40;dtrsm;64;0;1;1;0;300;141;121;111;131;4500;4500;4500;4500;2.509115e-01;2114738097;2007905771;0.000000e+00;1.121981e-01;8.123599e+02
41;dtrsm;64;0;1;1;0;300;141;121;111;131;4500;4500;4500;4500;2.856491e-01;822890675;1610120709;0.000000e+00;1.114190e-01;8.180407e+02
42;dtrsm;64;0;1;1;0;300;141;121;111;131;4500;4500;4500;4500;-3.776547e-01;631704567;498777856;0.000000e+00;1.153069e-01;7.904582e+02
43;dtrsm;64;0;1;1;0;300;141;121;111;131;4500;4500;4500;4500;2.300707e-02;524872353;327254586;0.000000e+00;1.154470e-01;7.894983e+02
44;dtrsm;64;0;1;1;0;300;141;121;111;131;4500;4500;4500;4500;9.307665e-02;269455306;1703964683;0.000000e+00;1.105249e-01;8.246581e+02
45;dtrsm;64;0;1;1;0;300;141;121;111;131;4500;4500;4500;4500;-1.289308e-01;1600028624;160051528;0.000000e+00;1.163459e-01;7.833990e+02
46;dtrsm;64;0;1;1;0;300;141;121;111;131;4500;4500;4500;4500;2.807858e-01;112805732;1120048829;0.000000e+00;1.111240e-01;8.202118e+02
47;dtrsm;64;0;1;1;0;300;141;121;111;131;4500;4500;4500;4500;2.084955e-01;515530019;1713258270;0.000000e+00;1.168089e-01;7.802938e+02
48;dtrsm;64;0;1;1;0;300;141;121;111;131;4500;4500;4500;4500;1.571881e-01;1409959708;2077486715;0.000000e+00;1.133780e-01;8.039056e+02
49;dtrsm;64;0;1;1;0;300;141;121;111;131;4500;4500;4500;4500;1.799312e-01;1631518149;200747796;0.000000e+00;1.112940e-01;8.189590e+02
50;dtrsm;64;0;1;1;0;300;141;121;111;131;5400;5400;5400;5400;3.618905e-02;1117142618;168002245;0.000000e+00;1.750071e-01;8.999244e+02
51;dtrsm;64;0;1;1;0;300;141;121;111;131;5400;5400;5400;5400;3.861393e-01;439493451;990892921;0.000000e+00;1.802430e-01;8.737823e+02
52;dtrsm;64;0;1;1;0;300;141;121;111;131;5400;5400;5400;5400;3.138195e-01;1231192379;1622597488;0.000000e+00;1.895020e-01;8.310897e+02
53;dtrsm;64;0;1;1;0;300;141;121;111;131;5400;5400;5400;5400;3.358679e-01;338888228;2147469841;0.000000e+00;1.783371e-01;8.831206e+02
54;dtrsm;64;0;1;1;0;300;141;121;111;131;5400;5400;5400;5400;2.072774e-01;1911165193;269441500;0.000000e+00;1.776829e-01;8.863722e+02
55;dtrsm;64;0;1;1;0;300;141;121;111;131;5400;5400;5400;5400;-2.810129e-01;116087764;1869470124;0.000000e+00;1.792109e-01;8.788146e+02
56;dtrsm;64;0;1;1;0;300;141;121;111;131;5400;5400;5400;5400;9.513167e-02;8936987;1982275856;0.000000e+00;1.761198e-01;8.942388e+02
57;dtrsm;64;0;1;1;0;300;141;121;111;131;5400;5400;5400;5400;-4.094893e-01;387346491;350322227;0.000000e+00;1.806240e-01;8.719392e+02
58;dtrsm;64;0;1;1;0;300;141;121;111;131;5400;5400;5400;5400;4.007014e-01;1960709859;1760281936;0.000000e+00;1.820371e-01;8.651706e+02
59;dtrsm;64;0;1;1;0;300;141;121;111;131;5400;5400;5400;5400;-2.607432e-01;1186452551;1244316437;0.000000e+00;1.784551e-01;8.825365e+02
60;dtrsm;64;0;1;1;0;300;141;121;111;131;6300;6300;6300;6300;2.998675e-01;1476153275;213975407;0.000000e+00;2.701569e-01;9.257092e+02
61;dtrsm;64;0;1;1;0;300;141;121;111;131;6300;6300;6300;6300;-8.843738e-02;1626276121;653468858;0.000000e+00;2.802050e-01;8.925133e+02
62;dtrsm;64;0;1;1;0;300;141;121;111;131;6300;6300;6300;6300;-4.940599e-01;1239036029;1884661237;0.000000e+00;2.743969e-01;9.114050e+02
63;dtrsm;64;0;1;1;0;300;141;121;111;131;6300;6300;6300;6300;3.076514e-01;1350573793;76065818;0.000000e+00;2.684898e-01;9.314568e+02
64;dtrsm;64;0;1;1;0;300;141;121;111;131;6300;6300;6300;6300;-4.585682e-01;1789366143;1987231011;0.000000e+00;2.866569e-01;8.724253e+02
65;dtrsm;64;0;1;1;0;300;141;121;111;131;6300;6300;6300;6300;-4.578138e-01;1784639529;2103318776;0.000000e+00;2.728360e-01;9.166192e+02
66;dtrsm;64;0;1;1;0;300;141;121;111;131;6300;6300;6300;6300;1.535754e-01;1939964443;2112255763;0.000000e+00;2.752349e-01;9.086299e+02
67;dtrsm;64;0;1;1;0;300;141;121;111;131;6300;6300;6300;6300;-2.471817e-02;1067854538;352118606;0.000000e+00;2.704852e-01;9.245856e+02
68;dtrsm;64;0;1;1;0;300;141;121;111;131;6300;6300;6300;6300;3.241933e-01;1909002904;165344818;0.000000e+00;2.711191e-01;9.224237e+02
69;dtrsm;64;0;1;1;0;300;141;121;111;131;6300;6300;6300;6300;2.191162e-01;532670688;1351797369;0.000000e+00;2.728670e-01;9.165151e+02
70;dtrsm;64;0;1;1;0;300;141;121;111;131;7200;7200;7200;7200;-2.836412e-02;1504569917;680466996;0.000000e+00;3.892231e-01;9.590896e+02
71;dtrsm;64;0;1;1;0;300;141;121;111;131;7200;7200;7200;7200;-3.223358e-01;496987743;159259470;0.000000e+00;3.994069e-01;9.346354e+02
72;dtrsm;64;0;1;1;0;300;141;121;111;131;7200;7200;7200;7200;6.319147e-02;480298490;1398295499;0.000000e+00;3.939760e-01;9.475193e+02
73;dtrsm;64;0;1;1;0;300;141;121;111;131;7200;7200;7200;7200;6.321520e-03;2086206725;601385644;0.000000e+00;3.884912e-01;9.608966e+02
74;dtrsm;64;0;1;1;0;300;141;121;111;131;7200;7200;7200;7200;-4.403555e-01;1544617505;243268139;0.000000e+00;3.943770e-01;9.465558e+02
75;dtrsm;64;0;1;1;0;300;141;121;111;131;7200;7200;7200;7200;-3.357130e-01;1272469786;2027907669;0.000000e+00;3.922632e-01;9.516566e+02
76;dtrsm;64;0;1;1;0;300;141;121;111;131;7200;7200;7200;7200;4.440272e-01;722308542;1820388464;0.000000e+00;3.920469e-01;9.521815e+02
77;dtrsm;64;0;1;1;0;300;141;121;111;131;7200;7200;7200;7200;2.770102e-02;6939507;740759355;0.000000e+00;3.919861e-01;9.523292e+02
78;dtrsm;64;0;1;1;0;300;141;121;111;131;7200;7200;7200;7200;-3.466130e-01;1789376348;502278611;0.000000e+00;3.933811e-01;9.489521e+02
79;dtrsm;64;0;1;1;0;300;141;121;111;131;7200;7200;7200;7200;-2.659684e-01;1037127828;1034949299;0.000000e+00;3.953190e-01;9.443003e+02
80;dtrsm;64;0;1;1;0;300;141;121;111;131;8100;8100;8100;8100;2.976161e-01;1529195746;392035568;0.000000e+00;5.392148e-01;9.857047e+02
81;dtrsm;64;0;1;1;0;300;141;121;111;131;8100;8100;8100;8100;4.068633e-01;87755422;889023311;0.000000e+00;5.399020e-01;9.844502e+02
82;dtrsm;64;0;1;1;0;300;141;121;111;131;8100;8100;8100;8100;-2.963290e-01;1447267605;1369321801;0.000000e+00;5.422421e-01;9.802018e+02
83;dtrsm;64;0;1;1;0;300;141;121;111;131;8100;8100;8100;8100;-5.780017e-02;396473730;1308044878;0.000000e+00;5.496449e-01;9.669999e+02
84;dtrsm;64;0;1;1;0;300;141;121;111;131;8100;8100;8100;8100;3.002688e-01;1569229320;705178736;0.000000e+00;5.473931e-01;9.709779e+02
85;dtrsm;64;0;1;1;0;300;141;121;111;131;8100;8100;8100;8100;-1.667948e-01;434248626;1977648522;0.000000e+00;5.492949e-01;9.676161e+02
86;dtrsm;64;0;1;1;0;300;141;121;111;131;8100;8100;8100;8100;-2.996627e-01;1402586708;552473416;0.000000e+00;5.447741e-01;9.756460e+02
87;dtrsm;64;0;1;1;0;300;141;121;111;131;8100;8100;8100;8100;-1.582027e-01;188213258;559412924;0.000000e+00;5.425391e-01;9.796650e+02
88;dtrsm;64;0;1;1;0;300;141;121;111;131;8100;8100;8100;8100;1.008051e-01;1473442062;201305624;0.000000e+00;5.525661e-01;9.618879e+02
89;dtrsm;64;0;1;1;0;300;141;121;111;131;8100;8100;8100;8100;3.214526e-01;776532036;1238433452;0.000000e+00;5.447311e-01;9.757228e+02
90;dtrsm;64;0;1;1;0;300;141;121;111;131;9000;9000;9000;9000;8.189833e-02;1431419379;620145550;0.000000e+00;6.835301e-01;1.066641e+03
91;dtrsm;64;0;1;1;0;300;141;121;111;131;9000;9000;9000;9000;-2.823082e-01;619290071;707900973;0.000000e+00;7.467849e-01;9.762931e+02
92;dtrsm;64;0;1;1;0;300;141;121;111;131;9000;9000;9000;9000;-1.961373e-01;2113903881;7684930;0.000000e+00;7.457960e-01;9.775878e+02
93;dtrsm;64;0;1;1;0;300;141;121;111;131;9000;9000;9000;9000;-1.271150e-01;711845894;404158660;0.000000e+00;7.388630e-01;9.867608e+02
94;dtrsm;64;0;1;1;0;300;141;121;111;131;9000;9000;9000;9000;-9.802407e-02;2058657199;1973387981;0.000000e+00;7.304330e-01;9.981491e+02
95;dtrsm;64;0;1;1;0;300;141;121;111;131;9000;9000;9000;9000;4.591011e-01;1501252996;260152959;0.000000e+00;7.370780e-01;9.891505e+02
96;dtrsm;64;0;1;1;0;300;141;121;111;131;9000;9000;9000;9000;-6.245404e-02;824272813;1662739668;0.000000e+00;7.597048e-01;9.596898e+02
97;dtrsm;64;0;1;1;0;300;141;121;111;131;9000;9000;9000;9000;-7.182229e-02;1967681095;1850952926;0.000000e+00;7.445719e-01;9.791949e+02
98;dtrsm;64;0;1;1;0;300;141;121;111;131;9000;9000;9000;9000;-3.349140e-01;1704365084;1176911340;0.000000e+00;7.350919e-01;9.918229e+02
99;dtrsm;64;0;1;1;0;300;141;121;111;131;9000;9000;9000;9000;-9.329343e-02;1943327684;1953443376;0.000000e+00;7.446470e-01;9.790961e+02
0;dtrsm;64;0;1;1;0;300;141;121;111;131;9900;9900;9900;9900;4.254358e-01;1957747793;424238335;0.000000e+00;7.409420e-01;1.309680e+03
1;dtrsm;64;0;1;1;0;300;141;121;111;131;9900;9900;9900;9900;-1.846424e-01;1649760492;596516649;0.000000e+00;7.606890e-01;1.275682e+03
2;dtrsm;64;0;1;1;0;300;141;121;111;131;9900;9900;9900;9900;-3.517510e-01;1025202362;1350490027;0.000000e+00;8.012772e-01;1.211063e+03
3;dtrsm;64;0;1;1;0;300;141;121;111;131;9900;9900;9900;9900;-4.247478e-01;1102520059;2044897763;0.000000e+00;7.940850e-01;1.222032e+03
4;dtrsm;64;0;1;1;0;300;141;121;111;131;9900;9900;9900;9900;4.141058e-01;1365180540;1540383426;0.000000e+00;8.196368e-01;1.183935e+03
5;dtrsm;64;0;1;1;0;300;141;121;111;131;9900;9900;9900;9900;4.499299e-01;1303455736;35005211;0.000000e+00;8.403401e-01;1.154767e+03
6;dtrsm;64;0;1;1;0;300;141;121;111;131;9900;9900;9900;9900;-1.757242e-01;294702567;1726956429;0.000000e+00;8.518391e-01;1.139179e+03
7;dtrsm;64;0;1;1;0;300;141;121;111;131;9900;9900;9900;9900;4.401991e-01;861021530;278722862;0.000000e+00;9.116461e-01;1.064445e+03
8;dtrsm;64;0;1;1;0;300;141;121;111;131;9900;9900;9900;9900;-3.098429e-01;2145174067;468703135;0.000000e+00;8.859639e-01;1.095301e+03
9;dtrsm;64;0;1;1;0;300;141;121;111;131;9900;9900;9900;9900;3.112590e-01;1801979802;1315634022;0.000000e+00;8.915150e-01;1.088481e+03
10;dtrsm;64;0;1;1;0;300;141;121;111;131;12300;12300;12300;12300;-3.123134e-01;1369133069;1125898167;0.000000e+00;1.709249e+00;1.088793e+03
11;dtrsm;64;0;1;1;0;300;141;121;111;131;12300;12300;12300;12300;2.196488e-02;2089018456;628175011;0.000000e+00;1.763889e+00;1.055065e+03
12;dtrsm;64;0;1;1;0;300;141;121;111;131;12300;12300;12300;12300;-8.299381e-02;1131176229;1653377373;0.000000e+00;1.728247e+00;1.076824e+03
13;dtrsm;64;0;1;1;0;300;141;121;111;131;12300;12300;12300;12300;1.651013e-01;1914544919;608413784;0.000000e+00;1.762391e+00;1.055962e+03
14;dtrsm;64;0;1;1;0;300;141;121;111;131;12300;12300;12300;12300;-2.172434e-01;1734575198;1973594324;0.000000e+00;1.786258e+00;1.041853e+03
15;dtrsm;64;0;1;1;0;300;141;121;111;131;12300;12300;12300;12300;4.926079e-01;2038664370;1129566413;0.000000e+00;1.797061e+00;1.035590e+03
16;dtrsm;64;0;1;1;0;300;141;121;111;131;12300;12300;12300;12300;3.212047e-02;412776091;1424268980;0.000000e+00;1.828342e+00;1.017872e+03
17;dtrsm;64;0;1;1;0;300;141;121;111;131;12300;12300;12300;12300;7.179686e-02;749241873;137806862;0.000000e+00;1.828743e+00;1.017649e+03
18;dtrsm;64;0;1;1;0;300;141;121;111;131;12300;12300;12300;12300;2.019681e-01;982906996;135497281;0.000000e+00;1.839090e+00;1.011923e+03
19;dtrsm;64;0;1;1;0;300;141;121;111;131;12300;12300;12300;12300;-4.932447e-01;2084420925;1937477084;0.000000e+00;1.809896e+00;1.028246e+03
20;dtrsm;64;0;1;1;0;300;141;121;111;131;14700;14700;14700;14700;-3.694056e-01;572660336;1159126505;0.000000e+00;2.817706e+00;1.127420e+03
21;dtrsm;64;0;1;1;0;300;141;121;111;131;14700;14700;14700;14700;2.390371e-01;1632621729;1100661313;0.000000e+00;2.932287e+00;1.083366e+03
22;dtrsm;64;0;1;1;0;300;141;121;111;131;14700;14700;14700;14700;7.019839e-02;1141616124;84353895;0.000000e+00;3.005479e+00;1.056983e+03
23;dtrsm;64;0;1;1;0;300;141;121;111;131;14700;14700;14700;14700;-4.916174e-01;2001100545;1998898814;0.000000e+00;2.967092e+00;1.070657e+03
24;dtrsm;64;0;1;1;0;300;141;121;111;131;14700;14700;14700;14700;-2.416937e-01;610515434;1585990364;0.000000e+00;3.006848e+00;1.056501e+03
25;dtrsm;64;0;1;1;0;300;141;121;111;131;14700;14700;14700;14700;-3.772229e-02;760313750;1477171087;0.000000e+00;3.019128e+00;1.052204e+03
26;dtrsm;64;0;1;1;0;300;141;121;111;131;14700;14700;14700;14700;-1.733443e-01;945117276;1889947178;0.000000e+00;3.041366e+00;1.044511e+03
27;dtrsm;64;0;1;1;0;300;141;121;111;131;14700;14700;14700;14700;3.414286e-01;709393584;491705403;0.000000e+00;3.064746e+00;1.036542e+03
28;dtrsm;64;0;1;1;0;300;141;121;111;131;14700;14700;14700;14700;-2.237386e-01;752392754;1474612399;0.000000e+00;3.066844e+00;1.035833e+03
29;dtrsm;64;0;1;1;0;300;141;121;111;131;14700;14700;14700;14700;-1.543593e-01;1264095060;1411549676;0.000000e+00;3.072543e+00;1.033912e+03
30;dtrsm;64;0;1;1;0;300;141;121;111;131;17100;17100;17100;17100;3.886879e-01;943947739;1984210012;0.000000e+00;4.344654e+00;1.150956e+03
31;dtrsm;64;0;1;1;0;300;141;121;111;131;17100;17100;17100;17100;-3.211111e-01;1749698586;1469348094;0.000000e+00;4.484969e+00;1.114947e+03
32;dtrsm;64;0;1;1;0;300;141;121;111;131;17100;17100;17100;17100;-2.187391e-01;1036140795;463480570;0.000000e+00;4.385391e+00;1.140264e+03
33;dtrsm;64;0;1;1;0;300;141;121;111;131;17100;17100;17100;17100;3.797349e-01;1975960378;317097467;0.000000e+00;4.426953e+00;1.129559e+03
34;dtrsm;64;0;1;1;0;300;141;121;111;131;17100;17100;17100;17100;-1.054364e-01;1376710097;927612902;0.000000e+00;4.405480e+00;1.135064e+03
35;dtrsm;64;0;1;1;0;300;141;121;111;131;17100;17100;17100;17100;-4.388869e-03;603570492;1687926652;0.000000e+00;4.490524e+00;1.113568e+03
36;dtrsm;64;0;1;1;0;300;141;121;111;131;17100;17100;17100;17100;1.623906e-01;959997301;485560280;0.000000e+00;4.418098e+00;1.131823e+03
37;dtrsm;64;0;1;1;0;300;141;121;111;131;17100;17100;17100;17100;6.417844e-02;593209441;1194953865;0.000000e+00;4.438192e+00;1.126698e+03
38;dtrsm;64;0;1;1;0;300;141;121;111;131;17100;17100;17100;17100;-1.382589e-02;364228444;1947346619;0.000000e+00;4.492959e+00;1.112964e+03
39;dtrsm;64;0;1;1;0;300;141;121;111;131;17100;17100;17100;17100;4.665847e-01;270744729;1063958031;0.000000e+00;4.502292e+00;1.110657e+03
40;dtrsm;64;0;1;1;0;300;141;121;111;131;19500;19500;19500;19500;2.509115e-01;2114738097;2007905771;0.000000e+00;5.615590e+00;1.320477e+03
41;dtrsm;64;0;1;1;0;300;141;121;111;131;19500;19500;19500;19500;2.856491e-01;822890675;1610120709;0.000000e+00;5.927805e+00;1.250928e+03
42;dtrsm;64;0;1;1;0;300;141;121;111;131;19500;19500;19500;19500;-3.776547e-01;631704567;498777856;0.000000e+00;5.857029e+00;1.266044e+03
43;dtrsm;64;0;1;1;0;300;141;121;111;131;19500;19500;19500;19500;2.300707e-02;524872353;327254586;0.000000e+00;5.847314e+00;1.268147e+03
44;dtrsm;64;0;1;1;0;300;141;121;111;131;19500;19500;19500;19500;9.307665e-02;269455306;1703964683;0.000000e+00;5.857990e+00;1.265836e+03
45;dtrsm;64;0;1;1;0;300;141;121;111;131;19500;19500;19500;19500;-1.289308e-01;1600028624;160051528;0.000000e+00;5.868166e+00;1.263641e+03
46;dtrsm;64;0;1;1;0;300;141;121;111;131;19500;19500;19500;19500;2.807858e-01;112805732;1120048829;0.000000e+00;5.891094e+00;1.258723e+03
47;dtrsm;64;0;1;1;0;300;141;121;111;131;19500;19500;19500;19500;2.084955e-01;515530019;1713258270;0.000000e+00;5.853250e+00;1.266861e+03
48;dtrsm;64;0;1;1;0;300;141;121;111;131;19500;19500;19500;19500;1.571881e-01;1409959708;2077486715;0.000000e+00;5.848456e+00;1.267900e+03
49;dtrsm;64;0;1;1;0;300;141;121;111;131;19500;19500;19500;19500;1.799312e-01;1631518149;200747796;0.000000e+00;5.888008e+00;1.259383e+03
50;dtrsm;64;0;1;1;0;300;141;121;111;131;21900;21900;21900;21900;3.618905e-02;1117142618;168002245;0.000000e+00;6.989585e+00;1.502799e+03
51;dtrsm;64;0;1;1;0;300;141;121;111;131;21900;21900;21900;21900;3.861393e-01;439493451;990892921;0.000000e+00;7.256876e+00;1.447446e+03
52;dtrsm;64;0;1;1;0;300;141;121;111;131;21900;21900;21900;21900;3.138195e-01;1231192379;1622597488;0.000000e+00;7.319124e+00;1.435136e+03
53;dtrsm;64;0;1;1;0;300;141;121;111;131;21900;21900;21900;21900;3.358679e-01;338888228;2147469841;0.000000e+00;7.258724e+00;1.447078e+03
54;dtrsm;64;0;1;1;0;300;141;121;111;131;21900;21900;21900;21900;2.072774e-01;1911165193;269441500;0.000000e+00;7.282807e+00;1.442293e+03
55;dtrsm;64;0;1;1;0;300;141;121;111;131;21900;21900;21900;21900;-2.810129e-01;116087764;1869470124;0.000000e+00;7.261117e+00;1.446601e+03
56;dtrsm;64;0;1;1;0;300;141;121;111;131;21900;21900;21900;21900;9.513167e-02;8936987;1982275856;0.000000e+00;7.270908e+00;1.444653e+03
57;dtrsm;64;0;1;1;0;300;141;121;111;131;21900;21900;21900;21900;-4.094893e-01;387346491;350322227;0.000000e+00;7.269439e+00;1.444945e+03
58;dtrsm;64;0;1;1;0;300;141;121;111;131;21900;21900;21900;21900;4.007014e-01;1960709859;1760281936;0.000000e+00;7.281968e+00;1.442459e+03
59;dtrsm;64;0;1;1;0;300;141;121;111;131;21900;21900;21900;21900;-2.607432e-01;1186452551;1244316437;0.000000e+00;7.230115e+00;1.452804e+03
60;dtrsm;64;0;1;1;0;300;141;121;111;131;24300;24300;24300;24300;2.998675e-01;1476153275;213975407;0.000000e+00;8.829069e+00;1.625256e+03
61;dtrsm;64;0;1;1;0;300;141;121;111;131;24300;24300;24300;24300;-8.843738e-02;1626276121;653468858;0.000000e+00;9.144503e+00;1.569194e+03
62;dtrsm;64;0;1;1;0;300;141;121;111;131;24300;24300;24300;24300;-4.940599e-01;1239036029;1884661237;0.000000e+00;9.266354e+00;1.548559e+03
63;dtrsm;64;0;1;1;0;300;141;121;111;131;24300;24300;24300;24300;3.076514e-01;1350573793;76065818;0.000000e+00;9.146915e+00;1.568780e+03
64;dtrsm;64;0;1;1;0;300;141;121;111;131;24300;24300;24300;24300;-4.585682e-01;1789366143;1987231011;0.000000e+00;9.174163e+00;1.564121e+03
65;dtrsm;64;0;1;1;0;300;141;121;111;131;24300;24300;24300;24300;-4.578138e-01;1784639529;2103318776;0.000000e+00;9.175349e+00;1.563918e+03
66;dtrsm;64;0;1;1;0;300;141;121;111;131;24300;24300;24300;24300;1.535754e-01;1939964443;2112255763;0.000000e+00;9.125840e+00;1.572403e+03
67;dtrsm;64;0;1;1;0;300;141;121;111;131;24300;24300;24300;24300;-2.471817e-02;1067854538;352118606;0.000000e+00;9.180089e+00;1.563111e+03
68;dtrsm;64;0;1;1;0;300;141;121;111;131;24300;24300;24300;24300;3.241933e-01;1909002904;165344818;0.000000e+00;9.161796e+00;1.566232e+03
69;dtrsm;64;0;1;1;0;300;141;121;111;131;24300;24300;24300;24300;2.191162e-01;532670688;1351797369;0.000000e+00;9.179893e+00;1.563144e+03
70;dtrsm;64;0;1;1;0;300;141;121;111;131;26700;26700;26700;26700;-2.836412e-02;1504569917;680466996;0.000000e+00;1.143720e+01;1.664294e+03
71;dtrsm;64;0;1;1;0;300;141;121;111;131;26700;26700;26700;26700;-3.223358e-01;496987743;159259470;0.000000e+00;1.161095e+01;1.639390e+03
72;dtrsm;64;0;1;1;0;300;141;121;111;131;26700;26700;26700;26700;6.319147e-02;480298490;1398295499;0.000000e+00;1.184821e+01;1.606562e+03
73;dtrsm;64;0;1;1;0;300;141;121;111;131;26700;26700;26700;26700;6.321520e-03;2086206725;601385644;0.000000e+00;1.167066e+01;1.631003e+03
74;dtrsm;64;0;1;1;0;300;141;121;111;131;26700;26700;26700;26700;-4.403555e-01;1544617505;243268139;0.000000e+00;1.173937e+01;1.621457e+03
75;dtrsm;64;0;1;1;0;300;141;121;111;131;26700;26700;26700;26700;-3.357130e-01;1272469786;2027907669;0.000000e+00;1.179239e+01;1.614167e+03
76;dtrsm;64;0;1;1;0;300;141;121;111;131;26700;26700;26700;26700;4.440272e-01;722308542;1820388464;0.000000e+00;1.166921e+01;1.631205e+03
77;dtrsm;64;0;1;1;0;300;141;121;111;131;26700;26700;26700;26700;2.770102e-02;6939507;740759355;0.000000e+00;1.181536e+01;1.611027e+03
78;dtrsm;64;0;1;1;0;300;141;121;111;131;26700;26700;26700;26700;-3.466130e-01;1789376348;502278611;0.000000e+00;1.175689e+01;1.619039e+03
79;dtrsm;64;0;1;1;0;300;141;121;111;131;26700;26700;26700;26700;-2.659684e-01;1037127828;1034949299;0.000000e+00;1.175792e+01;1.618899e+03
80;dtrsm;64;0;1;1;0;300;141;121;111;131;29100;29100;29100;29100;2.976161e-01;1529195746;392035568;0.000000e+00;1.456497e+01;1.691938e+03
81;dtrsm;64;0;1;1;0;300;141;121;111;131;29100;29100;29100;29100;4.068633e-01;87755422;889023311;0.000000e+00;1.471447e+01;1.674747e+03
82;dtrsm;64;0;1;1;0;300;141;121;111;131;29100;29100;29100;29100;-2.963290e-01;1447267605;1369321801;0.000000e+00;1.485921e+01;1.658434e+03
83;dtrsm;64;0;1;1;0;300;141;121;111;131;29100;29100;29100;29100;-5.780017e-02;396473730;1308044878;0.000000e+00;1.486163e+01;1.658164e+03
84;dtrsm;64;0;1;1;0;300;141;121;111;131;29100;29100;29100;29100;3.002688e-01;1569229320;705178736;0.000000e+00;1.477439e+01;1.667955e+03
85;dtrsm;64;0;1;1;0;300;141;121;111;131;29100;29100;29100;29100;-1.667948e-01;434248626;1977648522;0.000000e+00;1.482063e+01;1.662751e+03
86;dtrsm;64;0;1;1;0;300;141;121;111;131;29100;29100;29100;29100;-2.996627e-01;1402586708;552473416;0.000000e+00;1.491761e+01;1.651942e+03
87;dtrsm;64;0;1;1;0;300;141;121;111;131;29100;29100;29100;29100;-1.582027e-01;188213258;559412924;0.000000e+00;1.477818e+01;1.667528e+03
88;dtrsm;64;0;1;1;0;300;141;121;111;131;29100;29100;29100;29100;1.008051e-01;1473442062;201305624;0.000000e+00;1.478229e+01;1.667064e+03
89;dtrsm;64;0;1;1;0;300;141;121;111;131;29100;29100;29100;29100;3.214526e-01;776532036;1238433452;0.000000e+00;1.476269e+01;1.669276e+03
