Id;Function;threads;gpus;P;Q;mtxfmt;nb;uplo;n;lda;seedA;tsub;time;gflops
0;dpoinv;64;0;1;1;1;300;121;900;900;846930886;0.000000e+00;2.612400e-02;2.793641e+01
1;dpoinv;64;0;1;1;1;300;121;900;900;1681692777;0.000000e+00;4.029799e-02;1.811036e+01
2;dpoinv;64;0;1;1;1;300;121;900;900;1714636915;0.000000e+00;4.443502e-02;1.642423e+01
3;dpoinv;64;0;1;1;1;300;121;900;900;1957747793;0.000000e+00;2.454090e-02;2.973855e+01
4;dpoinv;64;0;1;1;1;300;121;900;900;424238335;0.000000e+00;2.975392e-02;2.452822e+01
5;dpoinv;64;0;1;1;1;300;121;900;900;719885386;0.000000e+00;2.943110e-02;2.479726e+01
6;dpoinv;64;0;1;1;1;300;121;900;900;1649760492;0.000000e+00;2.050686e-02;3.558862e+01
7;dpoinv;64;0;1;1;1;300;121;900;900;596516649;0.000000e+00;2.911615e-02;2.506550e+01
8;dpoinv;64;0;1;1;1;300;121;900;900;1189641421;0.000000e+00;2.012801e-02;3.625847e+01
9;dpoinv;64;0;1;1;1;300;121;900;900;1025202362;0.000000e+00;2.013493e-02;3.624602e+01
10;dpoinv;64;0;1;1;1;300;121;1800;1800;1350490027;0.000000e+00;9.655404e-02;6.043498e+01
11;dpoinv;64;0;1;1;1;300;121;1800;1800;783368690;0.000000e+00;9.916401e-02;5.884435e+01
12;dpoinv;64;0;1;1;1;300;121;1800;1800;1102520059;0.000000e+00;5.279803e-02;1.105201e+02
13;dpoinv;64;0;1;1;1;300;121;1800;1800;2044897763;0.000000e+00;4.495692e-02;1.297963e+02
14;dpoinv;64;0;1;1;1;300;121;1800;1800;1967513926;0.000000e+00;6.212306e-02;9.393037e+01
15;dpoinv;64;0;1;1;1;300;121;1800;1800;1365180540;0.000000e+00;6.106591e-02;9.555645e+01
16;dpoinv;64;0;1;1;1;300;121;1800;1800;1540383426;0.000000e+00;5.611897e-02;1.039799e+02
17;dpoinv;64;0;1;1;1;300;121;1800;1800;304089172;0.000000e+00;5.184698e-02;1.125474e+02
18;dpoinv;64;0;1;1;1;300;121;1800;1800;1303455736;0.000000e+00;5.586100e-02;1.044600e+02
19;dpoinv;64;0;1;1;1;300;121;1800;1800;35005211;0.000000e+00;6.882596e-02;8.478257e+01
20;dpoinv;64;0;1;1;1;300;121;2700;2700;521595368;0.000000e+00;6.784010e-02;2.902456e+02
21;dpoinv;64;0;1;1;1;300;121;2700;2700;294702567;0.000000e+00;5.528307e-02;3.561722e+02
22;dpoinv;64;0;1;1;1;300;121;2700;2700;1726956429;0.000000e+00;5.264282e-02;3.740357e+02
23;dpoinv;64;0;1;1;1;300;121;2700;2700;336465782;0.000000e+00;5.565000e-02;3.538238e+02
24;dpoinv;64;0;1;1;1;300;121;2700;2700;861021530;0.000000e+00;5.294895e-02;3.718731e+02
25;dpoinv;64;0;1;1;1;300;121;2700;2700;278722862;0.000000e+00;5.408096e-02;3.640892e+02
26;dpoinv;64;0;1;1;1;300;121;2700;2700;233665123;0.000000e+00;5.506516e-02;3.575817e+02
27;dpoinv;64;0;1;1;1;300;121;2700;2700;2145174067;0.000000e+00;5.411792e-02;3.638405e+02
28;dpoinv;64;0;1;1;1;300;121;2700;2700;468703135;0.000000e+00;5.325198e-02;3.697570e+02
29;dpoinv;64;0;1;1;1;300;121;2700;2700;1101513929;0.000000e+00;5.356812e-02;3.675748e+02
30;dpoinv;64;0;1;1;1;300;121;3600;3600;1801979802;0.000000e+00;7.100391e-02;6.572731e+02
31;dpoinv;64;0;1;1;1;300;121;3600;3600;1315634022;0.000000e+00;7.350183e-02;6.349361e+02
32;dpoinv;64;0;1;1;1;300;121;3600;3600;635723058;0.000000e+00;7.314992e-02;6.379906e+02
33;dpoinv;64;0;1;1;1;300;121;3600;3600;1369133069;0.000000e+00;7.261801e-02;6.426638e+02
34;dpoinv;64;0;1;1;1;300;121;3600;3600;1125898167;0.000000e+00;7.451010e-02;6.263441e+02
35;dpoinv;64;0;1;1;1;300;121;3600;3600;1059961393;0.000000e+00;7.175493e-02;6.503938e+02
36;dpoinv;64;0;1;1;1;300;121;3600;3600;2089018456;0.000000e+00;7.155895e-02;6.521751e+02
37;dpoinv;64;0;1;1;1;300;121;3600;3600;628175011;0.000000e+00;7.900786e-02;5.906876e+02
38;dpoinv;64;0;1;1;1;300;121;3600;3600;1656478042;0.000000e+00;7.328606e-02;6.368055e+02
39;dpoinv;64;0;1;1;1;300;121;3600;3600;1131176229;0.000000e+00;7.481480e-02;6.237932e+02
40;dpoinv;64;0;1;1;1;300;121;4500;4500;1653377373;0.000000e+00;9.905314e-02;9.201652e+02
41;dpoinv;64;0;1;1;1;300;121;4500;4500;859484421;0.000000e+00;9.869695e-02;9.234861e+02
42;dpoinv;64;0;1;1;1;300;121;4500;4500;1914544919;0.000000e+00;1.006889e-01;9.052162e+02
43;dpoinv;64;0;1;1;1;300;121;4500;4500;608413784;0.000000e+00;1.031990e-01;8.831990e+02
44;dpoinv;64;0;1;1;1;300;121;4500;4500;756898537;0.000000e+00;9.757090e-02;9.341439e+02
45;dpoinv;64;0;1;1;1;300;121;4500;4500;1734575198;0.000000e+00;9.966207e-02;9.145431e+02
46;dpoinv;64;0;1;1;1;300;121;4500;4500;1973594324;0.000000e+00;1.034029e-01;8.814578e+02
47;dpoinv;64;0;1;1;1;300;121;4500;4500;149798315;0.000000e+00;1.005239e-01;9.067019e+02
48;dpoinv;64;0;1;1;1;300;121;4500;4500;2038664370;0.000000e+00;1.000638e-01;9.108714e+02
49;dpoinv;64;0;1;1;1;300;121;4500;4500;1129566413;0.000000e+00;1.046889e-01;8.706297e+02
50;dpoinv;64;0;1;1;1;300;121;5400;5400;184803526;0.000000e+00;1.477561e-01;1.065900e+03
51;dpoinv;64;0;1;1;1;300;121;5400;5400;412776091;0.000000e+00;1.450560e-01;1.085740e+03
52;dpoinv;64;0;1;1;1;300;121;5400;5400;1424268980;0.000000e+00;1.488681e-01;1.057938e+03
53;dpoinv;64;0;1;1;1;300;121;5400;5400;1911759956;0.000000e+00;1.473351e-01;1.068946e+03
54;dpoinv;64;0;1;1;1;300;121;5400;5400;749241873;0.000000e+00;1.520100e-01;1.036071e+03
55;dpoinv;64;0;1;1;1;300;121;5400;5400;137806862;0.000000e+00;1.492870e-01;1.054969e+03
56;dpoinv;64;0;1;1;1;300;121;5400;5400;42999170;0.000000e+00;1.479921e-01;1.064200e+03
57;dpoinv;64;0;1;1;1;300;121;5400;5400;982906996;0.000000e+00;1.483049e-01;1.061955e+03
58;dpoinv;64;0;1;1;1;300;121;5400;5400;135497281;0.000000e+00;1.465440e-01;1.074716e+03
59;dpoinv;64;0;1;1;1;300;121;5400;5400;511702305;0.000000e+00;1.483061e-01;1.061946e+03
60;dpoinv;64;0;1;1;1;300;121;6300;6300;2084420925;0.000000e+00;2.236609e-01;1.118151e+03
61;dpoinv;64;0;1;1;1;300;121;6300;6300;1937477084;0.000000e+00;2.269070e-01;1.102155e+03
62;dpoinv;64;0;1;1;1;300;121;6300;6300;1827336327;0.000000e+00;2.251232e-01;1.110888e+03
63;dpoinv;64;0;1;1;1;300;121;6300;6300;572660336;0.000000e+00;2.239039e-01;1.116938e+03
64;dpoinv;64;0;1;1;1;300;121;6300;6300;1159126505;0.000000e+00;2.265491e-01;1.103896e+03
65;dpoinv;64;0;1;1;1;300;121;6300;6300;805750846;0.000000e+00;2.278280e-01;1.097699e+03
66;dpoinv;64;0;1;1;1;300;121;6300;6300;1632621729;0.000000e+00;2.241580e-01;1.115671e+03
67;dpoinv;64;0;1;1;1;300;121;6300;6300;1100661313;0.000000e+00;2.254932e-01;1.109065e+03
68;dpoinv;64;0;1;1;1;300;121;6300;6300;1433925857;0.000000e+00;2.234960e-01;1.118976e+03
69;dpoinv;64;0;1;1;1;300;121;6300;6300;1141616124;0.000000e+00;2.241931e-01;1.115497e+03
70;dpoinv;64;0;1;1;1;300;121;7200;7200;84353895;0.000000e+00;3.289390e-01;1.134861e+03
71;dpoinv;64;0;1;1;1;300;121;7200;7200;939819582;0.000000e+00;3.277431e-01;1.139002e+03
72;dpoinv;64;0;1;1;1;300;121;7200;7200;2001100545;0.000000e+00;3.287711e-01;1.135440e+03
73;dpoinv;64;0;1;1;1;300;121;7200;7200;1998898814;0.000000e+00;3.328650e-01;1.121475e+03
74;dpoinv;64;0;1;1;1;300;121;7200;7200;1548233367;0.000000e+00;3.311231e-01;1.127375e+03
75;dpoinv;64;0;1;1;1;300;121;7200;7200;610515434;0.000000e+00;3.326759e-01;1.122113e+03
76;dpoinv;64;0;1;1;1;300;121;7200;7200;1585990364;0.000000e+00;3.273380e-01;1.140411e+03
77;dpoinv;64;0;1;1;1;300;121;7200;7200;1374344043;0.000000e+00;3.293040e-01;1.133603e+03
78;dpoinv;64;0;1;1;1;300;121;7200;7200;760313750;0.000000e+00;3.277910e-01;1.138835e+03
79;dpoinv;64;0;1;1;1;300;121;7200;7200;1477171087;0.000000e+00;3.315201e-01;1.126025e+03
80;dpoinv;64;0;1;1;1;300;121;8100;8100;356426808;0.000000e+00;4.688451e-01;1.133651e+03
81;dpoinv;64;0;1;1;1;300;121;8100;8100;945117276;0.000000e+00;4.583821e-01;1.159527e+03
82;dpoinv;64;0;1;1;1;300;121;8100;8100;1889947178;0.000000e+00;4.590440e-01;1.157856e+03
83;dpoinv;64;0;1;1;1;300;121;8100;8100;1780695788;0.000000e+00;4.657791e-01;1.141113e+03
84;dpoinv;64;0;1;1;1;300;121;8100;8100;709393584;0.000000e+00;4.628758e-01;1.148270e+03
85;dpoinv;64;0;1;1;1;300;121;8100;8100;491705403;0.000000e+00;4.534962e-01;1.172020e+03
86;dpoinv;64;0;1;1;1;300;121;8100;8100;1918502651;0.000000e+00;4.608181e-01;1.153398e+03
87;dpoinv;64;0;1;1;1;300;121;8100;8100;752392754;0.000000e+00;4.504430e-01;1.179964e+03
88;dpoinv;64;0;1;1;1;300;121;8100;8100;1474612399;0.000000e+00;4.533710e-01;1.172344e+03
89;dpoinv;64;0;1;1;1;300;121;8100;8100;2053999932;0.000000e+00;4.608490e-01;1.153320e+03
90;dpoinv;64;0;1;1;1;300;121;9000;9000;1264095060;0.000000e+00;6.259940e-01;1.164677e+03
91;dpoinv;64;0;1;1;1;300;121;9000;9000;1411549676;0.000000e+00;6.189470e-01;1.177938e+03
92;dpoinv;64;0;1;1;1;300;121;9000;9000;1843993368;0.000000e+00;6.215570e-01;1.172991e+03
93;dpoinv;64;0;1;1;1;300;121;9000;9000;943947739;0.000000e+00;6.244590e-01;1.167540e+03
94;dpoinv;64;0;1;1;1;300;121;9000;9000;1984210012;0.000000e+00;6.242561e-01;1.167920e+03
95;dpoinv;64;0;1;1;1;300;121;9000;9000;855636226;0.000000e+00;6.234071e-01;1.169510e+03
96;dpoinv;64;0;1;1;1;300;121;9000;9000;1749698586;0.000000e+00;6.300631e-01;1.157156e+03
97;dpoinv;64;0;1;1;1;300;121;9000;9000;1469348094;0.000000e+00;6.165569e-01;1.182504e+03
98;dpoinv;64;0;1;1;1;300;121;9000;9000;1956297539;0.000000e+00;6.204450e-01;1.175094e+03
99;dpoinv;64;0;1;1;1;300;121;9000;9000;1036140795;0.000000e+00;6.125319e-01;1.190274e+03
0;dpoinv;64;0;1;1;1;300;121;9900;9900;846930886;0.000000e+00;8.265021e-01;1.174101e+03
1;dpoinv;64;0;1;1;1;300;121;9900;9900;1681692777;0.000000e+00;8.375330e-01;1.158637e+03
2;dpoinv;64;0;1;1;1;300;121;9900;9900;1714636915;0.000000e+00;8.222179e-01;1.180219e+03
3;dpoinv;64;0;1;1;1;300;121;9900;9900;1957747793;0.000000e+00;8.380430e-01;1.157932e+03
4;dpoinv;64;0;1;1;1;300;121;9900;9900;424238335;0.000000e+00;8.225050e-01;1.179807e+03
5;dpoinv;64;0;1;1;1;300;121;9900;9900;719885386;0.000000e+00;8.312540e-01;1.167389e+03
6;dpoinv;64;0;1;1;1;300;121;9900;9900;1649760492;0.000000e+00;8.412390e-01;1.153533e+03
7;dpoinv;64;0;1;1;1;300;121;9900;9900;596516649;0.000000e+00;8.367150e-01;1.159770e+03
8;dpoinv;64;0;1;1;1;300;121;9900;9900;1189641421;0.000000e+00;8.300688e-01;1.169056e+03
9;dpoinv;64;0;1;1;1;300;121;9900;9900;1025202362;0.000000e+00;8.282490e-01;1.171625e+03
10;dpoinv;64;0;1;1;1;300;121;12300;12300;1350490027;0.000000e+00;1.602448e+00;1.161360e+03
11;dpoinv;64;0;1;1;1;300;121;12300;12300;783368690;0.000000e+00;1.611292e+00;1.154985e+03
12;dpoinv;64;0;1;1;1;300;121;12300;12300;1102520059;0.000000e+00;1.634698e+00;1.138448e+03
13;dpoinv;64;0;1;1;1;300;121;12300;12300;2044897763;0.000000e+00;1.615543e+00;1.151946e+03
14;dpoinv;64;0;1;1;1;300;121;12300;12300;1967513926;0.000000e+00;1.637468e+00;1.136522e+03
15;dpoinv;64;0;1;1;1;300;121;12300;12300;1365180540;0.000000e+00;1.610617e+00;1.155469e+03
16;dpoinv;64;0;1;1;1;300;121;12300;12300;1540383426;0.000000e+00;1.625218e+00;1.145088e+03
17;dpoinv;64;0;1;1;1;300;121;12300;12300;304089172;0.000000e+00;1.611985e+00;1.154489e+03
18;dpoinv;64;0;1;1;1;300;121;12300;12300;1303455736;0.000000e+00;1.640229e+00;1.134609e+03
19;dpoinv;64;0;1;1;1;300;121;12300;12300;35005211;0.000000e+00;1.623756e+00;1.146119e+03
20;dpoinv;64;0;1;1;1;300;121;14700;14700;521595368;0.000000e+00;2.898875e+00;1.095852e+03
21;dpoinv;64;0;1;1;1;300;121;14700;14700;294702567;0.000000e+00;2.883626e+00;1.101647e+03
22;dpoinv;64;0;1;1;1;300;121;14700;14700;1726956429;0.000000e+00;2.878725e+00;1.103523e+03
23;dpoinv;64;0;1;1;1;300;121;14700;14700;336465782;0.000000e+00;2.873582e+00;1.105498e+03
24;dpoinv;64;0;1;1;1;300;121;14700;14700;861021530;0.000000e+00;2.838692e+00;1.119085e+03
25;dpoinv;64;0;1;1;1;300;121;14700;14700;278722862;0.000000e+00;2.851872e+00;1.113914e+03
26;dpoinv;64;0;1;1;1;300;121;14700;14700;233665123;0.000000e+00;2.874597e+00;1.105108e+03
27;dpoinv;64;0;1;1;1;300;121;14700;14700;2145174067;0.000000e+00;2.853690e+00;1.113204e+03
28;dpoinv;64;0;1;1;1;300;121;14700;14700;468703135;0.000000e+00;2.899409e+00;1.095651e+03
29;dpoinv;64;0;1;1;1;300;121;14700;14700;1101513929;0.000000e+00;2.890930e+00;1.098864e+03
30;dpoinv;64;0;1;1;1;300;121;17100;17100;1801979802;0.000000e+00;4.533747e+00;1.102952e+03
31;dpoinv;64;0;1;1;1;300;121;17100;17100;1315634022;0.000000e+00;4.573237e+00;1.093428e+03
32;dpoinv;64;0;1;1;1;300;121;17100;17100;635723058;0.000000e+00;4.623690e+00;1.081496e+03
33;dpoinv;64;0;1;1;1;300;121;17100;17100;1369133069;0.000000e+00;4.703599e+00;1.063123e+03
34;dpoinv;64;0;1;1;1;300;121;17100;17100;1125898167;0.000000e+00;4.658060e+00;1.073516e+03
35;dpoinv;64;0;1;1;1;300;121;17100;17100;1059961393;0.000000e+00;4.611000e+00;1.084473e+03
36;dpoinv;64;0;1;1;1;300;121;17100;17100;2089018456;0.000000e+00;4.682449e+00;1.067925e+03
37;dpoinv;64;0;1;1;1;300;121;17100;17100;628175011;0.000000e+00;4.647705e+00;1.075908e+03
38;dpoinv;64;0;1;1;1;300;121;17100;17100;1656478042;0.000000e+00;4.762509e+00;1.049972e+03
39;dpoinv;64;0;1;1;1;300;121;17100;17100;1131176229;0.000000e+00;4.607113e+00;1.085388e+03
40;dpoinv;64;0;1;1;1;300;121;19500;19500;1653377373;0.000000e+00;6.860468e+00;1.080867e+03
41;dpoinv;64;0;1;1;1;300;121;19500;19500;859484421;0.000000e+00;6.963488e+00;1.064877e+03
42;dpoinv;64;0;1;1;1;300;121;19500;19500;1914544919;0.000000e+00;6.934288e+00;1.069361e+03
43;dpoinv;64;0;1;1;1;300;121;19500;19500;608413784;0.000000e+00;6.989825e+00;1.060864e+03
44;dpoinv;64;0;1;1;1;300;121;19500;19500;756898537;0.000000e+00;6.983796e+00;1.061780e+03
45;dpoinv;64;0;1;1;1;300;121;19500;19500;1734575198;0.000000e+00;7.010319e+00;1.057763e+03
46;dpoinv;64;0;1;1;1;300;121;19500;19500;1973594324;0.000000e+00;7.004481e+00;1.058644e+03
47;dpoinv;64;0;1;1;1;300;121;19500;19500;149798315;0.000000e+00;6.871694e+00;1.079101e+03
48;dpoinv;64;0;1;1;1;300;121;19500;19500;2038664370;0.000000e+00;6.953684e+00;1.066378e+03
49;dpoinv;64;0;1;1;1;300;121;19500;19500;1129566413;0.000000e+00;6.959246e+00;1.065526e+03
50;dpoinv;64;0;1;1;1;300;121;21900;21900;184803526;0.000000e+00;9.821797e+00;1.069452e+03
51;dpoinv;64;0;1;1;1;300;121;21900;21900;412776091;0.000000e+00;1.002859e+01;1.047400e+03
52;dpoinv;64;0;1;1;1;300;121;21900;21900;1424268980;0.000000e+00;9.800149e+00;1.071814e+03
53;dpoinv;64;0;1;1;1;300;121;21900;21900;1911759956;0.000000e+00;9.885884e+00;1.062519e+03
54;dpoinv;64;0;1;1;1;300;121;21900;21900;749241873;0.000000e+00;9.932153e+00;1.057569e+03
55;dpoinv;64;0;1;1;1;300;121;21900;21900;137806862;0.000000e+00;9.868958e+00;1.064341e+03
56;dpoinv;64;0;1;1;1;300;121;21900;21900;42999170;0.000000e+00;9.916504e+00;1.059238e+03
57;dpoinv;64;0;1;1;1;300;121;21900;21900;982906996;0.000000e+00;9.865842e+00;1.064677e+03
58;dpoinv;64;0;1;1;1;300;121;21900;21900;135497281;0.000000e+00;9.918638e+00;1.059010e+03
59;dpoinv;64;0;1;1;1;300;121;21900;21900;511702305;0.000000e+00;9.979529e+00;1.052549e+03
60;dpoinv;64;0;1;1;1;300;121;24300;24300;2084420925;0.000000e+00;1.344140e+01;1.067559e+03
61;dpoinv;64;0;1;1;1;300;121;24300;24300;1937477084;0.000000e+00;1.363044e+01;1.052753e+03
62;dpoinv;64;0;1;1;1;300;121;24300;24300;1827336327;0.000000e+00;1.371019e+01;1.046630e+03
63;dpoinv;64;0;1;1;1;300;121;24300;24300;572660336;0.000000e+00;1.367844e+01;1.049060e+03
64;dpoinv;64;0;1;1;1;300;121;24300;24300;1159126505;0.000000e+00;1.357232e+01;1.057262e+03
65;dpoinv;64;0;1;1;1;300;121;24300;24300;805750846;0.000000e+00;1.363060e+01;1.052741e+03
66;dpoinv;64;0;1;1;1;300;121;24300;24300;1632621729;0.000000e+00;1.361126e+01;1.054237e+03
67;dpoinv;64;0;1;1;1;300;121;24300;24300;1100661313;0.000000e+00;1.350765e+01;1.062324e+03
68;dpoinv;64;0;1;1;1;300;121;24300;24300;1433925857;0.000000e+00;1.366300e+01;1.050245e+03
69;dpoinv;64;0;1;1;1;300;121;24300;24300;1141616124;0.000000e+00;1.359045e+01;1.055852e+03
70;dpoinv;64;0;1;1;1;300;121;26700;26700;84353895;0.000000e+00;1.800402e+01;1.057257e+03
71;dpoinv;64;0;1;1;1;300;121;26700;26700;939819582;0.000000e+00;1.828478e+01;1.041023e+03
72;dpoinv;64;0;1;1;1;300;121;26700;26700;2001100545;0.000000e+00;1.836350e+01;1.036560e+03
73;dpoinv;64;0;1;1;1;300;121;26700;26700;1998898814;0.000000e+00;1.813381e+01;1.049690e+03
74;dpoinv;64;0;1;1;1;300;121;26700;26700;1548233367;0.000000e+00;1.831883e+01;1.039088e+03
75;dpoinv;64;0;1;1;1;300;121;26700;26700;610515434;0.000000e+00;1.823254e+01;1.044006e+03
76;dpoinv;64;0;1;1;1;300;121;26700;26700;1585990364;0.000000e+00;1.839616e+01;1.034720e+03
77;dpoinv;64;0;1;1;1;300;121;26700;26700;1374344043;0.000000e+00;1.831788e+01;1.039142e+03
78;dpoinv;64;0;1;1;1;300;121;26700;26700;760313750;0.000000e+00;1.814327e+01;1.049143e+03
79;dpoinv;64;0;1;1;1;300;121;26700;26700;1477171087;0.000000e+00;1.809181e+01;1.052127e+03
80;dpoinv;64;0;1;1;1;300;121;29100;29100;356426808;0.000000e+00;2.385511e+01;1.033029e+03
81;dpoinv;64;0;1;1;1;300;121;29100;29100;945117276;0.000000e+00;2.460434e+01;1.001572e+03
82;dpoinv;64;0;1;1;1;300;121;29100;29100;1889947178;0.000000e+00;2.464945e+01;9.997389e+02
83;dpoinv;64;0;1;1;1;300;121;29100;29100;1780695788;0.000000e+00;2.481454e+01;9.930876e+02
84;dpoinv;64;0;1;1;1;300;121;29100;29100;709393584;0.000000e+00;2.458028e+01;1.002552e+03
85;dpoinv;64;0;1;1;1;300;121;29100;29100;491705403;0.000000e+00;2.468116e+01;9.984544e+02
86;dpoinv;64;0;1;1;1;300;121;29100;29100;1918502651;0.000000e+00;2.459574e+01;1.001922e+03
87;dpoinv;64;0;1;1;1;300;121;29100;29100;752392754;0.000000e+00;2.456438e+01;1.003201e+03
88;dpoinv;64;0;1;1;1;300;121;29100;29100;1474612399;0.000000e+00;2.471537e+01;9.970725e+02
89;dpoinv;64;0;1;1;1;300;121;29100;29100;2053999932;0.000000e+00;2.479897e+01;9.937112e+02
