Id;Function;threads;gpus;P;Q;mtxfmt;nb;m;n;lda;seedA;tsub;time;gflops
0;dgetrf;64;0;1;1;1;300;900;900;900;846930886;0.000000e+00;1.561594e-02;3.109616e+01
1;dgetrf;64;0;1;1;1;300;900;900;900;1681692777;0.000000e+00;1.814914e-02;2.675586e+01
2;dgetrf;64;0;1;1;1;300;900;900;900;1714636915;0.000000e+00;1.486993e-02;3.265623e+01
3;dgetrf;64;0;1;1;1;300;900;900;900;1957747793;0.000000e+00;1.879692e-02;2.583379e+01
4;dgetrf;64;0;1;1;1;300;900;900;900;424238335;0.000000e+00;2.288699e-02;2.121711e+01
5;dgetrf;64;0;1;1;1;300;900;900;900;719885386;0.000000e+00;2.028799e-02;2.393513e+01
6;dgetrf;64;0;1;1;1;300;900;900;900;1649760492;0.000000e+00;1.243210e-02;3.905984e+01
7;dgetrf;64;0;1;1;1;300;900;900;900;596516649;0.000000e+00;1.204491e-02;4.031544e+01
8;dgetrf;64;0;1;1;1;300;900;900;900;1189641421;0.000000e+00;1.044011e-02;4.651251e+01
9;dgetrf;64;0;1;1;1;300;900;900;900;1025202362;0.000000e+00;1.047492e-02;4.635794e+01
10;dgetrf;64;0;1;1;1;300;1800;1800;1800;1350490027;0.000000e+00;5.401802e-02;7.194602e+01
11;dgetrf;64;0;1;1;1;300;1800;1800;1800;783368690;0.000000e+00;5.089092e-02;7.636689e+01
12;dgetrf;64;0;1;1;1;300;1800;1800;1800;1102520059;0.000000e+00;3.918695e-02;9.917539e+01
13;dgetrf;64;0;1;1;1;300;1800;1800;1800;2044897763;0.000000e+00;3.415394e-02;1.137901e+02
14;dgetrf;64;0;1;1;1;300;1800;1800;1800;1967513926;0.000000e+00;2.648687e-02;1.467286e+02
15;dgetrf;64;0;1;1;1;300;1800;1800;1800;1365180540;0.000000e+00;2.570415e-02;1.511967e+02
16;dgetrf;64;0;1;1;1;300;1800;1800;1800;1540383426;0.000000e+00;4.185605e-02;9.285113e+01
17;dgetrf;64;0;1;1;1;300;1800;1800;1800;304089172;0.000000e+00;2.556491e-02;1.520202e+02
18;dgetrf;64;0;1;1;1;300;1800;1800;1800;1303455736;0.000000e+00;2.552700e-02;1.522459e+02
19;dgetrf;64;0;1;1;1;300;1800;1800;1800;35005211;0.000000e+00;2.547908e-02;1.525323e+02
20;dgetrf;64;0;1;1;1;300;2700;2700;2700;521595368;0.000000e+00;4.194283e-02;3.127675e+02
21;dgetrf;64;0;1;1;1;300;2700;2700;2700;294702567;0.000000e+00;4.944491e-02;2.653126e+02
22;dgetrf;64;0;1;1;1;300;2700;2700;2700;1726956429;0.000000e+00;4.818892e-02;2.722276e+02
23;dgetrf;64;0;1;1;1;300;2700;2700;2700;336465782;0.000000e+00;4.098296e-02;3.200930e+02
24;dgetrf;64;0;1;1;1;300;2700;2700;2700;861021530;0.000000e+00;4.621911e-02;2.838297e+02
25;dgetrf;64;0;1;1;1;300;2700;2700;2700;278722862;0.000000e+00;4.329181e-02;3.030217e+02
26;dgetrf;64;0;1;1;1;300;2700;2700;2700;233665123;0.000000e+00;4.653883e-02;2.818798e+02
27;dgetrf;64;0;1;1;1;300;2700;2700;2700;2145174067;0.000000e+00;4.099298e-02;3.200148e+02
28;dgetrf;64;0;1;1;1;300;2700;2700;2700;468703135;0.000000e+00;4.758406e-02;2.756881e+02
29;dgetrf;64;0;1;1;1;300;2700;2700;2700;1101513929;0.000000e+00;4.221892e-02;3.107222e+02
30;dgetrf;64;0;1;1;1;300;3600;3600;3600;1801979802;0.000000e+00;6.031299e-02;5.156024e+02
31;dgetrf;64;0;1;1;1;300;3600;3600;3600;1315634022;0.000000e+00;6.204295e-02;5.012257e+02
32;dgetrf;64;0;1;1;1;300;3600;3600;3600;635723058;0.000000e+00;6.134105e-02;5.069611e+02
33;dgetrf;64;0;1;1;1;300;3600;3600;3600;1369133069;0.000000e+00;5.903697e-02;5.267466e+02
34;dgetrf;64;0;1;1;1;300;3600;3600;3600;1125898167;0.000000e+00;6.248617e-02;4.976705e+02
35;dgetrf;64;0;1;1;1;300;3600;3600;3600;1059961393;0.000000e+00;6.277704e-02;4.953646e+02
36;dgetrf;64;0;1;1;1;300;3600;3600;3600;2089018456;0.000000e+00;6.323195e-02;4.918008e+02
37;dgetrf;64;0;1;1;1;300;3600;3600;3600;628175011;0.000000e+00;6.100202e-02;5.097786e+02
38;dgetrf;64;0;1;1;1;300;3600;3600;3600;1656478042;0.000000e+00;6.042814e-02;5.146199e+02
39;dgetrf;64;0;1;1;1;300;3600;3600;3600;1131176229;0.000000e+00;6.176400e-02;5.034894e+02
40;dgetrf;64;0;1;1;1;300;4500;4500;4500;1653377373;0.000000e+00;8.675098e-02;7.001636e+02
41;dgetrf;64;0;1;1;1;300;4500;4500;4500;859484421;0.000000e+00;8.454204e-02;7.184577e+02
42;dgetrf;64;0;1;1;1;300;4500;4500;4500;1914544919;0.000000e+00;8.615994e-02;7.049665e+02
43;dgetrf;64;0;1;1;1;300;4500;4500;4500;608413784;0.000000e+00;8.533883e-02;7.117496e+02
44;dgetrf;64;0;1;1;1;300;4500;4500;4500;756898537;0.000000e+00;8.612204e-02;7.052769e+02
45;dgetrf;64;0;1;1;1;300;4500;4500;4500;1734575198;0.000000e+00;9.114909e-02;6.663794e+02
46;dgetrf;64;0;1;1;1;300;4500;4500;4500;1973594324;0.000000e+00;8.457589e-02;7.181701e+02
47;dgetrf;64;0;1;1;1;300;4500;4500;4500;149798315;0.000000e+00;8.550811e-02;7.103406e+02
48;dgetrf;64;0;1;1;1;300;4500;4500;4500;2038664370;0.000000e+00;8.800006e-02;6.902254e+02
49;dgetrf;64;0;1;1;1;300;4500;4500;4500;1129566413;0.000000e+00;8.778214e-02;6.919389e+02
50;dgetrf;64;0;1;1;1;300;5400;5400;5400;184803526;0.000000e+00;1.209559e-01;8.677657e+02
51;dgetrf;64;0;1;1;1;300;5400;5400;5400;412776091;0.000000e+00;1.242042e-01;8.450717e+02
52;dgetrf;64;0;1;1;1;300;5400;5400;5400;1424268980;0.000000e+00;1.205761e-01;8.704991e+02
53;dgetrf;64;0;1;1;1;300;5400;5400;5400;1911759956;0.000000e+00;1.257691e-01;8.345563e+02
54;dgetrf;64;0;1;1;1;300;5400;5400;5400;749241873;0.000000e+00;1.238098e-01;8.477634e+02
55;dgetrf;64;0;1;1;1;300;5400;5400;5400;137806862;0.000000e+00;1.234388e-01;8.503112e+02
56;dgetrf;64;0;1;1;1;300;5400;5400;5400;42999170;0.000000e+00;1.221581e-01;8.592264e+02
57;dgetrf;64;0;1;1;1;300;5400;5400;5400;982906996;0.000000e+00;1.262169e-01;8.315957e+02
58;dgetrf;64;0;1;1;1;300;5400;5400;5400;135497281;0.000000e+00;1.203110e-01;8.724174e+02
59;dgetrf;64;0;1;1;1;300;5400;5400;5400;511702305;0.000000e+00;1.201589e-01;8.735218e+02
60;dgetrf;64;0;1;1;1;300;6300;6300;6300;2084420925;0.000000e+00;1.725571e-01;9.659304e+02
61;dgetrf;64;0;1;1;1;300;6300;6300;6300;1937477084;0.000000e+00;1.669140e-01;9.985871e+02
62;dgetrf;64;0;1;1;1;300;6300;6300;6300;1827336327;0.000000e+00;1.700408e-01;9.802242e+02
63;dgetrf;64;0;1;1;1;300;6300;6300;6300;572660336;0.000000e+00;1.682079e-01;9.909058e+02
64;dgetrf;64;0;1;1;1;300;6300;6300;6300;1159126505;0.000000e+00;1.690071e-01;9.862201e+02
65;dgetrf;64;0;1;1;1;300;6300;6300;6300;805750846;0.000000e+00;1.686220e-01;9.884721e+02
66;dgetrf;64;0;1;1;1;300;6300;6300;6300;1632621729;0.000000e+00;1.718512e-01;9.698984e+02
67;dgetrf;64;0;1;1;1;300;6300;6300;6300;1100661313;0.000000e+00;1.736820e-01;9.596745e+02
68;dgetrf;64;0;1;1;1;300;6300;6300;6300;1433925857;0.000000e+00;1.699209e-01;9.809161e+02
69;dgetrf;64;0;1;1;1;300;6300;6300;6300;1141616124;0.000000e+00;1.755290e-01;9.495762e+02
70;dgetrf;64;0;1;1;1;300;7200;7200;7200;84353895;0.000000e+00;2.388601e-01;1.041639e+03
71;dgetrf;64;0;1;1;1;300;7200;7200;7200;939819582;0.000000e+00;2.353580e-01;1.057139e+03
72;dgetrf;64;0;1;1;1;300;7200;7200;7200;2001100545;0.000000e+00;2.325442e-01;1.069930e+03
73;dgetrf;64;0;1;1;1;300;7200;7200;7200;1998898814;0.000000e+00;2.344019e-01;1.061451e+03
74;dgetrf;64;0;1;1;1;300;7200;7200;7200;1548233367;0.000000e+00;2.400060e-01;1.036666e+03
75;dgetrf;64;0;1;1;1;300;7200;7200;7200;610515434;0.000000e+00;2.315581e-01;1.074487e+03
76;dgetrf;64;0;1;1;1;300;7200;7200;7200;1585990364;0.000000e+00;2.434170e-01;1.022139e+03
77;dgetrf;64;0;1;1;1;300;7200;7200;7200;1374344043;0.000000e+00;2.361851e-01;1.053437e+03
78;dgetrf;64;0;1;1;1;300;7200;7200;7200;760313750;0.000000e+00;2.371840e-01;1.049000e+03
79;dgetrf;64;0;1;1;1;300;7200;7200;7200;1477171087;0.000000e+00;2.378399e-01;1.046107e+03
80;dgetrf;64;0;1;1;1;300;8100;8100;8100;356426808;0.000000e+00;3.135211e-01;1.129944e+03
81;dgetrf;64;0;1;1;1;300;8100;8100;8100;945117276;0.000000e+00;3.112519e-01;1.138182e+03
82;dgetrf;64;0;1;1;1;300;8100;8100;8100;1889947178;0.000000e+00;3.195710e-01;1.108552e+03
83;dgetrf;64;0;1;1;1;300;8100;8100;8100;1780695788;0.000000e+00;3.128691e-01;1.132299e+03
84;dgetrf;64;0;1;1;1;300;8100;8100;8100;709393584;0.000000e+00;3.150768e-01;1.124365e+03
85;dgetrf;64;0;1;1;1;300;8100;8100;8100;491705403;0.000000e+00;3.127201e-01;1.132838e+03
86;dgetrf;64;0;1;1;1;300;8100;8100;8100;1918502651;0.000000e+00;3.298008e-01;1.074167e+03
87;dgetrf;64;0;1;1;1;300;8100;8100;8100;752392754;0.000000e+00;3.192990e-01;1.109497e+03
88;dgetrf;64;0;1;1;1;300;8100;8100;8100;1474612399;0.000000e+00;3.188970e-01;1.110895e+03
89;dgetrf;64;0;1;1;1;300;8100;8100;8100;2053999932;0.000000e+00;3.105202e-01;1.140864e+03
90;dgetrf;64;0;1;1;1;300;9000;9000;9000;1264095060;0.000000e+00;4.173791e-01;1.164312e+03
91;dgetrf;64;0;1;1;1;300;9000;9000;9000;1411549676;0.000000e+00;4.181299e-01;1.162221e+03
92;dgetrf;64;0;1;1;1;300;9000;9000;9000;1843993368;0.000000e+00;4.169209e-01;1.165592e+03
93;dgetrf;64;0;1;1;1;300;9000;9000;9000;943947739;0.000000e+00;4.132602e-01;1.175916e+03
94;dgetrf;64;0;1;1;1;300;9000;9000;9000;1984210012;0.000000e+00;4.171181e-01;1.165041e+03
95;dgetrf;64;0;1;1;1;300;9000;9000;9000;855636226;0.000000e+00;4.273269e-01;1.137208e+03
96;dgetrf;64;0;1;1;1;300;9000;9000;9000;1749698586;0.000000e+00;4.259191e-01;1.140967e+03
97;dgetrf;64;0;1;1;1;300;9000;9000;9000;1469348094;0.000000e+00;4.149480e-01;1.171134e+03
98;dgetrf;64;0;1;1;1;300;9000;9000;9000;1956297539;0.000000e+00;4.147732e-01;1.171627e+03
99;dgetrf;64;0;1;1;1;300;9000;9000;9000;1036140795;0.000000e+00;4.169822e-01;1.165420e+03
0;dgetrf;64;0;1;1;1;300;9900;9900;9900;846930886;0.000000e+00;4.775839e-01;1.354353e+03
1;dgetrf;64;0;1;1;1;300;9900;9900;9900;1681692777;0.000000e+00;5.022001e-01;1.287967e+03
2;dgetrf;64;0;1;1;1;300;9900;9900;9900;1714636915;0.000000e+00;5.180459e-01;1.248571e+03
3;dgetrf;64;0;1;1;1;300;9900;9900;9900;1957747793;0.000000e+00;5.426328e-01;1.191998e+03
4;dgetrf;64;0;1;1;1;300;9900;9900;9900;424238335;0.000000e+00;5.415628e-01;1.194353e+03
5;dgetrf;64;0;1;1;1;300;9900;9900;9900;719885386;0.000000e+00;5.435288e-01;1.190033e+03
6;dgetrf;64;0;1;1;1;300;9900;9900;9900;1649760492;0.000000e+00;5.478210e-01;1.180709e+03
7;dgetrf;64;0;1;1;1;300;9900;9900;9900;596516649;0.000000e+00;5.438221e-01;1.189391e+03
8;dgetrf;64;0;1;1;1;300;9900;9900;9900;1189641421;0.000000e+00;5.428848e-01;1.191444e+03
9;dgetrf;64;0;1;1;1;300;9900;9900;9900;1025202362;0.000000e+00;5.440121e-01;1.188975e+03
10;dgetrf;64;0;1;1;1;300;12300;12300;12300;1350490027;0.000000e+00;9.180522e-01;1.351233e+03
11;dgetrf;64;0;1;1;1;300;12300;12300;12300;783368690;0.000000e+00;9.583972e-01;1.294351e+03
12;dgetrf;64;0;1;1;1;300;12300;12300;12300;1102520059;0.000000e+00;9.872940e-01;1.256467e+03
13;dgetrf;64;0;1;1;1;300;12300;12300;12300;2044897763;0.000000e+00;9.950471e-01;1.246677e+03
14;dgetrf;64;0;1;1;1;300;12300;12300;12300;1967513926;0.000000e+00;1.003551e+00;1.236113e+03
15;dgetrf;64;0;1;1;1;300;12300;12300;12300;1365180540;0.000000e+00;1.001075e+00;1.239170e+03
16;dgetrf;64;0;1;1;1;300;12300;12300;12300;1540383426;0.000000e+00;1.013878e+00;1.223522e+03
17;dgetrf;64;0;1;1;1;300;12300;12300;12300;304089172;0.000000e+00;1.009511e+00;1.228815e+03
18;dgetrf;64;0;1;1;1;300;12300;12300;12300;1303455736;0.000000e+00;1.030714e+00;1.203537e+03
19;dgetrf;64;0;1;1;1;300;12300;12300;12300;35005211;0.000000e+00;1.034402e+00;1.199246e+03
20;dgetrf;64;0;1;1;1;300;14700;14700;14700;521595368;0.000000e+00;1.547255e+00;1.368600e+03
21;dgetrf;64;0;1;1;1;300;14700;14700;14700;294702567;0.000000e+00;1.621936e+00;1.305584e+03
22;dgetrf;64;0;1;1;1;300;14700;14700;14700;1726956429;0.000000e+00;1.659388e+00;1.276118e+03
23;dgetrf;64;0;1;1;1;300;14700;14700;14700;336465782;0.000000e+00;1.706431e+00;1.240937e+03
24;dgetrf;64;0;1;1;1;300;14700;14700;14700;861021530;0.000000e+00;1.708104e+00;1.239722e+03
25;dgetrf;64;0;1;1;1;300;14700;14700;14700;278722862;0.000000e+00;1.700958e+00;1.244930e+03
26;dgetrf;64;0;1;1;1;300;14700;14700;14700;233665123;0.000000e+00;1.715394e+00;1.234453e+03
27;dgetrf;64;0;1;1;1;300;14700;14700;14700;2145174067;0.000000e+00;1.713787e+00;1.235611e+03
28;dgetrf;64;0;1;1;1;300;14700;14700;14700;468703135;0.000000e+00;1.718357e+00;1.232325e+03
29;dgetrf;64;0;1;1;1;300;14700;14700;14700;1101513929;0.000000e+00;1.716725e+00;1.233496e+03
30;dgetrf;64;0;1;1;1;300;17100;17100;17100;1801979802;0.000000e+00;2.437666e+00;1.367426e+03
31;dgetrf;64;0;1;1;1;300;17100;17100;17100;1315634022;0.000000e+00;2.552916e+00;1.305694e+03
32;dgetrf;64;0;1;1;1;300;17100;17100;17100;635723058;0.000000e+00;2.633434e+00;1.265772e+03
33;dgetrf;64;0;1;1;1;300;17100;17100;17100;1369133069;0.000000e+00;2.671166e+00;1.247892e+03
34;dgetrf;64;0;1;1;1;300;17100;17100;17100;1125898167;0.000000e+00;2.689861e+00;1.239219e+03
35;dgetrf;64;0;1;1;1;300;17100;17100;17100;1059961393;0.000000e+00;2.684114e+00;1.241873e+03
36;dgetrf;64;0;1;1;1;300;17100;17100;17100;2089018456;0.000000e+00;2.701827e+00;1.233731e+03
37;dgetrf;64;0;1;1;1;300;17100;17100;17100;628175011;0.000000e+00;2.693951e+00;1.237338e+03
38;dgetrf;64;0;1;1;1;300;17100;17100;17100;1656478042;0.000000e+00;2.710096e+00;1.229967e+03
39;dgetrf;64;0;1;1;1;300;17100;17100;17100;1131176229;0.000000e+00;2.725393e+00;1.223063e+03
40;dgetrf;64;0;1;1;1;300;19500;19500;19500;1653377373;0.000000e+00;3.614725e+00;1.367479e+03
41;dgetrf;64;0;1;1;1;300;19500;19500;19500;859484421;0.000000e+00;3.797871e+00;1.301534e+03
42;dgetrf;64;0;1;1;1;300;19500;19500;19500;1914544919;0.000000e+00;3.901459e+00;1.266977e+03
43;dgetrf;64;0;1;1;1;300;19500;19500;19500;608413784;0.000000e+00;3.958223e+00;1.248808e+03
44;dgetrf;64;0;1;1;1;300;19500;19500;19500;756898537;0.000000e+00;4.020297e+00;1.229526e+03
45;dgetrf;64;0;1;1;1;300;19500;19500;19500;1734575198;0.000000e+00;4.029947e+00;1.226582e+03
46;dgetrf;64;0;1;1;1;300;19500;19500;19500;1973594324;0.000000e+00;4.035737e+00;1.224822e+03
47;dgetrf;64;0;1;1;1;300;19500;19500;19500;149798315;0.000000e+00;4.033856e+00;1.225393e+03
48;dgetrf;64;0;1;1;1;300;19500;19500;19500;2038664370;0.000000e+00;4.025290e+00;1.228001e+03
49;dgetrf;64;0;1;1;1;300;19500;19500;19500;1129566413;0.000000e+00;4.065549e+00;1.215841e+03
50;dgetrf;64;0;1;1;1;300;21900;21900;21900;184803526;0.000000e+00;5.183128e+00;1.350934e+03
51;dgetrf;64;0;1;1;1;300;21900;21900;21900;412776091;0.000000e+00;5.342157e+00;1.310719e+03
52;dgetrf;64;0;1;1;1;300;21900;21900;21900;1424268980;0.000000e+00;5.541491e+00;1.263571e+03
53;dgetrf;64;0;1;1;1;300;21900;21900;21900;1911759956;0.000000e+00;5.617391e+00;1.246498e+03
54;dgetrf;64;0;1;1;1;300;21900;21900;21900;749241873;0.000000e+00;5.733884e+00;1.221173e+03
55;dgetrf;64;0;1;1;1;300;21900;21900;21900;137806862;0.000000e+00;5.696559e+00;1.229175e+03
56;dgetrf;64;0;1;1;1;300;21900;21900;21900;42999170;0.000000e+00;5.718542e+00;1.224450e+03
57;dgetrf;64;0;1;1;1;300;21900;21900;21900;982906996;0.000000e+00;5.740199e+00;1.219830e+03
58;dgetrf;64;0;1;1;1;300;21900;21900;21900;135497281;0.000000e+00;5.766052e+00;1.214361e+03
59;dgetrf;64;0;1;1;1;300;21900;21900;21900;511702305;0.000000e+00;5.734556e+00;1.221030e+03
60;dgetrf;64;0;1;1;1;300;24300;24300;24300;2084420925;0.000000e+00;7.101936e+00;1.346906e+03
61;dgetrf;64;0;1;1;1;300;24300;24300;24300;1937477084;0.000000e+00;7.372357e+00;1.297501e+03
62;dgetrf;64;0;1;1;1;300;24300;24300;24300;1827336327;0.000000e+00;7.607421e+00;1.257409e+03
63;dgetrf;64;0;1;1;1;300;24300;24300;24300;572660336;0.000000e+00;7.768421e+00;1.231350e+03
64;dgetrf;64;0;1;1;1;300;24300;24300;24300;1159126505;0.000000e+00;7.810032e+00;1.224789e+03
65;dgetrf;64;0;1;1;1;300;24300;24300;24300;805750846;0.000000e+00;7.861694e+00;1.216741e+03
66;dgetrf;64;0;1;1;1;300;24300;24300;24300;1632621729;0.000000e+00;7.867163e+00;1.215895e+03
67;dgetrf;64;0;1;1;1;300;24300;24300;24300;1100661313;0.000000e+00;7.883663e+00;1.213350e+03
68;dgetrf;64;0;1;1;1;300;24300;24300;24300;1433925857;0.000000e+00;7.895613e+00;1.211514e+03
69;dgetrf;64;0;1;1;1;300;24300;24300;24300;1141616124;0.000000e+00;7.889909e+00;1.212389e+03
70;dgetrf;64;0;1;1;1;300;26700;26700;26700;84353895;0.000000e+00;9.513657e+00;1.333776e+03
71;dgetrf;64;0;1;1;1;300;26700;26700;26700;939819582;0.000000e+00;9.823878e+00;1.291657e+03
72;dgetrf;64;0;1;1;1;300;26700;26700;26700;2001100545;0.000000e+00;1.010346e+01;1.255915e+03
73;dgetrf;64;0;1;1;1;300;26700;26700;26700;1998898814;0.000000e+00;1.027371e+01;1.235103e+03
74;dgetrf;64;0;1;1;1;300;26700;26700;26700;1548233367;0.000000e+00;1.031961e+01;1.229609e+03
75;dgetrf;64;0;1;1;1;300;26700;26700;26700;610515434;0.000000e+00;1.041034e+01;1.218893e+03
76;dgetrf;64;0;1;1;1;300;26700;26700;26700;1585990364;0.000000e+00;1.039811e+01;1.220326e+03
77;dgetrf;64;0;1;1;1;300;26700;26700;26700;1374344043;0.000000e+00;1.044676e+01;1.214643e+03
78;dgetrf;64;0;1;1;1;300;26700;26700;26700;760313750;0.000000e+00;1.042836e+01;1.216786e+03
79;dgetrf;64;0;1;1;1;300;26700;26700;26700;1477171087;0.000000e+00;1.041778e+01;1.218021e+03
80;dgetrf;64;0;1;1;1;300;29100;29100;29100;356426808;0.000000e+00;1.230103e+01;1.335472e+03
81;dgetrf;64;0;1;1;1;300;29100;29100;29100;945117276;0.000000e+00;1.263534e+01;1.300138e+03
82;dgetrf;64;0;1;1;1;300;29100;29100;29100;1889947178;0.000000e+00;1.295828e+01;1.267737e+03
83;dgetrf;64;0;1;1;1;300;29100;29100;29100;1780695788;0.000000e+00;1.311162e+01;1.252911e+03
84;dgetrf;64;0;1;1;1;300;29100;29100;29100;709393584;0.000000e+00;1.300379e+01;1.263300e+03
85;dgetrf;64;0;1;1;1;300;29100;29100;29100;491705403;0.000000e+00;1.318429e+01;1.246005e+03
86;dgetrf;64;0;1;1;1;300;29100;29100;29100;1918502651;0.000000e+00;1.316601e+01;1.247735e+03
87;dgetrf;64;0;1;1;1;300;29100;29100;29100;752392754;0.000000e+00;1.320798e+01;1.243770e+03
88;dgetrf;64;0;1;1;1;300;29100;29100;29100;1474612399;0.000000e+00;1.321172e+01;1.243418e+03
89;dgetrf;64;0;1;1;1;300;29100;29100;29100;2053999932;0.000000e+00;1.323106e+01;1.241601e+03
