Id;Function;threads;gpus;P;Q;mtxfmt;nb;norm;m;n;lda;seedA;tsub;time;gflops
0;dlange;64;0;1;1;0;1024;171;1024;1024;1024;846930886;0.000000e+00;2.475023e-03;3.389305e+00
1;dlange;64;0;1;1;0;1024;171;1024;1024;1024;1681692777;0.000000e+00;1.668930e-03;5.026339e+00
2;dlange;64;0;1;1;0;1024;171;1024;1024;1024;1714636915;0.000000e+00;2.192020e-03;3.826884e+00
3;dlange;64;0;1;1;0;1024;171;1024;1024;1024;1957747793;0.000000e+00;2.171040e-03;3.863867e+00
4;dlange;64;0;1;1;0;1024;171;1024;1024;1024;424238335;0.000000e+00;2.451897e-03;3.421273e+00
5;dlange;64;0;1;1;0;1024;171;1024;1024;1024;719885386;0.000000e+00;2.431154e-03;3.450463e+00
6;dlange;64;0;1;1;0;1024;171;1024;1024;1024;1649760492;0.000000e+00;2.421856e-03;3.463711e+00
7;dlange;64;0;1;1;0;1024;171;1024;1024;1024;596516649;0.000000e+00;2.425909e-03;3.457924e+00
8;dlange;64;0;1;1;0;1024;171;1024;1024;1024;1189641421;0.000000e+00;2.418995e-03;3.467807e+00
9;dlange;64;0;1;1;0;1024;171;1024;1024;1024;1025202362;0.000000e+00;1.718044e-03;4.882649e+00
10;dlange;64;0;1;1;0;1024;171;2048;2048;2048;1350490027;0.000000e+00;6.597996e-03;5.085549e+00
11;dlange;64;0;1;1;0;1024;171;2048;2048;2048;783368690;0.000000e+00;2.525091e-03;1.328840e+01
12;dlange;64;0;1;1;0;1024;171;2048;2048;2048;1102520059;0.000000e+00;2.493143e-03;1.345869e+01
13;dlange;64;0;1;1;0;1024;171;2048;2048;2048;2044897763;0.000000e+00;2.449989e-03;1.369575e+01
14;dlange;64;0;1;1;0;1024;171;2048;2048;2048;1967513926;0.000000e+00;2.470016e-03;1.358470e+01
15;dlange;64;0;1;1;0;1024;171;2048;2048;2048;1365180540;0.000000e+00;2.448082e-03;1.370642e+01
16;dlange;64;0;1;1;0;1024;171;2048;2048;2048;1540383426;0.000000e+00;2.499819e-03;1.342275e+01
17;dlange;64;0;1;1;0;1024;171;2048;2048;2048;304089172;0.000000e+00;2.480030e-03;1.352985e+01
18;dlange;64;0;1;1;0;1024;171;2048;2048;2048;1303455736;0.000000e+00;1.953125e-03;1.717987e+01
19;dlange;64;0;1;1;0;1024;171;2048;2048;2048;35005211;0.000000e+00;1.004195e-02;3.341425e+00
20;dlange;64;0;1;1;0;1024;171;3072;3072;3072;521595368;0.000000e+00;2.920866e-03;2.584763e+01
21;dlange;64;0;1;1;0;1024;171;3072;3072;3072;294702567;0.000000e+00;2.763033e-03;2.732413e+01
22;dlange;64;0;1;1;0;1024;171;3072;3072;3072;1726956429;0.000000e+00;1.870871e-03;4.035419e+01
23;dlange;64;0;1;1;0;1024;171;3072;3072;3072;336465782;0.000000e+00;7.598877e-03;9.935346e+00
24;dlange;64;0;1;1;0;1024;171;3072;3072;3072;861021530;0.000000e+00;7.678986e-03;9.831699e+00
25;dlange;64;0;1;1;0;1024;171;3072;3072;3072;278722862;0.000000e+00;4.733086e-03;1.595100e+01
26;dlange;64;0;1;1;0;1024;171;3072;3072;3072;233665123;0.000000e+00;1.011705e-02;7.462397e+00
27;dlange;64;0;1;1;0;1024;171;3072;3072;3072;2145174067;0.000000e+00;2.565861e-03;2.942384e+01
28;dlange;64;0;1;1;0;1024;171;3072;3072;3072;468703135;0.000000e+00;2.393961e-03;3.153663e+01
29;dlange;64;0;1;1;0;1024;171;3072;3072;3072;1101513929;0.000000e+00;6.074905e-03;1.242776e+01
30;dlange;64;0;1;1;0;1024;171;4096;4096;4096;1801979802;0.000000e+00;1.044917e-02;1.284482e+01
31;dlange;64;0;1;1;0;1024;171;4096;4096;4096;1315634022;0.000000e+00;2.871990e-03;4.673335e+01
32;dlange;64;0;1;1;0;1024;171;4096;4096;4096;635723058;0.000000e+00;4.085064e-03;3.285572e+01
33;dlange;64;0;1;1;0;1024;171;4096;4096;4096;1369133069;0.000000e+00;3.839970e-03;3.495281e+01
34;dlange;64;0;1;1;0;1024;171;4096;4096;4096;1125898167;0.000000e+00;4.505873e-03;2.978729e+01
35;dlange;64;0;1;1;0;1024;171;4096;4096;4096;1059961393;0.000000e+00;1.247191e-02;1.076160e+01
36;dlange;64;0;1;1;0;1024;171;4096;4096;4096;2089018456;0.000000e+00;3.213882e-03;4.176187e+01
37;dlange;64;0;1;1;0;1024;171;4096;4096;4096;628175011;0.000000e+00;3.866911e-03;3.470929e+01
38;dlange;64;0;1;1;0;1024;171;4096;4096;4096;1656478042;0.000000e+00;3.353119e-03;4.002773e+01
39;dlange;64;0;1;1;0;1024;171;4096;4096;4096;1131176229;0.000000e+00;3.003836e-03;4.468211e+01
40;dlange;64;0;1;1;0;1024;171;5120;5120;5120;1653377373;0.000000e+00;5.097151e-03;4.114361e+01
41;dlange;64;0;1;1;0;1024;171;5120;5120;5120;859484421;0.000000e+00;4.085064e-03;5.133707e+01
42;dlange;64;0;1;1;0;1024;171;5120;5120;5120;1914544919;0.000000e+00;4.317045e-03;4.857841e+01
43;dlange;64;0;1;1;0;1024;171;5120;5120;5120;608413784;0.000000e+00;4.271030e-03;4.910178e+01
44;dlange;64;0;1;1;0;1024;171;5120;5120;5120;756898537;0.000000e+00;4.415989e-03;4.748997e+01
45;dlange;64;0;1;1;0;1024;171;5120;5120;5120;1734575198;0.000000e+00;4.729033e-03;4.434632e+01
46;dlange;64;0;1;1;0;1024;171;5120;5120;5120;1973594324;0.000000e+00;3.891945e-03;5.388442e+01
47;dlange;64;0;1;1;0;1024;171;5120;5120;5120;149798315;0.000000e+00;4.816055e-03;4.354501e+01
48;dlange;64;0;1;1;0;1024;171;5120;5120;5120;2038664370;0.000000e+00;4.101038e-03;5.113710e+01
49;dlange;64;0;1;1;0;1024;171;5120;5120;5120;1129566413;0.000000e+00;4.372835e-03;4.795863e+01
0;dlange;64;0;1;1;0;1024;171;6144;6144;6144;846930886;0.000000e+00;1.124287e-02;2.686058e+01
1;dlange;64;0;1;1;0;1024;171;6144;6144;6144;1681692777;0.000000e+00;9.916067e-03;3.045460e+01
2;dlange;64;0;1;1;0;1024;171;6144;6144;6144;1714636915;0.000000e+00;2.296495e-02;1.315003e+01
3;dlange;64;0;1;1;0;1024;171;6144;6144;6144;1957747793;0.000000e+00;5.792141e-03;5.213787e+01
4;dlange;64;0;1;1;0;1024;171;6144;6144;6144;424238335;0.000000e+00;7.342100e-03;4.113127e+01
5;dlange;64;0;1;1;0;1024;171;6144;6144;6144;719885386;0.000000e+00;5.779982e-03;5.224755e+01
6;dlange;64;0;1;1;0;1024;171;6144;6144;6144;1649760492;0.000000e+00;5.834103e-03;5.176287e+01
7;dlange;64;0;1;1;0;1024;171;6144;6144;6144;596516649;0.000000e+00;6.207943e-03;4.864573e+01
8;dlange;64;0;1;1;0;1024;171;6144;6144;6144;1189641421;0.000000e+00;5.978823e-03;5.050993e+01
9;dlange;64;0;1;1;0;1024;171;6144;6144;6144;1025202362;0.000000e+00;5.610943e-03;5.382159e+01
10;dlange;64;0;1;1;0;1024;171;8192;8192;8192;1350490027;0.000000e+00;1.457310e-02;3.683986e+01
11;dlange;64;0;1;1;0;1024;171;8192;8192;8192;783368690;0.000000e+00;6.356001e-03;8.446678e+01
12;dlange;64;0;1;1;0;1024;171;8192;8192;8192;1102520059;0.000000e+00;7.051945e-03;7.613090e+01
13;dlange;64;0;1;1;0;1024;171;8192;8192;8192;2044897763;0.000000e+00;6.478071e-03;8.287512e+01
14;dlange;64;0;1;1;0;1024;171;8192;8192;8192;1967513926;0.000000e+00;6.261110e-03;8.574692e+01
15;dlange;64;0;1;1;0;1024;171;8192;8192;8192;1365180540;0.000000e+00;6.442070e-03;8.333826e+01
16;dlange;64;0;1;1;0;1024;171;8192;8192;8192;1540383426;0.000000e+00;6.570101e-03;8.171426e+01
17;dlange;64;0;1;1;0;1024;171;8192;8192;8192;304089172;0.000000e+00;6.309032e-03;8.509560e+01
18;dlange;64;0;1;1;0;1024;171;8192;8192;8192;1303455736;0.000000e+00;6.171942e-03;8.698574e+01
19;dlange;64;0;1;1;0;1024;171;8192;8192;8192;35005211;0.000000e+00;6.102085e-03;8.798155e+01
20;dlange;64;0;1;1;0;1024;171;10240;10240;10240;521595368;0.000000e+00;8.319855e-03;1.008264e+02
21;dlange;64;0;1;1;0;1024;171;10240;10240;10240;294702567;0.000000e+00;8.625031e-03;9.725888e+01
22;dlange;64;0;1;1;0;1024;171;10240;10240;10240;1726956429;0.000000e+00;8.309841e-03;1.009479e+02
23;dlange;64;0;1;1;0;1024;171;10240;10240;10240;336465782;0.000000e+00;8.568048e-03;9.790570e+01
24;dlange;64;0;1;1;0;1024;171;10240;10240;10240;861021530;0.000000e+00;8.852005e-03;9.476506e+01
25;dlange;64;0;1;1;0;1024;171;10240;10240;10240;278722862;0.000000e+00;8.383989e-03;1.000551e+02
26;dlange;64;0;1;1;0;1024;171;10240;10240;10240;233665123;0.000000e+00;8.823156e-03;9.507491e+01
27;dlange;64;0;1;1;0;1024;171;10240;10240;10240;2145174067;0.000000e+00;8.782148e-03;9.551886e+01
28;dlange;64;0;1;1;0;1024;171;10240;10240;10240;468703135;0.000000e+00;8.493900e-03;9.876038e+01
29;dlange;64;0;1;1;0;1024;171;10240;10240;10240;1101513929;0.000000e+00;8.326054e-03;1.007513e+02
30;dlange;64;0;1;1;0;1024;171;12288;12288;12288;1801979802;0.000000e+00;1.220608e-02;9.896378e+01
31;dlange;64;0;1;1;0;1024;171;12288;12288;12288;1315634022;0.000000e+00;1.132798e-02;1.066350e+02
32;dlange;64;0;1;1;0;1024;171;12288;12288;12288;635723058;0.000000e+00;1.121902e-02;1.076706e+02
33;dlange;64;0;1;1;0;1024;171;12288;12288;12288;1369133069;0.000000e+00;1.111388e-02;1.086893e+02
34;dlange;64;0;1;1;0;1024;171;12288;12288;12288;1125898167;0.000000e+00;1.132917e-02;1.066238e+02
35;dlange;64;0;1;1;0;1024;171;12288;12288;12288;1059961393;0.000000e+00;1.126218e-02;1.072581e+02
36;dlange;64;0;1;1;0;1024;171;12288;12288;12288;2089018456;0.000000e+00;1.140594e-02;1.059061e+02
37;dlange;64;0;1;1;0;1024;171;12288;12288;12288;628175011;0.000000e+00;1.105595e-02;1.092588e+02
38;dlange;64;0;1;1;0;1024;171;12288;12288;12288;1656478042;0.000000e+00;1.114202e-02;1.084148e+02
39;dlange;64;0;1;1;0;1024;171;12288;12288;12288;1131176229;0.000000e+00;1.143098e-02;1.056742e+02
40;dlange;64;0;1;1;0;1024;171;14336;14336;14336;1653377373;0.000000e+00;1.463008e-02;1.123827e+02
41;dlange;64;0;1;1;0;1024;171;14336;14336;14336;859484421;0.000000e+00;1.414919e-02;1.162022e+02
42;dlange;64;0;1;1;0;1024;171;14336;14336;14336;1914544919;0.000000e+00;1.393390e-02;1.179977e+02
43;dlange;64;0;1;1;0;1024;171;14336;14336;14336;608413784;0.000000e+00;1.447892e-02;1.135559e+02
44;dlange;64;0;1;1;0;1024;171;14336;14336;14336;756898537;0.000000e+00;1.381588e-02;1.190056e+02
45;dlange;64;0;1;1;0;1024;171;14336;14336;14336;1734575198;0.000000e+00;1.381493e-02;1.190138e+02
46;dlange;64;0;1;1;0;1024;171;14336;14336;14336;1973594324;0.000000e+00;1.405883e-02;1.169491e+02
47;dlange;64;0;1;1;0;1024;171;14336;14336;14336;149798315;0.000000e+00;1.392889e-02;1.180401e+02
48;dlange;64;0;1;1;0;1024;171;14336;14336;14336;2038664370;0.000000e+00;1.395512e-02;1.178182e+02
49;dlange;64;0;1;1;0;1024;171;14336;14336;14336;1129566413;0.000000e+00;1.389718e-02;1.183094e+02
50;dlange;64;0;1;1;0;1024;171;16384;16384;16384;184803526;0.000000e+00;1.798391e-02;1.194114e+02
51;dlange;64;0;1;1;0;1024;171;16384;16384;16384;412776091;0.000000e+00;1.743317e-02;1.231838e+02
52;dlange;64;0;1;1;0;1024;171;16384;16384;16384;1424268980;0.000000e+00;1.764512e-02;1.217041e+02
53;dlange;64;0;1;1;0;1024;171;16384;16384;16384;1911759956;0.000000e+00;1.746607e-02;1.229517e+02
54;dlange;64;0;1;1;0;1024;171;16384;16384;16384;749241873;0.000000e+00;1.730895e-02;1.240678e+02
55;dlange;64;0;1;1;0;1024;171;16384;16384;16384;137806862;0.000000e+00;1.776290e-02;1.208971e+02
56;dlange;64;0;1;1;0;1024;171;16384;16384;16384;42999170;0.000000e+00;1.761913e-02;1.218836e+02
57;dlange;64;0;1;1;0;1024;171;16384;16384;16384;982906996;0.000000e+00;1.759100e-02;1.220785e+02
58;dlange;64;0;1;1;0;1024;171;16384;16384;16384;135497281;0.000000e+00;1.753497e-02;1.224686e+02
59;dlange;64;0;1;1;0;1024;171;16384;16384;16384;511702305;0.000000e+00;1.754713e-02;1.223838e+02
60;dlange;64;0;1;1;0;1024;171;18432;18432;18432;2084420925;0.000000e+00;2.284503e-02;1.189716e+02
61;dlange;64;0;1;1;0;1024;171;18432;18432;18432;1937477084;0.000000e+00;2.132416e-02;1.274568e+02
62;dlange;64;0;1;1;0;1024;171;18432;18432;18432;1827336327;0.000000e+00;2.141595e-02;1.269105e+02
63;dlange;64;0;1;1;0;1024;171;18432;18432;18432;572660336;0.000000e+00;2.162290e-02;1.256959e+02
64;dlange;64;0;1;1;0;1024;171;18432;18432;18432;1159126505;0.000000e+00;2.130198e-02;1.275895e+02
65;dlange;64;0;1;1;0;1024;171;18432;18432;18432;805750846;0.000000e+00;2.139592e-02;1.270293e+02
66;dlange;64;0;1;1;0;1024;171;18432;18432;18432;1632621729;0.000000e+00;2.141213e-02;1.269331e+02
67;dlange;64;0;1;1;0;1024;171;18432;18432;18432;1100661313;0.000000e+00;2.141690e-02;1.269049e+02
68;dlange;64;0;1;1;0;1024;171;18432;18432;18432;1433925857;0.000000e+00;2.093983e-02;1.297962e+02
69;dlange;64;0;1;1;0;1024;171;18432;18432;18432;1141616124;0.000000e+00;2.154803e-02;1.261326e+02
70;dlange;64;0;1;1;0;1024;171;20480;20480;20480;84353895;0.000000e+00;2.693200e-02;1.245894e+02
71;dlange;64;0;1;1;0;1024;171;20480;20480;20480;939819582;0.000000e+00;2.592707e-02;1.294185e+02
72;dlange;64;0;1;1;0;1024;171;20480;20480;20480;2001100545;0.000000e+00;2.601290e-02;1.289915e+02
73;dlange;64;0;1;1;0;1024;171;20480;20480;20480;1998898814;0.000000e+00;2.603006e-02;1.289065e+02
74;dlange;64;0;1;1;0;1024;171;20480;20480;20480;1548233367;0.000000e+00;2.545595e-02;1.318137e+02
75;dlange;64;0;1;1;0;1024;171;20480;20480;20480;610515434;0.000000e+00;2.550888e-02;1.315402e+02
76;dlange;64;0;1;1;0;1024;171;20480;20480;20480;1585990364;0.000000e+00;2.636099e-02;1.272882e+02
77;dlange;64;0;1;1;0;1024;171;20480;20480;20480;1374344043;0.000000e+00;2.623296e-02;1.279094e+02
78;dlange;64;0;1;1;0;1024;171;20480;20480;20480;760313750;0.000000e+00;2.538300e-02;1.321926e+02
79;dlange;64;0;1;1;0;1024;171;20480;20480;20480;1477171087;0.000000e+00;2.550316e-02;1.315697e+02
80;dlange;64;0;1;1;0;1024;171;22528;22528;22528;356426808;0.000000e+00;3.253698e-02;1.247837e+02
81;dlange;64;0;1;1;0;1024;171;22528;22528;22528;945117276;0.000000e+00;3.128219e-02;1.297891e+02
82;dlange;64;0;1;1;0;1024;171;22528;22528;22528;1889947178;0.000000e+00;3.017998e-02;1.345291e+02
83;dlange;64;0;1;1;0;1024;171;22528;22528;22528;1780695788;0.000000e+00;3.045607e-02;1.333096e+02
84;dlange;64;0;1;1;0;1024;171;22528;22528;22528;709393584;0.000000e+00;3.026700e-02;1.341423e+02
85;dlange;64;0;1;1;0;1024;171;22528;22528;22528;491705403;0.000000e+00;3.004193e-02;1.351473e+02
86;dlange;64;0;1;1;0;1024;171;22528;22528;22528;1918502651;0.000000e+00;3.004289e-02;1.351430e+02
87;dlange;64;0;1;1;0;1024;171;22528;22528;22528;752392754;0.000000e+00;3.024220e-02;1.342523e+02
88;dlange;64;0;1;1;0;1024;171;22528;22528;22528;1474612399;0.000000e+00;3.166580e-02;1.282168e+02
89;dlange;64;0;1;1;0;1024;171;22528;22528;22528;2053999932;0.000000e+00;3.044200e-02;1.333712e+02
90;dlange;64;0;1;1;0;1024;171;24576;24576;24576;1264095060;0.000000e+00;3.686619e-02;1.310642e+02
91;dlange;64;0;1;1;0;1024;171;24576;24576;24576;1411549676;0.000000e+00;3.536701e-02;1.366199e+02
92;dlange;64;0;1;1;0;1024;171;24576;24576;24576;1843993368;0.000000e+00;3.659201e-02;1.320463e+02
93;dlange;64;0;1;1;0;1024;171;24576;24576;24576;943947739;0.000000e+00;3.562617e-02;1.356261e+02
94;dlange;64;0;1;1;0;1024;171;24576;24576;24576;1984210012;0.000000e+00;3.531599e-02;1.368173e+02
95;dlange;64;0;1;1;0;1024;171;24576;24576;24576;855636226;0.000000e+00;3.512883e-02;1.375462e+02
96;dlange;64;0;1;1;0;1024;171;24576;24576;24576;1749698586;0.000000e+00;3.613806e-02;1.337050e+02
97;dlange;64;0;1;1;0;1024;171;24576;24576;24576;1469348094;0.000000e+00;3.681898e-02;1.312323e+02
98;dlange;64;0;1;1;0;1024;171;24576;24576;24576;1956297539;0.000000e+00;3.571892e-02;1.352739e+02
99;dlange;64;0;1;1;0;1024;171;24576;24576;24576;1036140795;0.000000e+00;3.692603e-02;1.308518e+02
100;dlange;64;0;1;1;0;1024;171;26624;26624;26624;463480570;0.000000e+00;4.328394e-02;1.310116e+02
101;dlange;64;0;1;1;0;1024;171;26624;26624;26624;2040651434;0.000000e+00;4.141212e-02;1.369333e+02
102;dlange;64;0;1;1;0;1024;171;26624;26624;26624;1975960378;0.000000e+00;4.105091e-02;1.381382e+02
103;dlange;64;0;1;1;0;1024;171;26624;26624;26624;317097467;0.000000e+00;4.209805e-02;1.347022e+02
104;dlange;64;0;1;1;0;1024;171;26624;26624;26624;1892066601;0.000000e+00;4.168200e-02;1.360467e+02
105;dlange;64;0;1;1;0;1024;171;26624;26624;26624;1376710097;0.000000e+00;4.133797e-02;1.371790e+02
106;dlange;64;0;1;1;0;1024;171;26624;26624;26624;927612902;0.000000e+00;4.198194e-02;1.350747e+02
107;dlange;64;0;1;1;0;1024;171;26624;26624;26624;1330573317;0.000000e+00;4.156303e-02;1.364361e+02
108;dlange;64;0;1;1;0;1024;171;26624;26624;26624;603570492;0.000000e+00;4.177713e-02;1.357369e+02
109;dlange;64;0;1;1;0;1024;171;26624;26624;26624;1687926652;0.000000e+00;4.138398e-02;1.370264e+02
110;dlange;64;0;1;1;0;1024;171;28672;28672;28672;660260756;0.000000e+00;4.873705e-02;1.349419e+02
111;dlange;64;0;1;1;0;1024;171;28672;28672;28672;959997301;0.000000e+00;4.836202e-02;1.359883e+02
112;dlange;64;0;1;1;0;1024;171;28672;28672;28672;485560280;0.000000e+00;4.739499e-02;1.387629e+02
113;dlange;64;0;1;1;0;1024;171;28672;28672;28672;402724286;0.000000e+00;4.742885e-02;1.386639e+02
114;dlange;64;0;1;1;0;1024;171;28672;28672;28672;593209441;0.000000e+00;4.713392e-02;1.395315e+02
115;dlange;64;0;1;1;0;1024;171;28672;28672;28672;1194953865;0.000000e+00;4.924297e-02;1.335555e+02
116;dlange;64;0;1;1;0;1024;171;28672;28672;28672;894429689;0.000000e+00;4.706812e-02;1.397266e+02
117;dlange;64;0;1;1;0;1024;171;28672;28672;28672;364228444;0.000000e+00;4.902101e-02;1.341602e+02
118;dlange;64;0;1;1;0;1024;171;28672;28672;28672;1947346619;0.000000e+00;4.913282e-02;1.338549e+02
119;dlange;64;0;1;1;0;1024;171;28672;28672;28672;221558440;0.000000e+00;4.679203e-02;1.405510e+02
120;dlange;64;0;1;1;0;1024;171;30720;30720;30720;270744729;0.000000e+00;5.638790e-02;1.338895e+02
121;dlange;64;0;1;1;0;1024;171;30720;30720;30720;1063958031;0.000000e+00;5.508900e-02;1.370464e+02
122;dlange;64;0;1;1;0;1024;171;30720;30720;30720;1633108117;0.000000e+00;5.565095e-02;1.356625e+02
123;dlange;64;0;1;1;0;1024;171;30720;30720;30720;2114738097;0.000000e+00;5.851388e-02;1.290249e+02
124;dlange;64;0;1;1;0;1024;171;30720;30720;30720;2007905771;0.000000e+00;5.925894e-02;1.274027e+02
125;dlange;64;0;1;1;0;1024;171;30720;30720;30720;1469834481;0.000000e+00;5.812621e-02;1.298854e+02
126;dlange;64;0;1;1;0;1024;171;30720;30720;30720;822890675;0.000000e+00;5.539393e-02;1.362919e+02
127;dlange;64;0;1;1;0;1024;171;30720;30720;30720;1610120709;0.000000e+00;5.481815e-02;1.377235e+02
128;dlange;64;0;1;1;0;1024;171;30720;30720;30720;791698927;0.000000e+00;5.529308e-02;1.365405e+02
129;dlange;64;0;1;1;0;1024;171;30720;30720;30720;631704567;0.000000e+00;5.644417e-02;1.337560e+02
130;dlange;64;0;1;1;0;1024;171;32768;32768;32768;498777856;0.000000e+00;6.399798e-02;1.342220e+02
131;dlange;64;0;1;1;0;1024;171;32768;32768;32768;1255179497;0.000000e+00;6.417513e-02;1.338515e+02
132;dlange;64;0;1;1;0;1024;171;32768;32768;32768;524872353;0.000000e+00;6.325817e-02;1.357917e+02
133;dlange;64;0;1;1;0;1024;171;32768;32768;32768;327254586;0.000000e+00;6.330204e-02;1.356976e+02
134;dlange;64;0;1;1;0;1024;171;32768;32768;32768;1572276965;0.000000e+00;6.213784e-02;1.382400e+02
135;dlange;64;0;1;1;0;1024;171;32768;32768;32768;269455306;0.000000e+00;6.156492e-02;1.395264e+02
136;dlange;64;0;1;1;0;1024;171;32768;32768;32768;1703964683;0.000000e+00;6.286502e-02;1.366409e+02
137;dlange;64;0;1;1;0;1024;171;32768;32768;32768;352406219;0.000000e+00;6.101298e-02;1.407886e+02
138;dlange;64;0;1;1;0;1024;171;32768;32768;32768;1600028624;0.000000e+00;6.189299e-02;1.387869e+02
139;dlange;64;0;1;1;0;1024;171;32768;32768;32768;160051528;0.000000e+00;6.137800e-02;1.399514e+02
140;dlange;64;0;1;1;0;1024;171;34816;34816;34816;2040332871;0.000000e+00;7.250094e-02;1.337532e+02
141;dlange;64;0;1;1;0;1024;171;34816;34816;34816;112805732;0.000000e+00;7.232213e-02;1.340839e+02
142;dlange;64;0;1;1;0;1024;171;34816;34816;34816;1120048829;0.000000e+00;7.000113e-02;1.385296e+02
143;dlange;64;0;1;1;0;1024;171;34816;34816;34816;378409503;0.000000e+00;7.202983e-02;1.346280e+02
144;dlange;64;0;1;1;0;1024;171;34816;34816;34816;515530019;0.000000e+00;7.341599e-02;1.320861e+02
145;dlange;64;0;1;1;0;1024;171;34816;34816;34816;1713258270;0.000000e+00;7.618809e-02;1.272801e+02
146;dlange;64;0;1;1;0;1024;171;34816;34816;34816;1573363368;0.000000e+00;7.755685e-02;1.250338e+02
147;dlange;64;0;1;1;0;1024;171;34816;34816;34816;1409959708;0.000000e+00;7.565093e-02;1.281839e+02
148;dlange;64;0;1;1;0;1024;171;34816;34816;34816;2077486715;0.000000e+00;7.484889e-02;1.295574e+02
149;dlange;64;0;1;1;0;1024;171;34816;34816;34816;1373226340;0.000000e+00;7.483006e-02;1.295901e+02
150;dlange;64;0;1;1;0;1024;171;36864;36864;36864;1631518149;0.000000e+00;8.490610e-02;1.280430e+02
151;dlange;64;0;1;1;0;1024;171;36864;36864;36864;200747796;0.000000e+00;8.451819e-02;1.286307e+02
152;dlange;64;0;1;1;0;1024;171;36864;36864;36864;289700723;0.000000e+00;8.389592e-02;1.295848e+02
153;dlange;64;0;1;1;0;1024;171;36864;36864;36864;1117142618;0.000000e+00;8.378100e-02;1.297625e+02
154;dlange;64;0;1;1;0;1024;171;36864;36864;36864;168002245;0.000000e+00;8.483887e-02;1.281445e+02
155;dlange;64;0;1;1;0;1024;171;36864;36864;36864;150122846;0.000000e+00;8.457303e-02;1.285473e+02
156;dlange;64;0;1;1;0;1024;171;36864;36864;36864;439493451;0.000000e+00;8.383894e-02;1.296729e+02
157;dlange;64;0;1;1;0;1024;171;36864;36864;36864;990892921;0.000000e+00;8.295989e-02;1.310469e+02
158;dlange;64;0;1;1;0;1024;171;36864;36864;36864;1760243555;0.000000e+00;8.189511e-02;1.327507e+02
159;dlange;64;0;1;1;0;1024;171;36864;36864;36864;1231192379;0.000000e+00;8.317494e-02;1.307081e+02
160;dlange;64;0;1;1;0;1024;171;38912;38912;38912;1622597488;0.000000e+00;9.319115e-02;1.299818e+02
161;dlange;64;0;1;1;0;1024;171;38912;38912;38912;111537764;0.000000e+00;9.278989e-02;1.305439e+02
162;dlange;64;0;1;1;0;1024;171;38912;38912;38912;338888228;0.000000e+00;9.178805e-02;1.319687e+02
163;dlange;64;0;1;1;0;1024;171;38912;38912;38912;2147469841;0.000000e+00;9.025598e-02;1.342088e+02
164;dlange;64;0;1;1;0;1024;171;38912;38912;38912;438792350;0.000000e+00;8.719492e-02;1.389204e+02
165;dlange;64;0;1;1;0;1024;171;38912;38912;38912;1911165193;0.000000e+00;8.472514e-02;1.429700e+02
166;dlange;64;0;1;1;0;1024;171;38912;38912;38912;269441500;0.000000e+00;8.646798e-02;1.400883e+02
167;dlange;64;0;1;1;0;1024;171;38912;38912;38912;2142757034;0.000000e+00;8.532286e-02;1.419684e+02
168;dlange;64;0;1;1;0;1024;171;38912;38912;38912;116087764;0.000000e+00;8.571410e-02;1.413204e+02
169;dlange;64;0;1;1;0;1024;171;38912;38912;38912;1869470124;0.000000e+00;8.942604e-02;1.354544e+02
170;dlange;64;0;1;1;0;1024;171;40960;40960;40960;155324914;0.000000e+00;9.945798e-02;1.349492e+02
171;dlange;64;0;1;1;0;1024;171;40960;40960;40960;8936987;0.000000e+00;9.938812e-02;1.350440e+02
172;dlange;64;0;1;1;0;1024;171;40960;40960;40960;1982275856;0.000000e+00;9.941316e-02;1.350100e+02
173;dlange;64;0;1;1;0;1024;171;40960;40960;40960;1275373743;0.000000e+00;1.005399e-01;1.334969e+02
174;dlange;64;0;1;1;0;1024;171;40960;40960;40960;387346491;0.000000e+00;9.803891e-02;1.369025e+02
175;dlange;64;0;1;1;0;1024;171;40960;40960;40960;350322227;0.000000e+00;1.001709e-01;1.339888e+02
176;dlange;64;0;1;1;0;1024;171;40960;40960;40960;841148365;0.000000e+00;1.001911e-01;1.339617e+02
177;dlange;64;0;1;1;0;1024;171;40960;40960;40960;1960709859;0.000000e+00;9.944916e-02;1.349612e+02
178;dlange;64;0;1;1;0;1024;171;40960;40960;40960;1760281936;0.000000e+00;1.025910e-01;1.308279e+02
179;dlange;64;0;1;1;0;1024;171;40960;40960;40960;771151432;0.000000e+00;9.924889e-02;1.352335e+02
180;dlange;64;0;1;1;0;1024;171;43008;43008;43008;1186452551;0.000000e+00;1.103780e-01;1.340620e+02
181;dlange;64;0;1;1;0;1024;171;43008;43008;43008;1244316437;0.000000e+00;1.101439e-01;1.343470e+02
182;dlange;64;0;1;1;0;1024;171;43008;43008;43008;971899228;0.000000e+00;1.122570e-01;1.318181e+02
183;dlange;64;0;1;1;0;1024;171;43008;43008;43008;1476153275;0.000000e+00;1.117399e-01;1.324281e+02
184;dlange;64;0;1;1;0;1024;171;43008;43008;43008;213975407;0.000000e+00;1.097629e-01;1.348133e+02
185;dlange;64;0;1;1;0;1024;171;43008;43008;43008;1139901474;0.000000e+00;1.126540e-01;1.313536e+02
186;dlange;64;0;1;1;0;1024;171;43008;43008;43008;1626276121;0.000000e+00;1.104550e-01;1.339686e+02
187;dlange;64;0;1;1;0;1024;171;43008;43008;43008;653468858;0.000000e+00;1.043789e-01;1.417671e+02
188;dlange;64;0;1;1;0;1024;171;43008;43008;43008;2130794395;0.000000e+00;1.033030e-01;1.432438e+02
189;dlange;64;0;1;1;0;1024;171;43008;43008;43008;1239036029;0.000000e+00;1.026671e-01;1.441309e+02
190;dlange;64;0;1;1;0;1024;171;45056;45056;45056;1884661237;0.000000e+00;1.137760e-01;1.427397e+02
191;dlange;64;0;1;1;0;1024;171;45056;45056;45056;1605908235;0.000000e+00;1.132150e-01;1.434470e+02
192;dlange;64;0;1;1;0;1024;171;45056;45056;45056;1350573793;0.000000e+00;1.158559e-01;1.401771e+02
193;dlange;64;0;1;1;0;1024;171;45056;45056;45056;76065818;0.000000e+00;1.164391e-01;1.394750e+02
194;dlange;64;0;1;1;0;1024;171;45056;45056;45056;1605894428;0.000000e+00;1.152220e-01;1.409483e+02
195;dlange;64;0;1;1;0;1024;171;45056;45056;45056;1789366143;0.000000e+00;1.195810e-01;1.358104e+02
196;dlange;64;0;1;1;0;1024;171;45056;45056;45056;1987231011;0.000000e+00;1.206470e-01;1.346105e+02
197;dlange;64;0;1;1;0;1024;171;45056;45056;45056;1875335928;0.000000e+00;1.198192e-01;1.355405e+02
198;dlange;64;0;1;1;0;1024;171;45056;45056;45056;1784639529;0.000000e+00;1.203899e-01;1.348979e+02
199;dlange;64;0;1;1;0;1024;171;45056;45056;45056;2103318776;0.000000e+00;1.165590e-01;1.393315e+02
200;dlange;64;0;1;1;0;1024;171;47104;47104;47104;1597322404;0.000000e+00;1.303530e-01;1.361710e+02
201;dlange;64;0;1;1;0;1024;171;47104;47104;47104;1939964443;0.000000e+00;1.324840e-01;1.339807e+02
202;dlange;64;0;1;1;0;1024;171;47104;47104;47104;2112255763;0.000000e+00;1.311221e-01;1.353722e+02
203;dlange;64;0;1;1;0;1024;171;47104;47104;47104;1432114613;0.000000e+00;1.307991e-01;1.357066e+02
204;dlange;64;0;1;1;0;1024;171;47104;47104;47104;1067854538;0.000000e+00;1.340609e-01;1.324047e+02
205;dlange;64;0;1;1;0;1024;171;47104;47104;47104;352118606;0.000000e+00;1.321402e-01;1.343293e+02
206;dlange;64;0;1;1;0;1024;171;47104;47104;47104;1782436840;0.000000e+00;1.229131e-01;1.444133e+02
207;dlange;64;0;1;1;0;1024;171;47104;47104;47104;1909002904;0.000000e+00;1.244740e-01;1.426024e+02
208;dlange;64;0;1;1;0;1024;171;47104;47104;47104;165344818;0.000000e+00;1.285641e-01;1.380657e+02
209;dlange;64;0;1;1;0;1024;171;47104;47104;47104;1395235128;0.000000e+00;1.265759e-01;1.402343e+02
210;dlange;64;0;1;1;0;1024;171;49152;49152;49152;532670688;0.000000e+00;1.355162e-01;1.426203e+02
211;dlange;64;0;1;1;0;1024;171;49152;49152;49152;1351797369;0.000000e+00;1.431539e-01;1.350110e+02
212;dlange;64;0;1;1;0;1024;171;49152;49152;49152;492067917;0.000000e+00;1.457500e-01;1.326062e+02
213;dlange;64;0;1;1;0;1024;171;49152;49152;49152;1504569917;0.000000e+00;1.425741e-01;1.355601e+02
214;dlange;64;0;1;1;0;1024;171;49152;49152;49152;680466996;0.000000e+00;1.387920e-01;1.392540e+02
215;dlange;64;0;1;1;0;1024;171;49152;49152;49152;706043324;0.000000e+00;1.421211e-01;1.359922e+02
216;dlange;64;0;1;1;0;1024;171;49152;49152;49152;496987743;0.000000e+00;1.440079e-01;1.342103e+02
217;dlange;64;0;1;1;0;1024;171;49152;49152;49152;159259470;0.000000e+00;1.348619e-01;1.433121e+02
218;dlange;64;0;1;1;0;1024;171;49152;49152;49152;1359512183;0.000000e+00;1.326611e-01;1.456897e+02
219;dlange;64;0;1;1;0;1024;171;49152;49152;49152;480298490;0.000000e+00;1.380410e-01;1.400117e+02
