Id;Function;threads;gpus;P;Q;mtxfmt;nb;uplo;n;lda;seedA;tsub;time;gflops
0;dpotrf;64;0;1;1;0;300;121;900;900;846930886;0.000000e+00;9.172916e-03;2.653520e+01
1;dpotrf;64;0;1;1;0;300;121;900;900;1681692777;0.000000e+00;1.467299e-02;1.658865e+01
2;dpotrf;64;0;1;1;0;300;121;900;900;1714636915;0.000000e+00;1.524901e-02;1.596203e+01
3;dpotrf;64;0;1;1;0;300;121;900;900;1957747793;0.000000e+00;1.347709e-02;1.806066e+01
4;dpotrf;64;0;1;1;0;300;121;900;900;424238335;0.000000e+00;9.850025e-03;2.471112e+01
5;dpotrf;64;0;1;1;0;300;121;900;900;719885386;0.000000e+00;1.790714e-02;1.359263e+01
6;dpotrf;64;0;1;1;0;300;121;900;900;1649760492;0.000000e+00;1.464915e-02;1.661565e+01
7;dpotrf;64;0;1;1;0;300;121;900;900;596516649;0.000000e+00;9.550095e-03;2.548720e+01
8;dpotrf;64;0;1;1;0;300;121;900;900;1189641421;0.000000e+00;8.491039e-03;2.866612e+01
9;dpotrf;64;0;1;1;0;300;121;900;900;1025202362;0.000000e+00;1.183200e-02;2.057177e+01
10;dpotrf;64;0;1;1;0;300;121;1800;1800;1350490027;0.000000e+00;5.174422e-02;3.760073e+01
11;dpotrf;64;0;1;1;0;300;121;1800;1800;783368690;0.000000e+00;5.890894e-02;3.302759e+01
12;dpotrf;64;0;1;1;0;300;121;1800;1800;1102520059;0.000000e+00;2.185607e-02;8.901968e+01
13;dpotrf;64;0;1;1;0;300;121;1800;1800;2044897763;0.000000e+00;2.235794e-02;8.702144e+01
14;dpotrf;64;0;1;1;0;300;121;1800;1800;1967513926;0.000000e+00;2.084208e-02;9.335060e+01
15;dpotrf;64;0;1;1;0;300;121;1800;1800;1365180540;0.000000e+00;2.035308e-02;9.559341e+01
16;dpotrf;64;0;1;1;0;300;121;1800;1800;1540383426;0.000000e+00;2.087593e-02;9.319921e+01
17;dpotrf;64;0;1;1;0;300;121;1800;1800;304089172;0.000000e+00;2.100110e-02;9.264373e+01
18;dpotrf;64;0;1;1;0;300;121;1800;1800;1303455736;0.000000e+00;2.141905e-02;9.083598e+01
19;dpotrf;64;0;1;1;0;300;121;1800;1800;35005211;0.000000e+00;2.143097e-02;9.078546e+01
20;dpotrf;64;0;1;1;0;300;121;2700;2700;521595368;0.000000e+00;4.033208e-02;1.627649e+02
21;dpotrf;64;0;1;1;0;300;121;2700;2700;294702567;0.000000e+00;3.822303e-02;1.717458e+02
22;dpotrf;64;0;1;1;0;300;121;2700;2700;1726956429;0.000000e+00;3.791189e-02;1.731553e+02
23;dpotrf;64;0;1;1;0;300;121;2700;2700;336465782;0.000000e+00;4.044008e-02;1.623302e+02
24;dpotrf;64;0;1;1;0;300;121;2700;2700;861021530;0.000000e+00;3.716803e-02;1.766208e+02
25;dpotrf;64;0;1;1;0;300;121;2700;2700;278722862;0.000000e+00;3.796387e-02;1.729182e+02
26;dpotrf;64;0;1;1;0;300;121;2700;2700;233665123;0.000000e+00;3.437686e-02;1.909612e+02
27;dpotrf;64;0;1;1;0;300;121;2700;2700;2145174067;0.000000e+00;3.727913e-02;1.760944e+02
28;dpotrf;64;0;1;1;0;300;121;2700;2700;468703135;0.000000e+00;3.694510e-02;1.776865e+02
29;dpotrf;64;0;1;1;0;300;121;2700;2700;1101513929;0.000000e+00;3.666282e-02;1.790546e+02
30;dpotrf;64;0;1;1;0;300;121;3600;3600;1801979802;0.000000e+00;5.467606e-02;2.845575e+02
31;dpotrf;64;0;1;1;0;300;121;3600;3600;1315634022;0.000000e+00;5.107093e-02;3.046446e+02
32;dpotrf;64;0;1;1;0;300;121;3600;3600;635723058;0.000000e+00;5.381799e-02;2.890944e+02
33;dpotrf;64;0;1;1;0;300;121;3600;3600;1369133069;0.000000e+00;5.365205e-02;2.899886e+02
34;dpotrf;64;0;1;1;0;300;121;3600;3600;1125898167;0.000000e+00;5.262709e-02;2.956364e+02
35;dpotrf;64;0;1;1;0;300;121;3600;3600;1059961393;0.000000e+00;5.295801e-02;2.937890e+02
36;dpotrf;64;0;1;1;0;300;121;3600;3600;2089018456;0.000000e+00;5.255890e-02;2.960199e+02
37;dpotrf;64;0;1;1;0;300;121;3600;3600;628175011;0.000000e+00;5.298090e-02;2.936621e+02
38;dpotrf;64;0;1;1;0;300;121;3600;3600;1656478042;0.000000e+00;5.154395e-02;3.018488e+02
39;dpotrf;64;0;1;1;0;300;121;3600;3600;1131176229;0.000000e+00;5.237699e-02;2.970480e+02
40;dpotrf;64;0;1;1;0;300;121;4500;4500;1653377373;0.000000e+00;7.405186e-02;4.103223e+02
41;dpotrf;64;0;1;1;0;300;121;4500;4500;859484421;0.000000e+00;7.316113e-02;4.153179e+02
42;dpotrf;64;0;1;1;0;300;121;4500;4500;1914544919;0.000000e+00;7.148910e-02;4.250316e+02
43;dpotrf;64;0;1;1;0;300;121;4500;4500;608413784;0.000000e+00;7.271504e-02;4.178657e+02
44;dpotrf;64;0;1;1;0;300;121;4500;4500;756898537;0.000000e+00;6.902599e-02;4.401983e+02
45;dpotrf;64;0;1;1;0;300;121;4500;4500;1734575198;0.000000e+00;7.412410e-02;4.099224e+02
46;dpotrf;64;0;1;1;0;300;121;4500;4500;1973594324;0.000000e+00;7.432795e-02;4.087981e+02
47;dpotrf;64;0;1;1;0;300;121;4500;4500;149798315;0.000000e+00;7.271910e-02;4.178425e+02
48;dpotrf;64;0;1;1;0;300;121;4500;4500;2038664370;0.000000e+00;7.206082e-02;4.216594e+02
49;dpotrf;64;0;1;1;0;300;121;4500;4500;1129566413;0.000000e+00;7.155609e-02;4.246337e+02
50;dpotrf;64;0;1;1;0;300;121;5400;5400;184803526;0.000000e+00;9.765720e-02;5.376212e+02
51;dpotrf;64;0;1;1;0;300;121;5400;5400;412776091;0.000000e+00;9.593105e-02;5.472949e+02
52;dpotrf;64;0;1;1;0;300;121;5400;5400;1424268980;0.000000e+00;9.713602e-02;5.405058e+02
53;dpotrf;64;0;1;1;0;300;121;5400;5400;1911759956;0.000000e+00;9.682417e-02;5.422466e+02
54;dpotrf;64;0;1;1;0;300;121;5400;5400;749241873;0.000000e+00;9.500408e-02;5.526350e+02
55;dpotrf;64;0;1;1;0;300;121;5400;5400;137806862;0.000000e+00;9.462810e-02;5.548308e+02
56;dpotrf;64;0;1;1;0;300;121;5400;5400;42999170;0.000000e+00;9.633589e-02;5.449950e+02
57;dpotrf;64;0;1;1;0;300;121;5400;5400;982906996;0.000000e+00;9.880304e-02;5.313863e+02
58;dpotrf;64;0;1;1;0;300;121;5400;5400;135497281;0.000000e+00;9.743881e-02;5.388262e+02
59;dpotrf;64;0;1;1;0;300;121;5400;5400;511702305;0.000000e+00;9.735823e-02;5.392722e+02
60;dpotrf;64;0;1;1;0;300;121;6300;6300;2084420925;0.000000e+00;1.322351e-01;6.304595e+02
61;dpotrf;64;0;1;1;0;300;121;6300;6300;1937477084;0.000000e+00;1.302471e-01;6.400821e+02
62;dpotrf;64;0;1;1;0;300;121;6300;6300;1827336327;0.000000e+00;1.282778e-01;6.499087e+02
63;dpotrf;64;0;1;1;0;300;121;6300;6300;572660336;0.000000e+00;1.277580e-01;6.525527e+02
64;dpotrf;64;0;1;1;0;300;121;6300;6300;1159126505;0.000000e+00;1.318951e-01;6.320846e+02
65;dpotrf;64;0;1;1;0;300;121;6300;6300;805750846;0.000000e+00;1.285110e-01;6.487295e+02
66;dpotrf;64;0;1;1;0;300;121;6300;6300;1632621729;0.000000e+00;1.290269e-01;6.461354e+02
67;dpotrf;64;0;1;1;0;300;121;6300;6300;1100661313;0.000000e+00;1.277690e-01;6.524967e+02
68;dpotrf;64;0;1;1;0;300;121;6300;6300;1433925857;0.000000e+00;1.285660e-01;6.484516e+02
69;dpotrf;64;0;1;1;0;300;121;6300;6300;1141616124;0.000000e+00;1.297240e-01;6.426631e+02
70;dpotrf;64;0;1;1;0;300;121;7200;7200;84353895;0.000000e+00;1.728089e-01;7.201130e+02
71;dpotrf;64;0;1;1;0;300;121;7200;7200;939819582;0.000000e+00;1.680360e-01;7.405671e+02
72;dpotrf;64;0;1;1;0;300;121;7200;7200;2001100545;0.000000e+00;1.706431e-01;7.292526e+02
73;dpotrf;64;0;1;1;0;300;121;7200;7200;1998898814;0.000000e+00;1.688418e-01;7.370325e+02
74;dpotrf;64;0;1;1;0;300;121;7200;7200;1548233367;0.000000e+00;1.659350e-01;7.499436e+02
75;dpotrf;64;0;1;1;0;300;121;7200;7200;610515434;0.000000e+00;1.659441e-01;7.499027e+02
76;dpotrf;64;0;1;1;0;300;121;7200;7200;1585990364;0.000000e+00;1.725118e-01;7.213530e+02
77;dpotrf;64;0;1;1;0;300;121;7200;7200;1374344043;0.000000e+00;1.686871e-01;7.377086e+02
78;dpotrf;64;0;1;1;0;300;121;7200;7200;760313750;0.000000e+00;1.699691e-01;7.321445e+02
79;dpotrf;64;0;1;1;0;300;121;7200;7200;1477171087;0.000000e+00;1.683869e-01;7.390236e+02
80;dpotrf;64;0;1;1;0;300;121;8100;8100;356426808;0.000000e+00;2.252290e-01;7.866651e+02
81;dpotrf;64;0;1;1;0;300;121;8100;8100;945117276;0.000000e+00;2.194700e-01;8.073075e+02
82;dpotrf;64;0;1;1;0;300;121;8100;8100;1889947178;0.000000e+00;2.189281e-01;8.093059e+02
83;dpotrf;64;0;1;1;0;300;121;8100;8100;1780695788;0.000000e+00;2.199812e-01;8.054316e+02
84;dpotrf;64;0;1;1;0;300;121;8100;8100;709393584;0.000000e+00;2.217400e-01;7.990430e+02
85;dpotrf;64;0;1;1;0;300;121;8100;8100;491705403;0.000000e+00;2.189600e-01;8.091878e+02
86;dpotrf;64;0;1;1;0;300;121;8100;8100;1918502651;0.000000e+00;2.208471e-01;8.022735e+02
87;dpotrf;64;0;1;1;0;300;121;8100;8100;752392754;0.000000e+00;2.194281e-01;8.074619e+02
88;dpotrf;64;0;1;1;0;300;121;8100;8100;1474612399;0.000000e+00;2.238801e-01;7.914051e+02
89;dpotrf;64;0;1;1;0;300;121;8100;8100;2053999932;0.000000e+00;2.186401e-01;8.103720e+02
90;dpotrf;64;0;1;1;0;300;121;9000;9000;1264095060;0.000000e+00;2.944889e-01;8.252959e+02
91;dpotrf;64;0;1;1;0;300;121;9000;9000;1411549676;0.000000e+00;2.785730e-01;8.724480e+02
92;dpotrf;64;0;1;1;0;300;121;9000;9000;1843993368;0.000000e+00;2.831292e-01;8.584084e+02
93;dpotrf;64;0;1;1;0;300;121;9000;9000;943947739;0.000000e+00;2.762201e-01;8.798799e+02
94;dpotrf;64;0;1;1;0;300;121;9000;9000;1984210012;0.000000e+00;2.769971e-01;8.774118e+02
95;dpotrf;64;0;1;1;0;300;121;9000;9000;855636226;0.000000e+00;2.825389e-01;8.602019e+02
96;dpotrf;64;0;1;1;0;300;121;9000;9000;1749698586;0.000000e+00;2.796199e-01;8.691816e+02
97;dpotrf;64;0;1;1;0;300;121;9000;9000;1469348094;0.000000e+00;2.848170e-01;8.533217e+02
98;dpotrf;64;0;1;1;0;300;121;9000;9000;1956297539;0.000000e+00;2.803800e-01;8.668254e+02
99;dpotrf;64;0;1;1;0;300;121;9000;9000;1036140795;0.000000e+00;2.829871e-01;8.588395e+02
0;dpotrf;64;0;1;1;0;300;121;9900;9900;846930886;0.000000e+00;3.502371e-01;9.236085e+02
1;dpotrf;64;0;1;1;0;300;121;9900;9900;1681692777;0.000000e+00;3.432899e-01;9.422999e+02
2;dpotrf;64;0;1;1;0;300;121;9900;9900;1714636915;0.000000e+00;3.456302e-01;9.359195e+02
3;dpotrf;64;0;1;1;0;300;121;9900;9900;1957747793;0.000000e+00;3.528779e-01;9.166968e+02
4;dpotrf;64;0;1;1;0;300;121;9900;9900;424238335;0.000000e+00;3.512321e-01;9.209923e+02
5;dpotrf;64;0;1;1;0;300;121;9900;9900;719885386;0.000000e+00;3.585820e-01;9.021144e+02
6;dpotrf;64;0;1;1;0;300;121;9900;9900;1649760492;0.000000e+00;3.528819e-01;9.166863e+02
7;dpotrf;64;0;1;1;0;300;121;9900;9900;596516649;0.000000e+00;3.644192e-01;8.876645e+02
8;dpotrf;64;0;1;1;0;300;121;9900;9900;1189641421;0.000000e+00;3.577969e-01;9.040939e+02
9;dpotrf;64;0;1;1;0;300;121;9900;9900;1025202362;0.000000e+00;3.555758e-01;9.097413e+02
10;dpotrf;64;0;1;1;0;300;121;12300;12300;1350490027;0.000000e+00;6.492369e-01;9.555289e+02
11;dpotrf;64;0;1;1;0;300;121;12300;12300;783368690;0.000000e+00;6.335430e-01;9.791989e+02
12;dpotrf;64;0;1;1;0;300;121;12300;12300;1102520059;0.000000e+00;6.388052e-01;9.711328e+02
13;dpotrf;64;0;1;1;0;300;121;12300;12300;2044897763;0.000000e+00;6.446440e-01;9.623368e+02
14;dpotrf;64;0;1;1;0;300;121;12300;12300;1967513926;0.000000e+00;6.529541e-01;9.500892e+02
15;dpotrf;64;0;1;1;0;300;121;12300;12300;1365180540;0.000000e+00;6.494029e-01;9.552848e+02
16;dpotrf;64;0;1;1;0;300;121;12300;12300;1540383426;0.000000e+00;6.401732e-01;9.690575e+02
17;dpotrf;64;0;1;1;0;300;121;12300;12300;304089172;0.000000e+00;6.488130e-01;9.561532e+02
18;dpotrf;64;0;1;1;0;300;121;12300;12300;1303455736;0.000000e+00;6.517289e-01;9.518754e+02
19;dpotrf;64;0;1;1;0;300;121;12300;12300;35005211;0.000000e+00;6.510611e-01;9.528517e+02
20;dpotrf;64;0;1;1;0;300;121;14700;14700;521595368;0.000000e+00;1.022780e+00;1.035364e+03
21;dpotrf;64;0;1;1;0;300;121;14700;14700;294702567;0.000000e+00;1.001270e+00;1.057606e+03
22;dpotrf;64;0;1;1;0;300;121;14700;14700;1726956429;0.000000e+00;1.022632e+00;1.035513e+03
23;dpotrf;64;0;1;1;0;300;121;14700;14700;336465782;0.000000e+00;1.014465e+00;1.043850e+03
24;dpotrf;64;0;1;1;0;300;121;14700;14700;861021530;0.000000e+00;1.025427e+00;1.032691e+03
25;dpotrf;64;0;1;1;0;300;121;14700;14700;278722862;0.000000e+00;1.015877e+00;1.042399e+03
26;dpotrf;64;0;1;1;0;300;121;14700;14700;233665123;0.000000e+00;1.019678e+00;1.038513e+03
27;dpotrf;64;0;1;1;0;300;121;14700;14700;2145174067;0.000000e+00;1.031513e+00;1.026598e+03
28;dpotrf;64;0;1;1;0;300;121;14700;14700;468703135;0.000000e+00;1.026351e+00;1.031761e+03
29;dpotrf;64;0;1;1;0;300;121;14700;14700;1101513929;0.000000e+00;1.024047e+00;1.034083e+03
30;dpotrf;64;0;1;1;0;300;121;17100;17100;1801979802;0.000000e+00;1.543649e+00;1.079833e+03
31;dpotrf;64;0;1;1;0;300;121;17100;17100;1315634022;0.000000e+00;1.503075e+00;1.108982e+03
32;dpotrf;64;0;1;1;0;300;121;17100;17100;635723058;0.000000e+00;1.553930e+00;1.072689e+03
33;dpotrf;64;0;1;1;0;300;121;17100;17100;1369133069;0.000000e+00;1.525978e+00;1.092338e+03
34;dpotrf;64;0;1;1;0;300;121;17100;17100;1125898167;0.000000e+00;1.538103e+00;1.083727e+03
35;dpotrf;64;0;1;1;0;300;121;17100;17100;1059961393;0.000000e+00;1.564359e+00;1.065538e+03
36;dpotrf;64;0;1;1;0;300;121;17100;17100;2089018456;0.000000e+00;1.539179e+00;1.082969e+03
37;dpotrf;64;0;1;1;0;300;121;17100;17100;628175011;0.000000e+00;1.549692e+00;1.075622e+03
38;dpotrf;64;0;1;1;0;300;121;17100;17100;1656478042;0.000000e+00;1.558683e+00;1.069418e+03
39;dpotrf;64;0;1;1;0;300;121;17100;17100;1131176229;0.000000e+00;1.546104e+00;1.078118e+03
40;dpotrf;64;0;1;1;0;300;121;19500;19500;1653377373;0.000000e+00;2.200599e+00;1.123247e+03
41;dpotrf;64;0;1;1;0;300;121;19500;19500;859484421;0.000000e+00;2.135819e+00;1.157315e+03
42;dpotrf;64;0;1;1;0;300;121;19500;19500;1914544919;0.000000e+00;2.202576e+00;1.122238e+03
43;dpotrf;64;0;1;1;0;300;121;19500;19500;608413784;0.000000e+00;2.211455e+00;1.117732e+03
44;dpotrf;64;0;1;1;0;300;121;19500;19500;756898537;0.000000e+00;2.205345e+00;1.120829e+03
45;dpotrf;64;0;1;1;0;300;121;19500;19500;1734575198;0.000000e+00;2.205048e+00;1.120980e+03
46;dpotrf;64;0;1;1;0;300;121;19500;19500;1973594324;0.000000e+00;2.228792e+00;1.109038e+03
47;dpotrf;64;0;1;1;0;300;121;19500;19500;149798315;0.000000e+00;2.221457e+00;1.112700e+03
48;dpotrf;64;0;1;1;0;300;121;19500;19500;2038664370;0.000000e+00;2.234131e+00;1.106388e+03
49;dpotrf;64;0;1;1;0;300;121;19500;19500;1129566413;0.000000e+00;2.229640e+00;1.108616e+03
50;dpotrf;64;0;1;1;0;300;121;21900;21900;184803526;0.000000e+00;3.061431e+00;1.143711e+03
51;dpotrf;64;0;1;1;0;300;121;21900;21900;412776091;0.000000e+00;3.005425e+00;1.165024e+03
52;dpotrf;64;0;1;1;0;300;121;21900;21900;1424268980;0.000000e+00;3.037528e+00;1.152711e+03
53;dpotrf;64;0;1;1;0;300;121;21900;21900;1911759956;0.000000e+00;3.024902e+00;1.157523e+03
54;dpotrf;64;0;1;1;0;300;121;21900;21900;749241873;0.000000e+00;3.053460e+00;1.146697e+03
55;dpotrf;64;0;1;1;0;300;121;21900;21900;137806862;0.000000e+00;3.055976e+00;1.145753e+03
56;dpotrf;64;0;1;1;0;300;121;21900;21900;42999170;0.000000e+00;3.043046e+00;1.150621e+03
57;dpotrf;64;0;1;1;0;300;121;21900;21900;982906996;0.000000e+00;3.052232e+00;1.147158e+03
58;dpotrf;64;0;1;1;0;300;121;21900;21900;135497281;0.000000e+00;3.051033e+00;1.147609e+03
59;dpotrf;64;0;1;1;0;300;121;21900;21900;511702305;0.000000e+00;3.034488e+00;1.153866e+03
60;dpotrf;64;0;1;1;0;300;121;24300;24300;2084420925;0.000000e+00;4.030851e+00;1.186664e+03
61;dpotrf;64;0;1;1;0;300;121;24300;24300;1937477084;0.000000e+00;3.904022e+00;1.225214e+03
62;dpotrf;64;0;1;1;0;300;121;24300;24300;1827336327;0.000000e+00;3.984046e+00;1.200605e+03
63;dpotrf;64;0;1;1;0;300;121;24300;24300;572660336;0.000000e+00;3.959925e+00;1.207918e+03
64;dpotrf;64;0;1;1;0;300;121;24300;24300;1159126505;0.000000e+00;3.970437e+00;1.204720e+03
65;dpotrf;64;0;1;1;0;300;121;24300;24300;805750846;0.000000e+00;4.017141e+00;1.190714e+03
66;dpotrf;64;0;1;1;0;300;121;24300;24300;1632621729;0.000000e+00;3.967079e+00;1.205740e+03
67;dpotrf;64;0;1;1;0;300;121;24300;24300;1100661313;0.000000e+00;3.987906e+00;1.199443e+03
68;dpotrf;64;0;1;1;0;300;121;24300;24300;1433925857;0.000000e+00;3.974762e+00;1.203409e+03
69;dpotrf;64;0;1;1;0;300;121;24300;24300;1141616124;0.000000e+00;4.013732e+00;1.191725e+03
70;dpotrf;64;0;1;1;0;300;121;26700;26700;84353895;0.000000e+00;5.085833e+00;1.247598e+03
71;dpotrf;64;0;1;1;0;300;121;26700;26700;939819582;0.000000e+00;4.920158e+00;1.289608e+03
72;dpotrf;64;0;1;1;0;300;121;26700;26700;2001100545;0.000000e+00;5.061727e+00;1.253540e+03
73;dpotrf;64;0;1;1;0;300;121;26700;26700;1998898814;0.000000e+00;4.964254e+00;1.278153e+03
74;dpotrf;64;0;1;1;0;300;121;26700;26700;1548233367;0.000000e+00;5.016076e+00;1.264948e+03
75;dpotrf;64;0;1;1;0;300;121;26700;26700;610515434;0.000000e+00;5.035021e+00;1.260189e+03
76;dpotrf;64;0;1;1;0;300;121;26700;26700;1585990364;0.000000e+00;5.020439e+00;1.263849e+03
77;dpotrf;64;0;1;1;0;300;121;26700;26700;1374344043;0.000000e+00;5.015916e+00;1.264989e+03
78;dpotrf;64;0;1;1;0;300;121;26700;26700;760313750;0.000000e+00;4.970956e+00;1.276430e+03
79;dpotrf;64;0;1;1;0;300;121;26700;26700;1477171087;0.000000e+00;5.074824e+00;1.250305e+03
80;dpotrf;64;0;1;1;0;300;121;29100;29100;356426808;0.000000e+00;6.333938e+00;1.296899e+03
81;dpotrf;64;0;1;1;0;300;121;29100;29100;945117276;0.000000e+00;6.267352e+00;1.310678e+03
82;dpotrf;64;0;1;1;0;300;121;29100;29100;1889947178;0.000000e+00;6.258962e+00;1.312435e+03
83;dpotrf;64;0;1;1;0;300;121;29100;29100;1780695788;0.000000e+00;6.259763e+00;1.312267e+03
84;dpotrf;64;0;1;1;0;300;121;29100;29100;709393584;0.000000e+00;6.301018e+00;1.303675e+03
85;dpotrf;64;0;1;1;0;300;121;29100;29100;491705403;0.000000e+00;6.289519e+00;1.306059e+03
86;dpotrf;64;0;1;1;0;300;121;29100;29100;1918502651;0.000000e+00;6.264208e+00;1.311336e+03
87;dpotrf;64;0;1;1;0;300;121;29100;29100;752392754;0.000000e+00;6.309645e+00;1.301893e+03
88;dpotrf;64;0;1;1;0;300;121;29100;29100;1474612399;0.000000e+00;6.240346e+00;1.316350e+03
89;dpotrf;64;0;1;1;0;300;121;29100;29100;2053999932;0.000000e+00;6.285930e+00;1.306804e+03
