Id;Function;threads;gpus;P;Q;mtxfmt;nb;norm;uplo;n;lda;seedA;bump;tsub;time;gflops
0;dlansy;64;0;1;1;0;300;171;121;900;900;1681692777;4.254358e-01;0.000000e+00;1.455085e-03;2.229148e+00
1;dlansy;64;0;1;1;0;300;171;121;900;900;1957747793;4.892778e-01;0.000000e+00;1.230493e-03;2.636017e+00
2;dlansy;64;0;1;1;0;300;171;121;900;900;719885386;3.777180e-01;0.000000e+00;1.331722e-03;2.435643e+00
3;dlansy;64;0;1;1;0;300;171;121;900;900;596516649;-3.517510e-01;0.000000e+00;1.331433e-03;2.436172e+00
4;dlansy;64;0;1;1;0;300;171;121;900;900;1025202362;4.000452e-01;0.000000e+00;1.678352e-03;1.932610e+00
5;dlansy;64;0;1;1;0;300;171;121;900;900;783368690;3.744478e-01;0.000000e+00;8.937330e-04;3.629272e+00
6;dlansy;64;0;1;1;0;300;171;121;900;900;2044897763;4.141058e-01;0.000000e+00;9.958640e-04;3.257071e+00
7;dlansy;64;0;1;1;0;300;171;121;900;900;1365180540;-1.381986e-01;0.000000e+00;9.590760e-04;3.382005e+00
8;dlansy;64;0;1;1;0;300;171;121;900;900;304089172;2.200654e-01;0.000000e+00;1.075924e-03;3.014711e+00
9;dlansy;64;0;1;1;0;300;171;121;900;900;35005211;-1.757242e-01;0.000000e+00;9.673200e-04;3.353182e+00
10;dlansy;64;0;1;1;0;300;171;121;1800;1800;294702567;-3.976154e-01;0.000000e+00;3.623474e-03;3.578665e+00
11;dlansy;64;0;1;1;0;300;171;121;1800;1800;336465782;4.797187e-01;0.000000e+00;3.203868e-03;4.047358e+00
12;dlansy;64;0;1;1;0;300;171;121;1800;1800;278722862;-3.098429e-01;0.000000e+00;3.225167e-03;4.020629e+00
13;dlansy;64;0;1;1;0;300;171;121;1800;1800;2145174067;4.597866e-01;0.000000e+00;3.247500e-03;3.992979e+00
14;dlansy;64;0;1;1;0;300;171;121;1800;1800;1101513929;3.332689e-02;0.000000e+00;3.179923e-03;4.077835e+00
15;dlansy;64;0;1;1;0;300;171;121;1800;1800;1315634022;-3.123134e-01;0.000000e+00;3.044880e-03;4.258690e+00
16;dlansy;64;0;1;1;0;300;171;121;1800;1800;1369133069;-2.396071e-01;0.000000e+00;2.539424e-03;5.106355e+00
17;dlansy;64;0;1;1;0;300;171;121;1800;1800;1059961393;-4.405380e-01;0.000000e+00;2.665470e-03;4.864883e+00
18;dlansy;64;0;1;1;0;300;171;121;1800;1800;628175011;-8.299381e-02;0.000000e+00;2.405213e-03;5.391290e+00
19;dlansy;64;0;1;1;0;300;171;121;1800;1800;1131176229;-4.098657e-01;0.000000e+00;2.657725e-03;4.879060e+00
20;dlansy;64;0;1;1;0;300;171;121;2700;2700;859484421;4.760135e-01;0.000000e+00;6.338807e-03;4.601939e+00
21;dlansy;64;0;1;1;0;300;171;121;2700;2700;608413784;-2.172434e-01;0.000000e+00;6.476896e-03;4.503824e+00
22;dlansy;64;0;1;1;0;300;171;121;2700;2700;1734575198;3.559216e-01;0.000000e+00;6.501491e-03;4.486786e+00
23;dlansy;64;0;1;1;0;300;171;121;2700;2700;149798315;-3.746092e-01;0.000000e+00;5.543287e-03;5.262365e+00
24;dlansy;64;0;1;1;0;300;171;121;2700;2700;1129566413;3.212047e-02;0.000000e+00;5.640550e-03;5.171623e+00
25;dlansy;64;0;1;1;0;300;171;121;2700;2700;412776091;-3.302276e-01;0.000000e+00;6.032374e-03;4.835708e+00
26;dlansy;64;0;1;1;0;300;171;121;2700;2700;1911759956;1.752074e-01;0.000000e+00;5.778608e-03;5.048067e+00
27;dlansy;64;0;1;1;0;300;171;121;2700;2700;137806862;2.019681e-01;0.000000e+00;5.602589e-03;5.206664e+00
28;dlansy;64;0;1;1;0;300;171;121;2700;2700;982906996;2.243788e-01;0.000000e+00;6.330581e-03;4.607918e+00
29;dlansy;64;0;1;1;0;300;171;121;2700;2700;511702305;-1.333755e-01;0.000000e+00;6.542048e-03;4.458971e+00
30;dlansy;64;0;1;1;0;300;171;121;3600;3600;1937477084;-3.694056e-01;0.000000e+00;1.020575e-02;5.080902e+00
31;dlansy;64;0;1;1;0;300;171;121;3600;3600;572660336;-1.501402e-01;0.000000e+00;1.139524e-02;4.550531e+00
32;dlansy;64;0;1;1;0;300;171;121;3600;3600;805750846;-1.383824e-01;0.000000e+00;1.058570e-02;4.898534e+00
33;dlansy;64;0;1;1;0;300;171;121;3600;3600;1100661313;7.019839e-02;0.000000e+00;1.076465e-02;4.817099e+00
34;dlansy;64;0;1;1;0;300;171;121;3600;3600;1141616124;-2.465265e-01;0.000000e+00;1.030664e-02;5.031162e+00
35;dlansy;64;0;1;1;0;300;171;121;3600;3600;939819582;2.290667e-01;0.000000e+00;1.052162e-02;4.928367e+00
36;dlansy;64;0;1;1;0;300;171;121;3600;3600;1998898814;-2.416937e-01;0.000000e+00;1.030210e-02;5.033383e+00
37;dlansy;64;0;1;1;0;300;171;121;3600;3600;610515434;2.529978e-01;0.000000e+00;1.014058e-02;5.113552e+00
38;dlansy;64;0;1;1;0;300;171;121;3600;3600;1374344043;-2.102271e-01;0.000000e+00;1.096755e-02;4.727983e+00
39;dlansy;64;0;1;1;0;300;171;121;3600;3600;1477171087;-1.733443e-01;0.000000e+00;1.074471e-02;4.826042e+00
40;dlansy;64;0;1;1;0;300;171;121;4500;4500;945117276;5.373797e-02;0.000000e+00;1.679784e-02;4.823121e+00
41;dlansy;64;0;1;1;0;300;171;121;4500;4500;1780695788;-4.132594e-01;0.000000e+00;2.409565e-02;3.362350e+00
42;dlansy;64;0;1;1;0;300;171;121;4500;4500;491705403;-2.237386e-01;0.000000e+00;3.505505e-02;2.311165e+00
43;dlansy;64;0;1;1;0;300;171;121;4500;4500;752392754;-3.676393e-01;0.000000e+00;2.451630e-02;3.304659e+00
44;dlansy;64;0;1;1;0;300;171;121;4500;4500;2053999932;-4.222437e-01;0.000000e+00;2.463637e-02;3.288552e+00
45;dlansy;64;0;1;1;0;300;171;121;4500;4500;1411549676;3.886879e-01;0.000000e+00;1.693409e-02;4.784313e+00
46;dlansy;64;0;1;1;0;300;171;121;4500;4500;943947739;1.866877e-01;0.000000e+00;2.429326e-02;3.334999e+00
47;dlansy;64;0;1;1;0;300;171;121;4500;4500;855636226;-2.672705e-01;0.000000e+00;2.384459e-02;3.397752e+00
48;dlansy;64;0;1;1;0;300;171;121;4500;4500;1469348094;-2.187391e-01;0.000000e+00;1.573790e-02;5.147954e+00
49;dlansy;64;0;1;1;0;300;171;121;4500;4500;1036140795;-4.443388e-01;0.000000e+00;2.520847e-02;3.213919e+00
50;dlansy;64;0;1;1;0;300;171;121;5400;5400;2040651434;-4.033480e-01;0.000000e+00;3.180560e-02;3.667957e+00
51;dlansy;64;0;1;1;0;300;171;121;5400;5400;317097467;-1.054364e-01;0.000000e+00;3.116539e-02;3.743306e+00
52;dlansy;64;0;1;1;0;300;171;121;5400;5400;1376710097;-7.005727e-02;0.000000e+00;4.273946e-02;2.729599e+00
53;dlansy;64;0;1;1;0;300;171;121;5400;5400;1330573317;1.333576e-02;0.000000e+00;3.933785e-02;2.965632e+00
54;dlansy;64;0;1;1;0;300;171;121;5400;5400;1687926652;1.623906e-01;0.000000e+00;2.702677e-02;4.316521e+00
55;dlansy;64;0;1;1;0;300;171;121;5400;5400;959997301;7.965982e-02;0.000000e+00;3.079529e-02;3.788293e+00
56;dlansy;64;0;1;1;0;300;171;121;5400;5400;402724286;4.667617e-01;0.000000e+00;3.071791e-02;3.797837e+00
57;dlansy;64;0;1;1;0;300;171;121;5400;5400;1194953865;-1.382589e-02;0.000000e+00;3.037066e-02;3.841260e+00
58;dlansy;64;0;1;1;0;300;171;121;5400;5400;364228444;-4.175981e-01;0.000000e+00;3.668017e-02;3.180509e+00
59;dlansy;64;0;1;1;0;300;171;121;5400;5400;221558440;3.770548e-01;0.000000e+00;3.092871e-02;3.771951e+00
60;dlansy;64;0;1;1;0;300;171;121;6300;6300;1063958031;2.509115e-01;0.000000e+00;4.882988e-02;3.251804e+00
61;dlansy;64;0;1;1;0;300;171;121;6300;6300;2114738097;-4.980996e-01;0.000000e+00;4.872410e-02;3.258864e+00
62;dlansy;64;0;1;1;0;300;171;121;6300;6300;1469834481;1.376819e-01;0.000000e+00;4.768916e-02;3.329587e+00
63;dlansy;64;0;1;1;0;300;171;121;6300;6300;1610120709;-3.776547e-01;0.000000e+00;4.679401e-02;3.393280e+00
64;dlansy;64;0;1;1;0;300;171;121;6300;6300;631704567;-4.182928e-01;0.000000e+00;4.505500e-02;3.524253e+00
65;dlansy;64;0;1;1;0;300;171;121;6300;6300;1255179497;-4.129313e-01;0.000000e+00;5.085942e-02;3.122041e+00
66;dlansy;64;0;1;1;0;300;171;121;6300;6300;327254586;9.307665e-02;0.000000e+00;4.625027e-02;3.433173e+00
67;dlansy;64;0;1;1;0;300;171;121;6300;6300;269455306;7.441780e-02;0.000000e+00;4.725417e-02;3.360236e+00
68;dlansy;64;0;1;1;0;300;171;121;6300;6300;352406219;-2.374150e-01;0.000000e+00;5.393846e-02;2.943822e+00
69;dlansy;64;0;1;1;0;300;171;121;6300;6300;160051528;2.807858e-01;0.000000e+00;4.793391e-02;3.312586e+00
70;dlansy;64;0;1;1;0;300;171;121;7200;7200;112805732;-3.496214e-01;0.000000e+00;5.812504e-02;3.567977e+00
71;dlansy;64;0;1;1;0;300;171;121;7200;7200;378409503;2.744957e-01;0.000000e+00;5.489244e-02;3.778094e+00
72;dlansy;64;0;1;1;0;300;171;121;7200;7200;1713258270;1.571881e-01;0.000000e+00;6.403879e-02;3.238487e+00
73;dlansy;64;0;1;1;0;300;171;121;7200;7200;1409959708;4.905056e-01;0.000000e+00;7.517547e-02;2.758730e+00
74;dlansy;64;0;1;1;0;300;171;121;7200;7200;1373226340;9.546876e-03;0.000000e+00;5.512850e-02;3.761916e+00
75;dlansy;64;0;1;1;0;300;171;121;7200;7200;200747796;3.618905e-02;0.000000e+00;7.104596e-02;2.919080e+00
76;dlansy;64;0;1;1;0;300;171;121;7200;7200;1117142618;1.744033e-01;0.000000e+00;5.728703e-02;3.620170e+00
77;dlansy;64;0;1;1;0;300;171;121;7200;7200;150122846;2.422071e-01;0.000000e+00;6.965378e-02;2.977424e+00
78;dlansy;64;0;1;1;0;300;171;121;7200;7200;990892921;3.138195e-01;0.000000e+00;5.887723e-02;3.522394e+00
79;dlansy;64;0;1;1;0;300;171;121;7200;7200;1231192379;-4.633856e-02;0.000000e+00;7.341322e-02;2.824952e+00
80;dlansy;64;0;1;1;0;300;171;121;8100;8100;111537764;1.729012e-01;0.000000e+00;1.031365e-01;2.544903e+00
81;dlansy;64;0;1;1;0;300;171;121;8100;8100;2147469841;2.072774e-01;0.000000e+00;1.003514e-01;2.615534e+00
82;dlansy;64;0;1;1;0;300;171;121;8100;8100;1911165193;1.557539e-01;0.000000e+00;9.207551e-02;2.850621e+00
83;dlansy;64;0;1;1;0;300;171;121;8100;8100;2142757034;-1.699027e-01;0.000000e+00;9.374895e-02;2.799737e+00
84;dlansy;64;0;1;1;0;300;171;121;8100;8100;1869470124;9.513167e-02;0.000000e+00;9.408676e-02;2.789685e+00
85;dlansy;64;0;1;1;0;300;171;121;8100;8100;8936987;3.813653e-01;0.000000e+00;9.579004e-02;2.740080e+00
86;dlansy;64;0;1;1;0;300;171;121;8100;8100;1275373743;-3.952797e-01;0.000000e+00;8.583737e-02;3.057787e+00
87;dlansy;64;0;1;1;0;300;171;121;8100;8100;350322227;4.007014e-01;0.000000e+00;7.618247e-02;3.445312e+00
88;dlansy;64;0;1;1;0;300;171;121;8100;8100;1960709859;4.687312e-02;0.000000e+00;8.916605e-02;2.943636e+00
89;dlansy;64;0;1;1;0;300;171;121;8100;8100;771151432;-3.651100e-01;0.000000e+00;9.071721e-02;2.893303e+00
90;dlansy;64;0;1;1;0;300;171;121;9000;9000;1244316437;2.998675e-01;0.000000e+00;1.138609e-01;2.845895e+00
91;dlansy;64;0;1;1;0;300;171;121;9000;9000;1476153275;-1.389722e-01;0.000000e+00;6.153112e-02;5.266213e+00
92;dlansy;64;0;1;1;0;300;171;121;9000;9000;1139901474;3.395107e-01;0.000000e+00;1.142690e-01;2.835729e+00
93;dlansy;64;0;1;1;0;300;171;121;9000;9000;653468858;-4.940599e-01;0.000000e+00;9.871630e-02;3.282497e+00
94;dlansy;64;0;1;1;0;300;171;121;9000;9000;1239036029;9.508020e-02;0.000000e+00;1.054435e-01;3.073076e+00
95;dlansy;64;0;1;1;0;300;171;121;9000;9000;1605908235;2.745396e-01;0.000000e+00;1.207942e-01;2.682547e+00
96;dlansy;64;0;1;1;0;300;171;121;9000;9000;76065818;-4.585682e-01;0.000000e+00;9.545010e-02;3.394821e+00
97;dlansy;64;0;1;1;0;300;171;121;9000;9000;1789366143;-3.356987e-01;0.000000e+00;9.519743e-02;3.403831e+00
98;dlansy;64;0;1;1;0;300;171;121;9000;9000;1875335928;-1.061454e-01;0.000000e+00;1.053353e-01;3.076234e+00
99;dlansy;64;0;1;1;0;300;171;121;9000;9000;2103318776;1.535754e-01;0.000000e+00;9.288039e-02;3.488745e+00
0;dlansy;64;0;1;1;0;300;171;121;9900;9900;1681692777;4.254358e-01;0.000000e+00;1.435392e-01;2.731515e+00
1;dlansy;64;0;1;1;0;300;171;121;9900;9900;1957747793;4.892778e-01;0.000000e+00;1.462720e-01;2.680482e+00
2;dlansy;64;0;1;1;0;300;171;121;9900;9900;719885386;3.777180e-01;0.000000e+00;1.673617e-01;2.342708e+00
3;dlansy;64;0;1;1;0;300;171;121;9900;9900;596516649;-3.517510e-01;0.000000e+00;1.704702e-01;2.299989e+00
4;dlansy;64;0;1;1;0;300;171;121;9900;9900;1025202362;4.000452e-01;0.000000e+00;1.472244e-01;2.663143e+00
5;dlansy;64;0;1;1;0;300;171;121;9900;9900;783368690;3.744478e-01;0.000000e+00;1.487148e-01;2.636454e+00
6;dlansy;64;0;1;1;0;300;171;121;9900;9900;2044897763;4.141058e-01;0.000000e+00;1.453484e-01;2.697515e+00
7;dlansy;64;0;1;1;0;300;171;121;9900;9900;1365180540;-1.381986e-01;0.000000e+00;1.383271e-01;2.834437e+00
8;dlansy;64;0;1;1;0;300;171;121;9900;9900;304089172;2.200654e-01;0.000000e+00;1.430880e-01;2.740129e+00
9;dlansy;64;0;1;1;0;300;171;121;9900;9900;35005211;-1.757242e-01;0.000000e+00;1.496858e-01;2.619350e+00
10;dlansy;64;0;1;1;0;300;171;121;12300;12300;294702567;-3.976154e-01;0.000000e+00;2.568656e-01;2.356132e+00
11;dlansy;64;0;1;1;0;300;171;121;12300;12300;336465782;4.797187e-01;0.000000e+00;2.366929e-01;2.556939e+00
12;dlansy;64;0;1;1;0;300;171;121;12300;12300;278722862;-3.098429e-01;0.000000e+00;2.345704e-01;2.580075e+00
13;dlansy;64;0;1;1;0;300;171;121;12300;12300;2145174067;4.597866e-01;0.000000e+00;2.423804e-01;2.496940e+00
14;dlansy;64;0;1;1;0;300;171;121;12300;12300;1101513929;3.332689e-02;0.000000e+00;2.582364e-01;2.343625e+00
15;dlansy;64;0;1;1;0;300;171;121;12300;12300;1315634022;-3.123134e-01;0.000000e+00;2.572043e-01;2.353029e+00
16;dlansy;64;0;1;1;0;300;171;121;12300;12300;1369133069;-2.396071e-01;0.000000e+00;2.384426e-01;2.538175e+00
17;dlansy;64;0;1;1;0;300;171;121;12300;12300;1059961393;-4.405380e-01;0.000000e+00;2.419423e-01;2.501461e+00
18;dlansy;64;0;1;1;0;300;171;121;12300;12300;628175011;-8.299381e-02;0.000000e+00;2.353391e-01;2.571648e+00
19;dlansy;64;0;1;1;0;300;171;121;12300;12300;1131176229;-4.098657e-01;0.000000e+00;2.673996e-01;2.263314e+00
20;dlansy;64;0;1;1;0;300;171;121;14700;14700;859484421;4.760135e-01;0.000000e+00;4.169063e-01;2.073413e+00
21;dlansy;64;0;1;1;0;300;171;121;14700;14700;608413784;-2.172434e-01;0.000000e+00;3.901233e-01;2.215758e+00
22;dlansy;64;0;1;1;0;300;171;121;14700;14700;1734575198;3.559216e-01;0.000000e+00;3.650344e-01;2.368047e+00
23;dlansy;64;0;1;1;0;300;171;121;14700;14700;149798315;-3.746092e-01;0.000000e+00;3.951394e-01;2.187630e+00
24;dlansy;64;0;1;1;0;300;171;121;14700;14700;1129566413;3.212047e-02;0.000000e+00;3.770367e-01;2.292665e+00
25;dlansy;64;0;1;1;0;300;171;121;14700;14700;412776091;-3.302276e-01;0.000000e+00;3.991523e-01;2.165636e+00
26;dlansy;64;0;1;1;0;300;171;121;14700;14700;1911759956;1.752074e-01;0.000000e+00;3.769946e-01;2.292921e+00
27;dlansy;64;0;1;1;0;300;171;121;14700;14700;137806862;2.019681e-01;0.000000e+00;3.523619e-01;2.453213e+00
28;dlansy;64;0;1;1;0;300;171;121;14700;14700;982906996;2.243788e-01;0.000000e+00;3.605120e-01;2.397754e+00
29;dlansy;64;0;1;1;0;300;171;121;14700;14700;511702305;-1.333755e-01;0.000000e+00;4.007322e-01;2.157099e+00
30;dlansy;64;0;1;1;0;300;171;121;17100;17100;1937477084;-3.694056e-01;0.000000e+00;5.539025e-01;2.111758e+00
31;dlansy;64;0;1;1;0;300;171;121;17100;17100;572660336;-1.501402e-01;0.000000e+00;5.366915e-01;2.179480e+00
32;dlansy;64;0;1;1;0;300;171;121;17100;17100;805750846;-1.383824e-01;0.000000e+00;5.572772e-01;2.098971e+00
33;dlansy;64;0;1;1;0;300;171;121;17100;17100;1100661313;7.019839e-02;0.000000e+00;5.257964e-01;2.224641e+00
34;dlansy;64;0;1;1;0;300;171;121;17100;17100;1141616124;-2.465265e-01;0.000000e+00;5.458616e-01;2.142866e+00
35;dlansy;64;0;1;1;0;300;171;121;17100;17100;939819582;2.290667e-01;0.000000e+00;5.455744e-01;2.143994e+00
36;dlansy;64;0;1;1;0;300;171;121;17100;17100;1998898814;-2.416937e-01;0.000000e+00;5.093432e-01;2.296503e+00
37;dlansy;64;0;1;1;0;300;171;121;17100;17100;610515434;2.529978e-01;0.000000e+00;5.334727e-01;2.192630e+00
38;dlansy;64;0;1;1;0;300;171;121;17100;17100;1374344043;-2.102271e-01;0.000000e+00;5.337454e-01;2.191510e+00
39;dlansy;64;0;1;1;0;300;171;121;17100;17100;1477171087;-1.733443e-01;0.000000e+00;5.496953e-01;2.127921e+00
40;dlansy;64;0;1;1;0;300;171;121;19500;19500;945117276;5.373797e-02;0.000000e+00;7.400011e-01;2.055508e+00
41;dlansy;64;0;1;1;0;300;171;121;19500;19500;1780695788;-4.132594e-01;0.000000e+00;7.069190e-01;2.151701e+00
42;dlansy;64;0;1;1;0;300;171;121;19500;19500;491705403;-2.237386e-01;0.000000e+00;7.529199e-01;2.020239e+00
43;dlansy;64;0;1;1;0;300;171;121;19500;19500;752392754;-3.676393e-01;0.000000e+00;7.485328e-01;2.032079e+00
44;dlansy;64;0;1;1;0;300;171;121;19500;19500;2053999932;-4.222437e-01;0.000000e+00;7.349033e-01;2.069766e+00
45;dlansy;64;0;1;1;0;300;171;121;19500;19500;1411549676;3.886879e-01;0.000000e+00;6.476235e-01;2.348707e+00
46;dlansy;64;0;1;1;0;300;171;121;19500;19500;943947739;1.866877e-01;0.000000e+00;6.712414e-01;2.266067e+00
47;dlansy;64;0;1;1;0;300;171;121;19500;19500;855636226;-2.672705e-01;0.000000e+00;6.401773e-01;2.376026e+00
48;dlansy;64;0;1;1;0;300;171;121;19500;19500;1469348094;-2.187391e-01;0.000000e+00;7.022614e-01;2.165971e+00
49;dlansy;64;0;1;1;0;300;171;121;19500;19500;1036140795;-4.443388e-01;0.000000e+00;7.151855e-01;2.126830e+00
50;dlansy;64;0;1;1;0;300;171;121;21900;21900;2040651434;-4.033480e-01;0.000000e+00;8.779514e-01;2.185232e+00
51;dlansy;64;0;1;1;0;300;171;121;21900;21900;317097467;-1.054364e-01;0.000000e+00;8.916637e-01;2.151627e+00
52;dlansy;64;0;1;1;0;300;171;121;21900;21900;1376710097;-7.005727e-02;0.000000e+00;9.206078e-01;2.083979e+00
53;dlansy;64;0;1;1;0;300;171;121;21900;21900;1330573317;1.333576e-02;0.000000e+00;8.596178e-01;2.231838e+00
54;dlansy;64;0;1;1;0;300;171;121;21900;21900;1687926652;1.623906e-01;0.000000e+00;8.640983e-01;2.220265e+00
55;dlansy;64;0;1;1;0;300;171;121;21900;21900;959997301;7.965982e-02;0.000000e+00;8.360648e-01;2.294712e+00
56;dlansy;64;0;1;1;0;300;171;121;21900;21900;402724286;4.667617e-01;0.000000e+00;9.396007e-01;2.041854e+00
57;dlansy;64;0;1;1;0;300;171;121;21900;21900;1194953865;-1.382589e-02;0.000000e+00;8.713018e-01;2.201909e+00
58;dlansy;64;0;1;1;0;300;171;121;21900;21900;364228444;-4.175981e-01;0.000000e+00;8.190768e-01;2.342305e+00
59;dlansy;64;0;1;1;0;300;171;121;21900;21900;221558440;3.770548e-01;0.000000e+00;8.538706e-01;2.246860e+00
60;dlansy;64;0;1;1;0;300;171;121;24300;24300;1063958031;2.509115e-01;0.000000e+00;1.117278e+00;2.114118e+00
61;dlansy;64;0;1;1;0;300;171;121;24300;24300;2114738097;-4.980996e-01;0.000000e+00;1.039180e+00;2.273000e+00
62;dlansy;64;0;1;1;0;300;171;121;24300;24300;1469834481;1.376819e-01;0.000000e+00;1.130346e+00;2.089677e+00
63;dlansy;64;0;1;1;0;300;171;121;24300;24300;1610120709;-3.776547e-01;0.000000e+00;1.049265e+00;2.251154e+00
64;dlansy;64;0;1;1;0;300;171;121;24300;24300;631704567;-4.182928e-01;0.000000e+00;1.080356e+00;2.186370e+00
65;dlansy;64;0;1;1;0;300;171;121;24300;24300;1255179497;-4.129313e-01;0.000000e+00;1.053002e+00;2.243164e+00
66;dlansy;64;0;1;1;0;300;171;121;24300;24300;327254586;9.307665e-02;0.000000e+00;1.067523e+00;2.212652e+00
67;dlansy;64;0;1;1;0;300;171;121;24300;24300;269455306;7.441780e-02;0.000000e+00;1.046868e+00;2.256309e+00
68;dlansy;64;0;1;1;0;300;171;121;24300;24300;352406219;-2.374150e-01;0.000000e+00;1.011982e+00;2.334091e+00
69;dlansy;64;0;1;1;0;300;171;121;24300;24300;160051528;2.807858e-01;0.000000e+00;1.049695e+00;2.250231e+00
70;dlansy;64;0;1;1;0;300;171;121;26700;26700;112805732;-3.496214e-01;0.000000e+00;1.247057e+00;2.286717e+00
71;dlansy;64;0;1;1;0;300;171;121;26700;26700;378409503;2.744957e-01;0.000000e+00;1.305896e+00;2.183686e+00
72;dlansy;64;0;1;1;0;300;171;121;26700;26700;1713258270;1.571881e-01;0.000000e+00;1.256471e+00;2.269585e+00
73;dlansy;64;0;1;1;0;300;171;121;26700;26700;1409959708;4.905056e-01;0.000000e+00;1.338382e+00;2.130683e+00
74;dlansy;64;0;1;1;0;300;171;121;26700;26700;1373226340;9.546876e-03;0.000000e+00;1.310665e+00;2.175740e+00
75;dlansy;64;0;1;1;0;300;171;121;26700;26700;200747796;3.618905e-02;0.000000e+00;1.234685e+00;2.309631e+00
76;dlansy;64;0;1;1;0;300;171;121;26700;26700;1117142618;1.744033e-01;0.000000e+00;1.310188e+00;2.176533e+00
77;dlansy;64;0;1;1;0;300;171;121;26700;26700;150122846;2.422071e-01;0.000000e+00;1.287791e+00;2.214387e+00
78;dlansy;64;0;1;1;0;300;171;121;26700;26700;990892921;3.138195e-01;0.000000e+00;1.296703e+00;2.199167e+00
79;dlansy;64;0;1;1;0;300;171;121;26700;26700;1231192379;-4.633856e-02;0.000000e+00;1.328604e+00;2.146362e+00
80;dlansy;64;0;1;1;0;300;171;121;29100;29100;111537764;1.729012e-01;0.000000e+00;1.506566e+00;2.248396e+00
81;dlansy;64;0;1;1;0;300;171;121;29100;29100;2147469841;2.072774e-01;0.000000e+00;1.613314e+00;2.099627e+00
82;dlansy;64;0;1;1;0;300;171;121;29100;29100;1911165193;1.557539e-01;0.000000e+00;1.515919e+00;2.234523e+00
83;dlansy;64;0;1;1;0;300;171;121;29100;29100;2142757034;-1.699027e-01;0.000000e+00;1.515008e+00;2.235867e+00
84;dlansy;64;0;1;1;0;300;171;121;29100;29100;1869470124;9.513167e-02;0.000000e+00;1.524981e+00;2.221245e+00
85;dlansy;64;0;1;1;0;300;171;121;29100;29100;8936987;3.813653e-01;0.000000e+00;1.481587e+00;2.286303e+00
86;dlansy;64;0;1;1;0;300;171;121;29100;29100;1275373743;-3.952797e-01;0.000000e+00;1.462564e+00;2.316039e+00
87;dlansy;64;0;1;1;0;300;171;121;29100;29100;350322227;4.007014e-01;0.000000e+00;1.450430e+00;2.335415e+00
88;dlansy;64;0;1;1;0;300;171;121;29100;29100;1960709859;4.687312e-02;0.000000e+00;1.438844e+00;2.354221e+00
89;dlansy;64;0;1;1;0;300;171;121;29100;29100;771151432;-3.651100e-01;0.000000e+00;1.508182e+00;2.245987e+00
