Id;Function;threads;gpus;P;Q;mtxfmt;nb;n;nrhs;lda;ldb;seedA;seedB;tsub;time;gflops
0;dgesv;64;0;1;1;1;300;900;1;900;900;1681692777;1714636915;0.000000e+00;3.134799e-02;1.554214e+01
1;dgesv;64;0;1;1;1;300;900;1;900;900;1957747793;424238335;0.000000e+00;1.805711e-02;2.698189e+01
2;dgesv;64;0;1;1;1;300;900;1;900;900;719885386;1649760492;0.000000e+00;2.829003e-02;1.722214e+01
3;dgesv;64;0;1;1;1;300;900;1;900;900;596516649;1189641421;0.000000e+00;2.614689e-02;1.863376e+01
4;dgesv;64;0;1;1;1;300;900;1;900;900;1025202362;1350490027;0.000000e+00;1.384687e-02;3.518591e+01
5;dgesv;64;0;1;1;1;300;900;1;900;900;783368690;1102520059;0.000000e+00;1.785994e-02;2.727976e+01
6;dgesv;64;0;1;1;1;300;900;1;900;900;2044897763;1967513926;0.000000e+00;2.839684e-02;1.715736e+01
7;dgesv;64;0;1;1;1;300;900;1;900;900;1365180540;1540383426;0.000000e+00;1.791811e-02;2.719120e+01
8;dgesv;64;0;1;1;1;300;900;1;900;900;304089172;1303455736;0.000000e+00;1.737905e-02;2.803462e+01
9;dgesv;64;0;1;1;1;300;900;1;900;900;35005211;521595368;0.000000e+00;1.361990e-02;3.577228e+01
10;dgesv;64;0;1;1;1;300;1800;1;1800;1800;294702567;1726956429;0.000000e+00;4.722404e-02;8.243385e+01
11;dgesv;64;0;1;1;1;300;1800;1;1800;1800;336465782;861021530;0.000000e+00;3.320289e-02;1.172446e+02
12;dgesv;64;0;1;1;1;300;1800;1;1800;1800;278722862;233665123;0.000000e+00;2.671504e-02;1.457179e+02
13;dgesv;64;0;1;1;1;300;1800;1;1800;1800;2145174067;468703135;0.000000e+00;2.659988e-02;1.463487e+02
14;dgesv;64;0;1;1;1;300;1800;1;1800;1800;1101513929;1801979802;0.000000e+00;2.618718e-02;1.486552e+02
15;dgesv;64;0;1;1;1;300;1800;1;1800;1800;1315634022;635723058;0.000000e+00;2.673388e-02;1.456152e+02
16;dgesv;64;0;1;1;1;300;1800;1;1800;1800;1369133069;1125898167;0.000000e+00;2.661419e-02;1.462701e+02
17;dgesv;64;0;1;1;1;300;1800;1;1800;1800;1059961393;2089018456;0.000000e+00;2.666593e-02;1.459863e+02
18;dgesv;64;0;1;1;1;300;1800;1;1800;1800;628175011;1656478042;0.000000e+00;2.635694e-02;1.476977e+02
19;dgesv;64;0;1;1;1;300;1800;1;1800;1800;1131176229;1653377373;0.000000e+00;2.641177e-02;1.473911e+02
20;dgesv;64;0;1;1;1;300;2700;1;2700;2700;859484421;1914544919;0.000000e+00;4.479504e-02;2.931783e+02
21;dgesv;64;0;1;1;1;300;2700;1;2700;2700;608413784;756898537;0.000000e+00;4.985285e-02;2.634340e+02
22;dgesv;64;0;1;1;1;300;2700;1;2700;2700;1734575198;1973594324;0.000000e+00;4.707694e-02;2.789675e+02
23;dgesv;64;0;1;1;1;300;2700;1;2700;2700;149798315;2038664370;0.000000e+00;5.392599e-02;2.435363e+02
24;dgesv;64;0;1;1;1;300;2700;1;2700;2700;1129566413;184803526;0.000000e+00;4.258299e-02;3.084080e+02
25;dgesv;64;0;1;1;1;300;2700;1;2700;2700;412776091;1424268980;0.000000e+00;5.350995e-02;2.454298e+02
26;dgesv;64;0;1;1;1;300;2700;1;2700;2700;1911759956;749241873;0.000000e+00;4.963183e-02;2.646071e+02
27;dgesv;64;0;1;1;1;300;2700;1;2700;2700;137806862;42999170;0.000000e+00;4.548001e-02;2.887628e+02
28;dgesv;64;0;1;1;1;300;2700;1;2700;2700;982906996;135497281;0.000000e+00;4.554200e-02;2.883697e+02
29;dgesv;64;0;1;1;1;300;2700;1;2700;2700;511702305;2084420925;0.000000e+00;4.615498e-02;2.845400e+02
30;dgesv;64;0;1;1;1;300;3600;1;3600;3600;1937477084;1827336327;0.000000e+00;6.782508e-02;4.588780e+02
31;dgesv;64;0;1;1;1;300;3600;1;3600;3600;572660336;1159126505;0.000000e+00;6.569695e-02;4.737425e+02
32;dgesv;64;0;1;1;1;300;3600;1;3600;3600;805750846;1632621729;0.000000e+00;6.576300e-02;4.732667e+02
33;dgesv;64;0;1;1;1;300;3600;1;3600;3600;1100661313;1433925857;0.000000e+00;6.597900e-02;4.717173e+02
34;dgesv;64;0;1;1;1;300;3600;1;3600;3600;1141616124;84353895;0.000000e+00;6.315398e-02;4.928183e+02
35;dgesv;64;0;1;1;1;300;3600;1;3600;3600;939819582;2001100545;0.000000e+00;6.506395e-02;4.783515e+02
36;dgesv;64;0;1;1;1;300;3600;1;3600;3600;1998898814;1548233367;0.000000e+00;6.405878e-02;4.858575e+02
37;dgesv;64;0;1;1;1;300;3600;1;3600;3600;610515434;1585990364;0.000000e+00;6.451988e-02;4.823852e+02
38;dgesv;64;0;1;1;1;300;3600;1;3600;3600;1374344043;760313750;0.000000e+00;6.506801e-02;4.783217e+02
39;dgesv;64;0;1;1;1;300;3600;1;3600;3600;1477171087;356426808;0.000000e+00;6.814504e-02;4.567235e+02
40;dgesv;64;0;1;1;1;300;4500;1;4500;4500;945117276;1889947178;0.000000e+00;9.638405e-02;6.306062e+02
41;dgesv;64;0;1;1;1;300;4500;1;4500;4500;1780695788;709393584;0.000000e+00;9.533215e-02;6.375643e+02
42;dgesv;64;0;1;1;1;300;4500;1;4500;4500;491705403;1918502651;0.000000e+00;9.019613e-02;6.738690e+02
43;dgesv;64;0;1;1;1;300;4500;1;4500;4500;752392754;1474612399;0.000000e+00;9.025502e-02;6.734293e+02
44;dgesv;64;0;1;1;1;300;4500;1;4500;4500;2053999932;1264095060;0.000000e+00;9.953499e-02;6.106433e+02
45;dgesv;64;0;1;1;1;300;4500;1;4500;4500;1411549676;1843993368;0.000000e+00;9.524798e-02;6.381277e+02
46;dgesv;64;0;1;1;1;300;4500;1;4500;4500;943947739;1984210012;0.000000e+00;9.130716e-02;6.656693e+02
47;dgesv;64;0;1;1;1;300;4500;1;4500;4500;855636226;1749698586;0.000000e+00;1.000700e-01;6.073786e+02
48;dgesv;64;0;1;1;1;300;4500;1;4500;4500;1469348094;1956297539;0.000000e+00;9.916687e-02;6.129101e+02
49;dgesv;64;0;1;1;1;300;4500;1;4500;4500;1036140795;463480570;0.000000e+00;9.531999e-02;6.376456e+02
50;dgesv;64;0;1;1;1;300;5400;1;5400;5400;2040651434;1975960378;0.000000e+00;1.361861e-01;7.711486e+02
51;dgesv;64;0;1;1;1;300;5400;1;5400;5400;317097467;1892066601;0.000000e+00;1.426802e-01;7.360500e+02
52;dgesv;64;0;1;1;1;300;5400;1;5400;5400;1376710097;927612902;0.000000e+00;1.350400e-01;7.776933e+02
53;dgesv;64;0;1;1;1;300;5400;1;5400;5400;1330573317;603570492;0.000000e+00;1.444309e-01;7.271280e+02
54;dgesv;64;0;1;1;1;300;5400;1;5400;5400;1687926652;660260756;0.000000e+00;1.359189e-01;7.726650e+02
55;dgesv;64;0;1;1;1;300;5400;1;5400;5400;959997301;485560280;0.000000e+00;1.305101e-01;8.046867e+02
56;dgesv;64;0;1;1;1;300;5400;1;5400;5400;402724286;593209441;0.000000e+00;1.347220e-01;7.795293e+02
57;dgesv;64;0;1;1;1;300;5400;1;5400;5400;1194953865;894429689;0.000000e+00;1.376319e-01;7.630480e+02
58;dgesv;64;0;1;1;1;300;5400;1;5400;5400;364228444;1947346619;0.000000e+00;1.346660e-01;7.798536e+02
59;dgesv;64;0;1;1;1;300;5400;1;5400;5400;221558440;270744729;0.000000e+00;1.380768e-01;7.605894e+02
60;dgesv;64;0;1;1;1;300;6300;1;6300;6300;1063958031;1633108117;0.000000e+00;1.913989e-01;8.712567e+02
61;dgesv;64;0;1;1;1;300;6300;1;6300;6300;2114738097;2007905771;0.000000e+00;1.875780e-01;8.890039e+02
62;dgesv;64;0;1;1;1;300;6300;1;6300;6300;1469834481;822890675;0.000000e+00;1.928439e-01;8.647280e+02
63;dgesv;64;0;1;1;1;300;6300;1;6300;6300;1610120709;791698927;0.000000e+00;1.881909e-01;8.861082e+02
64;dgesv;64;0;1;1;1;300;6300;1;6300;6300;631704567;498777856;0.000000e+00;1.885300e-01;8.845147e+02
65;dgesv;64;0;1;1;1;300;6300;1;6300;6300;1255179497;524872353;0.000000e+00;1.872878e-01;8.903812e+02
66;dgesv;64;0;1;1;1;300;6300;1;6300;6300;327254586;1572276965;0.000000e+00;1.951790e-01;8.543826e+02
67;dgesv;64;0;1;1;1;300;6300;1;6300;6300;269455306;1703964683;0.000000e+00;1.893659e-01;8.806103e+02
68;dgesv;64;0;1;1;1;300;6300;1;6300;6300;352406219;1600028624;0.000000e+00;1.903701e-01;8.759650e+02
69;dgesv;64;0;1;1;1;300;6300;1;6300;6300;160051528;2040332871;0.000000e+00;1.879959e-01;8.870275e+02
70;dgesv;64;0;1;1;1;300;7200;1;7200;7200;112805732;1120048829;0.000000e+00;2.536669e-01;9.812466e+02
71;dgesv;64;0;1;1;1;300;7200;1;7200;7200;378409503;515530019;0.000000e+00;2.547340e-01;9.771358e+02
72;dgesv;64;0;1;1;1;300;7200;1;7200;7200;1713258270;1573363368;0.000000e+00;2.494371e-01;9.978859e+02
73;dgesv;64;0;1;1;1;300;7200;1;7200;7200;1409959708;2077486715;0.000000e+00;2.531350e-01;9.833085e+02
74;dgesv;64;0;1;1;1;300;7200;1;7200;7200;1373226340;1631518149;0.000000e+00;2.560229e-01;9.722167e+02
75;dgesv;64;0;1;1;1;300;7200;1;7200;7200;200747796;289700723;0.000000e+00;2.553651e-01;9.747210e+02
76;dgesv;64;0;1;1;1;300;7200;1;7200;7200;1117142618;168002245;0.000000e+00;2.519619e-01;9.878863e+02
77;dgesv;64;0;1;1;1;300;7200;1;7200;7200;150122846;439493451;0.000000e+00;2.547410e-01;9.771093e+02
78;dgesv;64;0;1;1;1;300;7200;1;7200;7200;990892921;1760243555;0.000000e+00;2.572699e-01;9.675045e+02
79;dgesv;64;0;1;1;1;300;7200;1;7200;7200;1231192379;1622597488;0.000000e+00;2.607501e-01;9.545914e+02
80;dgesv;64;0;1;1;1;300;8100;1;8100;8100;111537764;338888228;0.000000e+00;3.380311e-01;1.048402e+03
81;dgesv;64;0;1;1;1;300;8100;1;8100;8100;2147469841;438792350;0.000000e+00;3.503871e-01;1.011431e+03
82;dgesv;64;0;1;1;1;300;8100;1;8100;8100;1911165193;269441500;0.000000e+00;3.397300e-01;1.043159e+03
83;dgesv;64;0;1;1;1;300;8100;1;8100;8100;2142757034;116087764;0.000000e+00;3.465359e-01;1.022672e+03
84;dgesv;64;0;1;1;1;300;8100;1;8100;8100;1869470124;155324914;0.000000e+00;3.367901e-01;1.052265e+03
85;dgesv;64;0;1;1;1;300;8100;1;8100;8100;8936987;1982275856;0.000000e+00;3.427949e-01;1.033832e+03
86;dgesv;64;0;1;1;1;300;8100;1;8100;8100;1275373743;387346491;0.000000e+00;3.409131e-01;1.039539e+03
87;dgesv;64;0;1;1;1;300;8100;1;8100;8100;350322227;841148365;0.000000e+00;3.423429e-01;1.035197e+03
88;dgesv;64;0;1;1;1;300;8100;1;8100;8100;1960709859;1760281936;0.000000e+00;3.384030e-01;1.047250e+03
89;dgesv;64;0;1;1;1;300;8100;1;8100;8100;771151432;1186452551;0.000000e+00;3.480668e-01;1.018174e+03
90;dgesv;64;0;1;1;1;300;9000;1;9000;9000;1244316437;971899228;0.000000e+00;4.419739e-01;1.099887e+03
91;dgesv;64;0;1;1;1;300;9000;1;9000;9000;1476153275;213975407;0.000000e+00;4.381130e-01;1.109580e+03
92;dgesv;64;0;1;1;1;300;9000;1;9000;9000;1139901474;1626276121;0.000000e+00;4.406440e-01;1.103207e+03
93;dgesv;64;0;1;1;1;300;9000;1;9000;9000;653468858;2130794395;0.000000e+00;4.556620e-01;1.066847e+03
94;dgesv;64;0;1;1;1;300;9000;1;9000;9000;1239036029;1884661237;0.000000e+00;4.459040e-01;1.090193e+03
95;dgesv;64;0;1;1;1;300;9000;1;9000;9000;1605908235;1350573793;0.000000e+00;4.394159e-01;1.106290e+03
96;dgesv;64;0;1;1;1;300;9000;1;9000;9000;76065818;1605894428;0.000000e+00;4.465542e-01;1.088606e+03
97;dgesv;64;0;1;1;1;300;9000;1;9000;9000;1789366143;1987231011;0.000000e+00;4.429820e-01;1.097384e+03
98;dgesv;64;0;1;1;1;300;9000;1;9000;9000;1875335928;1784639529;0.000000e+00;4.454839e-01;1.091221e+03
99;dgesv;64;0;1;1;1;300;9000;1;9000;9000;2103318776;1597322404;0.000000e+00;4.446220e-01;1.093336e+03
0;dgesv;64;0;1;1;1;300;9900;1;9900;9900;1681692777;1714636915;0.000000e+00;5.172391e-01;1.250897e+03
1;dgesv;64;0;1;1;1;300;9900;1;9900;9900;1957747793;424238335;0.000000e+00;5.352499e-01;1.208805e+03
2;dgesv;64;0;1;1;1;300;9900;1;9900;9900;719885386;1649760492;0.000000e+00;5.606320e-01;1.154078e+03
3;dgesv;64;0;1;1;1;300;9900;1;9900;9900;596516649;1189641421;0.000000e+00;5.613720e-01;1.152557e+03
4;dgesv;64;0;1;1;1;300;9900;1;9900;9900;1025202362;1350490027;0.000000e+00;5.765600e-01;1.122195e+03
5;dgesv;64;0;1;1;1;300;9900;1;9900;9900;783368690;1102520059;0.000000e+00;5.794261e-01;1.116645e+03
6;dgesv;64;0;1;1;1;300;9900;1;9900;9900;2044897763;1967513926;0.000000e+00;5.796299e-01;1.116252e+03
7;dgesv;64;0;1;1;1;300;9900;1;9900;9900;1365180540;1540383426;0.000000e+00;5.864830e-01;1.103208e+03
8;dgesv;64;0;1;1;1;300;9900;1;9900;9900;304089172;1303455736;0.000000e+00;5.778711e-01;1.119649e+03
9;dgesv;64;0;1;1;1;300;9900;1;9900;9900;35005211;521595368;0.000000e+00;5.767119e-01;1.121900e+03
10;dgesv;64;0;1;1;1;300;12300;1;12300;12300;294702567;1726956429;0.000000e+00;9.711242e-01;1.277700e+03
11;dgesv;64;0;1;1;1;300;12300;1;12300;12300;336465782;861021530;0.000000e+00;9.979289e-01;1.243380e+03
12;dgesv;64;0;1;1;1;300;12300;1;12300;12300;278722862;233665123;0.000000e+00;1.032317e+00;1.201961e+03
13;dgesv;64;0;1;1;1;300;12300;1;12300;12300;2145174067;468703135;0.000000e+00;1.043862e+00;1.188667e+03
14;dgesv;64;0;1;1;1;300;12300;1;12300;12300;1101513929;1801979802;0.000000e+00;1.052503e+00;1.178909e+03
15;dgesv;64;0;1;1;1;300;12300;1;12300;12300;1315634022;635723058;0.000000e+00;1.067437e+00;1.162415e+03
16;dgesv;64;0;1;1;1;300;12300;1;12300;12300;1369133069;1125898167;0.000000e+00;1.062250e+00;1.168091e+03
17;dgesv;64;0;1;1;1;300;12300;1;12300;12300;1059961393;2089018456;0.000000e+00;1.065630e+00;1.164386e+03
18;dgesv;64;0;1;1;1;300;12300;1;12300;12300;628175011;1656478042;0.000000e+00;1.066258e+00;1.163701e+03
19;dgesv;64;0;1;1;1;300;12300;1;12300;12300;1131176229;1653377373;0.000000e+00;1.061130e+00;1.169324e+03
20;dgesv;64;0;1;1;1;300;14700;1;14700;14700;859484421;1914544919;0.000000e+00;1.621646e+00;1.306084e+03
21;dgesv;64;0;1;1;1;300;14700;1;14700;14700;608413784;756898537;0.000000e+00;1.687840e+00;1.254862e+03
22;dgesv;64;0;1;1;1;300;14700;1;14700;14700;1734575198;1973594324;0.000000e+00;1.730544e+00;1.223896e+03
23;dgesv;64;0;1;1;1;300;14700;1;14700;14700;149798315;2038664370;0.000000e+00;1.755400e+00;1.206566e+03
24;dgesv;64;0;1;1;1;300;14700;1;14700;14700;1129566413;184803526;0.000000e+00;1.776006e+00;1.192567e+03
25;dgesv;64;0;1;1;1;300;14700;1;14700;14700;412776091;1424268980;0.000000e+00;1.777811e+00;1.191356e+03
26;dgesv;64;0;1;1;1;300;14700;1;14700;14700;1911759956;749241873;0.000000e+00;1.776752e+00;1.192066e+03
27;dgesv;64;0;1;1;1;300;14700;1;14700;14700;137806862;42999170;0.000000e+00;1.778062e+00;1.191188e+03
28;dgesv;64;0;1;1;1;300;14700;1;14700;14700;982906996;135497281;0.000000e+00;1.773142e+00;1.194493e+03
29;dgesv;64;0;1;1;1;300;14700;1;14700;14700;511702305;2084420925;0.000000e+00;1.777696e+00;1.191433e+03
30;dgesv;64;0;1;1;1;300;17100;1;17100;17100;1937477084;1827336327;0.000000e+00;2.511495e+00;1.327461e+03
31;dgesv;64;0;1;1;1;300;17100;1;17100;17100;572660336;1159126505;0.000000e+00;2.656379e+00;1.255059e+03
32;dgesv;64;0;1;1;1;300;17100;1;17100;17100;805750846;1632621729;0.000000e+00;2.722925e+00;1.224387e+03
33;dgesv;64;0;1;1;1;300;17100;1;17100;17100;1100661313;1433925857;0.000000e+00;2.759169e+00;1.208303e+03
34;dgesv;64;0;1;1;1;300;17100;1;17100;17100;1141616124;84353895;0.000000e+00;2.775877e+00;1.201030e+03
35;dgesv;64;0;1;1;1;300;17100;1;17100;17100;939819582;2001100545;0.000000e+00;2.792963e+00;1.193683e+03
36;dgesv;64;0;1;1;1;300;17100;1;17100;17100;1998898814;1548233367;0.000000e+00;2.767279e+00;1.204762e+03
37;dgesv;64;0;1;1;1;300;17100;1;17100;17100;610515434;1585990364;0.000000e+00;2.780724e+00;1.198937e+03
38;dgesv;64;0;1;1;1;300;17100;1;17100;17100;1374344043;760313750;0.000000e+00;2.791720e+00;1.194215e+03
39;dgesv;64;0;1;1;1;300;17100;1;17100;17100;1477171087;356426808;0.000000e+00;2.797462e+00;1.191763e+03
40;dgesv;64;0;1;1;1;300;19500;1;19500;19500;945117276;1889947178;0.000000e+00;3.722666e+00;1.328032e+03
41;dgesv;64;0;1;1;1;300;19500;1;19500;19500;1780695788;709393584;0.000000e+00;3.898408e+00;1.268164e+03
42;dgesv;64;0;1;1;1;300;19500;1;19500;19500;491705403;1918502651;0.000000e+00;4.035106e+00;1.225202e+03
43;dgesv;64;0;1;1;1;300;19500;1;19500;19500;752392754;1474612399;0.000000e+00;4.060061e+00;1.217671e+03
44;dgesv;64;0;1;1;1;300;19500;1;19500;19500;2053999932;1264095060;0.000000e+00;4.105832e+00;1.204097e+03
45;dgesv;64;0;1;1;1;300;19500;1;19500;19500;1411549676;1843993368;0.000000e+00;4.117515e+00;1.200681e+03
46;dgesv;64;0;1;1;1;300;19500;1;19500;19500;943947739;1984210012;0.000000e+00;4.124788e+00;1.198563e+03
47;dgesv;64;0;1;1;1;300;19500;1;19500;19500;855636226;1749698586;0.000000e+00;4.128537e+00;1.197475e+03
48;dgesv;64;0;1;1;1;300;19500;1;19500;19500;1469348094;1956297539;0.000000e+00;4.112414e+00;1.202170e+03
49;dgesv;64;0;1;1;1;300;19500;1;19500;19500;1036140795;463480570;0.000000e+00;4.125095e+00;1.198474e+03
50;dgesv;64;0;1;1;1;300;21900;1;21900;21900;2040651434;1975960378;0.000000e+00;5.360654e+00;1.306375e+03
51;dgesv;64;0;1;1;1;300;21900;1;21900;21900;317097467;1892066601;0.000000e+00;5.550932e+00;1.261595e+03
52;dgesv;64;0;1;1;1;300;21900;1;21900;21900;1376710097;927612902;0.000000e+00;5.734241e+00;1.221265e+03
53;dgesv;64;0;1;1;1;300;21900;1;21900;21900;1330573317;603570492;0.000000e+00;5.781989e+00;1.211179e+03
54;dgesv;64;0;1;1;1;300;21900;1;21900;21900;1687926652;660260756;0.000000e+00;5.862015e+00;1.194645e+03
55;dgesv;64;0;1;1;1;300;21900;1;21900;21900;959997301;485560280;0.000000e+00;5.840101e+00;1.199127e+03
56;dgesv;64;0;1;1;1;300;21900;1;21900;21900;402724286;593209441;0.000000e+00;5.794796e+00;1.208502e+03
57;dgesv;64;0;1;1;1;300;21900;1;21900;21900;1194953865;894429689;0.000000e+00;5.832402e+00;1.200710e+03
58;dgesv;64;0;1;1;1;300;21900;1;21900;21900;364228444;1947346619;0.000000e+00;5.835438e+00;1.200086e+03
59;dgesv;64;0;1;1;1;300;21900;1;21900;21900;221558440;270744729;0.000000e+00;5.878298e+00;1.191336e+03
60;dgesv;64;0;1;1;1;300;24300;1;24300;24300;1063958031;1633108117;0.000000e+00;7.362816e+00;1.299343e+03
61;dgesv;64;0;1;1;1;300;24300;1;24300;24300;2114738097;2007905771;0.000000e+00;7.596575e+00;1.259360e+03
62;dgesv;64;0;1;1;1;300;24300;1;24300;24300;1469834481;822890675;0.000000e+00;7.795155e+00;1.227278e+03
63;dgesv;64;0;1;1;1;300;24300;1;24300;24300;1610120709;791698927;0.000000e+00;7.817559e+00;1.223761e+03
64;dgesv;64;0;1;1;1;300;24300;1;24300;24300;631704567;498777856;0.000000e+00;7.954383e+00;1.202711e+03
65;dgesv;64;0;1;1;1;300;24300;1;24300;24300;1255179497;524872353;0.000000e+00;7.997845e+00;1.196175e+03
66;dgesv;64;0;1;1;1;300;24300;1;24300;24300;327254586;1572276965;0.000000e+00;8.004499e+00;1.195181e+03
67;dgesv;64;0;1;1;1;300;24300;1;24300;24300;269455306;1703964683;0.000000e+00;8.072518e+00;1.185110e+03
68;dgesv;64;0;1;1;1;300;24300;1;24300;24300;352406219;1600028624;0.000000e+00;8.015794e+00;1.193497e+03
69;dgesv;64;0;1;1;1;300;24300;1;24300;24300;160051528;2040332871;0.000000e+00;8.057322e+00;1.187345e+03
70;dgesv;64;0;1;1;1;300;26700;1;26700;26700;112805732;1120048829;0.000000e+00;9.696505e+00;1.308772e+03
71;dgesv;64;0;1;1;1;300;26700;1;26700;26700;378409503;515530019;0.000000e+00;1.005602e+01;1.261981e+03
72;dgesv;64;0;1;1;1;300;26700;1;26700;26700;1713258270;1573363368;0.000000e+00;1.026796e+01;1.235934e+03
73;dgesv;64;0;1;1;1;300;26700;1;26700;26700;1409959708;2077486715;0.000000e+00;1.042849e+01;1.216908e+03
74;dgesv;64;0;1;1;1;300;26700;1;26700;26700;1373226340;1631518149;0.000000e+00;1.045629e+01;1.213673e+03
75;dgesv;64;0;1;1;1;300;26700;1;26700;26700;200747796;289700723;0.000000e+00;1.049373e+01;1.209343e+03
76;dgesv;64;0;1;1;1;300;26700;1;26700;26700;1117142618;168002245;0.000000e+00;1.046835e+01;1.212274e+03
77;dgesv;64;0;1;1;1;300;26700;1;26700;26700;150122846;439493451;0.000000e+00;1.049417e+01;1.209291e+03
78;dgesv;64;0;1;1;1;300;26700;1;26700;26700;990892921;1760243555;0.000000e+00;1.048617e+01;1.210215e+03
79;dgesv;64;0;1;1;1;300;26700;1;26700;26700;1231192379;1622597488;0.000000e+00;1.054208e+01;1.203795e+03
80;dgesv;64;0;1;1;1;300;29100;1;29100;29100;111537764;338888228;0.000000e+00;1.243654e+01;1.321058e+03
81;dgesv;64;0;1;1;1;300;29100;1;29100;29100;2147469841;438792350;0.000000e+00;1.283592e+01;1.279954e+03
82;dgesv;64;0;1;1;1;300;29100;1;29100;29100;1911165193;269441500;0.000000e+00;1.303924e+01;1.259996e+03
83;dgesv;64;0;1;1;1;300;29100;1;29100;29100;2142757034;116087764;0.000000e+00;1.319366e+01;1.245249e+03
84;dgesv;64;0;1;1;1;300;29100;1;29100;29100;1869470124;155324914;0.000000e+00;1.324514e+01;1.240408e+03
85;dgesv;64;0;1;1;1;300;29100;1;29100;29100;8936987;1982275856;0.000000e+00;1.328224e+01;1.236944e+03
86;dgesv;64;0;1;1;1;300;29100;1;29100;29100;1275373743;387346491;0.000000e+00;1.328175e+01;1.236989e+03
87;dgesv;64;0;1;1;1;300;29100;1;29100;29100;350322227;841148365;0.000000e+00;1.338639e+01;1.227320e+03
88;dgesv;64;0;1;1;1;300;29100;1;29100;29100;1960709859;1760281936;0.000000e+00;1.342050e+01;1.224200e+03
89;dgesv;64;0;1;1;1;300;29100;1;29100;29100;771151432;1186452551;0.000000e+00;1.333387e+01;1.232155e+03
