Id;Function;threads;gpus;P;Q;mtxfmt;nb;side;uplo;trans;diag;m;n;lda;ldb;alpha;seedA;seedB;tsub;time;gflops
0;dtrsm;64;0;1;1;0;300;141;121;111;131;900;900;900;900;4.254358e-01;1957747793;424238335;0.000000e+00;1.495910e-02;4.878704e+01
1;dtrsm;64;0;1;1;0;300;141;121;111;131;900;900;900;900;-1.846424e-01;1649760492;596516649;0.000000e+00;1.523209e-02;4.791268e+01
2;dtrsm;64;0;1;1;0;300;141;121;111;131;900;900;900;900;-3.517510e-01;1025202362;1350490027;0.000000e+00;2.479696e-02;2.943143e+01
3;dtrsm;64;0;1;1;0;300;141;121;111;131;900;900;900;900;-4.247478e-01;1102520059;2044897763;0.000000e+00;2.011418e-02;3.628335e+01
4;dtrsm;64;0;1;1;0;300;141;121;111;131;900;900;900;900;4.141058e-01;1365180540;1540383426;0.000000e+00;1.097512e-02;6.649675e+01
5;dtrsm;64;0;1;1;0;300;141;121;111;131;900;900;900;900;4.499299e-01;1303455736;35005211;0.000000e+00;1.087403e-02;6.711493e+01
6;dtrsm;64;0;1;1;0;300;141;121;111;131;900;900;900;900;-1.757242e-01;294702567;1726956429;0.000000e+00;1.904893e-02;3.831239e+01
7;dtrsm;64;0;1;1;0;300;141;121;111;131;900;900;900;900;4.401991e-01;861021530;278722862;0.000000e+00;1.007009e-02;7.247307e+01
8;dtrsm;64;0;1;1;0;300;141;121;111;131;900;900;900;900;-3.098429e-01;2145174067;468703135;0.000000e+00;1.805711e-02;4.041677e+01
9;dtrsm;64;0;1;1;0;300;141;121;111;131;900;900;900;900;3.112590e-01;1801979802;1315634022;0.000000e+00;9.208918e-03;7.925036e+01
10;dtrsm;64;0;1;1;0;300;141;121;111;131;1800;1800;1800;1800;-3.123134e-01;1369133069;1125898167;0.000000e+00;4.342508e-02;1.343749e+02
11;dtrsm;64;0;1;1;0;300;141;121;111;131;1800;1800;1800;1800;2.196488e-02;2089018456;628175011;0.000000e+00;4.326892e-02;1.348599e+02
12;dtrsm;64;0;1;1;0;300;141;121;111;131;1800;1800;1800;1800;-8.299381e-02;1131176229;1653377373;0.000000e+00;5.017400e-02;1.163001e+02
13;dtrsm;64;0;1;1;0;300;141;121;111;131;1800;1800;1800;1800;1.651013e-01;1914544919;608413784;0.000000e+00;2.075005e-02;2.812158e+02
14;dtrsm;64;0;1;1;0;300;141;121;111;131;1800;1800;1800;1800;-2.172434e-01;1734575198;1973594324;0.000000e+00;2.181602e-02;2.674751e+02
15;dtrsm;64;0;1;1;0;300;141;121;111;131;1800;1800;1800;1800;4.926079e-01;2038664370;1129566413;0.000000e+00;2.086401e-02;2.796797e+02
16;dtrsm;64;0;1;1;0;300;141;121;111;131;1800;1800;1800;1800;3.212047e-02;412776091;1424268980;0.000000e+00;2.168298e-02;2.691162e+02
17;dtrsm;64;0;1;1;0;300;141;121;111;131;1800;1800;1800;1800;7.179686e-02;749241873;137806862;0.000000e+00;2.101183e-02;2.777121e+02
18;dtrsm;64;0;1;1;0;300;141;121;111;131;1800;1800;1800;1800;2.019681e-01;982906996;135497281;0.000000e+00;2.160978e-02;2.700277e+02
19;dtrsm;64;0;1;1;0;300;141;121;111;131;1800;1800;1800;1800;-4.932447e-01;2084420925;1937477084;0.000000e+00;2.065802e-02;2.824686e+02
20;dtrsm;64;0;1;1;0;300;141;121;111;131;2700;2700;2700;2700;-3.694056e-01;572660336;1159126505;0.000000e+00;3.488588e-02;5.644200e+02
21;dtrsm;64;0;1;1;0;300;141;121;111;131;2700;2700;2700;2700;2.390371e-01;1632621729;1100661313;0.000000e+00;3.432798e-02;5.735930e+02
22;dtrsm;64;0;1;1;0;300;141;121;111;131;2700;2700;2700;2700;7.019839e-02;1141616124;84353895;0.000000e+00;3.283811e-02;5.996171e+02
23;dtrsm;64;0;1;1;0;300;141;121;111;131;2700;2700;2700;2700;-4.916174e-01;2001100545;1998898814;0.000000e+00;3.383803e-02;5.818982e+02
24;dtrsm;64;0;1;1;0;300;141;121;111;131;2700;2700;2700;2700;-2.416937e-01;610515434;1585990364;0.000000e+00;3.331089e-02;5.911067e+02
25;dtrsm;64;0;1;1;0;300;141;121;111;131;2700;2700;2700;2700;-3.772229e-02;760313750;1477171087;0.000000e+00;3.296804e-02;5.972538e+02
26;dtrsm;64;0;1;1;0;300;141;121;111;131;2700;2700;2700;2700;-1.733443e-01;945117276;1889947178;0.000000e+00;3.370214e-02;5.842446e+02
27;dtrsm;64;0;1;1;0;300;141;121;111;131;2700;2700;2700;2700;3.414286e-01;709393584;491705403;0.000000e+00;3.375292e-02;5.833656e+02
28;dtrsm;64;0;1;1;0;300;141;121;111;131;2700;2700;2700;2700;-2.237386e-01;752392754;1474612399;0.000000e+00;3.378701e-02;5.827769e+02
29;dtrsm;64;0;1;1;0;300;141;121;111;131;2700;2700;2700;2700;-1.543593e-01;1264095060;1411549676;0.000000e+00;3.523111e-02;5.588892e+02
30;dtrsm;64;0;1;1;0;300;141;121;111;131;3600;3600;3600;3600;3.886879e-01;943947739;1984210012;0.000000e+00;4.838490e-02;9.645355e+02
31;dtrsm;64;0;1;1;0;300;141;121;111;131;3600;3600;3600;3600;-3.211111e-01;1749698586;1469348094;0.000000e+00;4.954696e-02;9.419137e+02
32;dtrsm;64;0;1;1;0;300;141;121;111;131;3600;3600;3600;3600;-2.187391e-01;1036140795;463480570;0.000000e+00;4.891086e-02;9.541636e+02
33;dtrsm;64;0;1;1;0;300;141;121;111;131;3600;3600;3600;3600;3.797349e-01;1975960378;317097467;0.000000e+00;4.937196e-02;9.452524e+02
34;dtrsm;64;0;1;1;0;300;141;121;111;131;3600;3600;3600;3600;-1.054364e-01;1376710097;927612902;0.000000e+00;5.031896e-02;9.274628e+02
35;dtrsm;64;0;1;1;0;300;141;121;111;131;3600;3600;3600;3600;-4.388869e-03;603570492;1687926652;0.000000e+00;5.130386e-02;9.096578e+02
36;dtrsm;64;0;1;1;0;300;141;121;111;131;3600;3600;3600;3600;1.623906e-01;959997301;485560280;0.000000e+00;4.927897e-02;9.470359e+02
37;dtrsm;64;0;1;1;0;300;141;121;111;131;3600;3600;3600;3600;6.417844e-02;593209441;1194953865;0.000000e+00;4.913402e-02;9.498300e+02
38;dtrsm;64;0;1;1;0;300;141;121;111;131;3600;3600;3600;3600;-1.382589e-02;364228444;1947346619;0.000000e+00;4.979801e-02;9.371651e+02
39;dtrsm;64;0;1;1;0;300;141;121;111;131;3600;3600;3600;3600;4.665847e-01;270744729;1063958031;0.000000e+00;4.939699e-02;9.447733e+02
40;dtrsm;64;0;1;1;0;300;141;121;111;131;4500;4500;4500;4500;2.509115e-01;2114738097;2007905771;0.000000e+00;7.874393e-02;1.157489e+03
41;dtrsm;64;0;1;1;0;300;141;121;111;131;4500;4500;4500;4500;2.856491e-01;822890675;1610120709;0.000000e+00;7.685614e-02;1.185920e+03
42;dtrsm;64;0;1;1;0;300;141;121;111;131;4500;4500;4500;4500;-3.776547e-01;631704567;498777856;0.000000e+00;7.767606e-02;1.173402e+03
43;dtrsm;64;0;1;1;0;300;141;121;111;131;4500;4500;4500;4500;2.300707e-02;524872353;327254586;0.000000e+00;7.609296e-02;1.197815e+03
44;dtrsm;64;0;1;1;0;300;141;121;111;131;4500;4500;4500;4500;9.307665e-02;269455306;1703964683;0.000000e+00;8.087897e-02;1.126934e+03
45;dtrsm;64;0;1;1;0;300;141;121;111;131;4500;4500;4500;4500;-1.289308e-01;1600028624;160051528;0.000000e+00;7.980490e-02;1.142101e+03
46;dtrsm;64;0;1;1;0;300;141;121;111;131;4500;4500;4500;4500;2.807858e-01;112805732;1120048829;0.000000e+00;7.728791e-02;1.179295e+03
47;dtrsm;64;0;1;1;0;300;141;121;111;131;4500;4500;4500;4500;2.084955e-01;515530019;1713258270;0.000000e+00;7.729006e-02;1.179262e+03
48;dtrsm;64;0;1;1;0;300;141;121;111;131;4500;4500;4500;4500;1.571881e-01;1409959708;2077486715;0.000000e+00;8.052206e-02;1.131929e+03
49;dtrsm;64;0;1;1;0;300;141;121;111;131;4500;4500;4500;4500;1.799312e-01;1631518149;200747796;0.000000e+00;7.777405e-02;1.171924e+03
50;dtrsm;64;0;1;1;0;300;141;121;111;131;5400;5400;5400;5400;3.618905e-02;1117142618;168002245;0.000000e+00;1.276410e-01;1.233876e+03
51;dtrsm;64;0;1;1;0;300;141;121;111;131;5400;5400;5400;5400;3.861393e-01;439493451;990892921;0.000000e+00;1.245170e-01;1.264833e+03
52;dtrsm;64;0;1;1;0;300;141;121;111;131;5400;5400;5400;5400;3.138195e-01;1231192379;1622597488;0.000000e+00;1.279979e-01;1.230436e+03
53;dtrsm;64;0;1;1;0;300;141;121;111;131;5400;5400;5400;5400;3.358679e-01;338888228;2147469841;0.000000e+00;1.286500e-01;1.224199e+03
54;dtrsm;64;0;1;1;0;300;141;121;111;131;5400;5400;5400;5400;2.072774e-01;1911165193;269441500;0.000000e+00;1.258459e-01;1.251476e+03
55;dtrsm;64;0;1;1;0;300;141;121;111;131;5400;5400;5400;5400;-2.810129e-01;116087764;1869470124;0.000000e+00;1.298349e-01;1.213026e+03
56;dtrsm;64;0;1;1;0;300;141;121;111;131;5400;5400;5400;5400;9.513167e-02;8936987;1982275856;0.000000e+00;1.290159e-01;1.220727e+03
57;dtrsm;64;0;1;1;0;300;141;121;111;131;5400;5400;5400;5400;-4.094893e-01;387346491;350322227;0.000000e+00;1.275930e-01;1.234340e+03
58;dtrsm;64;0;1;1;0;300;141;121;111;131;5400;5400;5400;5400;4.007014e-01;1960709859;1760281936;0.000000e+00;1.269281e-01;1.240806e+03
59;dtrsm;64;0;1;1;0;300;141;121;111;131;5400;5400;5400;5400;-2.607432e-01;1186452551;1244316437;0.000000e+00;1.281261e-01;1.229204e+03
60;dtrsm;64;0;1;1;0;300;141;121;111;131;6300;6300;6300;6300;2.998675e-01;1476153275;213975407;0.000000e+00;1.998439e-01;1.251410e+03
61;dtrsm;64;0;1;1;0;300;141;121;111;131;6300;6300;6300;6300;-8.843738e-02;1626276121;653468858;0.000000e+00;1.955910e-01;1.278621e+03
62;dtrsm;64;0;1;1;0;300;141;121;111;131;6300;6300;6300;6300;-4.940599e-01;1239036029;1884661237;0.000000e+00;2.022400e-01;1.236584e+03
63;dtrsm;64;0;1;1;0;300;141;121;111;131;6300;6300;6300;6300;3.076514e-01;1350573793;76065818;0.000000e+00;2.041280e-01;1.225146e+03
64;dtrsm;64;0;1;1;0;300;141;121;111;131;6300;6300;6300;6300;-4.585682e-01;1789366143;1987231011;0.000000e+00;1.990209e-01;1.256585e+03
65;dtrsm;64;0;1;1;0;300;141;121;111;131;6300;6300;6300;6300;-4.578138e-01;1784639529;2103318776;0.000000e+00;2.022972e-01;1.236234e+03
66;dtrsm;64;0;1;1;0;300;141;121;111;131;6300;6300;6300;6300;1.535754e-01;1939964443;2112255763;0.000000e+00;1.977649e-01;1.264566e+03
67;dtrsm;64;0;1;1;0;300;141;121;111;131;6300;6300;6300;6300;-2.471817e-02;1067854538;352118606;0.000000e+00;2.003260e-01;1.248399e+03
68;dtrsm;64;0;1;1;0;300;141;121;111;131;6300;6300;6300;6300;3.241933e-01;1909002904;165344818;0.000000e+00;1.969678e-01;1.269683e+03
69;dtrsm;64;0;1;1;0;300;141;121;111;131;6300;6300;6300;6300;2.191162e-01;532670688;1351797369;0.000000e+00;1.969569e-01;1.269754e+03
70;dtrsm;64;0;1;1;0;300;141;121;111;131;7200;7200;7200;7200;-2.836412e-02;1504569917;680466996;0.000000e+00;3.013880e-01;1.238602e+03
71;dtrsm;64;0;1;1;0;300;141;121;111;131;7200;7200;7200;7200;-3.223358e-01;496987743;159259470;0.000000e+00;2.993000e-01;1.247243e+03
72;dtrsm;64;0;1;1;0;300;141;121;111;131;7200;7200;7200;7200;6.319147e-02;480298490;1398295499;0.000000e+00;3.036389e-01;1.229420e+03
73;dtrsm;64;0;1;1;0;300;141;121;111;131;7200;7200;7200;7200;6.321520e-03;2086206725;601385644;0.000000e+00;2.993360e-01;1.247093e+03
74;dtrsm;64;0;1;1;0;300;141;121;111;131;7200;7200;7200;7200;-4.403555e-01;1544617505;243268139;0.000000e+00;2.957280e-01;1.262308e+03
75;dtrsm;64;0;1;1;0;300;141;121;111;131;7200;7200;7200;7200;-3.357130e-01;1272469786;2027907669;0.000000e+00;2.968662e-01;1.257468e+03
76;dtrsm;64;0;1;1;0;300;141;121;111;131;7200;7200;7200;7200;4.440272e-01;722308542;1820388464;0.000000e+00;2.917988e-01;1.279305e+03
77;dtrsm;64;0;1;1;0;300;141;121;111;131;7200;7200;7200;7200;2.770102e-02;6939507;740759355;0.000000e+00;3.042600e-01;1.226911e+03
78;dtrsm;64;0;1;1;0;300;141;121;111;131;7200;7200;7200;7200;-3.466130e-01;1789376348;502278611;0.000000e+00;2.995360e-01;1.246260e+03
79;dtrsm;64;0;1;1;0;300;141;121;111;131;7200;7200;7200;7200;-2.659684e-01;1037127828;1034949299;0.000000e+00;2.965600e-01;1.258766e+03
80;dtrsm;64;0;1;1;0;300;141;121;111;131;8100;8100;8100;8100;2.976161e-01;1529195746;392035568;0.000000e+00;4.264681e-01;1.246299e+03
81;dtrsm;64;0;1;1;0;300;141;121;111;131;8100;8100;8100;8100;4.068633e-01;87755422;889023311;0.000000e+00;4.252281e-01;1.249933e+03
82;dtrsm;64;0;1;1;0;300;141;121;111;131;8100;8100;8100;8100;-2.963290e-01;1447267605;1369321801;0.000000e+00;4.255021e-01;1.249128e+03
83;dtrsm;64;0;1;1;0;300;141;121;111;131;8100;8100;8100;8100;-5.780017e-02;396473730;1308044878;0.000000e+00;4.335368e-01;1.225978e+03
84;dtrsm;64;0;1;1;0;300;141;121;111;131;8100;8100;8100;8100;3.002688e-01;1569229320;705178736;0.000000e+00;4.271231e-01;1.244388e+03
85;dtrsm;64;0;1;1;0;300;141;121;111;131;8100;8100;8100;8100;-1.667948e-01;434248626;1977648522;0.000000e+00;4.300821e-01;1.235826e+03
86;dtrsm;64;0;1;1;0;300;141;121;111;131;8100;8100;8100;8100;-2.996627e-01;1402586708;552473416;0.000000e+00;4.375641e-01;1.214694e+03
87;dtrsm;64;0;1;1;0;300;141;121;111;131;8100;8100;8100;8100;-1.582027e-01;188213258;559412924;0.000000e+00;4.258599e-01;1.248078e+03
88;dtrsm;64;0;1;1;0;300;141;121;111;131;8100;8100;8100;8100;1.008051e-01;1473442062;201305624;0.000000e+00;4.257672e-01;1.248350e+03
89;dtrsm;64;0;1;1;0;300;141;121;111;131;8100;8100;8100;8100;3.214526e-01;776532036;1238433452;0.000000e+00;4.359620e-01;1.219158e+03
90;dtrsm;64;0;1;1;0;300;141;121;111;131;9000;9000;9000;9000;8.189833e-02;1431419379;620145550;0.000000e+00;5.887911e-01;1.238268e+03
91;dtrsm;64;0;1;1;0;300;141;121;111;131;9000;9000;9000;9000;-2.823082e-01;619290071;707900973;0.000000e+00;6.003821e-01;1.214362e+03
92;dtrsm;64;0;1;1;0;300;141;121;111;131;9000;9000;9000;9000;-1.961373e-01;2113903881;7684930;0.000000e+00;5.985122e-01;1.218156e+03
93;dtrsm;64;0;1;1;0;300;141;121;111;131;9000;9000;9000;9000;-1.271150e-01;711845894;404158660;0.000000e+00;5.853131e-01;1.245626e+03
94;dtrsm;64;0;1;1;0;300;141;121;111;131;9000;9000;9000;9000;-9.802407e-02;2058657199;1973387981;0.000000e+00;5.973241e-01;1.220579e+03
95;dtrsm;64;0;1;1;0;300;141;121;111;131;9000;9000;9000;9000;4.591011e-01;1501252996;260152959;0.000000e+00;5.909181e-01;1.233811e+03
96;dtrsm;64;0;1;1;0;300;141;121;111;131;9000;9000;9000;9000;-6.245404e-02;824272813;1662739668;0.000000e+00;6.004951e-01;1.214133e+03
97;dtrsm;64;0;1;1;0;300;141;121;111;131;9000;9000;9000;9000;-7.182229e-02;1967681095;1850952926;0.000000e+00;5.928750e-01;1.229738e+03
98;dtrsm;64;0;1;1;0;300;141;121;111;131;9000;9000;9000;9000;-3.349140e-01;1704365084;1176911340;0.000000e+00;5.977690e-01;1.219670e+03
99;dtrsm;64;0;1;1;0;300;141;121;111;131;9000;9000;9000;9000;-9.329343e-02;1943327684;1953443376;0.000000e+00;5.998750e-01;1.215388e+03
0;dtrsm;64;0;1;1;0;300;141;121;111;131;9900;9900;9900;9900;4.254358e-01;1957747793;424238335;0.000000e+00;6.020939e-01;1.611704e+03
1;dtrsm;64;0;1;1;0;300;141;121;111;131;9900;9900;9900;9900;-1.846424e-01;1649760492;596516649;0.000000e+00;5.979602e-01;1.622845e+03
2;dtrsm;64;0;1;1;0;300;141;121;111;131;9900;9900;9900;9900;-3.517510e-01;1025202362;1350490027;0.000000e+00;5.878582e-01;1.650733e+03
3;dtrsm;64;0;1;1;0;300;141;121;111;131;9900;9900;9900;9900;-4.247478e-01;1102520059;2044897763;0.000000e+00;6.121891e-01;1.585126e+03
4;dtrsm;64;0;1;1;0;300;141;121;111;131;9900;9900;9900;9900;4.141058e-01;1365180540;1540383426;0.000000e+00;5.826731e-01;1.665423e+03
5;dtrsm;64;0;1;1;0;300;141;121;111;131;9900;9900;9900;9900;4.499299e-01;1303455736;35005211;0.000000e+00;6.038930e-01;1.606902e+03
6;dtrsm;64;0;1;1;0;300;141;121;111;131;9900;9900;9900;9900;-1.757242e-01;294702567;1726956429;0.000000e+00;6.204031e-01;1.564140e+03
7;dtrsm;64;0;1;1;0;300;141;121;111;131;9900;9900;9900;9900;4.401991e-01;861021530;278722862;0.000000e+00;6.285920e-01;1.543763e+03
8;dtrsm;64;0;1;1;0;300;141;121;111;131;9900;9900;9900;9900;-3.098429e-01;2145174067;468703135;0.000000e+00;5.939188e-01;1.633888e+03
9;dtrsm;64;0;1;1;0;300;141;121;111;131;9900;9900;9900;9900;3.112590e-01;1801979802;1315634022;0.000000e+00;5.789540e-01;1.676121e+03
10;dtrsm;64;0;1;1;0;300;141;121;111;131;12300;12300;12300;12300;-3.123134e-01;1369133069;1125898167;0.000000e+00;1.088345e+00;1.709952e+03
11;dtrsm;64;0;1;1;0;300;141;121;111;131;12300;12300;12300;12300;2.196488e-02;2089018456;628175011;0.000000e+00;1.183425e+00;1.572569e+03
12;dtrsm;64;0;1;1;0;300;141;121;111;131;12300;12300;12300;12300;-8.299381e-02;1131176229;1653377373;0.000000e+00;1.175368e+00;1.583349e+03
13;dtrsm;64;0;1;1;0;300;141;121;111;131;12300;12300;12300;12300;1.651013e-01;1914544919;608413784;0.000000e+00;1.218052e+00;1.527864e+03
14;dtrsm;64;0;1;1;0;300;141;121;111;131;12300;12300;12300;12300;-2.172434e-01;1734575198;1973594324;0.000000e+00;1.320570e+00;1.409254e+03
15;dtrsm;64;0;1;1;0;300;141;121;111;131;12300;12300;12300;12300;4.926079e-01;2038664370;1129566413;0.000000e+00;1.275265e+00;1.459319e+03
16;dtrsm;64;0;1;1;0;300;141;121;111;131;12300;12300;12300;12300;3.212047e-02;412776091;1424268980;0.000000e+00;1.288448e+00;1.444387e+03
17;dtrsm;64;0;1;1;0;300;141;121;111;131;12300;12300;12300;12300;7.179686e-02;749241873;137806862;0.000000e+00;1.302232e+00;1.429099e+03
18;dtrsm;64;0;1;1;0;300;141;121;111;131;12300;12300;12300;12300;2.019681e-01;982906996;135497281;0.000000e+00;1.206616e+00;1.542345e+03
19;dtrsm;64;0;1;1;0;300;141;121;111;131;12300;12300;12300;12300;-4.932447e-01;2084420925;1937477084;0.000000e+00;1.338781e+00;1.390084e+03
20;dtrsm;64;0;1;1;0;300;141;121;111;131;14700;14700;14700;14700;-3.694056e-01;572660336;1159126505;0.000000e+00;2.072785e+00;1.532595e+03
21;dtrsm;64;0;1;1;0;300;141;121;111;131;14700;14700;14700;14700;2.390371e-01;1632621729;1100661313;0.000000e+00;1.987191e+00;1.598608e+03
22;dtrsm;64;0;1;1;0;300;141;121;111;131;14700;14700;14700;14700;7.019839e-02;1141616124;84353895;0.000000e+00;2.040018e+00;1.557211e+03
23;dtrsm;64;0;1;1;0;300;141;121;111;131;14700;14700;14700;14700;-4.916174e-01;2001100545;1998898814;0.000000e+00;2.155229e+00;1.473968e+03
24;dtrsm;64;0;1;1;0;300;141;121;111;131;14700;14700;14700;14700;-2.416937e-01;610515434;1585990364;0.000000e+00;2.049298e+00;1.550160e+03
25;dtrsm;64;0;1;1;0;300;141;121;111;131;14700;14700;14700;14700;-3.772229e-02;760313750;1477171087;0.000000e+00;2.154491e+00;1.474473e+03
26;dtrsm;64;0;1;1;0;300;141;121;111;131;14700;14700;14700;14700;-1.733443e-01;945117276;1889947178;0.000000e+00;2.130377e+00;1.491163e+03
27;dtrsm;64;0;1;1;0;300;141;121;111;131;14700;14700;14700;14700;3.414286e-01;709393584;491705403;0.000000e+00;2.100331e+00;1.512494e+03
28;dtrsm;64;0;1;1;0;300;141;121;111;131;14700;14700;14700;14700;-2.237386e-01;752392754;1474612399;0.000000e+00;2.040163e+00;1.557101e+03
29;dtrsm;64;0;1;1;0;300;141;121;111;131;14700;14700;14700;14700;-1.543593e-01;1264095060;1411549676;0.000000e+00;2.054599e+00;1.546160e+03
30;dtrsm;64;0;1;1;0;300;141;121;111;131;17100;17100;17100;17100;3.886879e-01;943947739;1984210012;0.000000e+00;3.099775e+00;1.613183e+03
31;dtrsm;64;0;1;1;0;300;141;121;111;131;17100;17100;17100;17100;-3.211111e-01;1749698586;1469348094;0.000000e+00;3.172927e+00;1.575991e+03
32;dtrsm;64;0;1;1;0;300;141;121;111;131;17100;17100;17100;17100;-2.187391e-01;1036140795;463480570;0.000000e+00;3.066097e+00;1.630902e+03
33;dtrsm;64;0;1;1;0;300;141;121;111;131;17100;17100;17100;17100;3.797349e-01;1975960378;317097467;0.000000e+00;3.063410e+00;1.632333e+03
34;dtrsm;64;0;1;1;0;300;141;121;111;131;17100;17100;17100;17100;-1.054364e-01;1376710097;927612902;0.000000e+00;3.096467e+00;1.614906e+03
35;dtrsm;64;0;1;1;0;300;141;121;111;131;17100;17100;17100;17100;-4.388869e-03;603570492;1687926652;0.000000e+00;3.085269e+00;1.620767e+03
36;dtrsm;64;0;1;1;0;300;141;121;111;131;17100;17100;17100;17100;1.623906e-01;959997301;485560280;0.000000e+00;3.167136e+00;1.578872e+03
37;dtrsm;64;0;1;1;0;300;141;121;111;131;17100;17100;17100;17100;6.417844e-02;593209441;1194953865;0.000000e+00;3.168107e+00;1.578388e+03
38;dtrsm;64;0;1;1;0;300;141;121;111;131;17100;17100;17100;17100;-1.382589e-02;364228444;1947346619;0.000000e+00;3.130941e+00;1.597125e+03
39;dtrsm;64;0;1;1;0;300;141;121;111;131;17100;17100;17100;17100;4.665847e-01;270744729;1063958031;0.000000e+00;3.074638e+00;1.626371e+03
40;dtrsm;64;0;1;1;0;300;141;121;111;131;19500;19500;19500;19500;2.509115e-01;2114738097;2007905771;0.000000e+00;4.328594e+00;1.713086e+03
41;dtrsm;64;0;1;1;0;300;141;121;111;131;19500;19500;19500;19500;2.856491e-01;822890675;1610120709;0.000000e+00;4.366954e+00;1.698038e+03
42;dtrsm;64;0;1;1;0;300;141;121;111;131;19500;19500;19500;19500;-3.776547e-01;631704567;498777856;0.000000e+00;4.455968e+00;1.664118e+03
43;dtrsm;64;0;1;1;0;300;141;121;111;131;19500;19500;19500;19500;2.300707e-02;524872353;327254586;0.000000e+00;4.465326e+00;1.660630e+03
44;dtrsm;64;0;1;1;0;300;141;121;111;131;19500;19500;19500;19500;9.307665e-02;269455306;1703964683;0.000000e+00;4.442193e+00;1.669278e+03
45;dtrsm;64;0;1;1;0;300;141;121;111;131;19500;19500;19500;19500;-1.289308e-01;1600028624;160051528;0.000000e+00;4.466281e+00;1.660275e+03
46;dtrsm;64;0;1;1;0;300;141;121;111;131;19500;19500;19500;19500;2.807858e-01;112805732;1120048829;0.000000e+00;4.465573e+00;1.660538e+03
47;dtrsm;64;0;1;1;0;300;141;121;111;131;19500;19500;19500;19500;2.084955e-01;515530019;1713258270;0.000000e+00;4.429543e+00;1.674045e+03
48;dtrsm;64;0;1;1;0;300;141;121;111;131;19500;19500;19500;19500;1.571881e-01;1409959708;2077486715;0.000000e+00;4.443324e+00;1.668853e+03
49;dtrsm;64;0;1;1;0;300;141;121;111;131;19500;19500;19500;19500;1.799312e-01;1631518149;200747796;0.000000e+00;4.450937e+00;1.665999e+03
50;dtrsm;64;0;1;1;0;300;141;121;111;131;21900;21900;21900;21900;3.618905e-02;1117142618;168002245;0.000000e+00;6.092542e+00;1.724065e+03
51;dtrsm;64;0;1;1;0;300;141;121;111;131;21900;21900;21900;21900;3.861393e-01;439493451;990892921;0.000000e+00;6.253324e+00;1.679737e+03
52;dtrsm;64;0;1;1;0;300;141;121;111;131;21900;21900;21900;21900;3.138195e-01;1231192379;1622597488;0.000000e+00;6.239827e+00;1.683370e+03
53;dtrsm;64;0;1;1;0;300;141;121;111;131;21900;21900;21900;21900;3.358679e-01;338888228;2147469841;0.000000e+00;6.241531e+00;1.682911e+03
54;dtrsm;64;0;1;1;0;300;141;121;111;131;21900;21900;21900;21900;2.072774e-01;1911165193;269441500;0.000000e+00;6.324136e+00;1.660929e+03
55;dtrsm;64;0;1;1;0;300;141;121;111;131;21900;21900;21900;21900;-2.810129e-01;116087764;1869470124;0.000000e+00;6.257536e+00;1.678606e+03
56;dtrsm;64;0;1;1;0;300;141;121;111;131;21900;21900;21900;21900;9.513167e-02;8936987;1982275856;0.000000e+00;6.229334e+00;1.686206e+03
57;dtrsm;64;0;1;1;0;300;141;121;111;131;21900;21900;21900;21900;-4.094893e-01;387346491;350322227;0.000000e+00;6.247337e+00;1.681347e+03
58;dtrsm;64;0;1;1;0;300;141;121;111;131;21900;21900;21900;21900;4.007014e-01;1960709859;1760281936;0.000000e+00;6.279999e+00;1.672602e+03
59;dtrsm;64;0;1;1;0;300;141;121;111;131;21900;21900;21900;21900;-2.607432e-01;1186452551;1244316437;0.000000e+00;6.295440e+00;1.668500e+03
60;dtrsm;64;0;1;1;0;300;141;121;111;131;24300;24300;24300;24300;2.998675e-01;1476153275;213975407;0.000000e+00;8.298703e+00;1.729125e+03
61;dtrsm;64;0;1;1;0;300;141;121;111;131;24300;24300;24300;24300;-8.843738e-02;1626276121;653468858;0.000000e+00;8.293676e+00;1.730173e+03
62;dtrsm;64;0;1;1;0;300;141;121;111;131;24300;24300;24300;24300;-4.940599e-01;1239036029;1884661237;0.000000e+00;8.318436e+00;1.725024e+03
63;dtrsm;64;0;1;1;0;300;141;121;111;131;24300;24300;24300;24300;3.076514e-01;1350573793;76065818;0.000000e+00;8.259878e+00;1.737253e+03
64;dtrsm;64;0;1;1;0;300;141;121;111;131;24300;24300;24300;24300;-4.585682e-01;1789366143;1987231011;0.000000e+00;8.242130e+00;1.740994e+03
65;dtrsm;64;0;1;1;0;300;141;121;111;131;24300;24300;24300;24300;-4.578138e-01;1784639529;2103318776;0.000000e+00;8.295224e+00;1.729851e+03
66;dtrsm;64;0;1;1;0;300;141;121;111;131;24300;24300;24300;24300;1.535754e-01;1939964443;2112255763;0.000000e+00;8.306290e+00;1.727546e+03
67;dtrsm;64;0;1;1;0;300;141;121;111;131;24300;24300;24300;24300;-2.471817e-02;1067854538;352118606;0.000000e+00;8.265412e+00;1.736090e+03
68;dtrsm;64;0;1;1;0;300;141;121;111;131;24300;24300;24300;24300;3.241933e-01;1909002904;165344818;0.000000e+00;8.274781e+00;1.734124e+03
69;dtrsm;64;0;1;1;0;300;141;121;111;131;24300;24300;24300;24300;2.191162e-01;532670688;1351797369;0.000000e+00;8.269162e+00;1.735302e+03
70;dtrsm;64;0;1;1;0;300;141;121;111;131;26700;26700;26700;26700;-2.836412e-02;1504569917;680466996;0.000000e+00;1.072863e+01;1.774213e+03
71;dtrsm;64;0;1;1;0;300;141;121;111;131;26700;26700;26700;26700;-3.223358e-01;496987743;159259470;0.000000e+00;1.080785e+01;1.761208e+03
72;dtrsm;64;0;1;1;0;300;141;121;111;131;26700;26700;26700;26700;6.319147e-02;480298490;1398295499;0.000000e+00;1.084005e+01;1.755977e+03
73;dtrsm;64;0;1;1;0;300;141;121;111;131;26700;26700;26700;26700;6.321520e-03;2086206725;601385644;0.000000e+00;1.091774e+01;1.743482e+03
74;dtrsm;64;0;1;1;0;300;141;121;111;131;26700;26700;26700;26700;-4.403555e-01;1544617505;243268139;0.000000e+00;1.087368e+01;1.750546e+03
75;dtrsm;64;0;1;1;0;300;141;121;111;131;26700;26700;26700;26700;-3.357130e-01;1272469786;2027907669;0.000000e+00;1.085314e+01;1.753860e+03
76;dtrsm;64;0;1;1;0;300;141;121;111;131;26700;26700;26700;26700;4.440272e-01;722308542;1820388464;0.000000e+00;1.085397e+01;1.753724e+03
77;dtrsm;64;0;1;1;0;300;141;121;111;131;26700;26700;26700;26700;2.770102e-02;6939507;740759355;0.000000e+00;1.087923e+01;1.749653e+03
78;dtrsm;64;0;1;1;0;300;141;121;111;131;26700;26700;26700;26700;-3.466130e-01;1789376348;502278611;0.000000e+00;1.086688e+01;1.751641e+03
79;dtrsm;64;0;1;1;0;300;141;121;111;131;26700;26700;26700;26700;-2.659684e-01;1037127828;1034949299;0.000000e+00;1.089540e+01;1.747056e+03
80;dtrsm;64;0;1;1;0;300;141;121;111;131;29100;29100;29100;29100;2.976161e-01;1529195746;392035568;0.000000e+00;1.391056e+01;1.771533e+03
81;dtrsm;64;0;1;1;0;300;141;121;111;131;29100;29100;29100;29100;4.068633e-01;87755422;889023311;0.000000e+00;1.387194e+01;1.776466e+03
82;dtrsm;64;0;1;1;0;300;141;121;111;131;29100;29100;29100;29100;-2.963290e-01;1447267605;1369321801;0.000000e+00;1.387852e+01;1.775623e+03
83;dtrsm;64;0;1;1;0;300;141;121;111;131;29100;29100;29100;29100;-5.780017e-02;396473730;1308044878;0.000000e+00;1.385351e+01;1.778828e+03
84;dtrsm;64;0;1;1;0;300;141;121;111;131;29100;29100;29100;29100;3.002688e-01;1569229320;705178736;0.000000e+00;1.384513e+01;1.779905e+03
85;dtrsm;64;0;1;1;0;300;141;121;111;131;29100;29100;29100;29100;-1.667948e-01;434248626;1977648522;0.000000e+00;1.386781e+01;1.776995e+03
86;dtrsm;64;0;1;1;0;300;141;121;111;131;29100;29100;29100;29100;-2.996627e-01;1402586708;552473416;0.000000e+00;1.384718e+01;1.779641e+03
87;dtrsm;64;0;1;1;0;300;141;121;111;131;29100;29100;29100;29100;-1.582027e-01;188213258;559412924;0.000000e+00;1.382967e+01;1.781895e+03
88;dtrsm;64;0;1;1;0;300;141;121;111;131;29100;29100;29100;29100;1.008051e-01;1473442062;201305624;0.000000e+00;1.385908e+01;1.778114e+03
89;dtrsm;64;0;1;1;0;300;141;121;111;131;29100;29100;29100;29100;3.214526e-01;776532036;1238433452;0.000000e+00;1.383184e+01;1.781615e+03
