Id;Function;threads;gpus;P;Q;mtxfmt;nb;norm;uplo;n;lda;seedA;bump;tsub;time;gflops
0;dlansy;64;0;1;1;0;1024;171;121;1024;1024;1681692777;4.254358e-01;0.000000e+00;1.322985e-03;3.173431e+00
1;dlansy;64;0;1;1;0;1024;171;121;1024;1024;1957747793;4.892778e-01;0.000000e+00;1.277208e-03;3.287169e+00
2;dlansy;64;0;1;1;0;1024;171;121;1024;1024;719885386;3.777180e-01;0.000000e+00;1.270056e-03;3.305682e+00
3;dlansy;64;0;1;1;0;1024;171;121;1024;1024;596516649;-3.517510e-01;0.000000e+00;8.702278e-04;4.824484e+00
4;dlansy;64;0;1;1;0;1024;171;121;1024;1024;1025202362;4.000452e-01;0.000000e+00;1.296043e-03;3.239398e+00
5;dlansy;64;0;1;1;0;1024;171;121;1024;1024;783368690;3.744478e-01;0.000000e+00;8.740425e-04;4.803428e+00
6;dlansy;64;0;1;1;0;1024;171;121;1024;1024;2044897763;4.141058e-01;0.000000e+00;8.718967e-04;4.815249e+00
7;dlansy;64;0;1;1;0;1024;171;121;1024;1024;1365180540;-1.381986e-01;0.000000e+00;8.690357e-04;4.831102e+00
8;dlansy;64;0;1;1;0;1024;171;121;1024;1024;304089172;2.200654e-01;0.000000e+00;7.450581e-04;5.634997e+00
9;dlansy;64;0;1;1;0;1024;171;121;1024;1024;35005211;-1.757242e-01;0.000000e+00;7.479191e-04;5.613441e+00
10;dlansy;64;0;1;1;0;1024;171;121;2048;2048;294702567;-3.976154e-01;0.000000e+00;2.959967e-03;5.670810e+00
11;dlansy;64;0;1;1;0;1024;171;121;2048;2048;336465782;4.797187e-01;0.000000e+00;1.718044e-03;9.770067e+00
12;dlansy;64;0;1;1;0;1024;171;121;2048;2048;278722862;-3.098429e-01;0.000000e+00;1.746178e-03;9.612658e+00
13;dlansy;64;0;1;1;0;1024;171;121;2048;2048;2145174067;4.597866e-01;0.000000e+00;1.491070e-03;1.125729e+01
14;dlansy;64;0;1;1;0;1024;171;121;2048;2048;1101513929;3.332689e-02;0.000000e+00;7.196903e-03;2.332310e+00
15;dlansy;64;0;1;1;0;1024;171;121;2048;2048;1315634022;-3.123134e-01;0.000000e+00;1.538038e-03;1.091352e+01
16;dlansy;64;0;1;1;0;1024;171;121;2048;2048;1369133069;-2.396071e-01;0.000000e+00;1.672983e-03;1.003322e+01
17;dlansy;64;0;1;1;0;1024;171;121;2048;2048;1059961393;-4.405380e-01;0.000000e+00;1.826048e-03;9.192206e+00
18;dlansy;64;0;1;1;0;1024;171;121;2048;2048;628175011;-8.299381e-02;0.000000e+00;1.433849e-03;1.170654e+01
19;dlansy;64;0;1;1;0;1024;171;121;2048;2048;1131176229;-4.098657e-01;0.000000e+00;1.826048e-03;9.192206e+00
20;dlansy;64;0;1;1;0;1024;171;121;3072;3072;859484421;4.760135e-01;0.000000e+00;1.806021e-03;2.090841e+01
21;dlansy;64;0;1;1;0;1024;171;121;3072;3072;608413784;-2.172434e-01;0.000000e+00;1.035810e-02;3.645557e+00
22;dlansy;64;0;1;1;0;1024;171;121;3072;3072;1734575198;3.559216e-01;0.000000e+00;2.094984e-03;1.802449e+01
23;dlansy;64;0;1;1;0;1024;171;121;3072;3072;149798315;-3.746092e-01;0.000000e+00;9.109974e-03;4.145020e+00
24;dlansy;64;0;1;1;0;1024;171;121;3072;3072;1129566413;3.212047e-02;0.000000e+00;1.931906e-03;1.954600e+01
25;dlansy;64;0;1;1;0;1024;171;121;3072;3072;412776091;-3.302276e-01;0.000000e+00;2.063036e-03;1.830362e+01
26;dlansy;64;0;1;1;0;1024;171;121;3072;3072;1911759956;1.752074e-01;0.000000e+00;2.199888e-03;1.716497e+01
27;dlansy;64;0;1;1;0;1024;171;121;3072;3072;137806862;2.019681e-01;0.000000e+00;1.646042e-03;2.294050e+01
28;dlansy;64;0;1;1;0;1024;171;121;3072;3072;982906996;2.243788e-01;0.000000e+00;1.883030e-03;2.005333e+01
29;dlansy;64;0;1;1;0;1024;171;121;3072;3072;511702305;-1.333755e-01;0.000000e+00;1.863003e-03;2.026890e+01
30;dlansy;64;0;1;1;0;1024;171;121;4096;4096;1937477084;-3.694056e-01;0.000000e+00;3.488064e-03;1.924427e+01
31;dlansy;64;0;1;1;0;1024;171;121;4096;4096;572660336;-1.501402e-01;0.000000e+00;3.367901e-03;1.993089e+01
32;dlansy;64;0;1;1;0;1024;171;121;4096;4096;805750846;-1.383824e-01;0.000000e+00;2.564192e-03;2.617794e+01
33;dlansy;64;0;1;1;0;1024;171;121;4096;4096;1100661313;7.019839e-02;0.000000e+00;3.962040e-03;1.694209e+01
34;dlansy;64;0;1;1;0;1024;171;121;4096;4096;1141616124;-2.465265e-01;0.000000e+00;9.969950e-03;6.732757e+00
35;dlansy;64;0;1;1;0;1024;171;121;4096;4096;939819582;2.290667e-01;0.000000e+00;2.825022e-03;2.376097e+01
36;dlansy;64;0;1;1;0;1024;171;121;4096;4096;1998898814;-2.416937e-01;0.000000e+00;2.790928e-03;2.405123e+01
37;dlansy;64;0;1;1;0;1024;171;121;4096;4096;610515434;2.529978e-01;0.000000e+00;2.294064e-03;2.926041e+01
38;dlansy;64;0;1;1;0;1024;171;121;4096;4096;1374344043;-2.102271e-01;0.000000e+00;9.961128e-03;6.738719e+00
39;dlansy;64;0;1;1;0;1024;171;121;4096;4096;1477171087;-1.733443e-01;0.000000e+00;9.786129e-03;6.859224e+00
40;dlansy;64;0;1;1;0;1024;171;121;5120;5120;945117276;5.373797e-02;0.000000e+00;4.476786e-03;2.342709e+01
41;dlansy;64;0;1;1;0;1024;171;121;5120;5120;1780695788;-4.132594e-01;0.000000e+00;3.364086e-03;3.117580e+01
42;dlansy;64;0;1;1;0;1024;171;121;5120;5120;491705403;-2.237386e-01;0.000000e+00;4.678011e-03;2.241937e+01
43;dlansy;64;0;1;1;0;1024;171;121;5120;5120;752392754;-3.676393e-01;0.000000e+00;4.760027e-03;2.203309e+01
44;dlansy;64;0;1;1;0;1024;171;121;5120;5120;2053999932;-4.222437e-01;0.000000e+00;5.041838e-03;2.080156e+01
45;dlansy;64;0;1;1;0;1024;171;121;5120;5120;1411549676;3.886879e-01;0.000000e+00;6.748915e-03;1.553999e+01
46;dlansy;64;0;1;1;0;1024;171;121;5120;5120;943947739;1.866877e-01;0.000000e+00;5.274057e-03;1.988565e+01
47;dlansy;64;0;1;1;0;1024;171;121;5120;5120;855636226;-2.672705e-01;0.000000e+00;4.670858e-03;2.245371e+01
48;dlansy;64;0;1;1;0;1024;171;121;5120;5120;1469348094;-2.187391e-01;0.000000e+00;4.655123e-03;2.252961e+01
49;dlansy;64;0;1;1;0;1024;171;121;5120;5120;1036140795;-4.443388e-01;0.000000e+00;4.857063e-03;2.159290e+01
0;dlansy;64;0;1;1;0;1024;171;121;6144;6144;1681692777;4.254358e-01;0.000000e+00;1.495290e-02;1.009968e+01
1;dlansy;64;0;1;1;0;1024;171;121;6144;6144;1957747793;4.892778e-01;0.000000e+00;1.082706e-02;1.394833e+01
2;dlansy;64;0;1;1;0;1024;171;121;6144;6144;719885386;3.777180e-01;0.000000e+00;1.058912e-02;1.426176e+01
3;dlansy;64;0;1;1;0;1024;171;121;6144;6144;596516649;-3.517510e-01;0.000000e+00;1.104116e-02;1.367786e+01
4;dlansy;64;0;1;1;0;1024;171;121;6144;6144;1025202362;4.000452e-01;0.000000e+00;7.873058e-03;1.918181e+01
5;dlansy;64;0;1;1;0;1024;171;121;6144;6144;783368690;3.744478e-01;0.000000e+00;9.037971e-03;1.670945e+01
6;dlansy;64;0;1;1;0;1024;171;121;6144;6144;2044897763;4.141058e-01;0.000000e+00;8.677006e-03;1.740457e+01
7;dlansy;64;0;1;1;0;1024;171;121;6144;6144;1365180540;-1.381986e-01;0.000000e+00;6.509781e-03;2.319886e+01
8;dlansy;64;0;1;1;0;1024;171;121;6144;6144;304089172;2.200654e-01;0.000000e+00;7.625103e-03;1.980557e+01
9;dlansy;64;0;1;1;0;1024;171;121;6144;6144;35005211;-1.757242e-01;0.000000e+00;6.879807e-03;2.195113e+01
10;dlansy;64;0;1;1;0;1024;171;121;8192;8192;294702567;-3.976154e-01;0.000000e+00;1.310897e-02;2.047974e+01
11;dlansy;64;0;1;1;0;1024;171;121;8192;8192;336465782;4.797187e-01;0.000000e+00;1.293588e-02;2.075377e+01
12;dlansy;64;0;1;1;0;1024;171;121;8192;8192;278722862;-3.098429e-01;0.000000e+00;1.268101e-02;2.117089e+01
13;dlansy;64;0;1;1;0;1024;171;121;8192;8192;2145174067;4.597866e-01;0.000000e+00;1.143813e-02;2.347134e+01
14;dlansy;64;0;1;1;0;1024;171;121;8192;8192;1101513929;3.332689e-02;0.000000e+00;9.315968e-03;2.881807e+01
15;dlansy;64;0;1;1;0;1024;171;121;8192;8192;1315634022;-3.123134e-01;0.000000e+00;9.198904e-03;2.918481e+01
16;dlansy;64;0;1;1;0;1024;171;121;8192;8192;1369133069;-2.396071e-01;0.000000e+00;1.195192e-02;2.246234e+01
17;dlansy;64;0;1;1;0;1024;171;121;8192;8192;1059961393;-4.405380e-01;0.000000e+00;1.004982e-02;2.671373e+01
18;dlansy;64;0;1;1;0;1024;171;121;8192;8192;628175011;-8.299381e-02;0.000000e+00;9.668827e-03;2.776637e+01
19;dlansy;64;0;1;1;0;1024;171;121;8192;8192;1131176229;-4.098657e-01;0.000000e+00;1.365590e-02;1.965950e+01
20;dlansy;64;0;1;1;0;1024;171;121;10240;10240;859484421;4.760135e-01;0.000000e+00;1.616502e-02;2.594933e+01
21;dlansy;64;0;1;1;0;1024;171;121;10240;10240;608413784;-2.172434e-01;0.000000e+00;1.715207e-02;2.445602e+01
22;dlansy;64;0;1;1;0;1024;171;121;10240;10240;1734575198;3.559216e-01;0.000000e+00;1.936507e-02;2.166123e+01
23;dlansy;64;0;1;1;0;1024;171;121;10240;10240;149798315;-3.746092e-01;0.000000e+00;1.442695e-02;2.907555e+01
24;dlansy;64;0;1;1;0;1024;171;121;10240;10240;1129566413;3.212047e-02;0.000000e+00;1.662421e-02;2.523256e+01
25;dlansy;64;0;1;1;0;1024;171;121;10240;10240;412776091;-3.302276e-01;0.000000e+00;1.655293e-02;2.534122e+01
26;dlansy;64;0;1;1;0;1024;171;121;10240;10240;1911759956;1.752074e-01;0.000000e+00;2.027893e-02;2.068508e+01
27;dlansy;64;0;1;1;0;1024;171;121;10240;10240;137806862;2.019681e-01;0.000000e+00;1.653194e-02;2.537338e+01
28;dlansy;64;0;1;1;0;1024;171;121;10240;10240;982906996;2.243788e-01;0.000000e+00;1.824403e-02;2.299226e+01
29;dlansy;64;0;1;1;0;1024;171;121;10240;10240;511702305;-1.333755e-01;0.000000e+00;1.685905e-02;2.488107e+01
30;dlansy;64;0;1;1;0;1024;171;121;12288;12288;1937477084;-3.694056e-01;0.000000e+00;1.653004e-02;3.654129e+01
31;dlansy;64;0;1;1;0;1024;171;121;12288;12288;572660336;-1.501402e-01;0.000000e+00;1.709795e-02;3.532756e+01
32;dlansy;64;0;1;1;0;1024;171;121;12288;12288;805750846;-1.383824e-01;0.000000e+00;1.788592e-02;3.377119e+01
33;dlansy;64;0;1;1;0;1024;171;121;12288;12288;1100661313;7.019839e-02;0.000000e+00;2.054501e-02;2.940028e+01
34;dlansy;64;0;1;1;0;1024;171;121;12288;12288;1141616124;-2.465265e-01;0.000000e+00;2.376699e-02;2.541461e+01
35;dlansy;64;0;1;1;0;1024;171;121;12288;12288;939819582;2.290667e-01;0.000000e+00;1.713991e-02;3.524108e+01
36;dlansy;64;0;1;1;0;1024;171;121;12288;12288;1998898814;-2.416937e-01;0.000000e+00;2.158713e-02;2.798097e+01
37;dlansy;64;0;1;1;0;1024;171;121;12288;12288;610515434;2.529978e-01;0.000000e+00;1.899004e-02;3.180767e+01
38;dlansy;64;0;1;1;0;1024;171;121;12288;12288;1374344043;-2.102271e-01;0.000000e+00;1.783586e-02;3.386599e+01
39;dlansy;64;0;1;1;0;1024;171;121;12288;12288;1477171087;-1.733443e-01;0.000000e+00;1.719117e-02;3.513600e+01
40;dlansy;64;0;1;1;0;1024;171;121;14336;14336;945117276;5.373797e-02;0.000000e+00;2.283788e-02;3.599901e+01
41;dlansy;64;0;1;1;0;1024;171;121;14336;14336;1780695788;-4.132594e-01;0.000000e+00;2.337098e-02;3.517785e+01
42;dlansy;64;0;1;1;0;1024;171;121;14336;14336;491705403;-2.237386e-01;0.000000e+00;2.274084e-02;3.615262e+01
43;dlansy;64;0;1;1;0;1024;171;121;14336;14336;752392754;-3.676393e-01;0.000000e+00;2.425694e-02;3.389301e+01
44;dlansy;64;0;1;1;0;1024;171;121;14336;14336;2053999932;-4.222437e-01;0.000000e+00;2.054906e-02;4.000869e+01
45;dlansy;64;0;1;1;0;1024;171;121;14336;14336;1411549676;3.886879e-01;0.000000e+00;2.428699e-02;3.385109e+01
46;dlansy;64;0;1;1;0;1024;171;121;14336;14336;943947739;1.866877e-01;0.000000e+00;2.278996e-02;3.607471e+01
47;dlansy;64;0;1;1;0;1024;171;121;14336;14336;855636226;-2.672705e-01;0.000000e+00;2.621603e-02;3.136024e+01
48;dlansy;64;0;1;1;0;1024;171;121;14336;14336;1469348094;-2.187391e-01;0.000000e+00;2.689290e-02;3.057093e+01
49;dlansy;64;0;1;1;0;1024;171;121;14336;14336;1036140795;-4.443388e-01;0.000000e+00;2.465415e-02;3.334696e+01
50;dlansy;64;0;1;1;0;1024;171;121;16384;16384;2040651434;-4.033480e-01;0.000000e+00;3.048682e-02;3.522202e+01
51;dlansy;64;0;1;1;0;1024;171;121;16384;16384;317097467;-1.054364e-01;0.000000e+00;2.606797e-02;4.119259e+01
52;dlansy;64;0;1;1;0;1024;171;121;16384;16384;1376710097;-7.005727e-02;0.000000e+00;2.843118e-02;3.776866e+01
53;dlansy;64;0;1;1;0;1024;171;121;16384;16384;1330573317;1.333576e-02;0.000000e+00;3.153920e-02;3.404675e+01
54;dlansy;64;0;1;1;0;1024;171;121;16384;16384;1687926652;1.623906e-01;0.000000e+00;2.983809e-02;3.598781e+01
55;dlansy;64;0;1;1;0;1024;171;121;16384;16384;959997301;7.965982e-02;0.000000e+00;2.610016e-02;4.114179e+01
56;dlansy;64;0;1;1;0;1024;171;121;16384;16384;402724286;4.667617e-01;0.000000e+00;2.685380e-02;3.998717e+01
57;dlansy;64;0;1;1;0;1024;171;121;16384;16384;1194953865;-1.382589e-02;0.000000e+00;2.735996e-02;3.924740e+01
58;dlansy;64;0;1;1;0;1024;171;121;16384;16384;364228444;-4.175981e-01;0.000000e+00;3.014112e-02;3.562600e+01
59;dlansy;64;0;1;1;0;1024;171;121;16384;16384;221558440;3.770548e-01;0.000000e+00;3.101897e-02;3.461776e+01
60;dlansy;64;0;1;1;0;1024;171;121;18432;18432;1063958031;2.509115e-01;0.000000e+00;3.700995e-02;3.672061e+01
61;dlansy;64;0;1;1;0;1024;171;121;18432;18432;2114738097;-4.980996e-01;0.000000e+00;3.513098e-02;3.868461e+01
62;dlansy;64;0;1;1;0;1024;171;121;18432;18432;1469834481;1.376819e-01;0.000000e+00;4.017997e-02;3.382353e+01
63;dlansy;64;0;1;1;0;1024;171;121;18432;18432;1610120709;-3.776547e-01;0.000000e+00;3.138900e-02;4.329632e+01
64;dlansy;64;0;1;1;0;1024;171;121;18432;18432;631704567;-4.182928e-01;0.000000e+00;3.932905e-02;3.455533e+01
65;dlansy;64;0;1;1;0;1024;171;121;18432;18432;1255179497;-4.129313e-01;0.000000e+00;3.590393e-02;3.785180e+01
66;dlansy;64;0;1;1;0;1024;171;121;18432;18432;327254586;9.307665e-02;0.000000e+00;3.230095e-02;4.207394e+01
67;dlansy;64;0;1;1;0;1024;171;121;18432;18432;269455306;7.441780e-02;0.000000e+00;3.760600e-02;3.613860e+01
68;dlansy;64;0;1;1;0;1024;171;121;18432;18432;352406219;-2.374150e-01;0.000000e+00;3.560400e-02;3.817066e+01
69;dlansy;64;0;1;1;0;1024;171;121;18432;18432;160051528;2.807858e-01;0.000000e+00;3.765106e-02;3.609535e+01
70;dlansy;64;0;1;1;0;1024;171;121;20480;20480;112805732;-3.496214e-01;0.000000e+00;3.951097e-02;4.246425e+01
71;dlansy;64;0;1;1;0;1024;171;121;20480;20480;378409503;2.744957e-01;0.000000e+00;4.356098e-02;3.851620e+01
72;dlansy;64;0;1;1;0;1024;171;121;20480;20480;1713258270;1.571881e-01;0.000000e+00;3.887105e-02;4.316332e+01
73;dlansy;64;0;1;1;0;1024;171;121;20480;20480;1409959708;4.905056e-01;0.000000e+00;4.132509e-02;4.060012e+01
74;dlansy;64;0;1;1;0;1024;171;121;20480;20480;1373226340;9.546876e-03;0.000000e+00;4.552317e-02;3.685604e+01
75;dlansy;64;0;1;1;0;1024;171;121;20480;20480;200747796;3.618905e-02;0.000000e+00;4.373813e-02;3.836021e+01
76;dlansy;64;0;1;1;0;1024;171;121;20480;20480;1117142618;1.744033e-01;0.000000e+00;4.309821e-02;3.892977e+01
77;dlansy;64;0;1;1;0;1024;171;121;20480;20480;150122846;2.422071e-01;0.000000e+00;4.437184e-02;3.781235e+01
78;dlansy;64;0;1;1;0;1024;171;121;20480;20480;990892921;3.138195e-01;0.000000e+00;5.137300e-02;3.265924e+01
79;dlansy;64;0;1;1;0;1024;171;121;20480;20480;1231192379;-4.633856e-02;0.000000e+00;4.203105e-02;3.991819e+01
80;dlansy;64;0;1;1;0;1024;171;121;22528;22528;111537764;1.729012e-01;0.000000e+00;4.797196e-02;4.231916e+01
81;dlansy;64;0;1;1;0;1024;171;121;22528;22528;2147469841;2.072774e-01;0.000000e+00;5.175996e-02;3.922208e+01
82;dlansy;64;0;1;1;0;1024;171;121;22528;22528;1911165193;1.557539e-01;0.000000e+00;4.999113e-02;4.060987e+01
83;dlansy;64;0;1;1;0;1024;171;121;22528;22528;2142757034;-1.699027e-01;0.000000e+00;4.862714e-02;4.174898e+01
84;dlansy;64;0;1;1;0;1024;171;121;22528;22528;1869470124;9.513167e-02;0.000000e+00;4.723001e-02;4.298397e+01
85;dlansy;64;0;1;1;0;1024;171;121;22528;22528;8936987;3.813653e-01;0.000000e+00;4.916596e-02;4.129144e+01
86;dlansy;64;0;1;1;0;1024;171;121;22528;22528;1275373743;-3.952797e-01;0.000000e+00;5.348897e-02;3.795424e+01
87;dlansy;64;0;1;1;0;1024;171;121;22528;22528;350322227;4.007014e-01;0.000000e+00;4.884696e-02;4.156110e+01
88;dlansy;64;0;1;1;0;1024;171;121;22528;22528;1960709859;4.687312e-02;0.000000e+00;5.592895e-02;3.629844e+01
89;dlansy;64;0;1;1;0;1024;171;121;22528;22528;771151432;-3.651100e-01;0.000000e+00;4.711199e-02;4.309165e+01
90;dlansy;64;0;1;1;0;1024;171;121;24576;24576;1244316437;2.998675e-01;0.000000e+00;6.074309e-02;3.977436e+01
91;dlansy;64;0;1;1;0;1024;171;121;24576;24576;1476153275;-1.389722e-01;0.000000e+00;6.074691e-02;3.977186e+01
92;dlansy;64;0;1;1;0;1024;171;121;24576;24576;1139901474;3.395107e-01;0.000000e+00;5.891395e-02;4.100926e+01
93;dlansy;64;0;1;1;0;1024;171;121;24576;24576;653468858;-4.940599e-01;0.000000e+00;5.856204e-02;4.125569e+01
94;dlansy;64;0;1;1;0;1024;171;121;24576;24576;1239036029;9.508020e-02;0.000000e+00;5.776000e-02;4.182856e+01
95;dlansy;64;0;1;1;0;1024;171;121;24576;24576;1605908235;2.745396e-01;0.000000e+00;5.792618e-02;4.170856e+01
96;dlansy;64;0;1;1;0;1024;171;121;24576;24576;76065818;-4.585682e-01;0.000000e+00;6.038094e-02;4.001292e+01
97;dlansy;64;0;1;1;0;1024;171;121;24576;24576;1789366143;-3.356987e-01;0.000000e+00;6.010485e-02;4.019672e+01
98;dlansy;64;0;1;1;0;1024;171;121;24576;24576;1875335928;-1.061454e-01;0.000000e+00;5.983400e-02;4.037867e+01
99;dlansy;64;0;1;1;0;1024;171;121;24576;24576;2103318776;1.535754e-01;0.000000e+00;5.595112e-02;4.318086e+01
100;dlansy;64;0;1;1;0;1024;171;121;26624;26624;1939964443;-2.643760e-01;0.000000e+00;6.634402e-02;4.273868e+01
101;dlansy;64;0;1;1;0;1024;171;121;26624;26624;1432114613;2.725473e-01;0.000000e+00;6.602812e-02;4.294316e+01
102;dlansy;64;0;1;1;0;1024;171;121;26624;26624;352118606;3.241933e-01;0.000000e+00;6.685400e-02;4.241266e+01
103;dlansy;64;0;1;1;0;1024;171;121;26624;26624;1909002904;2.356442e-01;0.000000e+00;6.508112e-02;4.356803e+01
104;dlansy;64;0;1;1;0;1024;171;121;26624;26624;1395235128;-3.021529e-01;0.000000e+00;7.163405e-02;3.958251e+01
105;dlansy;64;0;1;1;0;1024;171;121;26624;26624;1351797369;-2.836412e-02;0.000000e+00;7.443190e-02;3.809464e+01
106;dlansy;64;0;1;1;0;1024;171;121;26624;26624;1504569917;-3.280447e-01;0.000000e+00;6.487107e-02;4.370910e+01
107;dlansy;64;0;1;1;0;1024;171;121;26624;26624;706043324;1.946189e-01;0.000000e+00;6.833601e-02;4.149285e+01
108;dlansy;64;0;1;1;0;1024;171;121;26624;26624;159259470;6.319147e-02;0.000000e+00;7.241297e-02;3.915674e+01
109;dlansy;64;0;1;1;0;1024;171;121;26624;26624;480298490;3.904790e-01;0.000000e+00;6.558204e-02;4.323525e+01
110;dlansy;64;0;1;1;0;1024;171;121;28672;28672;1096689772;-2.987393e-01;0.000000e+00;8.418489e-02;3.906223e+01
111;dlansy;64;0;1;1;0;1024;171;121;28672;28672;601385644;-4.403555e-01;0.000000e+00;7.904315e-02;4.160321e+01
112;dlansy;64;0;1;1;0;1024;171;121;28672;28672;1544617505;-3.120641e-01;0.000000e+00;7.568407e-02;4.344968e+01
113;dlansy;64;0;1;1;0;1024;171;121;28672;28672;1012502954;7.326981e-02;0.000000e+00;7.551908e-02;4.354461e+01
114;dlansy;64;0;1;1;0;1024;171;121;28672;28672;2027907669;4.440272e-01;0.000000e+00;7.577085e-02;4.339992e+01
115;dlansy;64;0;1;1;0;1024;171;121;28672;28672;722308542;-2.988812e-01;0.000000e+00;8.102894e-02;4.058364e+01
116;dlansy;64;0;1;1;0;1024;171;121;28672;28672;933110197;-1.017733e-01;0.000000e+00;8.047199e-02;4.086452e+01
117;dlansy;64;0;1;1;0;1024;171;121;28672;28672;740759355;-3.466130e-01;0.000000e+00;7.625699e-02;4.312325e+01
118;dlansy;64;0;1;1;0;1024;171;121;28672;28672;1789376348;3.725976e-01;0.000000e+00;7.778597e-02;4.227561e+01
119;dlansy;64;0;1;1;0;1024;171;121;28672;28672;1450573622;-2.731221e-01;0.000000e+00;7.844782e-02;4.191894e+01
120;dlansy;64;0;1;1;0;1024;171;121;30720;30720;1034949299;2.976161e-01;0.000000e+00;8.826494e-02;4.276892e+01
121;dlansy;64;0;1;1;0;1024;171;121;30720;30720;1529195746;1.985016e-01;0.000000e+00;8.681798e-02;4.348174e+01
122;dlansy;64;0;1;1;0;1024;171;121;30720;30720;1335354340;-3.384804e-01;0.000000e+00;9.196091e-02;4.105001e+01
123;dlansy;64;0;1;1;0;1024;171;121;30720;30720;889023311;-2.963290e-01;0.000000e+00;9.274006e-02;4.070513e+01
124;dlansy;64;0;1;1;0;1024;171;121;30720;30720;1447267605;-3.682695e-01;0.000000e+00;8.622003e-02;4.378329e+01
125;dlansy;64;0;1;1;0;1024;171;121;30720;30720;745425661;1.637426e-02;0.000000e+00;8.889508e-02;4.246575e+01
126;dlansy;64;0;1;1;0;1024;171;121;30720;30720;1308044878;3.002688e-01;0.000000e+00;9.505010e-02;3.971586e+01
127;dlansy;64;0;1;1;0;1024;171;121;30720;30720;1569229320;-2.878753e-01;0.000000e+00;9.831691e-02;3.839621e+01
128;dlansy;64;0;1;1;0;1024;171;121;30720;30720;1590079444;-6.664395e-02;0.000000e+00;9.087682e-02;4.153971e+01
129;dlansy;64;0;1;1;0;1024;171;121;30720;30720;1977648522;-2.996627e-01;0.000000e+00;9.006906e-02;4.191225e+01
130;dlansy;64;0;1;1;0;1024;171;121;32768;32768;1402586708;-4.466601e-01;0.000000e+00;1.004989e-01;4.273776e+01
131;dlansy;64;0;1;1;0;1024;171;121;32768;32768;1143408282;-3.095740e-01;0.000000e+00;1.009660e-01;4.254006e+01
132;dlansy;64;0;1;1;0;1024;171;121;32768;32768;559412924;1.008051e-01;0.000000e+00;1.075821e-01;3.992392e+01
133;dlansy;64;0;1;1;0;1024;171;121;32768;32768;1473442062;3.966201e-01;0.000000e+00;1.011529e-01;4.246145e+01
134;dlansy;64;0;1;1;0;1024;171;121;32768;32768;238962600;-2.291051e-01;0.000000e+00;9.781885e-02;4.390870e+01
135;dlansy;64;0;1;1;0;1024;171;121;32768;32768;1238433452;8.189833e-02;0.000000e+00;9.770393e-02;4.396034e+01
136;dlansy;64;0;1;1;0;1024;171;121;32768;32768;1431419379;-4.764616e-02;0.000000e+00;9.947705e-02;4.317678e+01
137;dlansy;64;0;1;1;0;1024;171;121;32768;32768;1665947468;1.684246e-01;0.000000e+00;1.044300e-01;4.112899e+01
138;dlansy;64;0;1;1;0;1024;171;121;32768;32768;707900973;-1.961373e-01;0.000000e+00;1.029871e-01;4.170523e+01
139;dlansy;64;0;1;1;0;1024;171;121;32768;32768;2113903881;4.689267e-01;0.000000e+00;1.001840e-01;4.287211e+01
140;dlansy;64;0;1;1;0;1024;171;121;34816;34816;1776808933;-4.926542e-01;0.000000e+00;1.145329e-01;4.233502e+01
141;dlansy;64;0;1;1;0;1024;171;121;34816;34816;404158660;-9.802407e-02;0.000000e+00;1.145749e-01;4.231952e+01
142;dlansy;64;0;1;1;0;1024;171;121;34816;34816;2058657199;1.886126e-01;0.000000e+00;1.102469e-01;4.398087e+01
143;dlansy;64;0;1;1;0;1024;171;121;34816;34816;1642548899;-7.383859e-02;0.000000e+00;1.126969e-01;4.302474e+01
144;dlansy;64;0;1;1;0;1024;171;121;34816;34816;260152959;-6.245404e-02;0.000000e+00;1.108530e-01;4.374042e+01
145;dlansy;64;0;1;1;0;1024;171;121;34816;34816;824272813;-3.703058e-01;0.000000e+00;1.179740e-01;4.110018e+01
146;dlansy;64;0;1;1;0;1024;171;121;34816;34816;2025187190;1.613464e-01;0.000000e+00;1.148171e-01;4.223023e+01
147;dlansy;64;0;1;1;0;1024;171;121;34816;34816;1850952926;-3.349140e-01;0.000000e+00;1.081779e-01;4.482204e+01
148;dlansy;64;0;1;1;0;1024;171;121;34816;34816;1704365084;2.019839e-01;0.000000e+00;1.161089e-01;4.176041e+01
149;dlansy;64;0;1;1;0;1024;171;121;34816;34816;638422090;2.766544e-01;0.000000e+00;1.235828e-01;3.923485e+01
150;dlansy;64;0;1;1;0;1024;171;121;36864;36864;1953443376;-2.797945e-01;0.000000e+00;1.284919e-01;4.230591e+01
151;dlansy;64;0;1;1;0;1024;171;121;36864;36864;1069755936;-4.205594e-01;0.000000e+00;1.332889e-01;4.078334e+01
152;dlansy;64;0;1;1;0;1024;171;121;36864;36864;349517445;3.646355e-01;0.000000e+00;1.263070e-01;4.303772e+01
153;dlansy;64;0;1;1;0;1024;171;121;36864;36864;1856669179;9.066373e-03;0.000000e+00;1.283460e-01;4.235400e+01
154;dlansy;64;0;1;1;0;1024;171;121;36864;36864;995706887;-2.496970e-01;0.000000e+00;1.285808e-01;4.227665e+01
155;dlansy;64;0;1;1;0;1024;171;121;36864;36864;1065103348;-2.655665e-01;0.000000e+00;1.242220e-01;4.376007e+01
156;dlansy;64;0;1;1;0;1024;171;121;36864;36864;387451659;9.058696e-02;0.000000e+00;1.250050e-01;4.348598e+01
157;dlansy;64;0;1;1;0;1024;171;121;36864;36864;1562402336;1.986549e-01;0.000000e+00;1.300910e-01;4.178588e+01
158;dlansy;64;0;1;1;0;1024;171;121;36864;36864;1295166342;3.808523e-01;0.000000e+00;1.278429e-01;4.252067e+01
159;dlansy;64;0;1;1;0;1024;171;121;36864;36864;1799878206;-5.773157e-02;0.000000e+00;1.293151e-01;4.203657e+01
160;dlansy;64;0;1;1;0;1024;171;121;38912;38912;382697713;-1.152934e-01;0.000000e+00;1.418819e-01;4.268852e+01
161;dlansy;64;0;1;1;0;1024;171;121;38912;38912;1070575321;-4.650331e-01;0.000000e+00;1.418920e-01;4.268551e+01
162;dlansy;64;0;1;1;0;1024;171;121;38912;38912;296864819;4.331828e-01;0.000000e+00;1.384029e-01;4.376158e+01
163;dlansy;64;0;1;1;0;1024;171;121;38912;38912;697517721;4.415959e-01;0.000000e+00;1.420410e-01;4.264073e+01
164;dlansy;64;0;1;1;0;1024;171;121;38912;38912;1950955939;-2.032396e-01;0.000000e+00;1.400471e-01;4.324782e+01
165;dlansy;64;0;1;1;0;1024;171;121;38912;38912;1797073940;1.460963e-01;0.000000e+00;1.368818e-01;4.424788e+01
166;dlansy;64;0;1;1;0;1024;171;121;38912;38912;1065311705;2.132438e-01;0.000000e+00;1.350529e-01;4.484709e+01
167;dlansy;64;0;1;1;0;1024;171;121;38912;38912;846811127;3.229169e-01;0.000000e+00;1.388638e-01;4.361634e+01
168;dlansy;64;0;1;1;0;1024;171;121;38912;38912;1307565984;1.990850e-01;0.000000e+00;1.400430e-01;4.324907e+01
169;dlansy;64;0;1;1;0;1024;171;121;38912;38912;324763920;-1.232803e-01;0.000000e+00;1.432748e-01;4.227353e+01
170;dlansy;64;0;1;1;0;1024;171;121;40960;40960;231602422;-5.968142e-02;0.000000e+00;1.518390e-01;4.419846e+01
171;dlansy;64;0;1;1;0;1024;171;121;40960;40960;780821396;3.404283e-01;0.000000e+00;1.527550e-01;4.393342e+01
172;dlansy;64;0;1;1;0;1024;171;121;40960;40960;711645630;3.779050e-01;0.000000e+00;1.562159e-01;4.296010e+01
173;dlansy;64;0;1;1;0;1024;171;121;40960;40960;917679292;-1.487947e-01;0.000000e+00;1.555619e-01;4.314070e+01
174;dlansy;64;0;1;1;0;1024;171;121;40960;40960;1253207672;-2.057583e-01;0.000000e+00;1.542149e-01;4.351753e+01
175;dlansy;64;0;1;1;0;1024;171;121;40960;40960;1414647625;-2.002110e-01;0.000000e+00;1.501880e-01;4.468434e+01
176;dlansy;64;0;1;1;0;1024;171;121;40960;40960;1046741222;-4.981229e-01;0.000000e+00;1.516449e-01;4.425502e+01
177;dlansy;64;0;1;1;0;1024;171;121;40960;40960;1896306640;-1.446566e-01;0.000000e+00;1.557469e-01;4.308945e+01
178;dlansy;64;0;1;1;0;1024;171;121;40960;40960;1111783898;7.285956e-02;0.000000e+00;1.560390e-01;4.300880e+01
179;dlansy;64;0;1;1;0;1024;171;121;40960;40960;1197352298;-2.994312e-01;0.000000e+00;1.541851e-01;4.352594e+01
180;dlansy;64;0;1;1;0;1024;171;121;43008;43008;1782280524;-4.406608e-01;0.000000e+00;1.704500e-01;4.340819e+01
181;dlansy;64;0;1;1;0;1024;171;121;43008;43008;524688209;-7.231379e-02;0.000000e+00;1.690600e-01;4.376508e+01
182;dlansy;64;0;1;1;0;1024;171;121;43008;43008;1566288819;-2.944065e-01;0.000000e+00;1.661241e-01;4.453854e+01
183;dlansy;64;0;1;1;0;1024;171;121;43008;43008;2114937732;4.808045e-01;0.000000e+00;1.698730e-01;4.355562e+01
184;dlansy;64;0;1;1;0;1024;171;121;43008;43008;1927495994;-2.840220e-01;0.000000e+00;1.642420e-01;4.504891e+01
185;dlansy;64;0;1;1;0;1024;171;121;43008;43008;882160379;-1.254201e-02;0.000000e+00;1.734262e-01;4.266326e+01
186;dlansy;64;0;1;1;0;1024;171;121;43008;43008;1682085273;9.597039e-02;0.000000e+00;1.702621e-01;4.345609e+01
187;dlansy;64;0;1;1;0;1024;171;121;43008;43008;630668850;2.283023e-01;0.000000e+00;1.637020e-01;4.519752e+01
188;dlansy;64;0;1;1;0;1024;171;121;43008;43008;1858721860;-5.737603e-03;0.000000e+00;1.622460e-01;4.560313e+01
189;dlansy;64;0;1;1;0;1024;171;121;43008;43008;105575579;3.629747e-01;0.000000e+00;1.675091e-01;4.417029e+01
190;dlansy;64;0;1;1;0;1024;171;121;45056;45056;2118421993;6.372750e-03;0.000000e+00;1.800420e-01;4.510254e+01
191;dlansy;64;0;1;1;0;1024;171;121;45056;45056;452867621;-4.022054e-01;0.000000e+00;1.834059e-01;4.427531e+01
192;dlansy;64;0;1;1;0;1024;171;121;45056;45056;1857962504;3.861964e-02;0.000000e+00;1.885390e-01;4.306988e+01
193;dlansy;64;0;1;1;0;1024;171;121;45056;45056;213801961;-1.863945e-02;0.000000e+00;1.890349e-01;4.295689e+01
194;dlansy;64;0;1;1;0;1024;171;121;45056;45056;648031326;2.911775e-01;0.000000e+00;1.932399e-01;4.202213e+01
195;dlansy;64;0;1;1;0;1024;171;121;45056;45056;1737518944;-4.808499e-01;0.000000e+00;1.820750e-01;4.459894e+01
196;dlansy;64;0;1;1;0;1024;171;121;45056;45056;110613202;-3.380140e-01;0.000000e+00;1.814489e-01;4.475283e+01
197;dlansy;64;0;1;1;0;1024;171;121;45056;45056;982936784;3.457331e-01;0.000000e+00;1.879020e-01;4.321590e+01
198;dlansy;64;0;1;1;0;1024;171;121;45056;45056;1486222842;4.200729e-01;0.000000e+00;1.839471e-01;4.414505e+01
199;dlansy;64;0;1;1;0;1024;171;121;45056;45056;255789528;4.026002e-01;0.000000e+00;1.866310e-01;4.351021e+01
200;dlansy;64;0;1;1;0;1024;171;121;47104;47104;1242608872;3.144040e-01;0.000000e+00;1.987579e-01;4.465401e+01
201;dlansy;64;0;1;1;0;1024;171;121;47104;47104;1277849958;-7.731044e-02;0.000000e+00;2.009740e-01;4.416161e+01
202;dlansy;64;0;1;1;0;1024;171;121;47104;47104;653448036;2.529461e-01;0.000000e+00;2.003572e-01;4.429756e+01
203;dlansy;64;0;1;1;0;1024;171;121;47104;47104;1023457753;4.253499e-01;0.000000e+00;1.956470e-01;4.536403e+01
204;dlansy;64;0;1;1;0;1024;171;121;47104;47104;1309383303;3.608416e-01;0.000000e+00;1.957719e-01;4.533508e+01
205;dlansy;64;0;1;1;0;1024;171;121;47104;47104;1329132133;-2.386045e-01;0.000000e+00;2.033789e-01;4.363941e+01
206;dlansy;64;0;1;1;0;1024;171;121;47104;47104;501772890;8.143046e-02;0.000000e+00;1.986699e-01;4.467378e+01
207;dlansy;64;0;1;1;0;1024;171;121;47104;47104;150517567;4.165643e-01;0.000000e+00;2.009251e-01;4.417236e+01
208;dlansy;64;0;1;1;0;1024;171;121;47104;47104;1983690368;-5.428046e-02;0.000000e+00;1.967239e-01;4.511569e+01
209;dlansy;64;0;1;1;0;1024;171;121;47104;47104;1034514500;3.618715e-01;0.000000e+00;1.993251e-01;4.452694e+01
210;dlansy;64;0;1;1;0;1024;171;121;49152;49152;1775473788;2.101964e-01;0.000000e+00;2.149920e-01;4.494991e+01
211;dlansy;64;0;1;1;0;1024;171;121;49152;49152;767066249;2.177558e-01;0.000000e+00;2.198999e-01;4.394669e+01
212;dlansy;64;0;1;1;0;1024;171;121;49152;49152;739273303;4.744193e-02;0.000000e+00;2.144010e-01;4.507382e+01
213;dlansy;64;0;1;1;0;1024;171;121;49152;49152;1415505363;-2.221872e-01;0.000000e+00;2.194791e-01;4.403095e+01
214;dlansy;64;0;1;1;0;1024;171;121;49152;49152;552910253;-4.765819e-01;0.000000e+00;2.158830e-01;4.476440e+01
215;dlansy;64;0;1;1;0;1024;171;121;49152;49152;1344247686;1.416166e-01;0.000000e+00;2.159741e-01;4.474552e+01
216;dlansy;64;0;1;1;0;1024;171;121;49152;49152;661761152;1.085222e-01;0.000000e+00;2.247181e-01;4.300443e+01
217;dlansy;64;0;1;1;0;1024;171;121;49152;49152;425245975;-2.107033e-01;0.000000e+00;2.191250e-01;4.410210e+01
218;dlansy;64;0;1;1;0;1024;171;121;49152;49152;235649157;3.456401e-01;0.000000e+00;2.212789e-01;4.367282e+01
219;dlansy;64;0;1;1;0;1024;171;121;49152;49152;1679895436;3.343596e-01;0.000000e+00;2.207072e-01;4.378595e+01
