Id;Function;threads;gpus;P;Q;mtxfmt;nb;transA;transB;m;n;k;lda;ldb;ldc;alpha;beta;seedA;seedB;seedC;tsub;time;gflops
0;dgemm;64;0;1;1;1;300;111;111;900;900;900;900;900;900;4.892778e-01;-1.846424e-01;1649760492;596516649;1189641421;0.000000e+00;7.938721e-03;1.836568e+02
1;dgemm;64;0;1;1;1;300;111;111;900;900;900;900;900;900;-2.410269e-01;4.000452e-01;783368690;1102520059;2044897763;0.000000e+00;6.864376e-03;2.124010e+02
2;dgemm;64;0;1;1;1;300;111;111;900;900;900;900;900;900;4.141058e-01;-3.017109e-01;1540383426;304089172;1303455736;0.000000e+00;6.790157e-03;2.147226e+02
3;dgemm;64;0;1;1;1;300;111;111;900;900;900;900;900;900;-3.054879e-01;-1.757242e-01;294702567;1726956429;336465782;0.000000e+00;6.477470e-03;2.250879e+02
4;dgemm;64;0;1;1;1;300;111;111;900;900;900;900;900;900;4.797187e-01;2.821215e-01;233665123;2145174067;468703135;0.000000e+00;6.145728e-03;2.372380e+02
5;dgemm;64;0;1;1;1;300;111;111;900;900;900;900;900;900;3.112590e-01;3.332689e-02;1315634022;635723058;1369133069;0.000000e+00;6.497588e-03;2.243910e+02
6;dgemm;64;0;1;1;1;300;111;111;900;900;900;900;900;900;-2.396071e-01;2.196488e-02;2089018456;628175011;1656478042;0.000000e+00;6.207524e-03;2.348763e+02
7;dgemm;64;0;1;1;1;300;111;111;900;900;900;900;900;900;5.576077e-02;-4.098657e-01;859484421;1914544919;608413784;0.000000e+00;6.265913e-03;2.326876e+02
8;dgemm;64;0;1;1;1;300;111;111;900;900;900;900;900;900;-2.172434e-01;3.304604e-01;1973594324;149798315;2038664370;0.000000e+00;6.449297e-03;2.260712e+02
9;dgemm;64;0;1;1;1;300;111;111;900;900;900;900;900;900;1.632813e-02;3.212047e-02;412776091;1424268980;1911759956;0.000000e+00;6.192626e-03;2.354413e+02
10;dgemm;64;0;1;1;1;300;111;111;1800;1800;1800;1800;1800;1800;1.752074e-01;-2.459049e-03;42999170;982906996;135497281;0.000000e+00;1.320760e-02;8.831276e+02
11;dgemm;64;0;1;1;1;300;111;111;1800;1800;1800;1800;1800;1800;-4.932447e-01;-1.333755e-01;1937477084;1827336327;572660336;0.000000e+00;1.325997e-02;8.796399e+02
12;dgemm;64;0;1;1;1;300;111;111;1800;1800;1800;1800;1800;1800;-1.501402e-01;2.390371e-01;1632621729;1100661313;1433925857;0.000000e+00;1.320172e-02;8.835210e+02
13;dgemm;64;0;1;1;1;300;111;111;1800;1800;1800;1800;1800;1800;2.189649e-01;-2.465265e-01;939819582;2001100545;1998898814;0.000000e+00;1.349016e-02;8.646300e+02
14;dgemm;64;0;1;1;1;300;111;111;1800;1800;1800;1800;1800;1800;-2.416937e-01;-1.401268e-01;1585990364;1374344043;760313750;0.000000e+00;1.354565e-02;8.610884e+02
15;dgemm;64;0;1;1;1;300;111;111;1800;1800;1800;1800;1800;1800;3.187297e-01;-1.733443e-01;945117276;1889947178;1780695788;0.000000e+00;1.331860e-02;8.757676e+02
16;dgemm;64;0;1;1;1;300;111;111;1800;1800;1800;1800;1800;1800;-4.132594e-01;7.699516e-02;1918502651;752392754;1474612399;0.000000e+00;1.340707e-02;8.699888e+02
17;dgemm;64;0;1;1;1;300;111;111;1800;1800;1800;1800;1800;1800;-1.543593e-01;-4.222437e-01;1411549676;1843993368;943947739;0.000000e+00;1.331165e-02;8.762250e+02
18;dgemm;64;0;1;1;1;300;111;111;1800;1800;1800;1800;1800;1800;1.866877e-01;-3.211111e-01;1749698586;1469348094;1956297539;0.000000e+00;1.316659e-02;8.858788e+02
19;dgemm;64;0;1;1;1;300;111;111;1800;1800;1800;1800;1800;1800;-3.490223e-01;-4.443388e-01;2040651434;1975960378;317097467;0.000000e+00;1.316179e-02;8.862018e+02
20;dgemm;64;0;1;1;1;300;111;111;2700;2700;2700;2700;2700;2700;-1.054364e-01;2.030082e-01;927612902;1330573317;603570492;0.000000e+00;3.145953e-02;1.251322e+03
21;dgemm;64;0;1;1;1;300;111;111;2700;2700;2700;2700;2700;2700;-4.352839e-01;1.623906e-01;959997301;485560280;402724286;0.000000e+00;3.102981e-02;1.268651e+03
22;dgemm;64;0;1;1;1;300;111;111;2700;2700;2700;2700;2700;2700;4.667617e-01;1.036922e-01;894429689;364228444;1947346619;0.000000e+00;3.122425e-02;1.260751e+03
23;dgemm;64;0;1;1;1;300;111;111;2700;2700;2700;2700;2700;2700;4.665847e-01;3.770548e-01;1063958031;1633108117;2114738097;0.000000e+00;3.040829e-02;1.294581e+03
24;dgemm;64;0;1;1;1;300;111;111;2700;2700;2700;2700;2700;2700;-4.980996e-01;2.856491e-01;822890675;1610120709;791698927;0.000000e+00;3.172645e-02;1.240794e+03
25;dgemm;64;0;1;1;1;300;111;111;2700;2700;2700;2700;2700;2700;3.592840e-01;-4.182928e-01;1255179497;524872353;327254586;0.000000e+00;3.144999e-02;1.251701e+03
26;dgemm;64;0;1;1;1;300;111;111;2700;2700;2700;2700;2700;2700;9.307665e-02;3.296821e-01;1703964683;352406219;1600028624;0.000000e+00;3.036132e-02;1.296584e+03
27;dgemm;64;0;1;1;1;300;111;111;2700;2700;2700;2700;2700;2700;-4.719053e-01;2.807858e-01;112805732;1120048829;378409503;0.000000e+00;2.983899e-02;1.319281e+03
28;dgemm;64;0;1;1;1;300;111;111;2700;2700;2700;2700;2700;2700;2.744957e-01;-3.785920e-02;1573363368;1409959708;2077486715;0.000000e+00;3.520846e-02;1.118084e+03
29;dgemm;64;0;1;1;1;300;111;111;2700;2700;2700;2700;2700;2700;1.799312e-01;9.546876e-03;200747796;289700723;1117142618;0.000000e+00;3.183766e-02;1.236460e+03
30;dgemm;64;0;1;1;1;300;111;111;3600;3600;3600;3600;3600;3600;1.744033e-01;3.861393e-01;439493451;990892921;1760243555;0.000000e+00;6.200741e-02;1.504852e+03
31;dgemm;64;0;1;1;1;300;111;111;3600;3600;3600;3600;3600;3600;3.018442e-01;-4.633856e-02;111537764;338888228;2147469841;0.000000e+00;6.310420e-02;1.478697e+03
32;dgemm;64;0;1;1;1;300;111;111;3600;3600;3600;3600;3600;3600;2.072774e-01;1.109783e-01;269441500;2142757034;116087764;0.000000e+00;6.454433e-02;1.445704e+03
33;dgemm;64;0;1;1;1;300;111;111;3600;3600;3600;3600;3600;3600;-2.366607e-01;9.513167e-02;8936987;1982275856;1275373743;0.000000e+00;6.397629e-02;1.458540e+03
34;dgemm;64;0;1;1;1;300;111;111;3600;3600;3600;3600;3600;3600;-3.952797e-01;-4.960891e-01;841148365;1960709859;1760281936;0.000000e+00;6.261529e-02;1.490243e+03
35;dgemm;64;0;1;1;1;300;111;111;3600;3600;3600;3600;3600;3600;-2.607432e-01;-3.651100e-01;1244316437;971899228;1476153275;0.000000e+00;6.512458e-02;1.432823e+03
36;dgemm;64;0;1;1;1;300;111;111;3600;3600;3600;3600;3600;3600;-1.389722e-01;-8.843738e-02;1626276121;653468858;2130794395;0.000000e+00;6.298746e-02;1.481438e+03
37;dgemm;64;0;1;1;1;300;111;111;3600;3600;3600;3600;3600;3600;9.367129e-02;9.508020e-02;1605908235;1350573793;76065818;0.000000e+00;6.231855e-02;1.497339e+03
38;dgemm;64;0;1;1;1;300;111;111;3600;3600;3600;3600;3600;3600;-4.585682e-01;3.268176e-01;1987231011;1875335928;1784639529;0.000000e+00;6.297309e-02;1.481776e+03
39;dgemm;64;0;1;1;1;300;111;111;3600;3600;3600;3600;3600;3600;-6.830955e-02;1.535754e-01;1939964443;2112255763;1432114613;0.000000e+00;6.161182e-02;1.514515e+03
40;dgemm;64;0;1;1;1;300;111;111;4500;4500;4500;4500;4500;4500;2.725473e-01;1.883941e-01;1782436840;1909002904;165344818;0.000000e+00;1.177374e-01;1.547936e+03
41;dgemm;64;0;1;1;1;300;111;111;4500;4500;4500;4500;4500;4500;2.191162e-01;-3.021529e-01;1351797369;492067917;1504569917;0.000000e+00;1.140237e-01;1.598351e+03
42;dgemm;64;0;1;1;1;300;111;111;4500;4500;4500;4500;4500;4500;-3.280447e-01;-3.223358e-01;496987743;159259470;1359512183;0.000000e+00;1.123702e-01;1.621871e+03
43;dgemm;64;0;1;1;1;300;111;111;4500;4500;4500;4500;4500;4500;-4.513911e-01;3.904790e-01;1096689772;2086206725;601385644;0.000000e+00;1.137821e-01;1.601746e+03
44;dgemm;64;0;1;1;1;300;111;111;4500;4500;4500;4500;4500;4500;-4.403555e-01;9.074247e-02;243268139;1012502954;1272469786;0.000000e+00;1.158794e-01;1.572756e+03
45;dgemm;64;0;1;1;1;300;111;111;4500;4500;4500;4500;4500;4500;1.908228e-02;4.440272e-01;722308542;1820388464;933110197;0.000000e+00;1.150560e-01;1.584011e+03
46;dgemm;64;0;1;1;1;300;111;111;4500;4500;4500;4500;4500;4500;-1.017733e-01;4.140073e-01;1285228804;1789376348;502278611;0.000000e+00;1.176648e-01;1.548892e+03
47;dgemm;64;0;1;1;1;300;111;111;4500;4500;4500;4500;4500;4500;-2.659684e-01;-2.731221e-01;1034949299;654887343;1529195746;0.000000e+00;1.146986e-01;1.588947e+03
48;dgemm;64;0;1;1;1;300;111;111;4500;4500;4500;4500;4500;4500;1.985016e-01;4.068633e-01;87755422;889023311;1494613810;0.000000e+00;1.144246e-01;1.592752e+03
49;dgemm;64;0;1;1;1;300;111;111;4500;4500;4500;4500;4500;4500;-4.302884e-01;-3.682695e-01;745425661;396473730;1308044878;0.000000e+00;1.154809e-01;1.578183e+03
50;dgemm;64;0;1;1;1;300;111;111;5400;5400;5400;5400;5400;5400;3.002688e-01;4.210193e-01;705178736;1590079444;434248626;0.000000e+00;1.942720e-01;1.621068e+03
51;dgemm;64;0;1;1;1;300;111;111;5400;5400;5400;5400;5400;5400;-3.696050e-01;-2.996627e-01;1402586708;552473416;1143408282;0.000000e+00;1.958149e-01;1.608294e+03
52;dgemm;64;0;1;1;1;300;111;111;5400;5400;5400;5400;5400;5400;-3.095740e-01;-1.111416e-01;1884167637;1473442062;201305624;0.000000e+00;1.928366e-01;1.633134e+03
53;dgemm;64;0;1;1;1;300;111;111;5400;5400;5400;5400;5400;5400;3.214526e-01;-2.291051e-01;1238433452;1273911899;1431419379;0.000000e+00;1.972235e-01;1.596807e+03
54;dgemm;64;0;1;1;1;300;111;111;5400;5400;5400;5400;5400;5400;-4.764616e-02;-2.823082e-01;619290071;707900973;407487131;0.000000e+00;1.994349e-01;1.579102e+03
55;dgemm;64;0;1;1;1;300;111;111;5400;5400;5400;5400;5400;5400;-2.829039e-01;4.689267e-01;1776808933;711845894;404158660;0.000000e+00;1.953132e-01;1.612425e+03
56;dgemm;64;0;1;1;1;300;111;111;5400;5400;5400;5400;5400;5400;-9.802407e-02;-3.473849e-01;1973387981;1642548899;1501252996;0.000000e+00;1.960749e-01;1.606162e+03
57;dgemm;64;0;1;1;1;300;111;111;5400;5400;5400;5400;5400;5400;-2.998149e-02;-6.245404e-02;824272813;1662739668;2025187190;0.000000e+00;1.964326e-01;1.603237e+03
58;dgemm;64;0;1;1;1;300;111;111;5400;5400;5400;5400;5400;5400;1.613464e-01;1.651206e-01;437116466;1704365084;1176911340;0.000000e+00;1.909714e-01;1.649084e+03
59;dgemm;64;0;1;1;1;300;111;111;5400;5400;5400;5400;5400;5400;-9.329343e-02;2.766544e-01;1953443376;1876855542;1069755936;0.000000e+00;1.928644e-01;1.632899e+03
60;dgemm;64;0;1;1;1;300;111;111;6300;6300;6300;6300;6300;6300;-4.205594e-01;1.129006e-01;588219756;1856669179;1057418418;0.000000e+00;2.967370e-01;1.685310e+03
61;dgemm;64;0;1;1;1;300;111;111;6300;6300;6300;6300;6300;6300;1.349872e-02;-2.496970e-01;1065103348;625032172;387451659;0.000000e+00;2.984890e-01;1.675418e+03
62;dgemm;64;0;1;1;1;300;111;111;6300;6300;6300;6300;6300;6300;9.058696e-02;7.370132e-02;298625210;1295166342;1057467587;0.000000e+00;3.057780e-01;1.635481e+03
63;dgemm;64;0;1;1;1;300;111;111;6300;6300;6300;6300;6300;6300;-3.018314e-02;-5.773157e-02;382697713;476667372;1070575321;0.000000e+00;2.924259e-01;1.710156e+03
64;dgemm;64;0;1;1;1;300;111;111;6300;6300;6300;6300;6300;6300;-4.650331e-01;-1.058972e-01;774044599;697517721;2001229904;0.000000e+00;2.969536e-01;1.684081e+03
65;dgemm;64;0;1;1;1;300;111;111;6300;6300;6300;6300;6300;6300;4.801672e-01;-2.032396e-01;1797073940;1756915667;1065311705;0.000000e+00;2.962325e-01;1.688181e+03
66;dgemm;64;0;1;1;1;300;111;111;6300;6300;6300;6300;6300;6300;2.132438e-01;1.658781e-01;1414829150;1307565984;555996658;0.000000e+00;3.001454e-01;1.666172e+03
67;dgemm;64;0;1;1;1;300;111;111;6300;6300;6300;6300;6300;6300;1.800331e-01;-1.232803e-01;231602422;1389867269;780821396;0.000000e+00;2.999058e-01;1.667504e+03
68;dgemm;64;0;1;1;1;300;111;111;6300;6300;6300;6300;6300;6300;3.404283e-01;-1.210446e-01;195740084;917679292;2006811972;0.000000e+00;3.002791e-01;1.665430e+03
69;dgemm;64;0;1;1;1;300;111;111;6300;6300;6300;6300;6300;6300;1.960490e-01;-2.057583e-01;1414647625;1635905385;1046741222;0.000000e+00;2.977658e-01;1.679488e+03
70;dgemm;64;0;1;1;1;300;111;111;7200;7200;7200;7200;7200;7200;-4.981229e-01;1.797563e-01;1343606042;1111783898;446340713;0.000000e+00;4.465734e-01;1.671609e+03
71;dgemm;64;0;1;1;1;300;111;111;7200;7200;7200;7200;7200;7200;1.449892e-01;-2.994312e-01;1782280524;846942590;524688209;0.000000e+00;4.482306e-01;1.665428e+03
72;dgemm;64;0;1;1;1;300;111;111;7200;7200;7200;7200;7200;7200;-7.231379e-02;2.098748e-01;1371499336;2114937732;726371155;0.000000e+00;4.436463e-01;1.682638e+03
73;dgemm;64;0;1;1;1;300;111;111;7200;7200;7200;7200;7200;7200;-2.503210e-01;-2.840220e-01;882160379;11614769;1682085273;0.000000e+00;4.425745e-01;1.686713e+03
74;dgemm;64;0;1;1;1;300;111;111;7200;7200;7200;7200;7200;7200;9.597039e-02;1.728868e-01;246247255;1858721860;1548348142;0.000000e+00;4.454549e-01;1.675806e+03
75;dgemm;64;0;1;1;1;300;111;111;7200;7200;7200;7200;7200;7200;-7.244259e-02;3.629747e-01;2118421993;1520223205;452867621;0.000000e+00;4.445809e-01;1.679100e+03
76;dgemm;64;0;1;1;1;300;111;111;7200;7200;7200;7200;7200;7200;-4.022054e-01;3.532503e-01;201690613;213801961;822262754;0.000000e+00;4.473547e-01;1.668689e+03
77;dgemm;64;0;1;1;1;300;111;111;7200;7200;7200;7200;7200;7200;-4.352033e-02;2.911775e-01;1737518944;282828202;110613202;0.000000e+00;4.424831e-01;1.687061e+03
78;dgemm;64;0;1;1;1;300;111;111;7200;7200;7200;7200;7200;7200;-3.380140e-01;-1.158719e-01;1676902021;1486222842;950390868;0.000000e+00;4.527685e-01;1.648737e+03
79;dgemm;64;0;1;1;1;300;111;111;7200;7200;7200;7200;7200;7200;-3.254125e-01;4.026002e-01;1242608872;1137949908;1277849958;0.000000e+00;4.489853e-01;1.662629e+03
80;dgemm;64;0;1;1;1;300;111;111;8100;8100;8100;8100;8100;8100;-7.731044e-02;2.584243e-01;1908518808;1023457753;364686248;0.000000e+00;6.205300e-01;1.712862e+03
81;dgemm;64;0;1;1;1;300;111;111;8100;8100;8100;8100;8100;8100;-3.124503e-01;3.608416e-01;1329132133;1280321648;501772890;0.000000e+00;6.235756e-01;1.704496e+03
82;dgemm;64;0;1;1;1;300;111;111;8100;8100;8100;8100;8100;8100;8.143046e-02;2.072399e-01;212251746;1983690368;364319529;0.000000e+00;6.277358e-01;1.693200e+03
83;dgemm;64;0;1;1;1;300;111;111;8100;8100;8100;8100;8100;8100;2.429254e-01;3.618715e-01;1775473788;624549797;767066249;0.000000e+00;6.220029e-01;1.708806e+03
84;dgemm;64;0;1;1;1;300;111;111;8100;8100;8100;8100;8100;8100;2.177558e-01;-2.828171e-01;1750003033;1415505363;78012497;0.000000e+00;6.223123e-01;1.707956e+03
85;dgemm;64;0;1;1;1;300;111;111;8100;8100;8100;8100;8100;8100;3.155647e-01;-4.765819e-01;1344247686;1795519125;661761152;0.000000e+00;6.267956e-01;1.695739e+03
86;dgemm;64;0;1;1;1;300;111;111;8100;8100;8100;8100;8100;8100;1.085222e-01;-8.764404e-02;1315209188;235649157;1448703729;0.000000e+00;6.284056e-01;1.691395e+03
87;dgemm;64;0;1;1;1;300;111;111;8100;8100;8100;8100;8100;8100;5.964717e-02;3.343596e-01;430253414;861543921;677870460;0.000000e+00;6.225021e-01;1.707435e+03
88;dgemm;64;0;1;1;1;300;111;111;8100;8100;8100;8100;8100;8100;-3.852038e-01;-3.449149e-01;828388027;1144278050;332266748;0.000000e+00;6.269379e-01;1.695355e+03
89;dgemm;64;0;1;1;1;300;111;111;8100;8100;8100;8100;8100;8100;-2.132347e-01;-3.266376e-02;816504794;820697697;655858699;0.000000e+00;6.234642e-01;1.704800e+03
90;dgemm;64;0;1;1;1;300;111;111;9000;9000;9000;9000;9000;9000;4.306626e-01;3.748097e-01;1395132002;1186090428;1974806403;0.000000e+00;8.506807e-01;1.713922e+03
91;dgemm;64;0;1;1;1;300;111;111;9000;9000;9000;9000;9000;9000;-2.001786e-01;4.867196e-01;1498617647;669908538;1387036159;0.000000e+00;8.536834e-01;1.707893e+03
92;dgemm;64;0;1;1;1;300;111;111;9000;9000;9000;9000;9000;9000;1.290300e-01;2.190988e-01;1812282134;1328104339;1380171692;0.000000e+00;8.523186e-01;1.710628e+03
93;dgemm;64;0;1;1;1;300;111;111;9000;9000;9000;9000;9000;9000;1.972368e-02;-3.289758e-01;777720504;1543755629;1722060049;0.000000e+00;8.499763e-01;1.715342e+03
94;dgemm;64;0;1;1;1;300;111;111;9000;9000;9000;9000;9000;9000;-1.628764e-01;-1.178982e-01;70636429;136495343;1472576335;0.000000e+00;8.517942e-01;1.711681e+03
95;dgemm;64;0;1;1;1;300;111;111;9000;9000;9000;9000;9000;9000;-3.497582e-01;-9.472418e-02;1503885238;1219407971;2416949;0.000000e+00;8.555872e-01;1.704093e+03
96;dgemm;64;0;1;1;1;300;111;111;9000;9000;9000;9000;9000;9000;-1.213255e-01;-3.664051e-01;561717988;1407392292;1841585795;0.000000e+00;8.510621e-01;1.713153e+03
97;dgemm;64;0;1;1;1;300;111;111;9000;9000;9000;9000;9000;9000;3.538300e-01;-4.514458e-01;1433102829;1887658390;1402961682;0.000000e+00;8.568759e-01;1.701530e+03
98;dgemm;64;0;1;1;1;300;111;111;9000;9000;9000;9000;9000;9000;-3.514624e-01;-2.320307e-01;400000569;337453826;1081174232;0.000000e+00;8.517938e-01;1.711682e+03
99;dgemm;64;0;1;1;1;300;111;111;9000;9000;9000;9000;9000;9000;-1.551027e-01;-2.203633e-01;1941690360;410409117;847228023;0.000000e+00;8.556754e-01;1.703917e+03
0;dgemm;64;0;1;1;1;300;111;111;9900;9900;9900;9900;9900;9900;4.892778e-01;-1.846424e-01;1649760492;596516649;1189641421;0.000000e+00;1.136542e+00;1.707459e+03
1;dgemm;64;0;1;1;1;300;111;111;9900;9900;9900;9900;9900;9900;-2.410269e-01;4.000452e-01;783368690;1102520059;2044897763;0.000000e+00;1.166519e+00;1.663580e+03
2;dgemm;64;0;1;1;1;300;111;111;9900;9900;9900;9900;9900;9900;4.141058e-01;-3.017109e-01;1540383426;304089172;1303455736;0.000000e+00;1.162395e+00;1.669482e+03
3;dgemm;64;0;1;1;1;300;111;111;9900;9900;9900;9900;9900;9900;-3.054879e-01;-1.757242e-01;294702567;1726956429;336465782;0.000000e+00;1.160430e+00;1.672310e+03
4;dgemm;64;0;1;1;1;300;111;111;9900;9900;9900;9900;9900;9900;4.797187e-01;2.821215e-01;233665123;2145174067;468703135;0.000000e+00;1.162702e+00;1.669042e+03
5;dgemm;64;0;1;1;1;300;111;111;9900;9900;9900;9900;9900;9900;3.112590e-01;3.332689e-02;1315634022;635723058;1369133069;0.000000e+00;1.170890e+00;1.657370e+03
6;dgemm;64;0;1;1;1;300;111;111;9900;9900;9900;9900;9900;9900;-2.396071e-01;2.196488e-02;2089018456;628175011;1656478042;0.000000e+00;1.159977e+00;1.672963e+03
7;dgemm;64;0;1;1;1;300;111;111;9900;9900;9900;9900;9900;9900;5.576077e-02;-4.098657e-01;859484421;1914544919;608413784;0.000000e+00;1.163942e+00;1.667264e+03
8;dgemm;64;0;1;1;1;300;111;111;9900;9900;9900;9900;9900;9900;-2.172434e-01;3.304604e-01;1973594324;149798315;2038664370;0.000000e+00;1.162938e+00;1.668702e+03
9;dgemm;64;0;1;1;1;300;111;111;9900;9900;9900;9900;9900;9900;1.632813e-02;3.212047e-02;412776091;1424268980;1911759956;0.000000e+00;1.161775e+00;1.670373e+03
10;dgemm;64;0;1;1;1;300;111;111;12300;12300;12300;12300;12300;12300;1.752074e-01;-2.459049e-03;42999170;982906996;135497281;0.000000e+00;2.155079e+00;1.726959e+03
11;dgemm;64;0;1;1;1;300;111;111;12300;12300;12300;12300;12300;12300;-4.932447e-01;-1.333755e-01;1937477084;1827336327;572660336;0.000000e+00;2.180991e+00;1.706442e+03
12;dgemm;64;0;1;1;1;300;111;111;12300;12300;12300;12300;12300;12300;-1.501402e-01;2.390371e-01;1632621729;1100661313;1433925857;0.000000e+00;2.171878e+00;1.713602e+03
13;dgemm;64;0;1;1;1;300;111;111;12300;12300;12300;12300;12300;12300;2.189649e-01;-2.465265e-01;939819582;2001100545;1998898814;0.000000e+00;2.176319e+00;1.710105e+03
14;dgemm;64;0;1;1;1;300;111;111;12300;12300;12300;12300;12300;12300;-2.416937e-01;-1.401268e-01;1585990364;1374344043;760313750;0.000000e+00;2.171258e+00;1.714091e+03
15;dgemm;64;0;1;1;1;300;111;111;12300;12300;12300;12300;12300;12300;3.187297e-01;-1.733443e-01;945117276;1889947178;1780695788;0.000000e+00;2.171463e+00;1.713930e+03
16;dgemm;64;0;1;1;1;300;111;111;12300;12300;12300;12300;12300;12300;-4.132594e-01;7.699516e-02;1918502651;752392754;1474612399;0.000000e+00;2.189828e+00;1.699556e+03
17;dgemm;64;0;1;1;1;300;111;111;12300;12300;12300;12300;12300;12300;-1.543593e-01;-4.222437e-01;1411549676;1843993368;943947739;0.000000e+00;2.175222e+00;1.710967e+03
18;dgemm;64;0;1;1;1;300;111;111;12300;12300;12300;12300;12300;12300;1.866877e-01;-3.211111e-01;1749698586;1469348094;1956297539;0.000000e+00;2.185207e+00;1.703149e+03
19;dgemm;64;0;1;1;1;300;111;111;12300;12300;12300;12300;12300;12300;-3.490223e-01;-4.443388e-01;2040651434;1975960378;317097467;0.000000e+00;2.196286e+00;1.694558e+03
20;dgemm;64;0;1;1;1;300;111;111;14700;14700;14700;14700;14700;14700;-1.054364e-01;2.030082e-01;927612902;1330573317;603570492;0.000000e+00;3.659869e+00;1.735867e+03
21;dgemm;64;0;1;1;1;300;111;111;14700;14700;14700;14700;14700;14700;-4.352839e-01;1.623906e-01;959997301;485560280;402724286;0.000000e+00;3.651068e+00;1.740051e+03
22;dgemm;64;0;1;1;1;300;111;111;14700;14700;14700;14700;14700;14700;4.667617e-01;1.036922e-01;894429689;364228444;1947346619;0.000000e+00;3.662516e+00;1.734612e+03
23;dgemm;64;0;1;1;1;300;111;111;14700;14700;14700;14700;14700;14700;4.665847e-01;3.770548e-01;1063958031;1633108117;2114738097;0.000000e+00;3.670530e+00;1.730825e+03
24;dgemm;64;0;1;1;1;300;111;111;14700;14700;14700;14700;14700;14700;-4.980996e-01;2.856491e-01;822890675;1610120709;791698927;0.000000e+00;3.659328e+00;1.736124e+03
25;dgemm;64;0;1;1;1;300;111;111;14700;14700;14700;14700;14700;14700;3.592840e-01;-4.182928e-01;1255179497;524872353;327254586;0.000000e+00;3.680658e+00;1.726063e+03
26;dgemm;64;0;1;1;1;300;111;111;14700;14700;14700;14700;14700;14700;9.307665e-02;3.296821e-01;1703964683;352406219;1600028624;0.000000e+00;3.662118e+00;1.734801e+03
27;dgemm;64;0;1;1;1;300;111;111;14700;14700;14700;14700;14700;14700;-4.719053e-01;2.807858e-01;112805732;1120048829;378409503;0.000000e+00;3.671396e+00;1.730417e+03
28;dgemm;64;0;1;1;1;300;111;111;14700;14700;14700;14700;14700;14700;2.744957e-01;-3.785920e-02;1573363368;1409959708;2077486715;0.000000e+00;3.666715e+00;1.732626e+03
29;dgemm;64;0;1;1;1;300;111;111;14700;14700;14700;14700;14700;14700;1.799312e-01;9.546876e-03;200747796;289700723;1117142618;0.000000e+00;3.677760e+00;1.727422e+03
30;dgemm;64;0;1;1;1;300;111;111;17100;17100;17100;17100;17100;17100;1.744033e-01;3.861393e-01;439493451;990892921;1760243555;0.000000e+00;5.695151e+00;1.755954e+03
31;dgemm;64;0;1;1;1;300;111;111;17100;17100;17100;17100;17100;17100;3.018442e-01;-4.633856e-02;111537764;338888228;2147469841;0.000000e+00;5.705854e+00;1.752660e+03
32;dgemm;64;0;1;1;1;300;111;111;17100;17100;17100;17100;17100;17100;2.072774e-01;1.109783e-01;269441500;2142757034;116087764;0.000000e+00;5.697999e+00;1.755076e+03
33;dgemm;64;0;1;1;1;300;111;111;17100;17100;17100;17100;17100;17100;-2.366607e-01;9.513167e-02;8936987;1982275856;1275373743;0.000000e+00;5.738301e+00;1.742750e+03
34;dgemm;64;0;1;1;1;300;111;111;17100;17100;17100;17100;17100;17100;-3.952797e-01;-4.960891e-01;841148365;1960709859;1760281936;0.000000e+00;5.713096e+00;1.750438e+03
35;dgemm;64;0;1;1;1;300;111;111;17100;17100;17100;17100;17100;17100;-2.607432e-01;-3.651100e-01;1244316437;971899228;1476153275;0.000000e+00;5.732650e+00;1.744468e+03
36;dgemm;64;0;1;1;1;300;111;111;17100;17100;17100;17100;17100;17100;-1.389722e-01;-8.843738e-02;1626276121;653468858;2130794395;0.000000e+00;5.713188e+00;1.750410e+03
37;dgemm;64;0;1;1;1;300;111;111;17100;17100;17100;17100;17100;17100;9.367129e-02;9.508020e-02;1605908235;1350573793;76065818;0.000000e+00;5.722568e+00;1.747541e+03
38;dgemm;64;0;1;1;1;300;111;111;17100;17100;17100;17100;17100;17100;-4.585682e-01;3.268176e-01;1987231011;1875335928;1784639529;0.000000e+00;5.707889e+00;1.752035e+03
39;dgemm;64;0;1;1;1;300;111;111;17100;17100;17100;17100;17100;17100;-6.830955e-02;1.535754e-01;1939964443;2112255763;1432114613;0.000000e+00;5.721588e+00;1.747840e+03
40;dgemm;64;0;1;1;1;300;111;111;19500;19500;19500;19500;19500;19500;2.725473e-01;1.883941e-01;1782436840;1909002904;165344818;0.000000e+00;8.440949e+00;1.756882e+03
41;dgemm;64;0;1;1;1;300;111;111;19500;19500;19500;19500;19500;19500;2.191162e-01;-3.021529e-01;1351797369;492067917;1504569917;0.000000e+00;8.415775e+00;1.762137e+03
42;dgemm;64;0;1;1;1;300;111;111;19500;19500;19500;19500;19500;19500;-3.280447e-01;-3.223358e-01;496987743;159259470;1359512183;0.000000e+00;8.410844e+00;1.763170e+03
43;dgemm;64;0;1;1;1;300;111;111;19500;19500;19500;19500;19500;19500;-4.513911e-01;3.904790e-01;1096689772;2086206725;601385644;0.000000e+00;8.408638e+00;1.763633e+03
44;dgemm;64;0;1;1;1;300;111;111;19500;19500;19500;19500;19500;19500;-4.403555e-01;9.074247e-02;243268139;1012502954;1272469786;0.000000e+00;8.408624e+00;1.763636e+03
45;dgemm;64;0;1;1;1;300;111;111;19500;19500;19500;19500;19500;19500;1.908228e-02;4.440272e-01;722308542;1820388464;933110197;0.000000e+00;8.424990e+00;1.760210e+03
46;dgemm;64;0;1;1;1;300;111;111;19500;19500;19500;19500;19500;19500;-1.017733e-01;4.140073e-01;1285228804;1789376348;502278611;0.000000e+00;8.402682e+00;1.764883e+03
47;dgemm;64;0;1;1;1;300;111;111;19500;19500;19500;19500;19500;19500;-2.659684e-01;-2.731221e-01;1034949299;654887343;1529195746;0.000000e+00;8.396587e+00;1.766164e+03
48;dgemm;64;0;1;1;1;300;111;111;19500;19500;19500;19500;19500;19500;1.985016e-01;4.068633e-01;87755422;889023311;1494613810;0.000000e+00;8.409227e+00;1.763509e+03
49;dgemm;64;0;1;1;1;300;111;111;19500;19500;19500;19500;19500;19500;-4.302884e-01;-3.682695e-01;745425661;396473730;1308044878;0.000000e+00;8.443105e+00;1.756433e+03
50;dgemm;64;0;1;1;1;300;111;111;21900;21900;21900;21900;21900;21900;3.002688e-01;4.210193e-01;705178736;1590079444;434248626;0.000000e+00;1.189731e+01;1.765686e+03
51;dgemm;64;0;1;1;1;300;111;111;21900;21900;21900;21900;21900;21900;-3.696050e-01;-2.996627e-01;1402586708;552473416;1143408282;0.000000e+00;1.189606e+01;1.765872e+03
52;dgemm;64;0;1;1;1;300;111;111;21900;21900;21900;21900;21900;21900;-3.095740e-01;-1.111416e-01;1884167637;1473442062;201305624;0.000000e+00;1.190442e+01;1.764631e+03
53;dgemm;64;0;1;1;1;300;111;111;21900;21900;21900;21900;21900;21900;3.214526e-01;-2.291051e-01;1238433452;1273911899;1431419379;0.000000e+00;1.193219e+01;1.760525e+03
54;dgemm;64;0;1;1;1;300;111;111;21900;21900;21900;21900;21900;21900;-4.764616e-02;-2.823082e-01;619290071;707900973;407487131;0.000000e+00;1.189658e+01;1.765795e+03
55;dgemm;64;0;1;1;1;300;111;111;21900;21900;21900;21900;21900;21900;-2.829039e-01;4.689267e-01;1776808933;711845894;404158660;0.000000e+00;1.192177e+01;1.762064e+03
56;dgemm;64;0;1;1;1;300;111;111;21900;21900;21900;21900;21900;21900;-9.802407e-02;-3.473849e-01;1973387981;1642548899;1501252996;0.000000e+00;1.189028e+01;1.766730e+03
57;dgemm;64;0;1;1;1;300;111;111;21900;21900;21900;21900;21900;21900;-2.998149e-02;-6.245404e-02;824272813;1662739668;2025187190;0.000000e+00;1.189278e+01;1.766359e+03
58;dgemm;64;0;1;1;1;300;111;111;21900;21900;21900;21900;21900;21900;1.613464e-01;1.651206e-01;437116466;1704365084;1176911340;0.000000e+00;1.190507e+01;1.764536e+03
59;dgemm;64;0;1;1;1;300;111;111;21900;21900;21900;21900;21900;21900;-9.329343e-02;2.766544e-01;1953443376;1876855542;1069755936;0.000000e+00;1.190576e+01;1.764433e+03
60;dgemm;64;0;1;1;1;300;111;111;24300;24300;24300;24300;24300;24300;-4.205594e-01;1.129006e-01;588219756;1856669179;1057418418;0.000000e+00;1.611565e+01;1.780742e+03
61;dgemm;64;0;1;1;1;300;111;111;24300;24300;24300;24300;24300;24300;1.349872e-02;-2.496970e-01;1065103348;625032172;387451659;0.000000e+00;1.611268e+01;1.781070e+03
62;dgemm;64;0;1;1;1;300;111;111;24300;24300;24300;24300;24300;24300;9.058696e-02;7.370132e-02;298625210;1295166342;1057467587;0.000000e+00;1.610074e+01;1.782391e+03
63;dgemm;64;0;1;1;1;300;111;111;24300;24300;24300;24300;24300;24300;-3.018314e-02;-5.773157e-02;382697713;476667372;1070575321;0.000000e+00;1.618593e+01;1.773010e+03
64;dgemm;64;0;1;1;1;300;111;111;24300;24300;24300;24300;24300;24300;-4.650331e-01;-1.058972e-01;774044599;697517721;2001229904;0.000000e+00;1.619415e+01;1.772110e+03
65;dgemm;64;0;1;1;1;300;111;111;24300;24300;24300;24300;24300;24300;4.801672e-01;-2.032396e-01;1797073940;1756915667;1065311705;0.000000e+00;1.613848e+01;1.778222e+03
66;dgemm;64;0;1;1;1;300;111;111;24300;24300;24300;24300;24300;24300;2.132438e-01;1.658781e-01;1414829150;1307565984;555996658;0.000000e+00;1.617942e+01;1.773723e+03
67;dgemm;64;0;1;1;1;300;111;111;24300;24300;24300;24300;24300;24300;1.800331e-01;-1.232803e-01;231602422;1389867269;780821396;0.000000e+00;1.610626e+01;1.781781e+03
68;dgemm;64;0;1;1;1;300;111;111;24300;24300;24300;24300;24300;24300;3.404283e-01;-1.210446e-01;195740084;917679292;2006811972;0.000000e+00;1.621770e+01;1.769537e+03
69;dgemm;64;0;1;1;1;300;111;111;24300;24300;24300;24300;24300;24300;1.960490e-01;-2.057583e-01;1414647625;1635905385;1046741222;0.000000e+00;1.621056e+01;1.770316e+03
70;dgemm;64;0;1;1;1;300;111;111;26700;26700;26700;26700;26700;26700;-4.981229e-01;1.797563e-01;1343606042;1111783898;446340713;0.000000e+00;2.130713e+01;1.786647e+03
71;dgemm;64;0;1;1;1;300;111;111;26700;26700;26700;26700;26700;26700;1.449892e-01;-2.994312e-01;1782280524;846942590;524688209;0.000000e+00;2.145081e+01;1.774680e+03
72;dgemm;64;0;1;1;1;300;111;111;26700;26700;26700;26700;26700;26700;-7.231379e-02;2.098748e-01;1371499336;2114937732;726371155;0.000000e+00;2.134719e+01;1.783294e+03
73;dgemm;64;0;1;1;1;300;111;111;26700;26700;26700;26700;26700;26700;-2.503210e-01;-2.840220e-01;882160379;11614769;1682085273;0.000000e+00;2.133300e+01;1.784480e+03
74;dgemm;64;0;1;1;1;300;111;111;26700;26700;26700;26700;26700;26700;9.597039e-02;1.728868e-01;246247255;1858721860;1548348142;0.000000e+00;2.133200e+01;1.784564e+03
75;dgemm;64;0;1;1;1;300;111;111;26700;26700;26700;26700;26700;26700;-7.244259e-02;3.629747e-01;2118421993;1520223205;452867621;0.000000e+00;2.133137e+01;1.784617e+03
76;dgemm;64;0;1;1;1;300;111;111;26700;26700;26700;26700;26700;26700;-4.022054e-01;3.532503e-01;201690613;213801961;822262754;0.000000e+00;2.142305e+01;1.776980e+03
77;dgemm;64;0;1;1;1;300;111;111;26700;26700;26700;26700;26700;26700;-4.352033e-02;2.911775e-01;1737518944;282828202;110613202;0.000000e+00;2.140041e+01;1.778859e+03
78;dgemm;64;0;1;1;1;300;111;111;26700;26700;26700;26700;26700;26700;-3.380140e-01;-1.158719e-01;1676902021;1486222842;950390868;0.000000e+00;2.137672e+01;1.780831e+03
79;dgemm;64;0;1;1;1;300;111;111;26700;26700;26700;26700;26700;26700;-3.254125e-01;4.026002e-01;1242608872;1137949908;1277849958;0.000000e+00;2.136937e+01;1.781444e+03
80;dgemm;64;0;1;1;1;300;111;111;29100;29100;29100;29100;29100;29100;-7.731044e-02;2.584243e-01;1908518808;1023457753;364686248;0.000000e+00;2.747432e+01;1.793833e+03
81;dgemm;64;0;1;1;1;300;111;111;29100;29100;29100;29100;29100;29100;-3.124503e-01;3.608416e-01;1329132133;1280321648;501772890;0.000000e+00;2.756901e+01;1.787672e+03
82;dgemm;64;0;1;1;1;300;111;111;29100;29100;29100;29100;29100;29100;8.143046e-02;2.072399e-01;212251746;1983690368;364319529;0.000000e+00;2.751127e+01;1.791424e+03
83;dgemm;64;0;1;1;1;300;111;111;29100;29100;29100;29100;29100;29100;2.429254e-01;3.618715e-01;1775473788;624549797;767066249;0.000000e+00;2.758730e+01;1.786487e+03
84;dgemm;64;0;1;1;1;300;111;111;29100;29100;29100;29100;29100;29100;2.177558e-01;-2.828171e-01;1750003033;1415505363;78012497;0.000000e+00;2.760893e+01;1.785087e+03
85;dgemm;64;0;1;1;1;300;111;111;29100;29100;29100;29100;29100;29100;3.155647e-01;-4.765819e-01;1344247686;1795519125;661761152;0.000000e+00;2.763302e+01;1.783531e+03
86;dgemm;64;0;1;1;1;300;111;111;29100;29100;29100;29100;29100;29100;1.085222e-01;-8.764404e-02;1315209188;235649157;1448703729;0.000000e+00;2.759183e+01;1.786193e+03
87;dgemm;64;0;1;1;1;300;111;111;29100;29100;29100;29100;29100;29100;5.964717e-02;3.343596e-01;430253414;861543921;677870460;0.000000e+00;2.762572e+01;1.784002e+03
88;dgemm;64;0;1;1;1;300;111;111;29100;29100;29100;29100;29100;29100;-3.852038e-01;-3.449149e-01;828388027;1144278050;332266748;0.000000e+00;2.758027e+01;1.786942e+03
89;dgemm;64;0;1;1;1;300;111;111;29100;29100;29100;29100;29100;29100;-2.132347e-01;-3.266376e-02;816504794;820697697;655858699;0.000000e+00;2.759948e+01;1.785698e+03
