Id;Function;threads;gpus;P;Q;mtxfmt;nb;transA;transB;m;n;k;lda;ldb;ldc;alpha;beta;seedA;seedB;seedC;tsub;time;gflops
0;dgemm;64;0;1;1;0;300;111;111;900;900;900;900;900;900;4.892778e-01;-1.846424e-01;1649760492;596516649;1189641421;0.000000e+00;1.676512e-02;8.696629e+01
1;dgemm;64;0;1;1;0;300;111;111;900;900;900;900;900;900;-2.410269e-01;4.000452e-01;783368690;1102520059;2044897763;0.000000e+00;1.815200e-02;8.032173e+01
2;dgemm;64;0;1;1;0;300;111;111;900;900;900;900;900;900;4.141058e-01;-3.017109e-01;1540383426;304089172;1303455736;0.000000e+00;9.141922e-03;1.594851e+02
3;dgemm;64;0;1;1;0;300;111;111;900;900;900;900;900;900;-3.054879e-01;-1.757242e-01;294702567;1726956429;336465782;0.000000e+00;1.447201e-02;1.007462e+02
4;dgemm;64;0;1;1;0;300;111;111;900;900;900;900;900;900;4.797187e-01;2.821215e-01;233665123;2145174067;468703135;0.000000e+00;8.985043e-03;1.622697e+02
5;dgemm;64;0;1;1;0;300;111;111;900;900;900;900;900;900;3.112590e-01;3.332689e-02;1315634022;635723058;1369133069;0.000000e+00;8.939981e-03;1.630876e+02
6;dgemm;64;0;1;1;0;300;111;111;900;900;900;900;900;900;-2.396071e-01;2.196488e-02;2089018456;628175011;1656478042;0.000000e+00;8.852005e-03;1.647084e+02
7;dgemm;64;0;1;1;0;300;111;111;900;900;900;900;900;900;5.576077e-02;-4.098657e-01;859484421;1914544919;608413784;0.000000e+00;1.438284e-02;1.013708e+02
8;dgemm;64;0;1;1;0;300;111;111;900;900;900;900;900;900;-2.172434e-01;3.304604e-01;1973594324;149798315;2038664370;0.000000e+00;9.306908e-03;1.566578e+02
9;dgemm;64;0;1;1;0;300;111;111;900;900;900;900;900;900;1.632813e-02;3.212047e-02;412776091;1424268980;1911759956;0.000000e+00;9.175062e-03;1.589090e+02
10;dgemm;64;0;1;1;0;300;111;111;1800;1800;1800;1800;1800;1800;1.752074e-01;-2.459049e-03;42999170;982906996;135497281;0.000000e+00;1.982403e-02;5.883769e+02
11;dgemm;64;0;1;1;0;300;111;111;1800;1800;1800;1800;1800;1800;-4.932447e-01;-1.333755e-01;1937477084;1827336327;572660336;0.000000e+00;2.043319e-02;5.708360e+02
12;dgemm;64;0;1;1;0;300;111;111;1800;1800;1800;1800;1800;1800;-1.501402e-01;2.390371e-01;1632621729;1100661313;1433925857;0.000000e+00;2.064705e-02;5.649233e+02
13;dgemm;64;0;1;1;0;300;111;111;1800;1800;1800;1800;1800;1800;2.189649e-01;-2.465265e-01;939819582;2001100545;1998898814;0.000000e+00;2.440119e-02;4.780095e+02
14;dgemm;64;0;1;1;0;300;111;111;1800;1800;1800;1800;1800;1800;-2.416937e-01;-1.401268e-01;1585990364;1374344043;760313750;0.000000e+00;2.026105e-02;5.756859e+02
15;dgemm;64;0;1;1;0;300;111;111;1800;1800;1800;1800;1800;1800;3.187297e-01;-1.733443e-01;945117276;1889947178;1780695788;0.000000e+00;2.460599e-02;4.740309e+02
16;dgemm;64;0;1;1;0;300;111;111;1800;1800;1800;1800;1800;1800;-4.132594e-01;7.699516e-02;1918502651;752392754;1474612399;0.000000e+00;1.723289e-02;6.768451e+02
17;dgemm;64;0;1;1;0;300;111;111;1800;1800;1800;1800;1800;1800;-1.543593e-01;-4.222437e-01;1411549676;1843993368;943947739;0.000000e+00;1.371908e-02;8.502027e+02
18;dgemm;64;0;1;1;0;300;111;111;1800;1800;1800;1800;1800;1800;1.866877e-01;-3.211111e-01;1749698586;1469348094;1956297539;0.000000e+00;1.817703e-02;6.416889e+02
19;dgemm;64;0;1;1;0;300;111;111;1800;1800;1800;1800;1800;1800;-3.490223e-01;-4.443388e-01;2040651434;1975960378;317097467;0.000000e+00;1.883888e-02;6.191450e+02
20;dgemm;64;0;1;1;0;300;111;111;2700;2700;2700;2700;2700;2700;-1.054364e-01;2.030082e-01;927612902;1330573317;603570492;0.000000e+00;2.485108e-02;1.584076e+03
21;dgemm;64;0;1;1;0;300;111;111;2700;2700;2700;2700;2700;2700;-4.352839e-01;1.623906e-01;959997301;485560280;402724286;0.000000e+00;2.413416e-02;1.631132e+03
22;dgemm;64;0;1;1;0;300;111;111;2700;2700;2700;2700;2700;2700;4.667617e-01;1.036922e-01;894429689;364228444;1947346619;0.000000e+00;2.540493e-02;1.549542e+03
23;dgemm;64;0;1;1;0;300;111;111;2700;2700;2700;2700;2700;2700;4.665847e-01;3.770548e-01;1063958031;1633108117;2114738097;0.000000e+00;2.506995e-02;1.570246e+03
24;dgemm;64;0;1;1;0;300;111;111;2700;2700;2700;2700;2700;2700;-4.980996e-01;2.856491e-01;822890675;1610120709;791698927;0.000000e+00;2.469492e-02;1.594093e+03
25;dgemm;64;0;1;1;0;300;111;111;2700;2700;2700;2700;2700;2700;3.592840e-01;-4.182928e-01;1255179497;524872353;327254586;0.000000e+00;2.525282e-02;1.558875e+03
26;dgemm;64;0;1;1;0;300;111;111;2700;2700;2700;2700;2700;2700;9.307665e-02;3.296821e-01;1703964683;352406219;1600028624;0.000000e+00;2.378488e-02;1.655085e+03
27;dgemm;64;0;1;1;0;300;111;111;2700;2700;2700;2700;2700;2700;-4.719053e-01;2.807858e-01;112805732;1120048829;378409503;0.000000e+00;2.441001e-02;1.612699e+03
28;dgemm;64;0;1;1;0;300;111;111;2700;2700;2700;2700;2700;2700;2.744957e-01;-3.785920e-02;1573363368;1409959708;2077486715;0.000000e+00;2.410793e-02;1.632906e+03
29;dgemm;64;0;1;1;0;300;111;111;2700;2700;2700;2700;2700;2700;1.799312e-01;9.546876e-03;200747796;289700723;1117142618;0.000000e+00;2.532196e-02;1.554619e+03
30;dgemm;64;0;1;1;0;300;111;111;3600;3600;3600;3600;3600;3600;1.744033e-01;3.861393e-01;439493451;990892921;1760243555;0.000000e+00;5.660796e-02;1.648390e+03
31;dgemm;64;0;1;1;0;300;111;111;3600;3600;3600;3600;3600;3600;3.018442e-01;-4.633856e-02;111537764;338888228;2147469841;0.000000e+00;5.764294e-02;1.618793e+03
32;dgemm;64;0;1;1;0;300;111;111;3600;3600;3600;3600;3600;3600;2.072774e-01;1.109783e-01;269441500;2142757034;116087764;0.000000e+00;5.943298e-02;1.570037e+03
33;dgemm;64;0;1;1;0;300;111;111;3600;3600;3600;3600;3600;3600;-2.366607e-01;9.513167e-02;8936987;1982275856;1275373743;0.000000e+00;5.940008e-02;1.570907e+03
34;dgemm;64;0;1;1;0;300;111;111;3600;3600;3600;3600;3600;3600;-3.952797e-01;-4.960891e-01;841148365;1960709859;1760281936;0.000000e+00;6.072187e-02;1.536711e+03
35;dgemm;64;0;1;1;0;300;111;111;3600;3600;3600;3600;3600;3600;-2.607432e-01;-3.651100e-01;1244316437;971899228;1476153275;0.000000e+00;6.144094e-02;1.518727e+03
36;dgemm;64;0;1;1;0;300;111;111;3600;3600;3600;3600;3600;3600;-1.389722e-01;-8.843738e-02;1626276121;653468858;2130794395;0.000000e+00;5.976605e-02;1.561288e+03
37;dgemm;64;0;1;1;0;300;111;111;3600;3600;3600;3600;3600;3600;9.367129e-02;9.508020e-02;1605908235;1350573793;76065818;0.000000e+00;5.982304e-02;1.559800e+03
38;dgemm;64;0;1;1;0;300;111;111;3600;3600;3600;3600;3600;3600;-4.585682e-01;3.268176e-01;1987231011;1875335928;1784639529;0.000000e+00;6.346488e-02;1.470293e+03
39;dgemm;64;0;1;1;0;300;111;111;3600;3600;3600;3600;3600;3600;-6.830955e-02;1.535754e-01;1939964443;2112255763;1432114613;0.000000e+00;6.093192e-02;1.531414e+03
40;dgemm;64;0;1;1;0;300;111;111;4500;4500;4500;4500;4500;4500;2.725473e-01;1.883941e-01;1782436840;1909002904;165344818;0.000000e+00;1.141100e-01;1.597143e+03
41;dgemm;64;0;1;1;0;300;111;111;4500;4500;4500;4500;4500;4500;2.191162e-01;-3.021529e-01;1351797369;492067917;1504569917;0.000000e+00;1.325190e-01;1.375274e+03
42;dgemm;64;0;1;1;0;300;111;111;4500;4500;4500;4500;4500;4500;-3.280447e-01;-3.223358e-01;496987743;159259470;1359512183;0.000000e+00;1.348908e-01;1.351093e+03
43;dgemm;64;0;1;1;0;300;111;111;4500;4500;4500;4500;4500;4500;-4.513911e-01;3.904790e-01;1096689772;2086206725;601385644;0.000000e+00;1.356099e-01;1.343929e+03
44;dgemm;64;0;1;1;0;300;111;111;4500;4500;4500;4500;4500;4500;-4.403555e-01;9.074247e-02;243268139;1012502954;1272469786;0.000000e+00;1.366000e-01;1.334187e+03
45;dgemm;64;0;1;1;0;300;111;111;4500;4500;4500;4500;4500;4500;1.908228e-02;4.440272e-01;722308542;1820388464;933110197;0.000000e+00;1.445041e-01;1.261210e+03
46;dgemm;64;0;1;1;0;300;111;111;4500;4500;4500;4500;4500;4500;-1.017733e-01;4.140073e-01;1285228804;1789376348;502278611;0.000000e+00;1.424210e-01;1.279657e+03
47;dgemm;64;0;1;1;0;300;111;111;4500;4500;4500;4500;4500;4500;-2.659684e-01;-2.731221e-01;1034949299;654887343;1529195746;0.000000e+00;1.434319e-01;1.270638e+03
48;dgemm;64;0;1;1;0;300;111;111;4500;4500;4500;4500;4500;4500;1.985016e-01;4.068633e-01;87755422;889023311;1494613810;0.000000e+00;1.433270e-01;1.271568e+03
49;dgemm;64;0;1;1;0;300;111;111;4500;4500;4500;4500;4500;4500;-4.302884e-01;-3.682695e-01;745425661;396473730;1308044878;0.000000e+00;1.440911e-01;1.264825e+03
50;dgemm;64;0;1;1;0;300;111;111;5400;5400;5400;5400;5400;5400;3.002688e-01;4.210193e-01;705178736;1590079444;434248626;0.000000e+00;2.087591e-01;1.508572e+03
51;dgemm;64;0;1;1;0;300;111;111;5400;5400;5400;5400;5400;5400;-3.696050e-01;-2.996627e-01;1402586708;552473416;1143408282;0.000000e+00;2.451339e-01;1.284718e+03
52;dgemm;64;0;1;1;0;300;111;111;5400;5400;5400;5400;5400;5400;-3.095740e-01;-1.111416e-01;1884167637;1473442062;201305624;0.000000e+00;2.453530e-01;1.283571e+03
53;dgemm;64;0;1;1;0;300;111;111;5400;5400;5400;5400;5400;5400;3.214526e-01;-2.291051e-01;1238433452;1273911899;1431419379;0.000000e+00;2.516768e-01;1.251319e+03
54;dgemm;64;0;1;1;0;300;111;111;5400;5400;5400;5400;5400;5400;-4.764616e-02;-2.823082e-01;619290071;707900973;407487131;0.000000e+00;2.540240e-01;1.239757e+03
55;dgemm;64;0;1;1;0;300;111;111;5400;5400;5400;5400;5400;5400;-2.829039e-01;4.689267e-01;1776808933;711845894;404158660;0.000000e+00;2.519820e-01;1.249804e+03
56;dgemm;64;0;1;1;0;300;111;111;5400;5400;5400;5400;5400;5400;-9.802407e-02;-3.473849e-01;1973387981;1642548899;1501252996;0.000000e+00;2.539070e-01;1.240328e+03
57;dgemm;64;0;1;1;0;300;111;111;5400;5400;5400;5400;5400;5400;-2.998149e-02;-6.245404e-02;824272813;1662739668;2025187190;0.000000e+00;2.527158e-01;1.246174e+03
58;dgemm;64;0;1;1;0;300;111;111;5400;5400;5400;5400;5400;5400;1.613464e-01;1.651206e-01;437116466;1704365084;1176911340;0.000000e+00;2.533500e-01;1.243055e+03
59;dgemm;64;0;1;1;0;300;111;111;5400;5400;5400;5400;5400;5400;-9.329343e-02;2.766544e-01;1953443376;1876855542;1069755936;0.000000e+00;2.507200e-01;1.256094e+03
60;dgemm;64;0;1;1;0;300;111;111;6300;6300;6300;6300;6300;6300;-4.205594e-01;1.129006e-01;588219756;1856669179;1057418418;0.000000e+00;3.540080e-01;1.412663e+03
61;dgemm;64;0;1;1;0;300;111;111;6300;6300;6300;6300;6300;6300;1.349872e-02;-2.496970e-01;1065103348;625032172;387451659;0.000000e+00;4.040060e-01;1.237838e+03
62;dgemm;64;0;1;1;0;300;111;111;6300;6300;6300;6300;6300;6300;9.058696e-02;7.370132e-02;298625210;1295166342;1057467587;0.000000e+00;3.907440e-01;1.279851e+03
63;dgemm;64;0;1;1;0;300;111;111;6300;6300;6300;6300;6300;6300;-3.018314e-02;-5.773157e-02;382697713;476667372;1070575321;0.000000e+00;4.158649e-01;1.202539e+03
64;dgemm;64;0;1;1;0;300;111;111;6300;6300;6300;6300;6300;6300;-4.650331e-01;-1.058972e-01;774044599;697517721;2001229904;0.000000e+00;4.074600e-01;1.227345e+03
65;dgemm;64;0;1;1;0;300;111;111;6300;6300;6300;6300;6300;6300;4.801672e-01;-2.032396e-01;1797073940;1756915667;1065311705;0.000000e+00;4.133151e-01;1.209958e+03
66;dgemm;64;0;1;1;0;300;111;111;6300;6300;6300;6300;6300;6300;2.132438e-01;1.658781e-01;1414829150;1307565984;555996658;0.000000e+00;4.146459e-01;1.206075e+03
67;dgemm;64;0;1;1;0;300;111;111;6300;6300;6300;6300;6300;6300;1.800331e-01;-1.232803e-01;231602422;1389867269;780821396;0.000000e+00;4.169650e-01;1.199367e+03
68;dgemm;64;0;1;1;0;300;111;111;6300;6300;6300;6300;6300;6300;3.404283e-01;-1.210446e-01;195740084;917679292;2006811972;0.000000e+00;4.123571e-01;1.212769e+03
69;dgemm;64;0;1;1;0;300;111;111;6300;6300;6300;6300;6300;6300;1.960490e-01;-2.057583e-01;1414647625;1635905385;1046741222;0.000000e+00;4.154630e-01;1.203703e+03
70;dgemm;64;0;1;1;0;300;111;111;7200;7200;7200;7200;7200;7200;-4.981229e-01;1.797563e-01;1343606042;1111783898;446340713;0.000000e+00;5.615730e-01;1.329295e+03
71;dgemm;64;0;1;1;0;300;111;111;7200;7200;7200;7200;7200;7200;1.449892e-01;-2.994312e-01;1782280524;846942590;524688209;0.000000e+00;6.260729e-01;1.192347e+03
72;dgemm;64;0;1;1;0;300;111;111;7200;7200;7200;7200;7200;7200;-7.231379e-02;2.098748e-01;1371499336;2114937732;726371155;0.000000e+00;6.118891e-01;1.219986e+03
73;dgemm;64;0;1;1;0;300;111;111;7200;7200;7200;7200;7200;7200;-2.503210e-01;-2.840220e-01;882160379;11614769;1682085273;0.000000e+00;6.288850e-01;1.187015e+03
74;dgemm;64;0;1;1;0;300;111;111;7200;7200;7200;7200;7200;7200;9.597039e-02;1.728868e-01;246247255;1858721860;1548348142;0.000000e+00;6.320779e-01;1.181019e+03
75;dgemm;64;0;1;1;0;300;111;111;7200;7200;7200;7200;7200;7200;-7.244259e-02;3.629747e-01;2118421993;1520223205;452867621;0.000000e+00;6.418300e-01;1.163074e+03
76;dgemm;64;0;1;1;0;300;111;111;7200;7200;7200;7200;7200;7200;-4.022054e-01;3.532503e-01;201690613;213801961;822262754;0.000000e+00;6.372230e-01;1.171483e+03
77;dgemm;64;0;1;1;0;300;111;111;7200;7200;7200;7200;7200;7200;-4.352033e-02;2.911775e-01;1737518944;282828202;110613202;0.000000e+00;6.434181e-01;1.160204e+03
78;dgemm;64;0;1;1;0;300;111;111;7200;7200;7200;7200;7200;7200;-3.380140e-01;-1.158719e-01;1676902021;1486222842;950390868;0.000000e+00;6.337099e-01;1.177977e+03
79;dgemm;64;0;1;1;0;300;111;111;7200;7200;7200;7200;7200;7200;-3.254125e-01;4.026002e-01;1242608872;1137949908;1277849958;0.000000e+00;6.378670e-01;1.170300e+03
80;dgemm;64;0;1;1;0;300;111;111;8100;8100;8100;8100;8100;8100;-7.731044e-02;2.584243e-01;1908518808;1023457753;364686248;0.000000e+00;8.296468e-01;1.281126e+03
81;dgemm;64;0;1;1;0;300;111;111;8100;8100;8100;8100;8100;8100;-3.124503e-01;3.608416e-01;1329132133;1280321648;501772890;0.000000e+00;9.137011e-01;1.163271e+03
82;dgemm;64;0;1;1;0;300;111;111;8100;8100;8100;8100;8100;8100;8.143046e-02;2.072399e-01;212251746;1983690368;364319529;0.000000e+00;9.016528e-01;1.178815e+03
83;dgemm;64;0;1;1;0;300;111;111;8100;8100;8100;8100;8100;8100;2.429254e-01;3.618715e-01;1775473788;624549797;767066249;0.000000e+00;9.174550e-01;1.158511e+03
84;dgemm;64;0;1;1;0;300;111;111;8100;8100;8100;8100;8100;8100;2.177558e-01;-2.828171e-01;1750003033;1415505363;78012497;0.000000e+00;9.351881e-01;1.136544e+03
85;dgemm;64;0;1;1;0;300;111;111;8100;8100;8100;8100;8100;8100;3.155647e-01;-4.765819e-01;1344247686;1795519125;661761152;0.000000e+00;9.295552e-01;1.143431e+03
86;dgemm;64;0;1;1;0;300;111;111;8100;8100;8100;8100;8100;8100;1.085222e-01;-8.764404e-02;1315209188;235649157;1448703729;0.000000e+00;9.396951e-01;1.131092e+03
87;dgemm;64;0;1;1;0;300;111;111;8100;8100;8100;8100;8100;8100;5.964717e-02;3.343596e-01;430253414;861543921;677870460;0.000000e+00;9.281111e-01;1.145210e+03
88;dgemm;64;0;1;1;0;300;111;111;8100;8100;8100;8100;8100;8100;-3.852038e-01;-3.449149e-01;828388027;1144278050;332266748;0.000000e+00;9.327960e-01;1.139458e+03
89;dgemm;64;0;1;1;0;300;111;111;8100;8100;8100;8100;8100;8100;-2.132347e-01;-3.266376e-02;816504794;820697697;655858699;0.000000e+00;9.254589e-01;1.148492e+03
90;dgemm;64;0;1;1;0;300;111;111;9000;9000;9000;9000;9000;9000;4.306626e-01;3.748097e-01;1395132002;1186090428;1974806403;0.000000e+00;1.167228e+00;1.249113e+03
91;dgemm;64;0;1;1;0;300;111;111;9000;9000;9000;9000;9000;9000;-2.001786e-01;4.867196e-01;1498617647;669908538;1387036159;0.000000e+00;1.276564e+00;1.142128e+03
92;dgemm;64;0;1;1;0;300;111;111;9000;9000;9000;9000;9000;9000;1.290300e-01;2.190988e-01;1812282134;1328104339;1380171692;0.000000e+00;1.268289e+00;1.149580e+03
93;dgemm;64;0;1;1;0;300;111;111;9000;9000;9000;9000;9000;9000;1.972368e-02;-3.289758e-01;777720504;1543755629;1722060049;0.000000e+00;1.299447e+00;1.122016e+03
94;dgemm;64;0;1;1;0;300;111;111;9000;9000;9000;9000;9000;9000;-1.628764e-01;-1.178982e-01;70636429;136495343;1472576335;0.000000e+00;1.294919e+00;1.125939e+03
95;dgemm;64;0;1;1;0;300;111;111;9000;9000;9000;9000;9000;9000;-3.497582e-01;-9.472418e-02;1503885238;1219407971;2416949;0.000000e+00;1.291109e+00;1.129262e+03
96;dgemm;64;0;1;1;0;300;111;111;9000;9000;9000;9000;9000;9000;-1.213255e-01;-3.664051e-01;561717988;1407392292;1841585795;0.000000e+00;1.309367e+00;1.113515e+03
97;dgemm;64;0;1;1;0;300;111;111;9000;9000;9000;9000;9000;9000;3.538300e-01;-4.514458e-01;1433102829;1887658390;1402961682;0.000000e+00;1.308661e+00;1.114116e+03
98;dgemm;64;0;1;1;0;300;111;111;9000;9000;9000;9000;9000;9000;-3.514624e-01;-2.320307e-01;400000569;337453826;1081174232;0.000000e+00;1.315678e+00;1.108174e+03
99;dgemm;64;0;1;1;0;300;111;111;9000;9000;9000;9000;9000;9000;-1.551027e-01;-2.203633e-01;1941690360;410409117;847228023;0.000000e+00;1.301085e+00;1.120603e+03
0;dgemm;64;0;1;1;0;300;111;111;9900;9900;9900;9900;9900;9900;4.892778e-01;-1.846424e-01;1649760492;596516649;1189641421;0.000000e+00;1.437320e+00;1.350150e+03
1;dgemm;64;0;1;1;0;300;111;111;9900;9900;9900;9900;9900;9900;-2.410269e-01;4.000452e-01;783368690;1102520059;2044897763;0.000000e+00;1.469281e+00;1.320781e+03
2;dgemm;64;0;1;1;0;300;111;111;9900;9900;9900;9900;9900;9900;4.141058e-01;-3.017109e-01;1540383426;304089172;1303455736;0.000000e+00;1.564459e+00;1.240428e+03
3;dgemm;64;0;1;1;0;300;111;111;9900;9900;9900;9900;9900;9900;-3.054879e-01;-1.757242e-01;294702567;1726956429;336465782;0.000000e+00;1.610710e+00;1.204809e+03
4;dgemm;64;0;1;1;0;300;111;111;9900;9900;9900;9900;9900;9900;4.797187e-01;2.821215e-01;233665123;2145174067;468703135;0.000000e+00;1.613604e+00;1.202648e+03
5;dgemm;64;0;1;1;0;300;111;111;9900;9900;9900;9900;9900;9900;3.112590e-01;3.332689e-02;1315634022;635723058;1369133069;0.000000e+00;1.655990e+00;1.171866e+03
6;dgemm;64;0;1;1;0;300;111;111;9900;9900;9900;9900;9900;9900;-2.396071e-01;2.196488e-02;2089018456;628175011;1656478042;0.000000e+00;1.675587e+00;1.158160e+03
7;dgemm;64;0;1;1;0;300;111;111;9900;9900;9900;9900;9900;9900;5.576077e-02;-4.098657e-01;859484421;1914544919;608413784;0.000000e+00;1.683410e+00;1.152778e+03
8;dgemm;64;0;1;1;0;300;111;111;9900;9900;9900;9900;9900;9900;-2.172434e-01;3.304604e-01;1973594324;149798315;2038664370;0.000000e+00;1.686185e+00;1.150881e+03
9;dgemm;64;0;1;1;0;300;111;111;9900;9900;9900;9900;9900;9900;1.632813e-02;3.212047e-02;412776091;1424268980;1911759956;0.000000e+00;1.687591e+00;1.149922e+03
10;dgemm;64;0;1;1;0;300;111;111;12300;12300;12300;12300;12300;12300;1.752074e-01;-2.459049e-03;42999170;982906996;135497281;0.000000e+00;2.779786e+00;1.338856e+03
11;dgemm;64;0;1;1;0;300;111;111;12300;12300;12300;12300;12300;12300;-4.932447e-01;-1.333755e-01;1937477084;1827336327;572660336;0.000000e+00;3.664851e+00;1.015521e+03
12;dgemm;64;0;1;1;0;300;111;111;12300;12300;12300;12300;12300;12300;-1.501402e-01;2.390371e-01;1632621729;1100661313;1433925857;0.000000e+00;3.543879e+00;1.050187e+03
13;dgemm;64;0;1;1;0;300;111;111;12300;12300;12300;12300;12300;12300;2.189649e-01;-2.465265e-01;939819582;2001100545;1998898814;0.000000e+00;3.746449e+00;9.934031e+02
14;dgemm;64;0;1;1;0;300;111;111;12300;12300;12300;12300;12300;12300;-2.416937e-01;-1.401268e-01;1585990364;1374344043;760313750;0.000000e+00;3.708251e+00;1.003636e+03
15;dgemm;64;0;1;1;0;300;111;111;12300;12300;12300;12300;12300;12300;3.187297e-01;-1.733443e-01;945117276;1889947178;1780695788;0.000000e+00;3.798646e+00;9.797528e+02
16;dgemm;64;0;1;1;0;300;111;111;12300;12300;12300;12300;12300;12300;-4.132594e-01;7.699516e-02;1918502651;752392754;1474612399;0.000000e+00;3.809141e+00;9.770533e+02
17;dgemm;64;0;1;1;0;300;111;111;12300;12300;12300;12300;12300;12300;-1.543593e-01;-4.222437e-01;1411549676;1843993368;943947739;0.000000e+00;3.797913e+00;9.799419e+02
18;dgemm;64;0;1;1;0;300;111;111;12300;12300;12300;12300;12300;12300;1.866877e-01;-3.211111e-01;1749698586;1469348094;1956297539;0.000000e+00;3.789642e+00;9.820807e+02
19;dgemm;64;0;1;1;0;300;111;111;12300;12300;12300;12300;12300;12300;-3.490223e-01;-4.443388e-01;2040651434;1975960378;317097467;0.000000e+00;3.789065e+00;9.822302e+02
20;dgemm;64;0;1;1;0;300;111;111;14700;14700;14700;14700;14700;14700;-1.054364e-01;2.030082e-01;927612902;1330573317;603570492;0.000000e+00;5.196395e+00;1.222587e+03
21;dgemm;64;0;1;1;0;300;111;111;14700;14700;14700;14700;14700;14700;-4.352839e-01;1.623906e-01;959997301;485560280;402724286;0.000000e+00;6.548413e+00;9.701657e+02
22;dgemm;64;0;1;1;0;300;111;111;14700;14700;14700;14700;14700;14700;4.667617e-01;1.036922e-01;894429689;364228444;1947346619;0.000000e+00;5.946037e+00;1.068450e+03
23;dgemm;64;0;1;1;0;300;111;111;14700;14700;14700;14700;14700;14700;4.665847e-01;3.770548e-01;1063958031;1633108117;2114738097;0.000000e+00;6.524045e+00;9.737894e+02
24;dgemm;64;0;1;1;0;300;111;111;14700;14700;14700;14700;14700;14700;-4.980996e-01;2.856491e-01;822890675;1610120709;791698927;0.000000e+00;6.160337e+00;1.031282e+03
25;dgemm;64;0;1;1;0;300;111;111;14700;14700;14700;14700;14700;14700;3.592840e-01;-4.182928e-01;1255179497;524872353;327254586;0.000000e+00;6.502680e+00;9.769889e+02
26;dgemm;64;0;1;1;0;300;111;111;14700;14700;14700;14700;14700;14700;9.307665e-02;3.296821e-01;1703964683;352406219;1600028624;0.000000e+00;6.381796e+00;9.954950e+02
27;dgemm;64;0;1;1;0;300;111;111;14700;14700;14700;14700;14700;14700;-4.719053e-01;2.807858e-01;112805732;1120048829;378409503;0.000000e+00;6.427351e+00;9.884393e+02
28;dgemm;64;0;1;1;0;300;111;111;14700;14700;14700;14700;14700;14700;2.744957e-01;-3.785920e-02;1573363368;1409959708;2077486715;0.000000e+00;6.372382e+00;9.969656e+02
29;dgemm;64;0;1;1;0;300;111;111;14700;14700;14700;14700;14700;14700;1.799312e-01;9.546876e-03;200747796;289700723;1117142618;0.000000e+00;6.431890e+00;9.877417e+02
30;dgemm;64;0;1;1;0;300;111;111;17100;17100;17100;17100;17100;17100;1.744033e-01;3.861393e-01;439493451;990892921;1760243555;0.000000e+00;8.132180e+00;1.229734e+03
31;dgemm;64;0;1;1;0;300;111;111;17100;17100;17100;17100;17100;17100;3.018442e-01;-4.633856e-02;111537764;338888228;2147469841;0.000000e+00;1.007077e+01;9.930144e+02
32;dgemm;64;0;1;1;0;300;111;111;17100;17100;17100;17100;17100;17100;2.072774e-01;1.109783e-01;269441500;2142757034;116087764;0.000000e+00;8.612234e+00;1.161188e+03
33;dgemm;64;0;1;1;0;300;111;111;17100;17100;17100;17100;17100;17100;-2.366607e-01;9.513167e-02;8936987;1982275856;1275373743;0.000000e+00;9.814500e+00;1.018944e+03
34;dgemm;64;0;1;1;0;300;111;111;17100;17100;17100;17100;17100;17100;-3.952797e-01;-4.960891e-01;841148365;1960709859;1760281936;0.000000e+00;8.889522e+00;1.124967e+03
35;dgemm;64;0;1;1;0;300;111;111;17100;17100;17100;17100;17100;17100;-2.607432e-01;-3.651100e-01;1244316437;971899228;1476153275;0.000000e+00;9.687328e+00;1.032320e+03
36;dgemm;64;0;1;1;0;300;111;111;17100;17100;17100;17100;17100;17100;-1.389722e-01;-8.843738e-02;1626276121;653468858;2130794395;0.000000e+00;9.062695e+00;1.103471e+03
37;dgemm;64;0;1;1;0;300;111;111;17100;17100;17100;17100;17100;17100;9.367129e-02;9.508020e-02;1605908235;1350573793;76065818;0.000000e+00;9.569925e+00;1.044984e+03
38;dgemm;64;0;1;1;0;300;111;111;17100;17100;17100;17100;17100;17100;-4.585682e-01;3.268176e-01;1987231011;1875335928;1784639529;0.000000e+00;9.140722e+00;1.094052e+03
39;dgemm;64;0;1;1;0;300;111;111;17100;17100;17100;17100;17100;17100;-6.830955e-02;1.535754e-01;1939964443;2112255763;1432114613;0.000000e+00;9.451609e+00;1.058066e+03
40;dgemm;64;0;1;1;0;300;111;111;19500;19500;19500;19500;19500;19500;2.725473e-01;1.883941e-01;1782436840;1909002904;165344818;0.000000e+00;1.169442e+01;1.268104e+03
41;dgemm;64;0;1;1;0;300;111;111;19500;19500;19500;19500;19500;19500;2.191162e-01;-3.021529e-01;1351797369;492067917;1504569917;0.000000e+00;1.338403e+01;1.108018e+03
42;dgemm;64;0;1;1;0;300;111;111;19500;19500;19500;19500;19500;19500;-3.280447e-01;-3.223358e-01;496987743;159259470;1359512183;0.000000e+00;1.149691e+01;1.289890e+03
43;dgemm;64;0;1;1;0;300;111;111;19500;19500;19500;19500;19500;19500;-4.513911e-01;3.904790e-01;1096689772;2086206725;601385644;0.000000e+00;1.285277e+01;1.153818e+03
44;dgemm;64;0;1;1;0;300;111;111;19500;19500;19500;19500;19500;19500;-4.403555e-01;9.074247e-02;243268139;1012502954;1272469786;0.000000e+00;1.149652e+01;1.289933e+03
45;dgemm;64;0;1;1;0;300;111;111;19500;19500;19500;19500;19500;19500;1.908228e-02;4.440272e-01;722308542;1820388464;933110197;0.000000e+00;1.249858e+01;1.186514e+03
46;dgemm;64;0;1;1;0;300;111;111;19500;19500;19500;19500;19500;19500;-1.017733e-01;4.140073e-01;1285228804;1789376348;502278611;0.000000e+00;1.152119e+01;1.287172e+03
47;dgemm;64;0;1;1;0;300;111;111;19500;19500;19500;19500;19500;19500;-2.659684e-01;-2.731221e-01;1034949299;654887343;1529195746;0.000000e+00;1.226811e+01;1.208805e+03
48;dgemm;64;0;1;1;0;300;111;111;19500;19500;19500;19500;19500;19500;1.985016e-01;4.068633e-01;87755422;889023311;1494613810;0.000000e+00;1.159613e+01;1.278853e+03
49;dgemm;64;0;1;1;0;300;111;111;19500;19500;19500;19500;19500;19500;-4.302884e-01;-3.682695e-01;745425661;396473730;1308044878;0.000000e+00;1.212242e+01;1.223333e+03
50;dgemm;64;0;1;1;0;300;111;111;21900;21900;21900;21900;21900;21900;3.002688e-01;4.210193e-01;705178736;1590079444;434248626;0.000000e+00;1.465870e+01;1.433068e+03
51;dgemm;64;0;1;1;0;300;111;111;21900;21900;21900;21900;21900;21900;-3.696050e-01;-2.996627e-01;1402586708;552473416;1143408282;0.000000e+00;1.648028e+01;1.274670e+03
52;dgemm;64;0;1;1;0;300;111;111;21900;21900;21900;21900;21900;21900;-3.095740e-01;-1.111416e-01;1884167637;1473442062;201305624;0.000000e+00;1.453495e+01;1.445269e+03
53;dgemm;64;0;1;1;0;300;111;111;21900;21900;21900;21900;21900;21900;3.214526e-01;-2.291051e-01;1238433452;1273911899;1431419379;0.000000e+00;1.596958e+01;1.315433e+03
54;dgemm;64;0;1;1;0;300;111;111;21900;21900;21900;21900;21900;21900;-4.764616e-02;-2.823082e-01;619290071;707900973;407487131;0.000000e+00;1.463475e+01;1.435414e+03
55;dgemm;64;0;1;1;0;300;111;111;21900;21900;21900;21900;21900;21900;-2.829039e-01;4.689267e-01;1776808933;711845894;404158660;0.000000e+00;1.563185e+01;1.343853e+03
56;dgemm;64;0;1;1;0;300;111;111;21900;21900;21900;21900;21900;21900;-9.802407e-02;-3.473849e-01;1973387981;1642548899;1501252996;0.000000e+00;1.469190e+01;1.429830e+03
57;dgemm;64;0;1;1;0;300;111;111;21900;21900;21900;21900;21900;21900;-2.998149e-02;-6.245404e-02;824272813;1662739668;2025187190;0.000000e+00;1.545426e+01;1.359296e+03
58;dgemm;64;0;1;1;0;300;111;111;21900;21900;21900;21900;21900;21900;1.613464e-01;1.651206e-01;437116466;1704365084;1176911340;0.000000e+00;1.468965e+01;1.430049e+03
59;dgemm;64;0;1;1;0;300;111;111;21900;21900;21900;21900;21900;21900;-9.329343e-02;2.766544e-01;1953443376;1876855542;1069755936;0.000000e+00;1.541340e+01;1.362900e+03
60;dgemm;64;0;1;1;0;300;111;111;24300;24300;24300;24300;24300;24300;-4.205594e-01;1.129006e-01;588219756;1856669179;1057418418;0.000000e+00;1.857596e+01;1.544890e+03
61;dgemm;64;0;1;1;0;300;111;111;24300;24300;24300;24300;24300;24300;1.349872e-02;-2.496970e-01;1065103348;625032172;387451659;0.000000e+00;1.978915e+01;1.450179e+03
62;dgemm;64;0;1;1;0;300;111;111;24300;24300;24300;24300;24300;24300;9.058696e-02;7.370132e-02;298625210;1295166342;1057467587;0.000000e+00;1.844926e+01;1.555499e+03
63;dgemm;64;0;1;1;0;300;111;111;24300;24300;24300;24300;24300;24300;-3.018314e-02;-5.773157e-02;382697713;476667372;1070575321;0.000000e+00;1.935767e+01;1.482504e+03
64;dgemm;64;0;1;1;0;300;111;111;24300;24300;24300;24300;24300;24300;-4.650331e-01;-1.058972e-01;774044599;697517721;2001229904;0.000000e+00;1.825302e+01;1.572223e+03
65;dgemm;64;0;1;1;0;300;111;111;24300;24300;24300;24300;24300;24300;4.801672e-01;-2.032396e-01;1797073940;1756915667;1065311705;0.000000e+00;1.912234e+01;1.500748e+03
66;dgemm;64;0;1;1;0;300;111;111;24300;24300;24300;24300;24300;24300;2.132438e-01;1.658781e-01;1414829150;1307565984;555996658;0.000000e+00;1.834335e+01;1.564481e+03
67;dgemm;64;0;1;1;0;300;111;111;24300;24300;24300;24300;24300;24300;1.800331e-01;-1.232803e-01;231602422;1389867269;780821396;0.000000e+00;1.896888e+01;1.512889e+03
68;dgemm;64;0;1;1;0;300;111;111;24300;24300;24300;24300;24300;24300;3.404283e-01;-1.210446e-01;195740084;917679292;2006811972;0.000000e+00;1.832576e+01;1.565983e+03
69;dgemm;64;0;1;1;0;300;111;111;24300;24300;24300;24300;24300;24300;1.960490e-01;-2.057583e-01;1414647625;1635905385;1046741222;0.000000e+00;1.871283e+01;1.533590e+03
70;dgemm;64;0;1;1;0;300;111;111;26700;26700;26700;26700;26700;26700;-4.981229e-01;1.797563e-01;1343606042;1111783898;446340713;0.000000e+00;2.320106e+01;1.640801e+03
71;dgemm;64;0;1;1;0;300;111;111;26700;26700;26700;26700;26700;26700;1.449892e-01;-2.994312e-01;1782280524;846942590;524688209;0.000000e+00;2.345619e+01;1.622954e+03
72;dgemm;64;0;1;1;0;300;111;111;26700;26700;26700;26700;26700;26700;-7.231379e-02;2.098748e-01;1371499336;2114937732;726371155;0.000000e+00;2.273628e+01;1.674343e+03
73;dgemm;64;0;1;1;0;300;111;111;26700;26700;26700;26700;26700;26700;-2.503210e-01;-2.840220e-01;882160379;11614769;1682085273;0.000000e+00;2.307144e+01;1.650020e+03
74;dgemm;64;0;1;1;0;300;111;111;26700;26700;26700;26700;26700;26700;9.597039e-02;1.728868e-01;246247255;1858721860;1548348142;0.000000e+00;2.249950e+01;1.691963e+03
75;dgemm;64;0;1;1;0;300;111;111;26700;26700;26700;26700;26700;26700;-7.244259e-02;3.629747e-01;2118421993;1520223205;452867621;0.000000e+00;2.285093e+01;1.665942e+03
76;dgemm;64;0;1;1;0;300;111;111;26700;26700;26700;26700;26700;26700;-4.022054e-01;3.532503e-01;201690613;213801961;822262754;0.000000e+00;2.240370e+01;1.699198e+03
77;dgemm;64;0;1;1;0;300;111;111;26700;26700;26700;26700;26700;26700;-4.352033e-02;2.911775e-01;1737518944;282828202;110613202;0.000000e+00;2.266112e+01;1.679896e+03
78;dgemm;64;0;1;1;0;300;111;111;26700;26700;26700;26700;26700;26700;-3.380140e-01;-1.158719e-01;1676902021;1486222842;950390868;0.000000e+00;2.230491e+01;1.706724e+03
79;dgemm;64;0;1;1;0;300;111;111;26700;26700;26700;26700;26700;26700;-3.254125e-01;4.026002e-01;1242608872;1137949908;1277849958;0.000000e+00;2.248003e+01;1.693428e+03
80;dgemm;64;0;1;1;0;300;111;111;29100;29100;29100;29100;29100;29100;-7.731044e-02;2.584243e-01;1908518808;1023457753;364686248;0.000000e+00;2.822747e+01;1.745971e+03
81;dgemm;64;0;1;1;0;300;111;111;29100;29100;29100;29100;29100;29100;-3.124503e-01;3.608416e-01;1329132133;1280321648;501772890;0.000000e+00;2.857653e+01;1.724644e+03
82;dgemm;64;0;1;1;0;300;111;111;29100;29100;29100;29100;29100;29100;8.143046e-02;2.072399e-01;212251746;1983690368;364319529;0.000000e+00;2.826548e+01;1.743623e+03
83;dgemm;64;0;1;1;0;300;111;111;29100;29100;29100;29100;29100;29100;2.429254e-01;3.618715e-01;1775473788;624549797;767066249;0.000000e+00;2.868492e+01;1.718127e+03
84;dgemm;64;0;1;1;0;300;111;111;29100;29100;29100;29100;29100;29100;2.177558e-01;-2.828171e-01;1750003033;1415505363;78012497;0.000000e+00;2.843387e+01;1.733297e+03
85;dgemm;64;0;1;1;0;300;111;111;29100;29100;29100;29100;29100;29100;3.155647e-01;-4.765819e-01;1344247686;1795519125;661761152;0.000000e+00;2.852694e+01;1.727642e+03
86;dgemm;64;0;1;1;0;300;111;111;29100;29100;29100;29100;29100;29100;1.085222e-01;-8.764404e-02;1315209188;235649157;1448703729;0.000000e+00;2.841149e+01;1.734662e+03
87;dgemm;64;0;1;1;0;300;111;111;29100;29100;29100;29100;29100;29100;5.964717e-02;3.343596e-01;430253414;861543921;677870460;0.000000e+00;2.844993e+01;1.732318e+03
88;dgemm;64;0;1;1;0;300;111;111;29100;29100;29100;29100;29100;29100;-3.852038e-01;-3.449149e-01;828388027;1144278050;332266748;0.000000e+00;2.842586e+01;1.733785e+03
89;dgemm;64;0;1;1;0;300;111;111;29100;29100;29100;29100;29100;29100;-2.132347e-01;-3.266376e-02;816504794;820697697;655858699;0.000000e+00;2.869098e+01;1.717765e+03
