Id;Function;threads;gpus;P;Q;mtxfmt;nb;norm;m;n;lda;seedA;tsub;time;gflops
0;dlange;64;0;1;1;1;1024;171;1024;1024;1024;846930886;0.000000e+00;4.209978e-03;1.992554e+00
1;dlange;64;0;1;1;1;1024;171;1024;1024;1024;1681692777;0.000000e+00;1.700795e-03;4.932169e+00
2;dlange;64;0;1;1;1;1024;171;1024;1024;1024;1714636915;0.000000e+00;1.846458e-03;4.543081e+00
3;dlange;64;0;1;1;1;1024;171;1024;1024;1024;1957747793;0.000000e+00;1.958770e-03;4.282590e+00
4;dlange;64;0;1;1;1;1024;171;1024;1024;1024;424238335;0.000000e+00;1.911129e-03;4.389347e+00
5;dlange;64;0;1;1;1;1024;171;1024;1024;1024;719885386;0.000000e+00;2.006689e-03;4.180323e+00
6;dlange;64;0;1;1;1;1024;171;1024;1024;1024;1649760492;0.000000e+00;1.552907e-03;5.401874e+00
7;dlange;64;0;1;1;1;1024;171;1024;1024;1024;596516649;0.000000e+00;1.552136e-03;5.404557e+00
8;dlange;64;0;1;1;1;1024;171;1024;1024;1024;1189641421;0.000000e+00;1.838182e-03;4.563535e+00
9;dlange;64;0;1;1;1;1024;171;1024;1024;1024;1025202362;0.000000e+00;1.703830e-03;4.923383e+00
10;dlange;64;0;1;1;1;1024;171;2048;2048;2048;1350490027;0.000000e+00;6.305694e-03;5.321291e+00
11;dlange;64;0;1;1;1;1024;171;2048;2048;2048;783368690;0.000000e+00;2.138127e-03;1.569338e+01
12;dlange;64;0;1;1;1;1024;171;2048;2048;2048;1102520059;0.000000e+00;2.916939e-03;1.150330e+01
13;dlange;64;0;1;1;1;1024;171;2048;2048;2048;2044897763;0.000000e+00;1.881504e-03;1.783384e+01
14;dlange;64;0;1;1;1;1024;171;2048;2048;2048;1967513926;0.000000e+00;3.359630e-03;9.987538e+00
15;dlange;64;0;1;1;1;1024;171;2048;2048;2048;1365180540;0.000000e+00;2.103831e-03;1.594921e+01
16;dlange;64;0;1;1;1;1024;171;2048;2048;2048;1540383426;0.000000e+00;3.378455e-03;9.931887e+00
17;dlange;64;0;1;1;1;1024;171;2048;2048;2048;304089172;0.000000e+00;1.798839e-03;1.865338e+01
18;dlange;64;0;1;1;1;1024;171;2048;2048;2048;1303455736;0.000000e+00;2.387033e-03;1.405696e+01
19;dlange;64;0;1;1;1;1024;171;2048;2048;2048;35005211;0.000000e+00;1.972596e-03;1.701029e+01
20;dlange;64;0;1;1;1;1024;171;3072;3072;3072;521595368;0.000000e+00;4.145226e-03;1.821311e+01
21;dlange;64;0;1;1;1;1024;171;3072;3072;3072;294702567;0.000000e+00;5.925810e-03;1.274045e+01
22;dlange;64;0;1;1;1;1024;171;3072;3072;3072;1726956429;0.000000e+00;4.756513e-03;1.587244e+01
23;dlange;64;0;1;1;1;1024;171;3072;3072;3072;336465782;0.000000e+00;3.276384e-03;2.304293e+01
24;dlange;64;0;1;1;1;1024;171;3072;3072;3072;861021530;0.000000e+00;3.161147e-03;2.388294e+01
25;dlange;64;0;1;1;1;1024;171;3072;3072;3072;278722862;0.000000e+00;4.094450e-03;1.843898e+01
26;dlange;64;0;1;1;1;1024;171;3072;3072;3072;233665123;0.000000e+00;3.307602e-03;2.282544e+01
27;dlange;64;0;1;1;1;1024;171;3072;3072;3072;2145174067;0.000000e+00;3.362846e-03;2.245047e+01
28;dlange;64;0;1;1;1;1024;171;3072;3072;3072;468703135;0.000000e+00;3.134458e-03;2.408629e+01
29;dlange;64;0;1;1;1;1024;171;3072;3072;3072;1101513929;0.000000e+00;4.689608e-03;1.609889e+01
30;dlange;64;0;1;1;1;1024;171;4096;4096;4096;1801979802;0.000000e+00;4.721307e-03;2.842809e+01
31;dlange;64;0;1;1;1;1024;171;4096;4096;4096;1315634022;0.000000e+00;1.425891e-02;9.412901e+00
32;dlange;64;0;1;1;1;1024;171;4096;4096;4096;635723058;0.000000e+00;1.115854e-02;1.202825e+01
33;dlange;64;0;1;1;1;1024;171;4096;4096;4096;1369133069;0.000000e+00;4.450149e-03;3.016028e+01
34;dlange;64;0;1;1;1;1024;171;4096;4096;4096;1125898167;0.000000e+00;5.962408e-03;2.251066e+01
35;dlange;64;0;1;1;1;1024;171;4096;4096;4096;1059961393;0.000000e+00;6.035015e-03;2.223983e+01
36;dlange;64;0;1;1;1;1024;171;4096;4096;4096;2089018456;0.000000e+00;5.597693e-03;2.397733e+01
37;dlange;64;0;1;1;1;1024;171;4096;4096;4096;628175011;0.000000e+00;2.142725e-02;6.263881e+00
38;dlange;64;0;1;1;1;1024;171;4096;4096;4096;1656478042;0.000000e+00;4.253409e-03;3.155533e+01
39;dlange;64;0;1;1;1;1024;171;4096;4096;4096;1131176229;0.000000e+00;1.034821e-02;1.297014e+01
40;dlange;64;0;1;1;1;1024;171;5120;5120;5120;1653377373;0.000000e+00;4.941481e-03;4.243975e+01
41;dlange;64;0;1;1;1;1024;171;5120;5120;5120;859484421;0.000000e+00;6.823045e-03;3.073631e+01
42;dlange;64;0;1;1;1;1024;171;5120;5120;5120;1914544919;0.000000e+00;5.474342e-03;3.830875e+01
43;dlange;64;0;1;1;1;1024;171;5120;5120;5120;608413784;0.000000e+00;6.627298e-03;3.164415e+01
44;dlange;64;0;1;1;1;1024;171;5120;5120;5120;756898537;0.000000e+00;4.875708e-03;4.301226e+01
45;dlange;64;0;1;1;1;1024;171;5120;5120;5120;1734575198;0.000000e+00;5.836812e-03;3.592975e+01
46;dlange;64;0;1;1;1;1024;171;5120;5120;5120;1973594324;0.000000e+00;5.235894e-03;4.005337e+01
47;dlange;64;0;1;1;1;1024;171;5120;5120;5120;149798315;0.000000e+00;6.825650e-03;3.072458e+01
48;dlange;64;0;1;1;1;1024;171;5120;5120;5120;2038664370;0.000000e+00;4.843277e-03;4.330027e+01
49;dlange;64;0;1;1;1;1024;171;5120;5120;5120;1129566413;0.000000e+00;5.833907e-03;3.594764e+01
0;dlange;64;0;1;1;1;1024;171;6144;6144;6144;846930886;0.000000e+00;6.357691e-03;4.749993e+01
1;dlange;64;0;1;1;1;1024;171;6144;6144;6144;1681692777;0.000000e+00;6.617919e-03;4.563215e+01
2;dlange;64;0;1;1;1;1024;171;6144;6144;6144;1714636915;0.000000e+00;8.010595e-03;3.769881e+01
3;dlange;64;0;1;1;1;1024;171;6144;6144;6144;1957747793;0.000000e+00;7.844574e-03;3.849666e+01
4;dlange;64;0;1;1;1;1024;171;6144;6144;6144;424238335;0.000000e+00;6.358232e-03;4.749589e+01
5;dlange;64;0;1;1;1;1024;171;6144;6144;6144;719885386;0.000000e+00;6.713098e-03;4.498517e+01
6;dlange;64;0;1;1;1;1024;171;6144;6144;6144;1649760492;0.000000e+00;6.685346e-03;4.517192e+01
7;dlange;64;0;1;1;1;1024;171;6144;6144;6144;596516649;0.000000e+00;7.796212e-03;3.873546e+01
8;dlange;64;0;1;1;1;1024;171;6144;6144;6144;1189641421;0.000000e+00;5.786217e-03;5.219125e+01
9;dlange;64;0;1;1;1;1024;171;6144;6144;6144;1025202362;0.000000e+00;7.172511e-03;4.210379e+01
10;dlange;64;0;1;1;1;1024;171;8192;8192;8192;1350490027;0.000000e+00;8.539930e-03;6.286596e+01
11;dlange;64;0;1;1;1;1024;171;8192;8192;8192;783368690;0.000000e+00;9.069975e-03;5.919210e+01
12;dlange;64;0;1;1;1;1024;171;8192;8192;8192;1102520059;0.000000e+00;8.947395e-03;6.000304e+01
13;dlange;64;0;1;1;1;1024;171;8192;8192;8192;2044897763;0.000000e+00;9.232209e-03;5.815195e+01
14;dlange;64;0;1;1;1;1024;171;8192;8192;8192;1967513926;0.000000e+00;8.665895e-03;6.195216e+01
15;dlange;64;0;1;1;1;1024;171;8192;8192;8192;1365180540;0.000000e+00;9.008109e-03;5.959863e+01
16;dlange;64;0;1;1;1;1024;171;8192;8192;8192;1540383426;0.000000e+00;8.707063e-03;6.165924e+01
17;dlange;64;0;1;1;1;1024;171;8192;8192;8192;304089172;0.000000e+00;8.953356e-03;5.996309e+01
18;dlange;64;0;1;1;1;1024;171;8192;8192;8192;1303455736;0.000000e+00;9.061920e-03;5.924472e+01
19;dlange;64;0;1;1;1;1024;171;8192;8192;8192;35005211;0.000000e+00;9.739262e-03;5.512439e+01
20;dlange;64;0;1;1;1;1024;171;10240;10240;10240;521595368;0.000000e+00;1.118256e-02;7.501507e+01
21;dlange;64;0;1;1;1;1024;171;10240;10240;10240;294702567;0.000000e+00;1.135976e-02;7.384497e+01
22;dlange;64;0;1;1;1;1024;171;10240;10240;10240;1726956429;0.000000e+00;1.091778e-02;7.683440e+01
23;dlange;64;0;1;1;1;1024;171;10240;10240;10240;336465782;0.000000e+00;1.110365e-02;7.554818e+01
24;dlange;64;0;1;1;1;1024;171;10240;10240;10240;861021530;0.000000e+00;1.125218e-02;7.455093e+01
25;dlange;64;0;1;1;1;1024;171;10240;10240;10240;278722862;0.000000e+00;1.135547e-02;7.387286e+01
26;dlange;64;0;1;1;1;1024;171;10240;10240;10240;233665123;0.000000e+00;1.138085e-02;7.370813e+01
27;dlange;64;0;1;1;1;1024;171;10240;10240;10240;2145174067;0.000000e+00;1.094291e-02;7.665791e+01
28;dlange;64;0;1;1;1;1024;171;10240;10240;10240;468703135;0.000000e+00;1.154739e-02;7.264507e+01
29;dlange;64;0;1;1;1;1024;171;10240;10240;10240;1101513929;0.000000e+00;1.145101e-02;7.325651e+01
30;dlange;64;0;1;1;1;1024;171;12288;12288;12288;1801979802;0.000000e+00;1.466811e-02;8.235278e+01
31;dlange;64;0;1;1;1;1024;171;12288;12288;12288;1315634022;0.000000e+00;1.417607e-02;8.521114e+01
32;dlange;64;0;1;1;1;1024;171;12288;12288;12288;635723058;0.000000e+00;1.432091e-02;8.434938e+01
33;dlange;64;0;1;1;1;1024;171;12288;12288;12288;1369133069;0.000000e+00;1.449161e-02;8.335580e+01
34;dlange;64;0;1;1;1;1024;171;12288;12288;12288;1125898167;0.000000e+00;1.419012e-02;8.512679e+01
35;dlange;64;0;1;1;1;1024;171;12288;12288;12288;1059961393;0.000000e+00;1.413991e-02;8.542911e+01
36;dlange;64;0;1;1;1;1024;171;12288;12288;12288;2089018456;0.000000e+00;1.464427e-02;8.248682e+01
37;dlange;64;0;1;1;1;1024;171;12288;12288;12288;628175011;0.000000e+00;1.456412e-02;8.294076e+01
38;dlange;64;0;1;1;1;1024;171;12288;12288;12288;1656478042;0.000000e+00;1.435657e-02;8.413982e+01
39;dlange;64;0;1;1;1;1024;171;12288;12288;12288;1131176229;0.000000e+00;1.415181e-02;8.535725e+01
40;dlange;64;0;1;1;1;1024;171;14336;14336;14336;1653377373;0.000000e+00;1.879860e-02;8.746223e+01
41;dlange;64;0;1;1;1;1024;171;14336;14336;14336;859484421;0.000000e+00;1.897909e-02;8.663047e+01
42;dlange;64;0;1;1;1;1024;171;14336;14336;14336;1914544919;0.000000e+00;1.860552e-02;8.836984e+01
43;dlange;64;0;1;1;1;1024;171;14336;14336;14336;608413784;0.000000e+00;1.886967e-02;8.713280e+01
44;dlange;64;0;1;1;1;1024;171;14336;14336;14336;756898537;0.000000e+00;1.872935e-02;8.778561e+01
45;dlange;64;0;1;1;1;1024;171;14336;14336;14336;1734575198;0.000000e+00;1.857283e-02;8.852539e+01
46;dlange;64;0;1;1;1;1024;171;14336;14336;14336;1973594324;0.000000e+00;1.905219e-02;8.629805e+01
47;dlange;64;0;1;1;1;1024;171;14336;14336;14336;149798315;0.000000e+00;1.933333e-02;8.504314e+01
48;dlange;64;0;1;1;1;1024;171;14336;14336;14336;2038664370;0.000000e+00;1.918955e-02;8.568033e+01
49;dlange;64;0;1;1;1;1024;171;14336;14336;14336;1129566413;0.000000e+00;1.890037e-02;8.699128e+01
50;dlange;64;0;1;1;1;1024;171;16384;16384;16384;184803526;0.000000e+00;2.331662e-02;9.210097e+01
51;dlange;64;0;1;1;1;1024;171;16384;16384;16384;412776091;0.000000e+00;2.334274e-02;9.199792e+01
52;dlange;64;0;1;1;1;1024;171;16384;16384;16384;1424268980;0.000000e+00;2.330241e-02;9.215713e+01
53;dlange;64;0;1;1;1;1024;171;16384;16384;16384;1911759956;0.000000e+00;2.369538e-02;9.062878e+01
54;dlange;64;0;1;1;1;1024;171;16384;16384;16384;749241873;0.000000e+00;2.314302e-02;9.279186e+01
55;dlange;64;0;1;1;1;1024;171;16384;16384;16384;137806862;0.000000e+00;2.270113e-02;9.459811e+01
56;dlange;64;0;1;1;1;1024;171;16384;16384;16384;42999170;0.000000e+00;2.370354e-02;9.059760e+01
57;dlange;64;0;1;1;1;1024;171;16384;16384;16384;982906996;0.000000e+00;2.334089e-02;9.200522e+01
58;dlange;64;0;1;1;1;1024;171;16384;16384;16384;135497281;0.000000e+00;2.274259e-02;9.442562e+01
59;dlange;64;0;1;1;1;1024;171;16384;16384;16384;511702305;0.000000e+00;2.262136e-02;9.493169e+01
60;dlange;64;0;1;1;1;1024;171;18432;18432;18432;2084420925;0.000000e+00;2.865926e-02;9.483529e+01
61;dlange;64;0;1;1;1;1024;171;18432;18432;18432;1937477084;0.000000e+00;2.896560e-02;9.383230e+01
62;dlange;64;0;1;1;1;1024;171;18432;18432;18432;1827336327;0.000000e+00;2.866077e-02;9.483029e+01
63;dlange;64;0;1;1;1;1024;171;18432;18432;18432;572660336;0.000000e+00;2.820505e-02;9.636248e+01
64;dlange;64;0;1;1;1;1024;171;18432;18432;18432;1159126505;0.000000e+00;2.792601e-02;9.732536e+01
65;dlange;64;0;1;1;1;1024;171;18432;18432;18432;805750846;0.000000e+00;2.867600e-02;9.477993e+01
66;dlange;64;0;1;1;1;1024;171;18432;18432;18432;1632621729;0.000000e+00;3.773118e-02;7.203349e+01
67;dlange;64;0;1;1;1;1024;171;18432;18432;18432;1100661313;0.000000e+00;3.545102e-02;7.666659e+01
68;dlange;64;0;1;1;1;1024;171;18432;18432;18432;1433925857;0.000000e+00;2.835845e-02;9.584123e+01
69;dlange;64;0;1;1;1;1024;171;18432;18432;18432;1141616124;0.000000e+00;2.714449e-02;1.001275e+02
70;dlange;64;0;1;1;1;1024;171;20480;20480;20480;84353895;0.000000e+00;3.435064e-02;9.768213e+01
71;dlange;64;0;1;1;1;1024;171;20480;20480;20480;939819582;0.000000e+00;3.486916e-02;9.622954e+01
72;dlange;64;0;1;1;1;1024;171;20480;20480;20480;2001100545;0.000000e+00;4.260741e-02;7.875257e+01
73;dlange;64;0;1;1;1;1024;171;20480;20480;20480;1998898814;0.000000e+00;3.704842e-02;9.056912e+01
74;dlange;64;0;1;1;1;1024;171;20480;20480;20480;1548233367;0.000000e+00;3.629788e-02;9.244184e+01
75;dlange;64;0;1;1;1;1024;171;20480;20480;20480;610515434;0.000000e+00;4.301313e-02;7.800973e+01
76;dlange;64;0;1;1;1;1024;171;20480;20480;20480;1585990364;0.000000e+00;4.135477e-02;8.113800e+01
77;dlange;64;0;1;1;1;1024;171;20480;20480;20480;1374344043;0.000000e+00;3.464267e-02;9.685867e+01
78;dlange;64;0;1;1;1;1024;171;20480;20480;20480;760313750;0.000000e+00;4.237661e-02;7.918149e+01
79;dlange;64;0;1;1;1;1024;171;20480;20480;20480;1477171087;0.000000e+00;4.741187e-02;7.077222e+01
80;dlange;64;0;1;1;1;1024;171;22528;22528;22528;356426808;0.000000e+00;5.185710e-02;7.829373e+01
81;dlange;64;0;1;1;1;1024;171;22528;22528;22528;945117276;0.000000e+00;4.230862e-02;9.596357e+01
82;dlange;64;0;1;1;1;1024;171;22528;22528;22528;1889947178;0.000000e+00;6.816008e-02;5.956692e+01
83;dlange;64;0;1;1;1;1024;171;22528;22528;22528;1780695788;0.000000e+00;4.204297e-02;9.656991e+01
84;dlange;64;0;1;1;1;1024;171;22528;22528;22528;709393584;0.000000e+00;4.075070e-02;9.963232e+01
85;dlange;64;0;1;1;1;1024;171;22528;22528;22528;491705403;0.000000e+00;4.869724e-02;8.337405e+01
86;dlange;64;0;1;1;1;1024;171;22528;22528;22528;1918502651;0.000000e+00;4.123498e-02;9.846220e+01
87;dlange;64;0;1;1;1;1024;171;22528;22528;22528;752392754;0.000000e+00;4.993742e-02;8.130348e+01
88;dlange;64;0;1;1;1;1024;171;22528;22528;22528;1474612399;0.000000e+00;4.201639e-02;9.663100e+01
89;dlange;64;0;1;1;1;1024;171;22528;22528;22528;2053999932;0.000000e+00;4.195679e-02;9.676827e+01
90;dlange;64;0;1;1;1;1024;171;24576;24576;24576;1264095060;0.000000e+00;5.178996e-02;9.329681e+01
91;dlange;64;0;1;1;1;1024;171;24576;24576;24576;1411549676;0.000000e+00;5.502524e-02;8.781131e+01
92;dlange;64;0;1;1;1;1024;171;24576;24576;24576;1843993368;0.000000e+00;5.074215e-02;9.522336e+01
93;dlange;64;0;1;1;1;1024;171;24576;24576;24576;943947739;0.000000e+00;4.985881e-02;9.691042e+01
94;dlange;64;0;1;1;1;1024;171;24576;24576;24576;1984210012;0.000000e+00;5.066513e-02;9.536813e+01
95;dlange;64;0;1;1;1;1024;171;24576;24576;24576;855636226;0.000000e+00;5.090861e-02;9.491200e+01
96;dlange;64;0;1;1;1;1024;171;24576;24576;24576;1749698586;0.000000e+00;5.160963e-02;9.362280e+01
97;dlange;64;0;1;1;1;1024;171;24576;24576;24576;1469348094;0.000000e+00;6.381582e-02;7.571536e+01
98;dlange;64;0;1;1;1;1024;171;24576;24576;24576;1956297539;0.000000e+00;5.897003e-02;8.193718e+01
99;dlange;64;0;1;1;1;1024;171;24576;24576;24576;1036140795;0.000000e+00;5.104286e-02;9.466238e+01
100;dlange;64;0;1;1;1;1024;171;26624;26624;26624;463480570;0.000000e+00;5.894919e-02;9.619639e+01
101;dlange;64;0;1;1;1;1024;171;26624;26624;26624;2040651434;0.000000e+00;6.288826e-02;9.017102e+01
102;dlange;64;0;1;1;1;1024;171;26624;26624;26624;1975960378;0.000000e+00;6.678295e-02;8.491238e+01
103;dlange;64;0;1;1;1;1024;171;26624;26624;26624;317097467;0.000000e+00;7.080760e-02;8.008602e+01
104;dlange;64;0;1;1;1;1024;171;26624;26624;26624;1892066601;0.000000e+00;6.948488e-02;8.161054e+01
105;dlange;64;0;1;1;1;1024;171;26624;26624;26624;1376710097;0.000000e+00;5.974780e-02;9.491060e+01
106;dlange;64;0;1;1;1;1024;171;26624;26624;26624;927612902;0.000000e+00;5.940215e-02;9.546286e+01
107;dlange;64;0;1;1;1;1024;171;26624;26624;26624;1330573317;0.000000e+00;6.025886e-02;9.410564e+01
108;dlange;64;0;1;1;1;1024;171;26624;26624;26624;603570492;0.000000e+00;6.370588e-02;8.901375e+01
109;dlange;64;0;1;1;1;1024;171;26624;26624;26624;1687926652;0.000000e+00;6.757755e-02;8.391395e+01
110;dlange;64;0;1;1;1;1024;171;28672;28672;28672;660260756;0.000000e+00;7.598663e-02;8.655033e+01
111;dlange;64;0;1;1;1;1024;171;28672;28672;28672;959997301;0.000000e+00;7.150213e-02;9.197864e+01
112;dlange;64;0;1;1;1;1024;171;28672;28672;28672;485560280;0.000000e+00;7.423701e-02;8.859016e+01
113;dlange;64;0;1;1;1;1024;171;28672;28672;28672;402724286;0.000000e+00;6.548642e-02;1.004280e+02
114;dlange;64;0;1;1;1;1024;171;28672;28672;28672;593209441;0.000000e+00;8.129642e-02;8.089740e+01
115;dlange;64;0;1;1;1;1024;171;28672;28672;28672;1194953865;0.000000e+00;7.952946e-02;8.269475e+01
116;dlange;64;0;1;1;1;1024;171;28672;28672;28672;894429689;0.000000e+00;8.080343e-02;8.139096e+01
117;dlange;64;0;1;1;1;1024;171;28672;28672;28672;364228444;0.000000e+00;7.757123e-02;8.478232e+01
118;dlange;64;0;1;1;1;1024;171;28672;28672;28672;1947346619;0.000000e+00;7.109853e-02;9.250076e+01
119;dlange;64;0;1;1;1;1024;171;28672;28672;28672;221558440;0.000000e+00;6.668036e-02;9.862978e+01
120;dlange;64;0;1;1;1;1024;171;30720;30720;30720;270744729;0.000000e+00;7.421766e-02;1.017244e+02
121;dlange;64;0;1;1;1;1024;171;30720;30720;30720;1063958031;0.000000e+00;8.479148e-02;8.903898e+01
122;dlange;64;0;1;1;1;1024;171;30720;30720;30720;1633108117;0.000000e+00;8.401015e-02;8.986708e+01
123;dlange;64;0;1;1;1;1024;171;30720;30720;30720;2114738097;0.000000e+00;8.899801e-02;8.483052e+01
124;dlange;64;0;1;1;1;1024;171;30720;30720;30720;2007905771;0.000000e+00;8.571337e-02;8.808132e+01
125;dlange;64;0;1;1;1;1024;171;30720;30720;30720;1469834481;0.000000e+00;7.910068e-02;9.544478e+01
126;dlange;64;0;1;1;1;1024;171;30720;30720;30720;822890675;0.000000e+00;8.134771e-02;9.280835e+01
127;dlange;64;0;1;1;1;1024;171;30720;30720;30720;1610120709;0.000000e+00;8.090074e-02;9.332111e+01
128;dlange;64;0;1;1;1;1024;171;30720;30720;30720;791698927;0.000000e+00;8.552439e-02;8.827596e+01
129;dlange;64;0;1;1;1;1024;171;30720;30720;30720;631704567;0.000000e+00;7.739354e-02;9.755010e+01
130;dlange;64;0;1;1;1;1024;171;32768;32768;32768;498777856;0.000000e+00;9.772374e-02;8.790018e+01
131;dlange;64;0;1;1;1;1024;171;32768;32768;32768;1255179497;0.000000e+00;1.067258e-01;8.048603e+01
132;dlange;64;0;1;1;1;1024;171;32768;32768;32768;524872353;0.000000e+00;9.207819e-02;9.328957e+01
133;dlange;64;0;1;1;1;1024;171;32768;32768;32768;327254586;0.000000e+00;8.949437e-02;9.598296e+01
134;dlange;64;0;1;1;1;1024;171;32768;32768;32768;1572276965;0.000000e+00;9.557553e-02;8.987588e+01
135;dlange;64;0;1;1;1;1024;171;32768;32768;32768;269455306;0.000000e+00;9.984699e-02;8.603098e+01
136;dlange;64;0;1;1;1;1024;171;32768;32768;32768;1703964683;0.000000e+00;9.945561e-02;8.636953e+01
137;dlange;64;0;1;1;1;1024;171;32768;32768;32768;352406219;0.000000e+00;9.156942e-02;9.380789e+01
138;dlange;64;0;1;1;1;1024;171;32768;32768;32768;1600028624;0.000000e+00;9.906107e-02;8.671352e+01
139;dlange;64;0;1;1;1;1024;171;32768;32768;32768;160051528;0.000000e+00;9.237540e-02;9.298941e+01
140;dlange;64;0;1;1;1;1024;171;34816;34816;34816;2040332871;0.000000e+00;1.092301e-01;8.877803e+01
141;dlange;64;0;1;1;1;1024;171;34816;34816;34816;112805732;0.000000e+00;1.060112e-01;9.147361e+01
142;dlange;64;0;1;1;1;1024;171;34816;34816;34816;1120048829;0.000000e+00;1.014012e-01;9.563234e+01
143;dlange;64;0;1;1;1;1024;171;34816;34816;34816;378409503;0.000000e+00;9.437994e-02;1.027467e+02
144;dlange;64;0;1;1;1;1024;171;34816;34816;34816;515530019;0.000000e+00;1.014645e-01;9.557265e+01
145;dlange;64;0;1;1;1;1024;171;34816;34816;34816;1713258270;0.000000e+00;1.132328e-01;8.563979e+01
146;dlange;64;0;1;1;1;1024;171;34816;34816;34816;1573363368;0.000000e+00;1.149038e-01;8.439435e+01
147;dlange;64;0;1;1;1;1024;171;34816;34816;34816;1409959708;0.000000e+00;1.074931e-01;9.021258e+01
148;dlange;64;0;1;1;1;1024;171;34816;34816;34816;2077486715;0.000000e+00;1.087816e-01;8.914405e+01
149;dlange;64;0;1;1;1;1024;171;34816;34816;34816;1373226340;0.000000e+00;1.096654e-01;8.842562e+01
150;dlange;64;0;1;1;1;1024;171;36864;36864;36864;1631518149;0.000000e+00;1.281480e-01;8.483658e+01
151;dlange;64;0;1;1;1;1024;171;36864;36864;36864;200747796;0.000000e+00;1.216575e-01;8.936267e+01
152;dlange;64;0;1;1;1;1024;171;36864;36864;36864;289700723;0.000000e+00;1.323276e-01;8.215698e+01
153;dlange;64;0;1;1;1;1024;171;36864;36864;36864;1117142618;0.000000e+00;1.362361e-01;7.979999e+01
154;dlange;64;0;1;1;1;1024;171;36864;36864;36864;168002245;0.000000e+00;1.204758e-01;9.023917e+01
155;dlange;64;0;1;1;1;1024;171;36864;36864;36864;150122846;0.000000e+00;1.248324e-01;8.708984e+01
156;dlange;64;0;1;1;1;1024;171;36864;36864;36864;439493451;0.000000e+00;1.182438e-01;9.194254e+01
157;dlange;64;0;1;1;1;1024;171;36864;36864;36864;990892921;0.000000e+00;1.291508e-01;8.417784e+01
158;dlange;64;0;1;1;1;1024;171;36864;36864;36864;1760243555;0.000000e+00;1.322750e-01;8.218963e+01
159;dlange;64;0;1;1;1;1024;171;36864;36864;36864;1231192379;0.000000e+00;1.114715e-01;9.752838e+01
160;dlange;64;0;1;1;1;1024;171;38912;38912;38912;1622597488;0.000000e+00;1.555444e-01;7.787584e+01
161;dlange;64;0;1;1;1;1024;171;38912;38912;38912;111537764;0.000000e+00;1.317550e-01;9.193695e+01
162;dlange;64;0;1;1;1;1024;171;38912;38912;38912;338888228;0.000000e+00;1.425380e-01;8.498191e+01
163;dlange;64;0;1;1;1;1024;171;38912;38912;38912;2147469841;0.000000e+00;1.250658e-01;9.685421e+01
164;dlange;64;0;1;1;1;1024;171;38912;38912;38912;438792350;0.000000e+00;1.330292e-01;9.105635e+01
165;dlange;64;0;1;1;1;1024;171;38912;38912;38912;1911165193;0.000000e+00;1.259995e-01;9.613648e+01
166;dlange;64;0;1;1;1;1024;171;38912;38912;38912;269441500;0.000000e+00;1.318125e-01;9.189683e+01
167;dlange;64;0;1;1;1;1024;171;38912;38912;38912;2142757034;0.000000e+00;1.246726e-01;9.715966e+01
168;dlange;64;0;1;1;1;1024;171;38912;38912;38912;116087764;0.000000e+00;1.320948e-01;9.170043e+01
169;dlange;64;0;1;1;1;1024;171;38912;38912;38912;1869470124;0.000000e+00;1.262303e-01;9.596072e+01
170;dlange;64;0;1;1;1;1024;171;40960;40960;40960;155324914;0.000000e+00;1.353517e-01;9.916222e+01
171;dlange;64;0;1;1;1;1024;171;40960;40960;40960;8936987;0.000000e+00;1.456068e-01;9.217819e+01
172;dlange;64;0;1;1;1;1024;171;40960;40960;40960;1982275856;0.000000e+00;1.378713e-01;9.735002e+01
173;dlange;64;0;1;1;1;1024;171;40960;40960;40960;1275373743;0.000000e+00;1.644959e-01;8.159338e+01
174;dlange;64;0;1;1;1;1024;171;40960;40960;40960;387346491;0.000000e+00;1.387539e-01;9.673080e+01
175;dlange;64;0;1;1;1;1024;171;40960;40960;40960;350322227;0.000000e+00;1.706633e-01;7.864473e+01
176;dlange;64;0;1;1;1;1024;171;40960;40960;40960;841148365;0.000000e+00;1.377734e-01;9.741922e+01
177;dlange;64;0;1;1;1;1024;171;40960;40960;40960;1960709859;0.000000e+00;1.438157e-01;9.332619e+01
178;dlange;64;0;1;1;1;1024;171;40960;40960;40960;1760281936;0.000000e+00;1.753789e-01;7.653015e+01
179;dlange;64;0;1;1;1;1024;171;40960;40960;40960;771151432;0.000000e+00;1.441797e-01;9.309062e+01
180;dlange;64;0;1;1;1;1024;171;43008;43008;43008;1186452551;0.000000e+00;1.631920e-01;9.067541e+01
181;dlange;64;0;1;1;1;1024;171;43008;43008;43008;1244316437;0.000000e+00;1.478280e-01;1.000995e+02
182;dlange;64;0;1;1;1;1024;171;43008;43008;43008;971899228;0.000000e+00;1.681935e-01;8.797905e+01
183;dlange;64;0;1;1;1;1024;171;43008;43008;43008;1476153275;0.000000e+00;1.545564e-01;9.574177e+01
184;dlange;64;0;1;1;1;1024;171;43008;43008;43008;213975407;0.000000e+00;1.543784e-01;9.585217e+01
185;dlange;64;0;1;1;1;1024;171;43008;43008;43008;1139901474;0.000000e+00;1.489206e-01;9.936504e+01
186;dlange;64;0;1;1;1;1024;171;43008;43008;43008;1626276121;0.000000e+00;1.469481e-01;1.006989e+02
187;dlange;64;0;1;1;1;1024;171;43008;43008;43008;653468858;0.000000e+00;1.625044e-01;9.105908e+01
188;dlange;64;0;1;1;1;1024;171;43008;43008;43008;2130794395;0.000000e+00;1.578976e-01;9.371583e+01
189;dlange;64;0;1;1;1;1024;171;43008;43008;43008;1239036029;0.000000e+00;1.523576e-01;9.712353e+01
190;dlange;64;0;1;1;1;1024;171;45056;45056;45056;1884661237;0.000000e+00;1.743506e-01;9.314760e+01
191;dlange;64;0;1;1;1;1024;171;45056;45056;45056;1605908235;0.000000e+00;1.776861e-01;9.139907e+01
192;dlange;64;0;1;1;1;1024;171;45056;45056;45056;1350573793;0.000000e+00;1.796860e-01;9.038181e+01
193;dlange;64;0;1;1;1;1024;171;45056;45056;45056;76065818;0.000000e+00;1.954431e-01;8.309500e+01
194;dlange;64;0;1;1;1;1024;171;45056;45056;45056;1605894428;0.000000e+00;1.788619e-01;9.079826e+01
195;dlange;64;0;1;1;1;1024;171;45056;45056;45056;1789366143;0.000000e+00;1.722224e-01;9.429867e+01
196;dlange;64;0;1;1;1;1024;171;45056;45056;45056;1987231011;0.000000e+00;1.895384e-01;8.568366e+01
197;dlange;64;0;1;1;1;1024;171;45056;45056;45056;1875335928;0.000000e+00;1.941636e-01;8.364258e+01
198;dlange;64;0;1;1;1;1024;171;45056;45056;45056;1784639529;0.000000e+00;1.827755e-01;8.885404e+01
199;dlange;64;0;1;1;1;1024;171;45056;45056;45056;2103318776;0.000000e+00;1.876939e-01;8.652570e+01
200;dlange;64;0;1;1;1;1024;171;47104;47104;47104;1597322404;0.000000e+00;1.955891e-01;9.075300e+01
201;dlange;64;0;1;1;1;1024;171;47104;47104;47104;1939964443;0.000000e+00;2.055021e-01;8.637523e+01
202;dlange;64;0;1;1;1;1024;171;47104;47104;47104;2112255763;0.000000e+00;1.925684e-01;9.217658e+01
203;dlange;64;0;1;1;1;1024;171;47104;47104;47104;1432114613;0.000000e+00;2.111219e-01;8.407605e+01
204;dlange;64;0;1;1;1;1024;171;47104;47104;47104;1067854538;0.000000e+00;2.036089e-01;8.717837e+01
205;dlange;64;0;1;1;1;1024;171;47104;47104;47104;352118606;0.000000e+00;1.886429e-01;9.409469e+01
206;dlange;64;0;1;1;1;1024;171;47104;47104;47104;1782436840;0.000000e+00;2.108394e-01;8.418868e+01
207;dlange;64;0;1;1;1;1024;171;47104;47104;47104;1909002904;0.000000e+00;2.147116e-01;8.267040e+01
208;dlange;64;0;1;1;1;1024;171;47104;47104;47104;165344818;0.000000e+00;2.138109e-01;8.301867e+01
209;dlange;64;0;1;1;1;1024;171;47104;47104;47104;1395235128;0.000000e+00;1.914575e-01;9.271141e+01
210;dlange;64;0;1;1;1;1024;171;49152;49152;49152;532670688;0.000000e+00;2.263361e-01;8.539228e+01
211;dlange;64;0;1;1;1;1024;171;49152;49152;49152;1351797369;0.000000e+00;2.147970e-01;8.997962e+01
212;dlange;64;0;1;1;1;1024;171;49152;49152;49152;492067917;0.000000e+00;2.390548e-01;8.084904e+01
213;dlange;64;0;1;1;1;1024;171;49152;49152;49152;1504569917;0.000000e+00;2.275659e-01;8.493078e+01
214;dlange;64;0;1;1;1;1024;171;49152;49152;49152;680466996;0.000000e+00;2.216978e-01;8.717883e+01
215;dlange;64;0;1;1;1;1024;171;49152;49152;49152;706043324;0.000000e+00;2.193307e-01;8.811969e+01
216;dlange;64;0;1;1;1;1024;171;49152;49152;49152;496987743;0.000000e+00;2.180625e-01;8.863219e+01
217;dlange;64;0;1;1;1;1024;171;49152;49152;49152;159259470;0.000000e+00;2.285951e-01;8.454840e+01
218;dlange;64;0;1;1;1;1024;171;49152;49152;49152;1359512183;0.000000e+00;2.443594e-01;7.909395e+01
219;dlange;64;0;1;1;1;1024;171;49152;49152;49152;480298490;0.000000e+00;2.342076e-01;8.252232e+01
