Id;Function;threads;gpus;P;Q;mtxfmt;nb;transA;transB;m;n;k;lda;ldb;ldc;alpha;beta;seedA;seedB;seedC;tsub;time;gflops
0;dgemm;64;0;1;1;1;300;111;111;900;900;900;900;900;900;4.892778e-01;-1.846424e-01;1649760492;596516649;1189641421;0.000000e+00;1.809096e-02;8.059272e+01
1;dgemm;64;0;1;1;1;300;111;111;900;900;900;900;900;900;-2.410269e-01;4.000452e-01;783368690;1102520059;2044897763;0.000000e+00;1.763797e-02;8.266258e+01
2;dgemm;64;0;1;1;1;300;111;111;900;900;900;900;900;900;4.141058e-01;-3.017109e-01;1540383426;304089172;1303455736;0.000000e+00;1.706100e-02;8.545809e+01
3;dgemm;64;0;1;1;1;300;111;111;900;900;900;900;900;900;-3.054879e-01;-1.757242e-01;294702567;1726956429;336465782;0.000000e+00;1.503396e-02;9.698043e+01
4;dgemm;64;0;1;1;1;300;111;111;900;900;900;900;900;900;4.797187e-01;2.821215e-01;233665123;2145174067;468703135;0.000000e+00;1.746416e-02;8.348526e+01
5;dgemm;64;0;1;1;1;300;111;111;900;900;900;900;900;900;3.112590e-01;3.332689e-02;1315634022;635723058;1369133069;0.000000e+00;6.186962e-03;2.356568e+02
6;dgemm;64;0;1;1;1;300;111;111;900;900;900;900;900;900;-2.396071e-01;2.196488e-02;2089018456;628175011;1656478042;0.000000e+00;1.443195e-02;1.010258e+02
7;dgemm;64;0;1;1;1;300;111;111;900;900;900;900;900;900;5.576077e-02;-4.098657e-01;859484421;1914544919;608413784;0.000000e+00;6.271124e-03;2.324942e+02
8;dgemm;64;0;1;1;1;300;111;111;900;900;900;900;900;900;-2.172434e-01;3.304604e-01;1973594324;149798315;2038664370;0.000000e+00;6.834984e-03;2.133143e+02
9;dgemm;64;0;1;1;1;300;111;111;900;900;900;900;900;900;1.632813e-02;3.212047e-02;412776091;1424268980;1911759956;0.000000e+00;6.518126e-03;2.236839e+02
10;dgemm;64;0;1;1;1;300;111;111;1800;1800;1800;1800;1800;1800;1.752074e-01;-2.459049e-03;42999170;982906996;135497281;0.000000e+00;4.169798e-02;2.797258e+02
11;dgemm;64;0;1;1;1;300;111;111;1800;1800;1800;1800;1800;1800;-4.932447e-01;-1.333755e-01;1937477084;1827336327;572660336;0.000000e+00;2.033186e-02;5.736809e+02
12;dgemm;64;0;1;1;1;300;111;111;1800;1800;1800;1800;1800;1800;-1.501402e-01;2.390371e-01;1632621729;1100661313;1433925857;0.000000e+00;1.802588e-02;6.470698e+02
13;dgemm;64;0;1;1;1;300;111;111;1800;1800;1800;1800;1800;1800;2.189649e-01;-2.465265e-01;939819582;2001100545;1998898814;0.000000e+00;2.083611e-02;5.597973e+02
14;dgemm;64;0;1;1;1;300;111;111;1800;1800;1800;1800;1800;1800;-2.416937e-01;-1.401268e-01;1585990364;1374344043;760313750;0.000000e+00;1.862788e-02;6.261581e+02
15;dgemm;64;0;1;1;1;300;111;111;1800;1800;1800;1800;1800;1800;3.187297e-01;-1.733443e-01;945117276;1889947178;1780695788;0.000000e+00;1.716399e-02;6.795622e+02
16;dgemm;64;0;1;1;1;300;111;111;1800;1800;1800;1800;1800;1800;-4.132594e-01;7.699516e-02;1918502651;752392754;1474612399;0.000000e+00;1.988602e-02;5.865428e+02
17;dgemm;64;0;1;1;1;300;111;111;1800;1800;1800;1800;1800;1800;-1.543593e-01;-4.222437e-01;1411549676;1843993368;943947739;0.000000e+00;1.363587e-02;8.553907e+02
18;dgemm;64;0;1;1;1;300;111;111;1800;1800;1800;1800;1800;1800;1.866877e-01;-3.211111e-01;1749698586;1469348094;1956297539;0.000000e+00;1.348400e-02;8.650251e+02
19;dgemm;64;0;1;1;1;300;111;111;1800;1800;1800;1800;1800;1800;-3.490223e-01;-4.443388e-01;2040651434;1975960378;317097467;0.000000e+00;1.286483e-02;9.066581e+02
20;dgemm;64;0;1;1;1;300;111;111;2700;2700;2700;2700;2700;2700;-1.054364e-01;2.030082e-01;927612902;1330573317;603570492;0.000000e+00;3.512216e-02;1.120831e+03
21;dgemm;64;0;1;1;1;300;111;111;2700;2700;2700;2700;2700;2700;-4.352839e-01;1.623906e-01;959997301;485560280;402724286;0.000000e+00;2.572083e-02;1.530510e+03
22;dgemm;64;0;1;1;1;300;111;111;2700;2700;2700;2700;2700;2700;4.667617e-01;1.036922e-01;894429689;364228444;1947346619;0.000000e+00;2.394199e-02;1.644224e+03
23;dgemm;64;0;1;1;1;300;111;111;2700;2700;2700;2700;2700;2700;4.665847e-01;3.770548e-01;1063958031;1633108117;2114738097;0.000000e+00;2.423596e-02;1.624280e+03
24;dgemm;64;0;1;1;1;300;111;111;2700;2700;2700;2700;2700;2700;-4.980996e-01;2.856491e-01;822890675;1610120709;791698927;0.000000e+00;2.473307e-02;1.591634e+03
25;dgemm;64;0;1;1;1;300;111;111;2700;2700;2700;2700;2700;2700;3.592840e-01;-4.182928e-01;1255179497;524872353;327254586;0.000000e+00;2.385497e-02;1.650222e+03
26;dgemm;64;0;1;1;1;300;111;111;2700;2700;2700;2700;2700;2700;9.307665e-02;3.296821e-01;1703964683;352406219;1600028624;0.000000e+00;2.441597e-02;1.612305e+03
27;dgemm;64;0;1;1;1;300;111;111;2700;2700;2700;2700;2700;2700;-4.719053e-01;2.807858e-01;112805732;1120048829;378409503;0.000000e+00;2.460790e-02;1.599730e+03
28;dgemm;64;0;1;1;1;300;111;111;2700;2700;2700;2700;2700;2700;2.744957e-01;-3.785920e-02;1573363368;1409959708;2077486715;0.000000e+00;2.383184e-02;1.651823e+03
29;dgemm;64;0;1;1;1;300;111;111;2700;2700;2700;2700;2700;2700;1.799312e-01;9.546876e-03;200747796;289700723;1117142618;0.000000e+00;2.510619e-02;1.567980e+03
30;dgemm;64;0;1;1;1;300;111;111;3600;3600;3600;3600;3600;3600;1.744033e-01;3.861393e-01;439493451;990892921;1760243555;0.000000e+00;5.788302e-02;1.612079e+03
31;dgemm;64;0;1;1;1;300;111;111;3600;3600;3600;3600;3600;3600;3.018442e-01;-4.633856e-02;111537764;338888228;2147469841;0.000000e+00;6.098104e-02;1.530181e+03
32;dgemm;64;0;1;1;1;300;111;111;3600;3600;3600;3600;3600;3600;2.072774e-01;1.109783e-01;269441500;2142757034;116087764;0.000000e+00;6.050086e-02;1.542325e+03
33;dgemm;64;0;1;1;1;300;111;111;3600;3600;3600;3600;3600;3600;-2.366607e-01;9.513167e-02;8936987;1982275856;1275373743;0.000000e+00;6.017613e-02;1.550648e+03
34;dgemm;64;0;1;1;1;300;111;111;3600;3600;3600;3600;3600;3600;-3.952797e-01;-4.960891e-01;841148365;1960709859;1760281936;0.000000e+00;5.948305e-02;1.568716e+03
35;dgemm;64;0;1;1;1;300;111;111;3600;3600;3600;3600;3600;3600;-2.607432e-01;-3.651100e-01;1244316437;971899228;1476153275;0.000000e+00;5.965900e-02;1.564089e+03
36;dgemm;64;0;1;1;1;300;111;111;3600;3600;3600;3600;3600;3600;-1.389722e-01;-8.843738e-02;1626276121;653468858;2130794395;0.000000e+00;6.017780e-02;1.550605e+03
37;dgemm;64;0;1;1;1;300;111;111;3600;3600;3600;3600;3600;3600;9.367129e-02;9.508020e-02;1605908235;1350573793;76065818;0.000000e+00;6.086612e-02;1.533070e+03
38;dgemm;64;0;1;1;1;300;111;111;3600;3600;3600;3600;3600;3600;-4.585682e-01;3.268176e-01;1987231011;1875335928;1784639529;0.000000e+00;6.116819e-02;1.525499e+03
39;dgemm;64;0;1;1;1;300;111;111;3600;3600;3600;3600;3600;3600;-6.830955e-02;1.535754e-01;1939964443;2112255763;1432114613;0.000000e+00;6.082201e-02;1.534181e+03
40;dgemm;64;0;1;1;1;300;111;111;4500;4500;4500;4500;4500;4500;2.725473e-01;1.883941e-01;1782436840;1909002904;165344818;0.000000e+00;1.258249e-01;1.448441e+03
41;dgemm;64;0;1;1;1;300;111;111;4500;4500;4500;4500;4500;4500;2.191162e-01;-3.021529e-01;1351797369;492067917;1504569917;0.000000e+00;1.391420e-01;1.309813e+03
42;dgemm;64;0;1;1;1;300;111;111;4500;4500;4500;4500;4500;4500;-3.280447e-01;-3.223358e-01;496987743;159259470;1359512183;0.000000e+00;1.314161e-01;1.386817e+03
43;dgemm;64;0;1;1;1;300;111;111;4500;4500;4500;4500;4500;4500;-4.513911e-01;3.904790e-01;1096689772;2086206725;601385644;0.000000e+00;1.390538e-01;1.310644e+03
44;dgemm;64;0;1;1;1;300;111;111;4500;4500;4500;4500;4500;4500;-4.403555e-01;9.074247e-02;243268139;1012502954;1272469786;0.000000e+00;1.356969e-01;1.343067e+03
45;dgemm;64;0;1;1;1;300;111;111;4500;4500;4500;4500;4500;4500;1.908228e-02;4.440272e-01;722308542;1820388464;933110197;0.000000e+00;1.425948e-01;1.278097e+03
46;dgemm;64;0;1;1;1;300;111;111;4500;4500;4500;4500;4500;4500;-1.017733e-01;4.140073e-01;1285228804;1789376348;502278611;0.000000e+00;1.409800e-01;1.292737e+03
47;dgemm;64;0;1;1;1;300;111;111;4500;4500;4500;4500;4500;4500;-2.659684e-01;-2.731221e-01;1034949299;654887343;1529195746;0.000000e+00;1.416402e-01;1.286711e+03
48;dgemm;64;0;1;1;1;300;111;111;4500;4500;4500;4500;4500;4500;1.985016e-01;4.068633e-01;87755422;889023311;1494613810;0.000000e+00;1.410379e-01;1.292205e+03
49;dgemm;64;0;1;1;1;300;111;111;4500;4500;4500;4500;4500;4500;-4.302884e-01;-3.682695e-01;745425661;396473730;1308044878;0.000000e+00;1.407928e-01;1.294455e+03
50;dgemm;64;0;1;1;1;300;111;111;5400;5400;5400;5400;5400;5400;3.002688e-01;4.210193e-01;705178736;1590079444;434248626;0.000000e+00;2.222929e-01;1.416725e+03
51;dgemm;64;0;1;1;1;300;111;111;5400;5400;5400;5400;5400;5400;-3.696050e-01;-2.996627e-01;1402586708;552473416;1143408282;0.000000e+00;2.391620e-01;1.316798e+03
52;dgemm;64;0;1;1;1;300;111;111;5400;5400;5400;5400;5400;5400;-3.095740e-01;-1.111416e-01;1884167637;1473442062;201305624;0.000000e+00;2.433550e-01;1.294109e+03
53;dgemm;64;0;1;1;1;300;111;111;5400;5400;5400;5400;5400;5400;3.214526e-01;-2.291051e-01;1238433452;1273911899;1431419379;0.000000e+00;2.486310e-01;1.266648e+03
54;dgemm;64;0;1;1;1;300;111;111;5400;5400;5400;5400;5400;5400;-4.764616e-02;-2.823082e-01;619290071;707900973;407487131;0.000000e+00;2.512970e-01;1.253210e+03
55;dgemm;64;0;1;1;1;300;111;111;5400;5400;5400;5400;5400;5400;-2.829039e-01;4.689267e-01;1776808933;711845894;404158660;0.000000e+00;2.530868e-01;1.244348e+03
56;dgemm;64;0;1;1;1;300;111;111;5400;5400;5400;5400;5400;5400;-9.802407e-02;-3.473849e-01;1973387981;1642548899;1501252996;0.000000e+00;2.524529e-01;1.247473e+03
57;dgemm;64;0;1;1;1;300;111;111;5400;5400;5400;5400;5400;5400;-2.998149e-02;-6.245404e-02;824272813;1662739668;2025187190;0.000000e+00;2.538412e-01;1.240650e+03
58;dgemm;64;0;1;1;1;300;111;111;5400;5400;5400;5400;5400;5400;1.613464e-01;1.651206e-01;437116466;1704365084;1176911340;0.000000e+00;2.554002e-01;1.233077e+03
59;dgemm;64;0;1;1;1;300;111;111;5400;5400;5400;5400;5400;5400;-9.329343e-02;2.766544e-01;1953443376;1876855542;1069755936;0.000000e+00;2.518098e-01;1.250658e+03
60;dgemm;64;0;1;1;1;300;111;111;6300;6300;6300;6300;6300;6300;-4.205594e-01;1.129006e-01;588219756;1856669179;1057418418;0.000000e+00;3.711040e-01;1.347584e+03
61;dgemm;64;0;1;1;1;300;111;111;6300;6300;6300;6300;6300;6300;1.349872e-02;-2.496970e-01;1065103348;625032172;387451659;0.000000e+00;3.949811e-01;1.266121e+03
62;dgemm;64;0;1;1;1;300;111;111;6300;6300;6300;6300;6300;6300;9.058696e-02;7.370132e-02;298625210;1295166342;1057467587;0.000000e+00;4.022570e-01;1.243220e+03
63;dgemm;64;0;1;1;1;300;111;111;6300;6300;6300;6300;6300;6300;-3.018314e-02;-5.773157e-02;382697713;476667372;1070575321;0.000000e+00;4.109020e-01;1.217064e+03
64;dgemm;64;0;1;1;1;300;111;111;6300;6300;6300;6300;6300;6300;-4.650331e-01;-1.058972e-01;774044599;697517721;2001229904;0.000000e+00;4.120581e-01;1.213649e+03
65;dgemm;64;0;1;1;1;300;111;111;6300;6300;6300;6300;6300;6300;4.801672e-01;-2.032396e-01;1797073940;1756915667;1065311705;0.000000e+00;4.111090e-01;1.216451e+03
66;dgemm;64;0;1;1;1;300;111;111;6300;6300;6300;6300;6300;6300;2.132438e-01;1.658781e-01;1414829150;1307565984;555996658;0.000000e+00;4.166770e-01;1.200196e+03
67;dgemm;64;0;1;1;1;300;111;111;6300;6300;6300;6300;6300;6300;1.800331e-01;-1.232803e-01;231602422;1389867269;780821396;0.000000e+00;4.113650e-01;1.215694e+03
68;dgemm;64;0;1;1;1;300;111;111;6300;6300;6300;6300;6300;6300;3.404283e-01;-1.210446e-01;195740084;917679292;2006811972;0.000000e+00;4.111371e-01;1.216368e+03
69;dgemm;64;0;1;1;1;300;111;111;6300;6300;6300;6300;6300;6300;1.960490e-01;-2.057583e-01;1414647625;1635905385;1046741222;0.000000e+00;4.180501e-01;1.196254e+03
70;dgemm;64;0;1;1;1;300;111;111;7200;7200;7200;7200;7200;7200;-4.981229e-01;1.797563e-01;1343606042;1111783898;446340713;0.000000e+00;5.538549e-01;1.347819e+03
71;dgemm;64;0;1;1;1;300;111;111;7200;7200;7200;7200;7200;7200;1.449892e-01;-2.994312e-01;1782280524;846942590;524688209;0.000000e+00;6.171699e-01;1.209547e+03
72;dgemm;64;0;1;1;1;300;111;111;7200;7200;7200;7200;7200;7200;-7.231379e-02;2.098748e-01;1371499336;2114937732;726371155;0.000000e+00;6.336730e-01;1.178046e+03
73;dgemm;64;0;1;1;1;300;111;111;7200;7200;7200;7200;7200;7200;-2.503210e-01;-2.840220e-01;882160379;11614769;1682085273;0.000000e+00;6.292591e-01;1.186309e+03
74;dgemm;64;0;1;1;1;300;111;111;7200;7200;7200;7200;7200;7200;9.597039e-02;1.728868e-01;246247255;1858721860;1548348142;0.000000e+00;6.188200e-01;1.206322e+03
75;dgemm;64;0;1;1;1;300;111;111;7200;7200;7200;7200;7200;7200;-7.244259e-02;3.629747e-01;2118421993;1520223205;452867621;0.000000e+00;6.344671e-01;1.176572e+03
76;dgemm;64;0;1;1;1;300;111;111;7200;7200;7200;7200;7200;7200;-4.022054e-01;3.532503e-01;201690613;213801961;822262754;0.000000e+00;6.242321e-01;1.195863e+03
77;dgemm;64;0;1;1;1;300;111;111;7200;7200;7200;7200;7200;7200;-4.352033e-02;2.911775e-01;1737518944;282828202;110613202;0.000000e+00;6.289639e-01;1.186866e+03
78;dgemm;64;0;1;1;1;300;111;111;7200;7200;7200;7200;7200;7200;-3.380140e-01;-1.158719e-01;1676902021;1486222842;950390868;0.000000e+00;6.295810e-01;1.185703e+03
79;dgemm;64;0;1;1;1;300;111;111;7200;7200;7200;7200;7200;7200;-3.254125e-01;4.026002e-01;1242608872;1137949908;1277849958;0.000000e+00;6.303060e-01;1.184339e+03
80;dgemm;64;0;1;1;1;300;111;111;8100;8100;8100;8100;8100;8100;-7.731044e-02;2.584243e-01;1908518808;1023457753;364686248;0.000000e+00;8.441050e-01;1.259182e+03
81;dgemm;64;0;1;1;1;300;111;111;8100;8100;8100;8100;8100;8100;-3.124503e-01;3.608416e-01;1329132133;1280321648;501772890;0.000000e+00;9.130130e-01;1.164148e+03
82;dgemm;64;0;1;1;1;300;111;111;8100;8100;8100;8100;8100;8100;8.143046e-02;2.072399e-01;212251746;1983690368;364319529;0.000000e+00;9.127989e-01;1.164421e+03
83;dgemm;64;0;1;1;1;300;111;111;8100;8100;8100;8100;8100;8100;2.429254e-01;3.618715e-01;1775473788;624549797;767066249;0.000000e+00;9.256971e-01;1.148196e+03
84;dgemm;64;0;1;1;1;300;111;111;8100;8100;8100;8100;8100;8100;2.177558e-01;-2.828171e-01;1750003033;1415505363;78012497;0.000000e+00;9.177909e-01;1.158087e+03
85;dgemm;64;0;1;1;1;300;111;111;8100;8100;8100;8100;8100;8100;3.155647e-01;-4.765819e-01;1344247686;1795519125;661761152;0.000000e+00;9.334869e-01;1.138615e+03
86;dgemm;64;0;1;1;1;300;111;111;8100;8100;8100;8100;8100;8100;1.085222e-01;-8.764404e-02;1315209188;235649157;1448703729;0.000000e+00;9.232430e-01;1.151248e+03
87;dgemm;64;0;1;1;1;300;111;111;8100;8100;8100;8100;8100;8100;5.964717e-02;3.343596e-01;430253414;861543921;677870460;0.000000e+00;9.238079e-01;1.150544e+03
88;dgemm;64;0;1;1;1;300;111;111;8100;8100;8100;8100;8100;8100;-3.852038e-01;-3.449149e-01;828388027;1144278050;332266748;0.000000e+00;9.300220e-01;1.142857e+03
89;dgemm;64;0;1;1;1;300;111;111;8100;8100;8100;8100;8100;8100;-2.132347e-01;-3.266376e-02;816504794;820697697;655858699;0.000000e+00;9.277771e-01;1.145622e+03
90;dgemm;64;0;1;1;1;300;111;111;9000;9000;9000;9000;9000;9000;4.306626e-01;3.748097e-01;1395132002;1186090428;1974806403;0.000000e+00;1.182854e+00;1.232612e+03
91;dgemm;64;0;1;1;1;300;111;111;9000;9000;9000;9000;9000;9000;-2.001786e-01;4.867196e-01;1498617647;669908538;1387036159;0.000000e+00;1.289545e+00;1.130631e+03
92;dgemm;64;0;1;1;1;300;111;111;9000;9000;9000;9000;9000;9000;1.290300e-01;2.190988e-01;1812282134;1328104339;1380171692;0.000000e+00;1.281317e+00;1.137892e+03
93;dgemm;64;0;1;1;1;300;111;111;9000;9000;9000;9000;9000;9000;1.972368e-02;-3.289758e-01;777720504;1543755629;1722060049;0.000000e+00;1.292760e+00;1.127820e+03
94;dgemm;64;0;1;1;1;300;111;111;9000;9000;9000;9000;9000;9000;-1.628764e-01;-1.178982e-01;70636429;136495343;1472576335;0.000000e+00;1.292708e+00;1.127865e+03
95;dgemm;64;0;1;1;1;300;111;111;9000;9000;9000;9000;9000;9000;-3.497582e-01;-9.472418e-02;1503885238;1219407971;2416949;0.000000e+00;1.294083e+00;1.126666e+03
96;dgemm;64;0;1;1;1;300;111;111;9000;9000;9000;9000;9000;9000;-1.213255e-01;-3.664051e-01;561717988;1407392292;1841585795;0.000000e+00;1.304496e+00;1.117673e+03
97;dgemm;64;0;1;1;1;300;111;111;9000;9000;9000;9000;9000;9000;3.538300e-01;-4.514458e-01;1433102829;1887658390;1402961682;0.000000e+00;1.303093e+00;1.118876e+03
98;dgemm;64;0;1;1;1;300;111;111;9000;9000;9000;9000;9000;9000;-3.514624e-01;-2.320307e-01;400000569;337453826;1081174232;0.000000e+00;1.316922e+00;1.107127e+03
99;dgemm;64;0;1;1;1;300;111;111;9000;9000;9000;9000;9000;9000;-1.551027e-01;-2.203633e-01;1941690360;410409117;847228023;0.000000e+00;1.291297e+00;1.129097e+03
0;dgemm;64;0;1;1;1;300;111;111;9900;9900;9900;9900;9900;9900;4.892778e-01;-1.846424e-01;1649760492;596516649;1189641421;0.000000e+00;1.436723e+00;1.350711e+03
1;dgemm;64;0;1;1;1;300;111;111;9900;9900;9900;9900;9900;9900;-2.410269e-01;4.000452e-01;783368690;1102520059;2044897763;0.000000e+00;1.428633e+00;1.358360e+03
2;dgemm;64;0;1;1;1;300;111;111;9900;9900;9900;9900;9900;9900;4.141058e-01;-3.017109e-01;1540383426;304089172;1303455736;0.000000e+00;1.523562e+00;1.273724e+03
3;dgemm;64;0;1;1;1;300;111;111;9900;9900;9900;9900;9900;9900;-3.054879e-01;-1.757242e-01;294702567;1726956429;336465782;0.000000e+00;1.566645e+00;1.238697e+03
4;dgemm;64;0;1;1;1;300;111;111;9900;9900;9900;9900;9900;9900;4.797187e-01;2.821215e-01;233665123;2145174067;468703135;0.000000e+00;1.622981e+00;1.195700e+03
5;dgemm;64;0;1;1;1;300;111;111;9900;9900;9900;9900;9900;9900;3.112590e-01;3.332689e-02;1315634022;635723058;1369133069;0.000000e+00;1.618576e+00;1.198954e+03
6;dgemm;64;0;1;1;1;300;111;111;9900;9900;9900;9900;9900;9900;-2.396071e-01;2.196488e-02;2089018456;628175011;1656478042;0.000000e+00;1.589262e+00;1.221069e+03
7;dgemm;64;0;1;1;1;300;111;111;9900;9900;9900;9900;9900;9900;5.576077e-02;-4.098657e-01;859484421;1914544919;608413784;0.000000e+00;1.643115e+00;1.181048e+03
8;dgemm;64;0;1;1;1;300;111;111;9900;9900;9900;9900;9900;9900;-2.172434e-01;3.304604e-01;1973594324;149798315;2038664370;0.000000e+00;1.634462e+00;1.187301e+03
9;dgemm;64;0;1;1;1;300;111;111;9900;9900;9900;9900;9900;9900;1.632813e-02;3.212047e-02;412776091;1424268980;1911759956;0.000000e+00;1.644714e+00;1.179900e+03
10;dgemm;64;0;1;1;1;300;111;111;12300;12300;12300;12300;12300;12300;1.752074e-01;-2.459049e-03;42999170;982906996;135497281;0.000000e+00;2.727278e+00;1.364633e+03
11;dgemm;64;0;1;1;1;300;111;111;12300;12300;12300;12300;12300;12300;-4.932447e-01;-1.333755e-01;1937477084;1827336327;572660336;0.000000e+00;3.415946e+00;1.089518e+03
12;dgemm;64;0;1;1;1;300;111;111;12300;12300;12300;12300;12300;12300;-1.501402e-01;2.390371e-01;1632621729;1100661313;1433925857;0.000000e+00;3.294045e+00;1.129837e+03
13;dgemm;64;0;1;1;1;300;111;111;12300;12300;12300;12300;12300;12300;2.189649e-01;-2.465265e-01;939819582;2001100545;1998898814;0.000000e+00;3.415703e+00;1.089595e+03
14;dgemm;64;0;1;1;1;300;111;111;12300;12300;12300;12300;12300;12300;-2.416937e-01;-1.401268e-01;1585990364;1374344043;760313750;0.000000e+00;3.452498e+00;1.077983e+03
15;dgemm;64;0;1;1;1;300;111;111;12300;12300;12300;12300;12300;12300;3.187297e-01;-1.733443e-01;945117276;1889947178;1780695788;0.000000e+00;3.463147e+00;1.074668e+03
16;dgemm;64;0;1;1;1;300;111;111;12300;12300;12300;12300;12300;12300;-4.132594e-01;7.699516e-02;1918502651;752392754;1474612399;0.000000e+00;3.578739e+00;1.039957e+03
17;dgemm;64;0;1;1;1;300;111;111;12300;12300;12300;12300;12300;12300;-1.543593e-01;-4.222437e-01;1411549676;1843993368;943947739;0.000000e+00;3.541366e+00;1.050932e+03
18;dgemm;64;0;1;1;1;300;111;111;12300;12300;12300;12300;12300;12300;1.866877e-01;-3.211111e-01;1749698586;1469348094;1956297539;0.000000e+00;3.552076e+00;1.047763e+03
19;dgemm;64;0;1;1;1;300;111;111;12300;12300;12300;12300;12300;12300;-3.490223e-01;-4.443388e-01;2040651434;1975960378;317097467;0.000000e+00;3.582024e+00;1.039003e+03
20;dgemm;64;0;1;1;1;300;111;111;14700;14700;14700;14700;14700;14700;-1.054364e-01;2.030082e-01;927612902;1330573317;603570492;0.000000e+00;4.869837e+00;1.304571e+03
21;dgemm;64;0;1;1;1;300;111;111;14700;14700;14700;14700;14700;14700;-4.352839e-01;1.623906e-01;959997301;485560280;402724286;0.000000e+00;5.727332e+00;1.109250e+03
22;dgemm;64;0;1;1;1;300;111;111;14700;14700;14700;14700;14700;14700;4.667617e-01;1.036922e-01;894429689;364228444;1947346619;0.000000e+00;5.162237e+00;1.230677e+03
23;dgemm;64;0;1;1;1;300;111;111;14700;14700;14700;14700;14700;14700;4.665847e-01;3.770548e-01;1063958031;1633108117;2114738097;0.000000e+00;5.668771e+00;1.120710e+03
24;dgemm;64;0;1;1;1;300;111;111;14700;14700;14700;14700;14700;14700;-4.980996e-01;2.856491e-01;822890675;1610120709;791698927;0.000000e+00;5.293835e+00;1.200084e+03
25;dgemm;64;0;1;1;1;300;111;111;14700;14700;14700;14700;14700;14700;3.592840e-01;-4.182928e-01;1255179497;524872353;327254586;0.000000e+00;5.598320e+00;1.134813e+03
26;dgemm;64;0;1;1;1;300;111;111;14700;14700;14700;14700;14700;14700;9.307665e-02;3.296821e-01;1703964683;352406219;1600028624;0.000000e+00;5.363308e+00;1.184539e+03
27;dgemm;64;0;1;1;1;300;111;111;14700;14700;14700;14700;14700;14700;-4.719053e-01;2.807858e-01;112805732;1120048829;378409503;0.000000e+00;5.585254e+00;1.137468e+03
28;dgemm;64;0;1;1;1;300;111;111;14700;14700;14700;14700;14700;14700;2.744957e-01;-3.785920e-02;1573363368;1409959708;2077486715;0.000000e+00;5.464288e+00;1.162648e+03
29;dgemm;64;0;1;1;1;300;111;111;14700;14700;14700;14700;14700;14700;1.799312e-01;9.546876e-03;200747796;289700723;1117142618;0.000000e+00;5.703481e+00;1.113889e+03
30;dgemm;64;0;1;1;1;300;111;111;17100;17100;17100;17100;17100;17100;1.744033e-01;3.861393e-01;439493451;990892921;1760243555;0.000000e+00;7.094356e+00;1.409631e+03
31;dgemm;64;0;1;1;1;300;111;111;17100;17100;17100;17100;17100;17100;3.018442e-01;-4.633856e-02;111537764;338888228;2147469841;0.000000e+00;8.246366e+00;1.212707e+03
32;dgemm;64;0;1;1;1;300;111;111;17100;17100;17100;17100;17100;17100;2.072774e-01;1.109783e-01;269441500;2142757034;116087764;0.000000e+00;7.258577e+00;1.377739e+03
33;dgemm;64;0;1;1;1;300;111;111;17100;17100;17100;17100;17100;17100;-2.366607e-01;9.513167e-02;8936987;1982275856;1275373743;0.000000e+00;8.250046e+00;1.212166e+03
34;dgemm;64;0;1;1;1;300;111;111;17100;17100;17100;17100;17100;17100;-3.952797e-01;-4.960891e-01;841148365;1960709859;1760281936;0.000000e+00;7.400405e+00;1.351334e+03
35;dgemm;64;0;1;1;1;300;111;111;17100;17100;17100;17100;17100;17100;-2.607432e-01;-3.651100e-01;1244316437;971899228;1476153275;0.000000e+00;8.237140e+00;1.214065e+03
36;dgemm;64;0;1;1;1;300;111;111;17100;17100;17100;17100;17100;17100;-1.389722e-01;-8.843738e-02;1626276121;653468858;2130794395;0.000000e+00;7.513208e+00;1.331046e+03
37;dgemm;64;0;1;1;1;300;111;111;17100;17100;17100;17100;17100;17100;9.367129e-02;9.508020e-02;1605908235;1350573793;76065818;0.000000e+00;8.240555e+00;1.213562e+03
38;dgemm;64;0;1;1;1;300;111;111;17100;17100;17100;17100;17100;17100;-4.585682e-01;3.268176e-01;1987231011;1875335928;1784639529;0.000000e+00;7.716133e+00;1.296041e+03
39;dgemm;64;0;1;1;1;300;111;111;17100;17100;17100;17100;17100;17100;-6.830955e-02;1.535754e-01;1939964443;2112255763;1432114613;0.000000e+00;8.198555e+00;1.219779e+03
40;dgemm;64;0;1;1;1;300;111;111;19500;19500;19500;19500;19500;19500;2.725473e-01;1.883941e-01;1782436840;1909002904;165344818;0.000000e+00;9.865903e+00;1.503132e+03
41;dgemm;64;0;1;1;1;300;111;111;19500;19500;19500;19500;19500;19500;2.191162e-01;-3.021529e-01;1351797369;492067917;1504569917;0.000000e+00;1.120055e+01;1.324020e+03
42;dgemm;64;0;1;1;1;300;111;111;19500;19500;19500;19500;19500;19500;-3.280447e-01;-3.223358e-01;496987743;159259470;1359512183;0.000000e+00;9.867138e+00;1.502943e+03
43;dgemm;64;0;1;1;1;300;111;111;19500;19500;19500;19500;19500;19500;-4.513911e-01;3.904790e-01;1096689772;2086206725;601385644;0.000000e+00;1.111051e+01;1.334749e+03
44;dgemm;64;0;1;1;1;300;111;111;19500;19500;19500;19500;19500;19500;-4.403555e-01;9.074247e-02;243268139;1012502954;1272469786;0.000000e+00;9.957943e+00;1.489238e+03
45;dgemm;64;0;1;1;1;300;111;111;19500;19500;19500;19500;19500;19500;1.908228e-02;4.440272e-01;722308542;1820388464;933110197;0.000000e+00;1.111388e+01;1.334345e+03
46;dgemm;64;0;1;1;1;300;111;111;19500;19500;19500;19500;19500;19500;-1.017733e-01;4.140073e-01;1285228804;1789376348;502278611;0.000000e+00;1.010044e+01;1.468228e+03
47;dgemm;64;0;1;1;1;300;111;111;19500;19500;19500;19500;19500;19500;-2.659684e-01;-2.731221e-01;1034949299;654887343;1529195746;0.000000e+00;1.099578e+01;1.348677e+03
48;dgemm;64;0;1;1;1;300;111;111;19500;19500;19500;19500;19500;19500;1.985016e-01;4.068633e-01;87755422;889023311;1494613810;0.000000e+00;1.008020e+01;1.471176e+03
49;dgemm;64;0;1;1;1;300;111;111;19500;19500;19500;19500;19500;19500;-4.302884e-01;-3.682695e-01;745425661;396473730;1308044878;0.000000e+00;1.090174e+01;1.360311e+03
50;dgemm;64;0;1;1;1;300;111;111;21900;21900;21900;21900;21900;21900;3.002688e-01;4.210193e-01;705178736;1590079444;434248626;0.000000e+00;1.312619e+01;1.600382e+03
51;dgemm;64;0;1;1;1;300;111;111;21900;21900;21900;21900;21900;21900;-3.696050e-01;-2.996627e-01;1402586708;552473416;1143408282;0.000000e+00;1.384343e+01;1.517465e+03
52;dgemm;64;0;1;1;1;300;111;111;21900;21900;21900;21900;21900;21900;-3.095740e-01;-1.111416e-01;1884167637;1473442062;201305624;0.000000e+00;1.332631e+01;1.576349e+03
53;dgemm;64;0;1;1;1;300;111;111;21900;21900;21900;21900;21900;21900;3.214526e-01;-2.291051e-01;1238433452;1273911899;1431419379;0.000000e+00;1.392573e+01;1.508497e+03
54;dgemm;64;0;1;1;1;300;111;111;21900;21900;21900;21900;21900;21900;-4.764616e-02;-2.823082e-01;619290071;707900973;407487131;0.000000e+00;1.354488e+01;1.550912e+03
55;dgemm;64;0;1;1;1;300;111;111;21900;21900;21900;21900;21900;21900;-2.829039e-01;4.689267e-01;1776808933;711845894;404158660;0.000000e+00;1.395797e+01;1.505012e+03
56;dgemm;64;0;1;1;1;300;111;111;21900;21900;21900;21900;21900;21900;-9.802407e-02;-3.473849e-01;1973387981;1642548899;1501252996;0.000000e+00;1.381240e+01;1.520874e+03
57;dgemm;64;0;1;1;1;300;111;111;21900;21900;21900;21900;21900;21900;-2.998149e-02;-6.245404e-02;824272813;1662739668;2025187190;0.000000e+00;1.405704e+01;1.494406e+03
58;dgemm;64;0;1;1;1;300;111;111;21900;21900;21900;21900;21900;21900;1.613464e-01;1.651206e-01;437116466;1704365084;1176911340;0.000000e+00;1.393979e+01;1.506976e+03
59;dgemm;64;0;1;1;1;300;111;111;21900;21900;21900;21900;21900;21900;-9.329343e-02;2.766544e-01;1953443376;1876855542;1069755936;0.000000e+00;1.394316e+01;1.506611e+03
60;dgemm;64;0;1;1;1;300;111;111;24300;24300;24300;24300;24300;24300;-4.205594e-01;1.129006e-01;588219756;1856669179;1057418418;0.000000e+00;1.770790e+01;1.620622e+03
61;dgemm;64;0;1;1;1;300;111;111;24300;24300;24300;24300;24300;24300;1.349872e-02;-2.496970e-01;1065103348;625032172;387451659;0.000000e+00;1.767511e+01;1.623628e+03
62;dgemm;64;0;1;1;1;300;111;111;24300;24300;24300;24300;24300;24300;9.058696e-02;7.370132e-02;298625210;1295166342;1057467587;0.000000e+00;1.773322e+01;1.618308e+03
63;dgemm;64;0;1;1;1;300;111;111;24300;24300;24300;24300;24300;24300;-3.018314e-02;-5.773157e-02;382697713;476667372;1070575321;0.000000e+00;1.762480e+01;1.628264e+03
64;dgemm;64;0;1;1;1;300;111;111;24300;24300;24300;24300;24300;24300;-4.650331e-01;-1.058972e-01;774044599;697517721;2001229904;0.000000e+00;1.761284e+01;1.629369e+03
65;dgemm;64;0;1;1;1;300;111;111;24300;24300;24300;24300;24300;24300;4.801672e-01;-2.032396e-01;1797073940;1756915667;1065311705;0.000000e+00;1.762216e+01;1.628507e+03
66;dgemm;64;0;1;1;1;300;111;111;24300;24300;24300;24300;24300;24300;2.132438e-01;1.658781e-01;1414829150;1307565984;555996658;0.000000e+00;1.763551e+01;1.627274e+03
67;dgemm;64;0;1;1;1;300;111;111;24300;24300;24300;24300;24300;24300;1.800331e-01;-1.232803e-01;231602422;1389867269;780821396;0.000000e+00;1.777605e+01;1.614409e+03
68;dgemm;64;0;1;1;1;300;111;111;24300;24300;24300;24300;24300;24300;3.404283e-01;-1.210446e-01;195740084;917679292;2006811972;0.000000e+00;1.767517e+01;1.623623e+03
69;dgemm;64;0;1;1;1;300;111;111;24300;24300;24300;24300;24300;24300;1.960490e-01;-2.057583e-01;1414647625;1635905385;1046741222;0.000000e+00;1.782576e+01;1.609907e+03
70;dgemm;64;0;1;1;1;300;111;111;26700;26700;26700;26700;26700;26700;-4.981229e-01;1.797563e-01;1343606042;1111783898;446340713;0.000000e+00;2.257528e+01;1.686284e+03
71;dgemm;64;0;1;1;1;300;111;111;26700;26700;26700;26700;26700;26700;1.449892e-01;-2.994312e-01;1782280524;846942590;524688209;0.000000e+00;2.231298e+01;1.706107e+03
72;dgemm;64;0;1;1;1;300;111;111;26700;26700;26700;26700;26700;26700;-7.231379e-02;2.098748e-01;1371499336;2114937732;726371155;0.000000e+00;2.227420e+01;1.709077e+03
73;dgemm;64;0;1;1;1;300;111;111;26700;26700;26700;26700;26700;26700;-2.503210e-01;-2.840220e-01;882160379;11614769;1682085273;0.000000e+00;2.220751e+01;1.714209e+03
74;dgemm;64;0;1;1;1;300;111;111;26700;26700;26700;26700;26700;26700;9.597039e-02;1.728868e-01;246247255;1858721860;1548348142;0.000000e+00;2.220733e+01;1.714223e+03
75;dgemm;64;0;1;1;1;300;111;111;26700;26700;26700;26700;26700;26700;-7.244259e-02;3.629747e-01;2118421993;1520223205;452867621;0.000000e+00;2.213043e+01;1.720180e+03
76;dgemm;64;0;1;1;1;300;111;111;26700;26700;26700;26700;26700;26700;-4.022054e-01;3.532503e-01;201690613;213801961;822262754;0.000000e+00;2.214283e+01;1.719217e+03
77;dgemm;64;0;1;1;1;300;111;111;26700;26700;26700;26700;26700;26700;-4.352033e-02;2.911775e-01;1737518944;282828202;110613202;0.000000e+00;2.206910e+01;1.724961e+03
78;dgemm;64;0;1;1;1;300;111;111;26700;26700;26700;26700;26700;26700;-3.380140e-01;-1.158719e-01;1676902021;1486222842;950390868;0.000000e+00;2.224287e+01;1.711484e+03
79;dgemm;64;0;1;1;1;300;111;111;26700;26700;26700;26700;26700;26700;-3.254125e-01;4.026002e-01;1242608872;1137949908;1277849958;0.000000e+00;2.208263e+01;1.723904e+03
80;dgemm;64;0;1;1;1;300;111;111;29100;29100;29100;29100;29100;29100;-7.731044e-02;2.584243e-01;1908518808;1023457753;364686248;0.000000e+00;2.783838e+01;1.770374e+03
81;dgemm;64;0;1;1;1;300;111;111;29100;29100;29100;29100;29100;29100;-3.124503e-01;3.608416e-01;1329132133;1280321648;501772890;0.000000e+00;2.781566e+01;1.771820e+03
82;dgemm;64;0;1;1;1;300;111;111;29100;29100;29100;29100;29100;29100;8.143046e-02;2.072399e-01;212251746;1983690368;364319529;0.000000e+00;2.791170e+01;1.765723e+03
83;dgemm;64;0;1;1;1;300;111;111;29100;29100;29100;29100;29100;29100;2.429254e-01;3.618715e-01;1775473788;624549797;767066249;0.000000e+00;2.787951e+01;1.767762e+03
84;dgemm;64;0;1;1;1;300;111;111;29100;29100;29100;29100;29100;29100;2.177558e-01;-2.828171e-01;1750003033;1415505363;78012497;0.000000e+00;2.775039e+01;1.775988e+03
85;dgemm;64;0;1;1;1;300;111;111;29100;29100;29100;29100;29100;29100;3.155647e-01;-4.765819e-01;1344247686;1795519125;661761152;0.000000e+00;2.782185e+01;1.771426e+03
86;dgemm;64;0;1;1;1;300;111;111;29100;29100;29100;29100;29100;29100;1.085222e-01;-8.764404e-02;1315209188;235649157;1448703729;0.000000e+00;2.771535e+01;1.778233e+03
87;dgemm;64;0;1;1;1;300;111;111;29100;29100;29100;29100;29100;29100;5.964717e-02;3.343596e-01;430253414;861543921;677870460;0.000000e+00;2.776420e+01;1.775104e+03
88;dgemm;64;0;1;1;1;300;111;111;29100;29100;29100;29100;29100;29100;-3.852038e-01;-3.449149e-01;828388027;1144278050;332266748;0.000000e+00;2.776421e+01;1.775104e+03
89;dgemm;64;0;1;1;1;300;111;111;29100;29100;29100;29100;29100;29100;-2.132347e-01;-3.266376e-02;816504794;820697697;655858699;0.000000e+00;2.786248e+01;1.768843e+03
