Id;Function;threads;gpus;P;Q;mtxfmt;nb;norm;m;n;lda;seedA;tsub;time;gflops
0;dlange;128;0;1;1;0;240;171;30000;30000;30000;846930886;0.000000e+00;1.384889e+00;5.198974e+00
1;dlange;128;0;1;1;0;240;171;30000;30000;30000;1681692777;0.000000e+00;1.280208e+00;5.624087e+00
2;dlange;128;0;1;1;0;240;171;30000;30000;30000;1714636915;0.000000e+00;1.221176e+00;5.895957e+00
3;dlange;128;0;1;1;0;240;171;30000;30000;30000;1957747793;0.000000e+00;1.213615e+00;5.932688e+00
4;dlange;128;0;1;1;0;240;171;30000;30000;30000;424238335;0.000000e+00;1.200848e+00;5.995765e+00
5;dlange;128;0;1;1;0;240;171;30000;30000;30000;719885386;0.000000e+00;1.234768e+00;5.831055e+00
6;dlange;128;0;1;1;0;240;171;30000;30000;30000;1649760492;0.000000e+00;1.358136e+00;5.301384e+00
7;dlange;128;0;1;1;0;240;171;30000;30000;30000;596516649;0.000000e+00;1.217903e+00;5.911801e+00
8;dlange;128;0;1;1;0;240;171;30000;30000;30000;1189641421;0.000000e+00;1.210881e+00;5.946082e+00
9;dlange;128;0;1;1;0;240;171;30000;30000;30000;1025202362;0.000000e+00;1.195395e+00;6.023115e+00
10;dlange;128;0;1;1;0;260;171;30000;30000;30000;1350490027;0.000000e+00;1.043980e+00;6.896681e+00
11;dlange;128;0;1;1;0;260;171;30000;30000;30000;783368690;0.000000e+00;9.949068e-01;7.236859e+00
12;dlange;128;0;1;1;0;260;171;30000;30000;30000;1102520059;0.000000e+00;1.155931e+00;6.228744e+00
13;dlange;128;0;1;1;0;260;171;30000;30000;30000;2044897763;0.000000e+00;1.249071e+00;5.764286e+00
14;dlange;128;0;1;1;0;260;171;30000;30000;30000;1967513926;0.000000e+00;1.009788e+00;7.130211e+00
15;dlange;128;0;1;1;0;260;171;30000;30000;30000;1365180540;0.000000e+00;1.005389e+00;7.161404e+00
16;dlange;128;0;1;1;0;260;171;30000;30000;30000;1540383426;0.000000e+00;1.035390e+00;6.953904e+00
17;dlange;128;0;1;1;0;260;171;30000;30000;30000;304089172;0.000000e+00;1.049137e+00;6.862787e+00
18;dlange;128;0;1;1;0;260;171;30000;30000;30000;1303455736;0.000000e+00;1.096946e+00;6.563676e+00
19;dlange;128;0;1;1;0;260;171;30000;30000;30000;35005211;0.000000e+00;1.018794e+00;7.067182e+00
20;dlange;128;0;1;1;0;280;171;30000;30000;30000;521595368;0.000000e+00;1.073173e+00;6.709075e+00
21;dlange;128;0;1;1;0;280;171;30000;30000;30000;294702567;0.000000e+00;9.258147e-01;7.776935e+00
22;dlange;128;0;1;1;0;280;171;30000;30000;30000;1726956429;0.000000e+00;1.023247e+00;7.036425e+00
23;dlange;128;0;1;1;0;280;171;30000;30000;30000;336465782;0.000000e+00;9.371656e-01;7.682741e+00
24;dlange;128;0;1;1;0;280;171;30000;30000;30000;861021530;0.000000e+00;1.008718e+00;7.137772e+00
25;dlange;128;0;1;1;0;280;171;30000;30000;30000;278722862;0.000000e+00;9.253259e-01;7.781042e+00
26;dlange;128;0;1;1;0;280;171;30000;30000;30000;233665123;0.000000e+00;9.000952e-01;7.999154e+00
27;dlange;128;0;1;1;0;280;171;30000;30000;30000;2145174067;0.000000e+00;8.787686e-01;8.193283e+00
28;dlange;128;0;1;1;0;280;171;30000;30000;30000;468703135;0.000000e+00;1.087987e+00;6.617727e+00
29;dlange;128;0;1;1;0;280;171;30000;30000;30000;1101513929;0.000000e+00;8.688798e-01;8.286532e+00
30;dlange;128;0;1;1;0;300;171;30000;30000;30000;1801979802;0.000000e+00;7.782580e-01;9.251430e+00
31;dlange;128;0;1;1;0;300;171;30000;30000;30000;1315634022;0.000000e+00;7.864293e-01;9.155305e+00
32;dlange;128;0;1;1;0;300;171;30000;30000;30000;635723058;0.000000e+00;7.544648e-01;9.543189e+00
33;dlange;128;0;1;1;0;300;171;30000;30000;30000;1369133069;0.000000e+00;7.858864e-01;9.161630e+00
34;dlange;128;0;1;1;0;300;171;30000;30000;30000;1125898167;0.000000e+00;7.707096e-01;9.342040e+00
35;dlange;128;0;1;1;0;300;171;30000;30000;30000;1059961393;0.000000e+00;7.446577e-01;9.668872e+00
36;dlange;128;0;1;1;0;300;171;30000;30000;30000;2089018456;0.000000e+00;8.178157e-01;8.803940e+00
37;dlange;128;0;1;1;0;300;171;30000;30000;30000;628175011;0.000000e+00;7.780465e-01;9.253945e+00
38;dlange;128;0;1;1;0;300;171;30000;30000;30000;1656478042;0.000000e+00;8.125138e-01;8.861388e+00
39;dlange;128;0;1;1;0;300;171;30000;30000;30000;1131176229;0.000000e+00;9.179821e-01;7.843290e+00
40;dlange;128;0;1;1;0;320;171;30000;30000;30000;1653377373;0.000000e+00;6.959864e-01;1.034503e+01
41;dlange;128;0;1;1;0;320;171;30000;30000;30000;859484421;0.000000e+00;7.037096e-01;1.023149e+01
42;dlange;128;0;1;1;0;320;171;30000;30000;30000;1914544919;0.000000e+00;6.797277e-01;1.059248e+01
43;dlange;128;0;1;1;0;320;171;30000;30000;30000;608413784;0.000000e+00;8.241318e-01;8.736467e+00
44;dlange;128;0;1;1;0;320;171;30000;30000;30000;756898537;0.000000e+00;7.905343e-01;9.107764e+00
45;dlange;128;0;1;1;0;320;171;30000;30000;30000;1734575198;0.000000e+00;8.240822e-01;8.736992e+00
46;dlange;128;0;1;1;0;320;171;30000;30000;30000;1973594324;0.000000e+00;8.042643e-01;8.952281e+00
47;dlange;128;0;1;1;0;320;171;30000;30000;30000;149798315;0.000000e+00;8.199259e-01;8.781281e+00
48;dlange;128;0;1;1;0;320;171;30000;30000;30000;2038664370;0.000000e+00;7.827941e-01;9.197821e+00
49;dlange;128;0;1;1;0;320;171;30000;30000;30000;1129566413;0.000000e+00;6.855149e-01;1.050305e+01
50;dlange;128;0;1;1;0;340;171;30000;30000;30000;184803526;0.000000e+00;6.050502e-01;1.189984e+01
51;dlange;128;0;1;1;0;340;171;30000;30000;30000;412776091;0.000000e+00;5.784453e-01;1.244716e+01
52;dlange;128;0;1;1;0;340;171;30000;30000;30000;1424268980;0.000000e+00;7.142480e-01;1.008053e+01
53;dlange;128;0;1;1;0;340;171;30000;30000;30000;1911759956;0.000000e+00;5.934625e-01;1.213219e+01
54;dlange;128;0;1;1;0;340;171;30000;30000;30000;749241873;0.000000e+00;6.492053e-01;1.109048e+01
55;dlange;128;0;1;1;0;340;171;30000;30000;30000;137806862;0.000000e+00;5.974452e-01;1.205131e+01
56;dlange;128;0;1;1;0;340;171;30000;30000;30000;42999170;0.000000e+00;6.220268e-01;1.157506e+01
57;dlange;128;0;1;1;0;340;171;30000;30000;30000;982906996;0.000000e+00;5.487332e-01;1.312113e+01
58;dlange;128;0;1;1;0;340;171;30000;30000;30000;135497281;0.000000e+00;6.609067e-01;1.089412e+01
59;dlange;128;0;1;1;0;340;171;30000;30000;30000;511702305;0.000000e+00;6.266790e-01;1.148914e+01
60;dlange;128;0;1;1;0;360;171;30000;30000;30000;2084420925;0.000000e+00;5.282208e-01;1.363066e+01
61;dlange;128;0;1;1;0;360;171;30000;30000;30000;1937477084;0.000000e+00;5.269309e-01;1.366403e+01
62;dlange;128;0;1;1;0;360;171;30000;30000;30000;1827336327;0.000000e+00;6.002785e-01;1.199443e+01
63;dlange;128;0;1;1;0;360;171;30000;30000;30000;572660336;0.000000e+00;5.482441e-01;1.313284e+01
64;dlange;128;0;1;1;0;360;171;30000;30000;30000;1159126505;0.000000e+00;5.963105e-01;1.207425e+01
65;dlange;128;0;1;1;0;360;171;30000;30000;30000;805750846;0.000000e+00;6.655060e-01;1.081884e+01
66;dlange;128;0;1;1;0;360;171;30000;30000;30000;1632621729;0.000000e+00;6.197838e-01;1.161695e+01
67;dlange;128;0;1;1;0;360;171;30000;30000;30000;1100661313;0.000000e+00;6.917795e-01;1.040794e+01
68;dlange;128;0;1;1;0;360;171;30000;30000;30000;1433925857;0.000000e+00;6.774756e-01;1.062769e+01
69;dlange;128;0;1;1;0;360;171;30000;30000;30000;1141616124;0.000000e+00;6.319878e-01;1.139262e+01
70;dlange;128;0;1;1;0;380;171;30000;30000;30000;84353895;0.000000e+00;4.968073e-01;1.449254e+01
71;dlange;128;0;1;1;0;380;171;30000;30000;30000;939819582;0.000000e+00;4.820991e-01;1.493469e+01
72;dlange;128;0;1;1;0;380;171;30000;30000;30000;2001100545;0.000000e+00;5.076677e-01;1.418250e+01
73;dlange;128;0;1;1;0;380;171;30000;30000;30000;1998898814;0.000000e+00;5.679581e-01;1.267699e+01
74;dlange;128;0;1;1;0;380;171;30000;30000;30000;1548233367;0.000000e+00;6.157776e-01;1.169253e+01
75;dlange;128;0;1;1;0;380;171;30000;30000;30000;610515434;0.000000e+00;5.613657e-01;1.282586e+01
76;dlange;128;0;1;1;0;380;171;30000;30000;30000;1585990364;0.000000e+00;6.003484e-01;1.199304e+01
77;dlange;128;0;1;1;0;380;171;30000;30000;30000;1374344043;0.000000e+00;5.786907e-01;1.244188e+01
78;dlange;128;0;1;1;0;380;171;30000;30000;30000;760313750;0.000000e+00;5.766003e-01;1.248699e+01
79;dlange;128;0;1;1;0;380;171;30000;30000;30000;1477171087;0.000000e+00;5.501098e-01;1.308830e+01
80;dlange;128;0;1;1;0;400;171;30000;30000;30000;356426808;0.000000e+00;4.565991e-01;1.576876e+01
81;dlange;128;0;1;1;0;400;171;30000;30000;30000;945117276;0.000000e+00;4.735675e-01;1.520375e+01
82;dlange;128;0;1;1;0;400;171;30000;30000;30000;1889947178;0.000000e+00;5.084850e-01;1.415971e+01
83;dlange;128;0;1;1;0;400;171;30000;30000;30000;1780695788;0.000000e+00;5.413661e-01;1.329969e+01
84;dlange;128;0;1;1;0;400;171;30000;30000;30000;709393584;0.000000e+00;5.940478e-01;1.212024e+01
85;dlange;128;0;1;1;0;400;171;30000;30000;30000;491705403;0.000000e+00;4.274857e-01;1.684267e+01
86;dlange;128;0;1;1;0;400;171;30000;30000;30000;1918502651;0.000000e+00;4.845661e-01;1.485865e+01
87;dlange;128;0;1;1;0;400;171;30000;30000;30000;752392754;0.000000e+00;4.930570e-01;1.460277e+01
88;dlange;128;0;1;1;0;400;171;30000;30000;30000;1474612399;0.000000e+00;5.463610e-01;1.317810e+01
89;dlange;128;0;1;1;0;400;171;30000;30000;30000;2053999932;0.000000e+00;5.458492e-01;1.319046e+01
90;dlange;128;0;1;1;0;420;171;30000;30000;30000;1264095060;0.000000e+00;4.852518e-01;1.483766e+01
91;dlange;128;0;1;1;0;420;171;30000;30000;30000;1411549676;0.000000e+00;4.830047e-01;1.490669e+01
92;dlange;128;0;1;1;0;420;171;30000;30000;30000;1843993368;0.000000e+00;5.029993e-01;1.431414e+01
93;dlange;128;0;1;1;0;420;171;30000;30000;30000;943947739;0.000000e+00;5.428492e-01;1.326335e+01
94;dlange;128;0;1;1;0;420;171;30000;30000;30000;1984210012;0.000000e+00;4.640563e-01;1.551536e+01
95;dlange;128;0;1;1;0;420;171;30000;30000;30000;855636226;0.000000e+00;4.901830e-01;1.468839e+01
96;dlange;128;0;1;1;0;420;171;30000;30000;30000;1749698586;0.000000e+00;4.407390e-01;1.633620e+01
97;dlange;128;0;1;1;0;420;171;30000;30000;30000;1469348094;0.000000e+00;4.521227e-01;1.592488e+01
98;dlange;128;0;1;1;0;420;171;30000;30000;30000;1956297539;0.000000e+00;4.080368e-01;1.764547e+01
99;dlange;128;0;1;1;0;420;171;30000;30000;30000;1036140795;0.000000e+00;4.297287e-01;1.675476e+01
100;dlange;128;0;1;1;0;440;171;30000;30000;30000;463480570;0.000000e+00;3.871114e-01;1.859930e+01
101;dlange;128;0;1;1;0;440;171;30000;30000;30000;2040651434;0.000000e+00;4.428199e-01;1.625943e+01
102;dlange;128;0;1;1;0;440;171;30000;30000;30000;1975960378;0.000000e+00;4.774921e-01;1.507878e+01
103;dlange;128;0;1;1;0;440;171;30000;30000;30000;317097467;0.000000e+00;4.694738e-01;1.533632e+01
104;dlange;128;0;1;1;0;440;171;30000;30000;30000;1892066601;0.000000e+00;4.123318e-01;1.746166e+01
105;dlange;128;0;1;1;0;440;171;30000;30000;30000;1376710097;0.000000e+00;3.587025e-01;2.007235e+01
106;dlange;128;0;1;1;0;440;171;30000;30000;30000;927612902;0.000000e+00;4.111155e-01;1.751333e+01
107;dlange;128;0;1;1;0;440;171;30000;30000;30000;1330573317;0.000000e+00;4.189147e-01;1.718727e+01
108;dlange;128;0;1;1;0;440;171;30000;30000;30000;603570492;0.000000e+00;4.579997e-01;1.572053e+01
109;dlange;128;0;1;1;0;440;171;30000;30000;30000;1687926652;0.000000e+00;4.627794e-01;1.555817e+01
110;dlange;128;0;1;1;0;460;171;30000;30000;30000;660260756;0.000000e+00;3.711867e-01;1.939725e+01
111;dlange;128;0;1;1;0;460;171;30000;30000;30000;959997301;0.000000e+00;4.524800e-01;1.591231e+01
112;dlange;128;0;1;1;0;460;171;30000;30000;30000;485560280;0.000000e+00;4.211050e-01;1.709787e+01
113;dlange;128;0;1;1;0;460;171;30000;30000;30000;402724286;0.000000e+00;4.090265e-01;1.760277e+01
114;dlange;128;0;1;1;0;460;171;30000;30000;30000;593209441;0.000000e+00;3.977402e-01;1.810227e+01
115;dlange;128;0;1;1;0;460;171;30000;30000;30000;1194953865;0.000000e+00;4.412156e-01;1.631855e+01
116;dlange;128;0;1;1;0;460;171;30000;30000;30000;894429689;0.000000e+00;4.380820e-01;1.643528e+01
117;dlange;128;0;1;1;0;460;171;30000;30000;30000;364228444;0.000000e+00;4.498001e-01;1.600711e+01
118;dlange;128;0;1;1;0;460;171;30000;30000;30000;1947346619;0.000000e+00;4.344459e-01;1.657283e+01
119;dlange;128;0;1;1;0;460;171;30000;30000;30000;221558440;0.000000e+00;4.248191e-01;1.694839e+01
120;dlange;128;0;1;1;0;480;171;30000;30000;30000;270744729;0.000000e+00;4.103592e-01;1.754560e+01
121;dlange;128;0;1;1;0;480;171;30000;30000;30000;1063958031;0.000000e+00;3.896488e-01;1.847818e+01
122;dlange;128;0;1;1;0;480;171;30000;30000;30000;1633108117;0.000000e+00;3.765984e-01;1.911851e+01
123;dlange;128;0;1;1;0;480;171;30000;30000;30000;2114738097;0.000000e+00;4.055585e-01;1.775329e+01
124;dlange;128;0;1;1;0;480;171;30000;30000;30000;2007905771;0.000000e+00;3.778340e-01;1.905599e+01
125;dlange;128;0;1;1;0;480;171;30000;30000;30000;1469834481;0.000000e+00;3.178321e-01;2.265347e+01
126;dlange;128;0;1;1;0;480;171;30000;30000;30000;822890675;0.000000e+00;3.121105e-01;2.306875e+01
127;dlange;128;0;1;1;0;480;171;30000;30000;30000;1610120709;0.000000e+00;3.554929e-01;2.025357e+01
128;dlange;128;0;1;1;0;480;171;30000;30000;30000;791698927;0.000000e+00;3.629829e-01;1.983564e+01
129;dlange;128;0;1;1;0;480;171;30000;30000;30000;631704567;0.000000e+00;3.454911e-01;2.083990e+01
130;dlange;128;0;1;1;0;500;171;30000;30000;30000;498777856;0.000000e+00;3.274389e-01;2.198884e+01
131;dlange;128;0;1;1;0;500;171;30000;30000;30000;1255179497;0.000000e+00;3.142317e-01;2.291303e+01
132;dlange;128;0;1;1;0;500;171;30000;30000;30000;524872353;0.000000e+00;3.367806e-01;2.137890e+01
133;dlange;128;0;1;1;0;500;171;30000;30000;30000;327254586;0.000000e+00;3.186701e-01;2.259390e+01
134;dlange;128;0;1;1;0;500;171;30000;30000;30000;1572276965;0.000000e+00;3.264656e-01;2.205439e+01
135;dlange;128;0;1;1;0;500;171;30000;30000;30000;269455306;0.000000e+00;3.106348e-01;2.317835e+01
136;dlange;128;0;1;1;0;500;171;30000;30000;30000;1703964683;0.000000e+00;3.296339e-01;2.184241e+01
137;dlange;128;0;1;1;0;500;171;30000;30000;30000;352406219;0.000000e+00;3.369659e-01;2.136715e+01
138;dlange;128;0;1;1;0;500;171;30000;30000;30000;1600028624;0.000000e+00;3.200581e-01;2.249592e+01
139;dlange;128;0;1;1;0;500;171;30000;30000;30000;160051528;0.000000e+00;3.445062e-01;2.089948e+01
140;dlange;128;0;1;1;0;520;171;30000;30000;30000;2040332871;0.000000e+00;2.978292e-01;2.417493e+01
141;dlange;128;0;1;1;0;520;171;30000;30000;30000;112805732;0.000000e+00;3.018938e-01;2.384944e+01
142;dlange;128;0;1;1;0;520;171;30000;30000;30000;1120048829;0.000000e+00;3.070488e-01;2.344904e+01
143;dlange;128;0;1;1;0;520;171;30000;30000;30000;378409503;0.000000e+00;3.484802e-01;2.066115e+01
144;dlange;128;0;1;1;0;520;171;30000;30000;30000;515530019;0.000000e+00;3.044472e-01;2.364942e+01
145;dlange;128;0;1;1;0;520;171;30000;30000;30000;1713258270;0.000000e+00;3.109007e-01;2.315852e+01
146;dlange;128;0;1;1;0;520;171;30000;30000;30000;1573363368;0.000000e+00;3.080057e-01;2.337619e+01
147;dlange;128;0;1;1;0;520;171;30000;30000;30000;1409959708;0.000000e+00;3.158585e-01;2.279502e+01
148;dlange;128;0;1;1;0;520;171;30000;30000;30000;2077486715;0.000000e+00;2.816151e-01;2.556681e+01
149;dlange;128;0;1;1;0;520;171;30000;30000;30000;1373226340;0.000000e+00;3.014001e-01;2.388851e+01
150;dlange;128;0;1;1;0;540;171;30000;30000;30000;1631518149;0.000000e+00;3.435404e-01;2.095823e+01
151;dlange;128;0;1;1;0;540;171;30000;30000;30000;200747796;0.000000e+00;3.237491e-01;2.223945e+01
152;dlange;128;0;1;1;0;540;171;30000;30000;30000;289700723;0.000000e+00;3.369945e-01;2.136534e+01
153;dlange;128;0;1;1;0;540;171;30000;30000;30000;1117142618;0.000000e+00;3.339414e-01;2.156067e+01
154;dlange;128;0;1;1;0;540;171;30000;30000;30000;168002245;0.000000e+00;2.125746e-01;3.387046e+01
155;dlange;128;0;1;1;0;540;171;30000;30000;30000;150122846;0.000000e+00;2.680750e-01;2.685816e+01
156;dlange;128;0;1;1;0;540;171;30000;30000;30000;439493451;0.000000e+00;2.776839e-01;2.592876e+01
157;dlange;128;0;1;1;0;540;171;30000;30000;30000;990892921;0.000000e+00;2.555260e-01;2.817718e+01
158;dlange;128;0;1;1;0;540;171;30000;30000;30000;1760243555;0.000000e+00;2.678786e-01;2.687785e+01
159;dlange;128;0;1;1;0;540;171;30000;30000;30000;1231192379;0.000000e+00;2.868509e-01;2.510015e+01
160;dlange;128;0;1;1;0;560;171;30000;30000;30000;1622597488;0.000000e+00;2.589863e-01;2.780069e+01
161;dlange;128;0;1;1;0;560;171;30000;30000;30000;111537764;0.000000e+00;2.903341e-01;2.479901e+01
162;dlange;128;0;1;1;0;560;171;30000;30000;30000;338888228;0.000000e+00;2.898662e-01;2.483905e+01
163;dlange;128;0;1;1;0;560;171;30000;30000;30000;2147469841;0.000000e+00;2.578172e-01;2.792676e+01
164;dlange;128;0;1;1;0;560;171;30000;30000;30000;438792350;0.000000e+00;2.044939e-01;3.520888e+01
165;dlange;128;0;1;1;0;560;171;30000;30000;30000;1911165193;0.000000e+00;2.763969e-01;2.604950e+01
166;dlange;128;0;1;1;0;560;171;30000;30000;30000;269441500;0.000000e+00;2.741485e-01;2.626314e+01
167;dlange;128;0;1;1;0;560;171;30000;30000;30000;2142757034;0.000000e+00;3.362044e-01;2.141555e+01
168;dlange;128;0;1;1;0;560;171;30000;30000;30000;116087764;0.000000e+00;3.023434e-01;2.381398e+01
169;dlange;128;0;1;1;0;560;171;30000;30000;30000;1869470124;0.000000e+00;2.955121e-01;2.436448e+01
170;dlange;128;0;1;1;0;580;171;30000;30000;30000;155324914;0.000000e+00;2.748462e-01;2.619647e+01
171;dlange;128;0;1;1;0;580;171;30000;30000;30000;8936987;0.000000e+00;2.670726e-01;2.695896e+01
172;dlange;128;0;1;1;0;580;171;30000;30000;30000;1982275856;0.000000e+00;2.596882e-01;2.772556e+01
173;dlange;128;0;1;1;0;580;171;30000;30000;30000;1275373743;0.000000e+00;2.231204e-01;3.226958e+01
174;dlange;128;0;1;1;0;580;171;30000;30000;30000;387346491;0.000000e+00;2.769079e-01;2.600142e+01
175;dlange;128;0;1;1;0;580;171;30000;30000;30000;350322227;0.000000e+00;2.669561e-01;2.697073e+01
176;dlange;128;0;1;1;0;580;171;30000;30000;30000;841148365;0.000000e+00;2.552719e-01;2.820522e+01
177;dlange;128;0;1;1;0;580;171;30000;30000;30000;1960709859;0.000000e+00;2.556858e-01;2.815956e+01
178;dlange;128;0;1;1;0;580;171;30000;30000;30000;1760281936;0.000000e+00;2.689297e-01;2.677279e+01
179;dlange;128;0;1;1;0;580;171;30000;30000;30000;771151432;0.000000e+00;2.527157e-01;2.849051e+01
180;dlange;128;0;1;1;0;600;171;30000;30000;30000;1186452551;0.000000e+00;2.626736e-01;2.741044e+01
181;dlange;128;0;1;1;0;600;171;30000;30000;30000;1244316437;0.000000e+00;2.559866e-01;2.812647e+01
182;dlange;128;0;1;1;0;600;171;30000;30000;30000;971899228;0.000000e+00;2.513655e-01;2.864355e+01
183;dlange;128;0;1;1;0;600;171;30000;30000;30000;1476153275;0.000000e+00;2.680372e-01;2.686195e+01
184;dlange;128;0;1;1;0;600;171;30000;30000;30000;213975407;0.000000e+00;2.605215e-01;2.763688e+01
185;dlange;128;0;1;1;0;600;171;30000;30000;30000;1139901474;0.000000e+00;2.915899e-01;2.469222e+01
186;dlange;128;0;1;1;0;600;171;30000;30000;30000;1626276121;0.000000e+00;2.313208e-01;3.112560e+01
187;dlange;128;0;1;1;0;600;171;30000;30000;30000;653468858;0.000000e+00;2.256584e-01;3.190663e+01
188;dlange;128;0;1;1;0;600;171;30000;30000;30000;2130794395;0.000000e+00;2.658347e-01;2.708450e+01
189;dlange;128;0;1;1;0;600;171;30000;30000;30000;1239036029;0.000000e+00;2.406036e-01;2.992474e+01
190;dlange;128;0;1;1;0;620;171;30000;30000;30000;1884661237;0.000000e+00;2.366526e-01;3.042435e+01
191;dlange;128;0;1;1;0;620;171;30000;30000;30000;1605908235;0.000000e+00;2.453139e-01;2.935015e+01
192;dlange;128;0;1;1;0;620;171;30000;30000;30000;1350573793;0.000000e+00;2.405343e-01;2.993336e+01
193;dlange;128;0;1;1;0;620;171;30000;30000;30000;76065818;0.000000e+00;2.498728e-01;2.881466e+01
194;dlange;128;0;1;1;0;620;171;30000;30000;30000;1605894428;0.000000e+00;2.787737e-01;2.582740e+01
195;dlange;128;0;1;1;0;620;171;30000;30000;30000;1789366143;0.000000e+00;2.676786e-01;2.689793e+01
196;dlange;128;0;1;1;0;620;171;30000;30000;30000;1987231011;0.000000e+00;2.595899e-01;2.773606e+01
197;dlange;128;0;1;1;0;620;171;30000;30000;30000;1875335928;0.000000e+00;2.520230e-01;2.856882e+01
198;dlange;128;0;1;1;0;620;171;30000;30000;30000;1784639529;0.000000e+00;2.259864e-01;3.186032e+01
199;dlange;128;0;1;1;0;620;171;30000;30000;30000;2103318776;0.000000e+00;2.341962e-01;3.074345e+01
200;dlange;128;0;1;1;0;640;171;30000;30000;30000;1597322404;0.000000e+00;2.212707e-01;3.253933e+01
201;dlange;128;0;1;1;0;640;171;30000;30000;30000;1939964443;0.000000e+00;2.125511e-01;3.387421e+01
202;dlange;128;0;1;1;0;640;171;30000;30000;30000;2112255763;0.000000e+00;2.128821e-01;3.382154e+01
203;dlange;128;0;1;1;0;640;171;30000;30000;30000;1432114613;0.000000e+00;2.625577e-01;2.742254e+01
204;dlange;128;0;1;1;0;640;171;30000;30000;30000;1067854538;0.000000e+00;2.336706e-01;3.081261e+01
205;dlange;128;0;1;1;0;640;171;30000;30000;30000;352118606;0.000000e+00;2.309226e-01;3.117927e+01
206;dlange;128;0;1;1;0;640;171;30000;30000;30000;1782436840;0.000000e+00;2.541562e-01;2.832903e+01
207;dlange;128;0;1;1;0;640;171;30000;30000;30000;1909002904;0.000000e+00;2.404551e-01;2.994323e+01
208;dlange;128;0;1;1;0;640;171;30000;30000;30000;165344818;0.000000e+00;1.624483e-01;4.432179e+01
209;dlange;128;0;1;1;0;640;171;30000;30000;30000;1395235128;0.000000e+00;2.234168e-01;3.222676e+01
210;dlange;128;0;1;1;0;660;171;30000;30000;30000;532670688;0.000000e+00;2.098010e-01;3.431823e+01
211;dlange;128;0;1;1;0;660;171;30000;30000;30000;1351797369;0.000000e+00;2.261873e-01;3.183203e+01
212;dlange;128;0;1;1;0;660;171;30000;30000;30000;492067917;0.000000e+00;2.131681e-01;3.377617e+01
213;dlange;128;0;1;1;0;660;171;30000;30000;30000;1504569917;0.000000e+00;1.480690e-01;4.862596e+01
214;dlange;128;0;1;1;0;660;171;30000;30000;30000;680466996;0.000000e+00;2.455960e-01;2.931644e+01
215;dlange;128;0;1;1;0;660;171;30000;30000;30000;706043324;0.000000e+00;2.187539e-01;3.291369e+01
216;dlange;128;0;1;1;0;660;171;30000;30000;30000;496987743;0.000000e+00;1.594094e-01;4.516673e+01
217;dlange;128;0;1;1;0;660;171;30000;30000;30000;159259470;0.000000e+00;2.245331e-01;3.206654e+01
218;dlange;128;0;1;1;0;660;171;30000;30000;30000;1359512183;0.000000e+00;2.361806e-01;3.048514e+01
219;dlange;128;0;1;1;0;660;171;30000;30000;30000;480298490;0.000000e+00;2.322701e-01;3.099839e+01
220;dlange;128;0;1;1;0;680;171;30000;30000;30000;1398295499;0.000000e+00;2.202552e-01;3.268936e+01
221;dlange;128;0;1;1;0;680;171;30000;30000;30000;1096689772;0.000000e+00;2.070965e-01;3.476640e+01
222;dlange;128;0;1;1;0;680;171;30000;30000;30000;2086206725;0.000000e+00;2.114141e-01;3.405639e+01
223;dlange;128;0;1;1;0;680;171;30000;30000;30000;601385644;0.000000e+00;2.025598e-01;3.554507e+01
224;dlange;128;0;1;1;0;680;171;30000;30000;30000;1172755590;0.000000e+00;1.990097e-01;3.617914e+01
225;dlange;128;0;1;1;0;680;171;30000;30000;30000;1544617505;0.000000e+00;1.660321e-01;4.336510e+01
226;dlange;128;0;1;1;0;680;171;30000;30000;30000;243268139;0.000000e+00;2.399290e-01;3.000887e+01
227;dlange;128;0;1;1;0;680;171;30000;30000;30000;1012502954;0.000000e+00;2.197663e-01;3.276207e+01
228;dlange;128;0;1;1;0;680;171;30000;30000;30000;1272469786;0.000000e+00;2.346544e-01;3.068342e+01
229;dlange;128;0;1;1;0;680;171;30000;30000;30000;2027907669;0.000000e+00;2.104378e-01;3.421439e+01
230;dlange;128;0;1;1;0;700;171;30000;30000;30000;968338082;0.000000e+00;2.042817e-01;3.524545e+01
231;dlange;128;0;1;1;0;700;171;30000;30000;30000;722308542;0.000000e+00;2.149096e-01;3.350246e+01
232;dlange;128;0;1;1;0;700;171;30000;30000;30000;1820388464;0.000000e+00;2.098367e-01;3.431240e+01
233;dlange;128;0;1;1;0;700;171;30000;30000;30000;933110197;0.000000e+00;1.702318e-01;4.229526e+01
234;dlange;128;0;1;1;0;700;171;30000;30000;30000;6939507;0.000000e+00;1.985178e-01;3.626879e+01
235;dlange;128;0;1;1;0;700;171;30000;30000;30000;740759355;0.000000e+00;1.815804e-01;3.965185e+01
236;dlange;128;0;1;1;0;700;171;30000;30000;30000;1285228804;0.000000e+00;1.784454e-01;4.034847e+01
237;dlange;128;0;1;1;0;700;171;30000;30000;30000;1789376348;0.000000e+00;1.766639e-01;4.075536e+01
238;dlange;128;0;1;1;0;700;171;30000;30000;30000;502278611;0.000000e+00;1.733609e-01;4.153185e+01
239;dlange;128;0;1;1;0;700;171;30000;30000;30000;1450573622;0.000000e+00;1.800671e-01;3.998510e+01
240;dlange;128;0;1;1;0;720;171;30000;30000;30000;1037127828;0.000000e+00;1.740683e-01;4.136308e+01
241;dlange;128;0;1;1;0;720;171;30000;30000;30000;1034949299;0.000000e+00;1.765349e-01;4.078515e+01
242;dlange;128;0;1;1;0;720;171;30000;30000;30000;654887343;0.000000e+00;2.014769e-01;3.573610e+01
243;dlange;128;0;1;1;0;720;171;30000;30000;30000;1529195746;0.000000e+00;1.972648e-01;3.649916e+01
244;dlange;128;0;1;1;0;720;171;30000;30000;30000;392035568;0.000000e+00;1.916181e-01;3.757474e+01
245;dlange;128;0;1;1;0;720;171;30000;30000;30000;1335354340;0.000000e+00;1.840852e-01;3.911232e+01
246;dlange;128;0;1;1;0;720;171;30000;30000;30000;87755422;0.000000e+00;1.774457e-01;4.057580e+01
247;dlange;128;0;1;1;0;720;171;30000;30000;30000;889023311;0.000000e+00;1.745584e-01;4.124693e+01
248;dlange;128;0;1;1;0;720;171;30000;30000;30000;1494613810;0.000000e+00;2.153278e-01;3.343740e+01
249;dlange;128;0;1;1;0;720;171;30000;30000;30000;1447267605;0.000000e+00;2.125973e-01;3.386684e+01
250;dlange;128;0;1;1;0;740;171;30000;30000;30000;1369321801;0.000000e+00;1.661265e-01;4.334046e+01
251;dlange;128;0;1;1;0;740;171;30000;30000;30000;745425661;0.000000e+00;1.756453e-01;4.099169e+01
252;dlange;128;0;1;1;0;740;171;30000;30000;30000;396473730;0.000000e+00;1.892332e-01;3.804828e+01
253;dlange;128;0;1;1;0;740;171;30000;30000;30000;1308044878;0.000000e+00;1.603076e-01;4.491364e+01
254;dlange;128;0;1;1;0;740;171;30000;30000;30000;1346811305;0.000000e+00;1.919597e-01;3.750788e+01
255;dlange;128;0;1;1;0;740;171;30000;30000;30000;1569229320;0.000000e+00;1.684006e-01;4.275518e+01
256;dlange;128;0;1;1;0;740;171;30000;30000;30000;705178736;0.000000e+00;1.660217e-01;4.336783e+01
257;dlange;128;0;1;1;0;740;171;30000;30000;30000;1590079444;0.000000e+00;1.738977e-01;4.140366e+01
258;dlange;128;0;1;1;0;740;171;30000;30000;30000;434248626;0.000000e+00;1.976098e-01;3.643544e+01
259;dlange;128;0;1;1;0;740;171;30000;30000;30000;1977648522;0.000000e+00;2.008226e-01;3.585254e+01
260;dlange;128;0;1;1;0;760;171;30000;30000;30000;1470503465;0.000000e+00;1.883848e-01;3.821965e+01
261;dlange;128;0;1;1;0;760;171;30000;30000;30000;1402586708;0.000000e+00;1.755945e-01;4.100356e+01
262;dlange;128;0;1;1;0;760;171;30000;30000;30000;552473416;0.000000e+00;1.997418e-01;3.604654e+01
263;dlange;128;0;1;1;0;760;171;30000;30000;30000;1143408282;0.000000e+00;2.099880e-01;3.428767e+01
264;dlange;128;0;1;1;0;760;171;30000;30000;30000;188213258;0.000000e+00;1.668700e-01;4.314735e+01
265;dlange;128;0;1;1;0;760;171;30000;30000;30000;559412924;0.000000e+00;1.787414e-01;4.028167e+01
266;dlange;128;0;1;1;0;760;171;30000;30000;30000;1884167637;0.000000e+00;1.872415e-01;3.845301e+01
267;dlange;128;0;1;1;0;760;171;30000;30000;30000;1473442062;0.000000e+00;1.995381e-01;3.608333e+01
268;dlange;128;0;1;1;0;760;171;30000;30000;30000;201305624;0.000000e+00;1.918137e-01;3.753643e+01
269;dlange;128;0;1;1;0;760;171;30000;30000;30000;238962600;0.000000e+00;2.003824e-01;3.593129e+01
270;dlange;128;0;1;1;0;780;171;30000;30000;30000;776532036;0.000000e+00;1.690840e-01;4.258240e+01
271;dlange;128;0;1;1;0;780;171;30000;30000;30000;1238433452;0.000000e+00;1.558223e-01;4.620647e+01
272;dlange;128;0;1;1;0;780;171;30000;30000;30000;1273911899;0.000000e+00;1.672284e-01;4.305489e+01
273;dlange;128;0;1;1;0;780;171;30000;30000;30000;1431419379;0.000000e+00;1.744336e-01;4.127644e+01
274;dlange;128;0;1;1;0;780;171;30000;30000;30000;620145550;0.000000e+00;1.510348e-01;4.767114e+01
275;dlange;128;0;1;1;0;780;171;30000;30000;30000;1665947468;0.000000e+00;1.776174e-01;4.053656e+01
276;dlange;128;0;1;1;0;780;171;30000;30000;30000;619290071;0.000000e+00;1.685338e-01;4.272141e+01
277;dlange;128;0;1;1;0;780;171;30000;30000;30000;707900973;0.000000e+00;1.636504e-01;4.399624e+01
278;dlange;128;0;1;1;0;780;171;30000;30000;30000;407487131;0.000000e+00;1.687890e-01;4.265680e+01
279;dlange;128;0;1;1;0;780;171;30000;30000;30000;2113903881;0.000000e+00;1.204218e-01;5.978986e+01
280;dlange;128;0;1;1;0;800;171;30000;30000;30000;7684930;0.000000e+00;1.711783e-01;4.206141e+01
281;dlange;128;0;1;1;0;800;171;30000;30000;30000;1776808933;0.000000e+00;1.506571e-01;4.779064e+01
282;dlange;128;0;1;1;0;800;171;30000;30000;30000;711845894;0.000000e+00;1.619346e-01;4.446240e+01
283;dlange;128;0;1;1;0;800;171;30000;30000;30000;404158660;0.000000e+00;1.704717e-01;4.223575e+01
284;dlange;128;0;1;1;0;800;171;30000;30000;30000;937370163;0.000000e+00;1.768549e-01;4.071135e+01
285;dlange;128;0;1;1;0;800;171;30000;30000;30000;2058657199;0.000000e+00;1.206416e-01;5.968092e+01
286;dlange;128;0;1;1;0;800;171;30000;30000;30000;1973387981;0.000000e+00;1.928579e-01;3.733319e+01
287;dlange;128;0;1;1;0;800;171;30000;30000;30000;1642548899;0.000000e+00;1.717679e-01;4.191704e+01
288;dlange;128;0;1;1;0;800;171;30000;30000;30000;1501252996;0.000000e+00;1.715237e-01;4.197670e+01
289;dlange;128;0;1;1;0;800;171;30000;30000;30000;260152959;0.000000e+00;1.834545e-01;3.924678e+01
290;dlange;128;0;1;1;0;820;171;30000;30000;30000;1472713773;0.000000e+00;1.648405e-01;4.367859e+01
291;dlange;128;0;1;1;0;820;171;30000;30000;30000;824272813;0.000000e+00;1.481790e-01;4.858989e+01
292;dlange;128;0;1;1;0;820;171;30000;30000;30000;1662739668;0.000000e+00;1.591701e-01;4.523463e+01
293;dlange;128;0;1;1;0;820;171;30000;30000;30000;2025187190;0.000000e+00;1.545348e-01;4.659145e+01
294;dlange;128;0;1;1;0;820;171;30000;30000;30000;1967681095;0.000000e+00;1.512960e-01;4.758883e+01
295;dlange;128;0;1;1;0;820;171;30000;30000;30000;1850952926;0.000000e+00;1.734348e-01;4.151417e+01
296;dlange;128;0;1;1;0;820;171;30000;30000;30000;437116466;0.000000e+00;1.509562e-01;4.769596e+01
297;dlange;128;0;1;1;0;820;171;30000;30000;30000;1704365084;0.000000e+00;1.429810e-01;5.035633e+01
298;dlange;128;0;1;1;0;820;171;30000;30000;30000;1176911340;0.000000e+00;1.599731e-01;4.500757e+01
299;dlange;128;0;1;1;0;820;171;30000;30000;30000;638422090;0.000000e+00;1.713373e-01;4.202237e+01
300;dlange;128;0;1;1;0;840;171;30000;30000;30000;1943327684;0.000000e+00;1.535108e-01;4.690224e+01
301;dlange;128;0;1;1;0;840;171;30000;30000;30000;1953443376;0.000000e+00;1.140965e-01;6.310447e+01
302;dlange;128;0;1;1;0;840;171;30000;30000;30000;1876855542;0.000000e+00;1.541454e-01;4.670915e+01
303;dlange;128;0;1;1;0;840;171;30000;30000;30000;1069755936;0.000000e+00;1.550048e-01;4.645017e+01
304;dlange;128;0;1;1;0;840;171;30000;30000;30000;1237379107;0.000000e+00;1.476807e-01;4.875385e+01
305;dlange;128;0;1;1;0;840;171;30000;30000;30000;349517445;0.000000e+00;1.610029e-01;4.471968e+01
306;dlange;128;0;1;1;0;840;171;30000;30000;30000;588219756;0.000000e+00;1.692636e-01;4.253719e+01
307;dlange;128;0;1;1;0;840;171;30000;30000;30000;1856669179;0.000000e+00;1.601024e-01;4.497123e+01
308;dlange;128;0;1;1;0;840;171;30000;30000;30000;1057418418;0.000000e+00;1.683987e-01;4.275569e+01
309;dlange;128;0;1;1;0;840;171;30000;30000;30000;995706887;0.000000e+00;1.651294e-01;4.360217e+01
310;dlange;128;0;1;1;0;860;171;30000;30000;30000;1823089412;0.000000e+00;1.093159e-01;6.586417e+01
311;dlange;128;0;1;1;0;860;171;30000;30000;30000;1065103348;0.000000e+00;1.543249e-01;4.665481e+01
312;dlange;128;0;1;1;0;860;171;30000;30000;30000;625032172;0.000000e+00;1.448374e-01;4.971091e+01
313;dlange;128;0;1;1;0;860;171;30000;30000;30000;387451659;0.000000e+00;1.330056e-01;5.413305e+01
314;dlange;128;0;1;1;0;860;171;30000;30000;30000;1469262009;0.000000e+00;1.215146e-01;5.925213e+01
315;dlange;128;0;1;1;0;860;171;30000;30000;30000;1562402336;0.000000e+00;1.245700e-01;5.779884e+01
316;dlange;128;0;1;1;0;860;171;30000;30000;30000;298625210;0.000000e+00;1.468567e-01;4.902738e+01
317;dlange;128;0;1;1;0;860;171;30000;30000;30000;1295166342;0.000000e+00;1.429712e-01;5.035978e+01
318;dlange;128;0;1;1;0;860;171;30000;30000;30000;1057467587;0.000000e+00;1.371369e-01;5.250228e+01
319;dlange;128;0;1;1;0;860;171;30000;30000;30000;1799878206;0.000000e+00;1.449268e-01;4.968025e+01
320;dlange;128;0;1;1;0;880;171;30000;30000;30000;1555319301;0.000000e+00;1.399888e-01;5.143269e+01
321;dlange;128;0;1;1;0;880;171;30000;30000;30000;382697713;0.000000e+00;1.483349e-01;4.853882e+01
322;dlange;128;0;1;1;0;880;171;30000;30000;30000;476667372;0.000000e+00;1.556815e-01;4.624827e+01
323;dlange;128;0;1;1;0;880;171;30000;30000;30000;1070575321;0.000000e+00;1.520353e-01;4.735741e+01
324;dlange;128;0;1;1;0;880;171;30000;30000;30000;260401255;0.000000e+00;1.041171e-01;6.915294e+01
325;dlange;128;0;1;1;0;880;171;30000;30000;30000;296864819;0.000000e+00;1.662170e-01;4.331688e+01
326;dlange;128;0;1;1;0;880;171;30000;30000;30000;774044599;0.000000e+00;1.451027e-01;4.962003e+01
327;dlange;128;0;1;1;0;880;171;30000;30000;30000;697517721;0.000000e+00;1.402529e-01;5.133582e+01
328;dlange;128;0;1;1;0;880;171;30000;30000;30000;2001229904;0.000000e+00;1.333893e-01;5.397734e+01
329;dlange;128;0;1;1;0;880;171;30000;30000;30000;1950955939;0.000000e+00;1.284450e-01;5.605513e+01
330;dlange;128;0;1;1;0;900;171;30000;30000;30000;1335939811;0.000000e+00;1.161463e-01;6.199078e+01
331;dlange;128;0;1;1;0;900;171;30000;30000;30000;1797073940;0.000000e+00;1.345970e-01;5.349300e+01
332;dlange;128;0;1;1;0;900;171;30000;30000;30000;1756915667;0.000000e+00;1.153426e-01;6.242274e+01
333;dlange;128;0;1;1;0;900;171;30000;30000;30000;1065311705;0.000000e+00;1.234708e-01;5.831340e+01
334;dlange;128;0;1;1;0;900;171;30000;30000;30000;719346228;0.000000e+00;1.304205e-01;5.520603e+01
335;dlange;128;0;1;1;0;900;171;30000;30000;30000;846811127;0.000000e+00;1.295484e-01;5.557767e+01
336;dlange;128;0;1;1;0;900;171;30000;30000;30000;1414829150;0.000000e+00;1.483595e-01;4.853076e+01
337;dlange;128;0;1;1;0;900;171;30000;30000;30000;1307565984;0.000000e+00;1.398114e-01;5.149796e+01
338;dlange;128;0;1;1;0;900;171;30000;30000;30000;555996658;0.000000e+00;1.159748e-01;6.208243e+01
339;dlange;128;0;1;1;0;900;171;30000;30000;30000;324763920;0.000000e+00;1.263326e-01;5.699244e+01
340;dlange;128;0;1;1;0;920;171;30000;30000;30000;155789224;0.000000e+00;1.243148e-01;5.791746e+01
341;dlange;128;0;1;1;0;920;171;30000;30000;30000;231602422;0.000000e+00;1.231862e-01;5.844812e+01
342;dlange;128;0;1;1;0;920;171;30000;30000;30000;1389867269;0.000000e+00;1.136094e-01;6.337506e+01
343;dlange;128;0;1;1;0;920;171;30000;30000;30000;780821396;0.000000e+00;1.211706e-01;5.942035e+01
344;dlange;128;0;1;1;0;920;171;30000;30000;30000;619054081;0.000000e+00;1.145100e-01;6.287660e+01
345;dlange;128;0;1;1;0;920;171;30000;30000;30000;711645630;0.000000e+00;1.238434e-01;5.813792e+01
346;dlange;128;0;1;1;0;920;171;30000;30000;30000;195740084;0.000000e+00;1.200050e-01;5.999751e+01
347;dlange;128;0;1;1;0;920;171;30000;30000;30000;917679292;0.000000e+00;1.114598e-01;6.459728e+01
348;dlange;128;0;1;1;0;920;171;30000;30000;30000;2006811972;0.000000e+00;1.122286e-01;6.415477e+01
349;dlange;128;0;1;1;0;920;171;30000;30000;30000;1253207672;0.000000e+00;1.055956e-01;6.818463e+01
350;dlange;128;0;1;1;0;940;171;30000;30000;30000;570073850;0.000000e+00;1.067107e-01;6.747212e+01
351;dlange;128;0;1;1;0;940;171;30000;30000;30000;1414647625;0.000000e+00;1.218114e-01;5.910778e+01
352;dlange;128;0;1;1;0;940;171;30000;30000;30000;1635905385;0.000000e+00;1.051261e-01;6.848918e+01
353;dlange;128;0;1;1;0;940;171;30000;30000;30000;1046741222;0.000000e+00;1.041662e-01;6.912034e+01
354;dlange;128;0;1;1;0;940;171;30000;30000;30000;337739299;0.000000e+00;1.016055e-01;7.086227e+01
355;dlange;128;0;1;1;0;940;171;30000;30000;30000;1896306640;0.000000e+00;1.173137e-01;6.137393e+01
356;dlange;128;0;1;1;0;940;171;30000;30000;30000;1343606042;0.000000e+00;1.103780e-01;6.523039e+01
357;dlange;128;0;1;1;0;940;171;30000;30000;30000;1111783898;0.000000e+00;1.146057e-01;6.282411e+01
358;dlange;128;0;1;1;0;940;171;30000;30000;30000;446340713;0.000000e+00;1.053041e-01;6.837343e+01
359;dlange;128;0;1;1;0;940;171;30000;30000;30000;1197352298;0.000000e+00;1.155293e-01;6.232184e+01
360;dlange;128;0;1;1;0;960;171;30000;30000;30000;915256190;0.000000e+00;1.178876e-01;6.107511e+01
361;dlange;128;0;1;1;0;960;171;30000;30000;30000;1782280524;0.000000e+00;1.037120e-01;6.942299e+01
362;dlange;128;0;1;1;0;960;171;30000;30000;30000;846942590;0.000000e+00;1.099826e-01;6.546490e+01
363;dlange;128;0;1;1;0;960;171;30000;30000;30000;524688209;0.000000e+00;1.166323e-01;6.173249e+01
364;dlange;128;0;1;1;0;960;171;30000;30000;30000;700108581;0.000000e+00;1.182347e-01;6.089582e+01
365;dlange;128;0;1;1;0;960;171;30000;30000;30000;1566288819;0.000000e+00;1.053183e-01;6.836420e+01
366;dlange;128;0;1;1;0;960;171;30000;30000;30000;1371499336;0.000000e+00;1.006174e-01;7.155821e+01
367;dlange;128;0;1;1;0;960;171;30000;30000;30000;2114937732;0.000000e+00;1.286306e-01;5.597422e+01
368;dlange;128;0;1;1;0;960;171;30000;30000;30000;726371155;0.000000e+00;1.040534e-01;6.919526e+01
369;dlange;128;0;1;1;0;960;171;30000;30000;30000;1927495994;0.000000e+00;1.195958e-01;6.020280e+01
370;dlange;128;0;1;1;0;980;171;30000;30000;30000;292218004;0.000000e+00;1.032057e-01;6.976356e+01
371;dlange;128;0;1;1;0;980;171;30000;30000;30000;882160379;0.000000e+00;1.029784e-01;6.991758e+01
372;dlange;128;0;1;1;0;980;171;30000;30000;30000;11614769;0.000000e+00;8.218407e-02;8.760822e+01
373;dlange;128;0;1;1;0;980;171;30000;30000;30000;1682085273;0.000000e+00;1.211465e-01;5.943220e+01
374;dlange;128;0;1;1;0;980;171;30000;30000;30000;1662981776;0.000000e+00;1.156943e-01;6.223299e+01
375;dlange;128;0;1;1;0;980;171;30000;30000;30000;630668850;0.000000e+00;1.125809e-01;6.395401e+01
376;dlange;128;0;1;1;0;980;171;30000;30000;30000;246247255;0.000000e+00;1.138813e-01;6.322373e+01
377;dlange;128;0;1;1;0;980;171;30000;30000;30000;1858721860;0.000000e+00;1.087702e-01;6.619462e+01
378;dlange;128;0;1;1;0;980;171;30000;30000;30000;1548348142;0.000000e+00;8.088906e-02;8.901080e+01
379;dlange;128;0;1;1;0;980;171;30000;30000;30000;105575579;0.000000e+00;1.117430e-01;6.443358e+01
380;dlange;128;0;1;1;0;1000;171;30000;30000;30000;964445884;0.000000e+00;1.070322e-01;6.726947e+01
381;dlange;128;0;1;1;0;1000;171;30000;30000;30000;2118421993;0.000000e+00;1.147374e-01;6.275201e+01
382;dlange;128;0;1;1;0;1000;171;30000;30000;30000;1520223205;0.000000e+00;9.450180e-02;7.618903e+01
383;dlange;128;0;1;1;0;1000;171;30000;30000;30000;452867621;0.000000e+00;1.117404e-01;6.443508e+01
384;dlange;128;0;1;1;0;1000;171;30000;30000;30000;1017679567;0.000000e+00;1.089018e-01;6.611461e+01
385;dlange;128;0;1;1;0;1000;171;30000;30000;30000;1857962504;0.000000e+00;1.055078e-01;6.824137e+01
386;dlange;128;0;1;1;0;1000;171;30000;30000;30000;201690613;0.000000e+00;9.770074e-02;7.369443e+01
387;dlange;128;0;1;1;0;1000;171;30000;30000;30000;213801961;0.000000e+00;1.087829e-01;6.618687e+01
388;dlange;128;0;1;1;0;1000;171;30000;30000;30000;822262754;0.000000e+00;1.050295e-01;6.855214e+01
389;dlange;128;0;1;1;0;1000;171;30000;30000;30000;648031326;0.000000e+00;1.049574e-01;6.859924e+01
390;dlange;128;0;1;1;0;1020;171;30000;30000;30000;1411154259;0.000000e+00;1.073588e-01;6.706486e+01
391;dlange;128;0;1;1;0;1020;171;30000;30000;30000;1737518944;0.000000e+00;9.669327e-02;7.446226e+01
392;dlange;128;0;1;1;0;1020;171;30000;30000;30000;282828202;0.000000e+00;1.096806e-01;6.564517e+01
393;dlange;128;0;1;1;0;1020;171;30000;30000;30000;110613202;0.000000e+00;1.084732e-01;6.637584e+01
394;dlange;128;0;1;1;0;1020;171;30000;30000;30000;114723506;0.000000e+00;1.079308e-01;6.670940e+01
395;dlange;128;0;1;1;0;1020;171;30000;30000;30000;982936784;0.000000e+00;1.186471e-01;6.068415e+01
396;dlange;128;0;1;1;0;1020;171;30000;30000;30000;1676902021;0.000000e+00;1.074431e-01;6.701223e+01
397;dlange;128;0;1;1;0;1020;171;30000;30000;30000;1486222842;0.000000e+00;1.229446e-01;5.856297e+01
398;dlange;128;0;1;1;0;1020;171;30000;30000;30000;950390868;0.000000e+00;9.364564e-02;7.688559e+01
399;dlange;128;0;1;1;0;1020;171;30000;30000;30000;255789528;0.000000e+00;1.119579e-01;6.430987e+01
400;dlange;128;0;1;1;0;1040;171;30000;30000;30000;1266235189;0.000000e+00;9.575850e-02;7.518915e+01
401;dlange;128;0;1;1;0;1040;171;30000;30000;30000;1242608872;0.000000e+00;1.028564e-01;7.000052e+01
402;dlange;128;0;1;1;0;1040;171;30000;30000;30000;1137949908;0.000000e+00;9.847115e-02;7.311786e+01
403;dlange;128;0;1;1;0;1040;171;30000;30000;30000;1277849958;0.000000e+00;1.044903e-01;6.890592e+01
404;dlange;128;0;1;1;0;1040;171;30000;30000;30000;777210498;0.000000e+00;9.997539e-02;7.201772e+01
405;dlange;128;0;1;1;0;1040;171;30000;30000;30000;653448036;0.000000e+00;9.636909e-02;7.471275e+01
406;dlange;128;0;1;1;0;1040;171;30000;30000;30000;1908518808;0.000000e+00;1.003343e-01;7.176009e+01
407;dlange;128;0;1;1;0;1040;171;30000;30000;30000;1023457753;0.000000e+00;1.097487e-01;6.560445e+01
408;dlange;128;0;1;1;0;1040;171;30000;30000;30000;364686248;0.000000e+00;7.662767e-02;9.396084e+01
409;dlange;128;0;1;1;0;1040;171;30000;30000;30000;1309383303;0.000000e+00;8.617872e-02;8.354731e+01
410;dlange;128;0;1;1;0;1060;171;30000;30000;30000;1129033333;0.000000e+00;1.044138e-01;6.895640e+01
411;dlange;128;0;1;1;0;1060;171;30000;30000;30000;1329132133;0.000000e+00;1.074867e-01;6.698503e+01
412;dlange;128;0;1;1;0;1060;171;30000;30000;30000;1280321648;0.000000e+00;1.045425e-01;6.887148e+01
413;dlange;128;0;1;1;0;1060;171;30000;30000;30000;501772890;0.000000e+00;9.837987e-02;7.318570e+01
414;dlange;128;0;1;1;0;1060;171;30000;30000;30000;1781999754;0.000000e+00;9.815208e-02;7.335555e+01
415;dlange;128;0;1;1;0;1060;171;30000;30000;30000;150517567;0.000000e+00;9.829713e-02;7.324731e+01
416;dlange;128;0;1;1;0;1060;171;30000;30000;30000;212251746;0.000000e+00;9.193215e-02;7.831863e+01
417;dlange;128;0;1;1;0;1060;171;30000;30000;30000;1983690368;0.000000e+00;1.020462e-01;7.055627e+01
418;dlange;128;0;1;1;0;1060;171;30000;30000;30000;364319529;0.000000e+00;9.595064e-02;7.503858e+01
419;dlange;128;0;1;1;0;1060;171;30000;30000;30000;1034514500;0.000000e+00;1.027890e-01;7.004640e+01
420;dlange;128;0;1;1;0;1080;171;30000;30000;30000;484238046;0.000000e+00;7.319975e-02;9.836100e+01
421;dlange;128;0;1;1;0;1080;171;30000;30000;30000;1775473788;0.000000e+00;8.721550e-02;8.255414e+01
422;dlange;128;0;1;1;0;1080;171;30000;30000;30000;624549797;0.000000e+00;9.863888e-02;7.299353e+01
423;dlange;128;0;1;1;0;1080;171;30000;30000;30000;767066249;0.000000e+00;9.366239e-02;7.687184e+01
424;dlange;128;0;1;1;0;1080;171;30000;30000;30000;1886086990;0.000000e+00;9.680143e-02;7.437907e+01
425;dlange;128;0;1;1;0;1080;171;30000;30000;30000;739273303;0.000000e+00;9.545265e-02;7.543007e+01
426;dlange;128;0;1;1;0;1080;171;30000;30000;30000;1750003033;0.000000e+00;1.004358e-01;7.168760e+01
427;dlange;128;0;1;1;0;1080;171;30000;30000;30000;1415505363;0.000000e+00;9.974057e-02;7.218728e+01
428;dlange;128;0;1;1;0;1080;171;30000;30000;30000;78012497;0.000000e+00;9.658057e-02;7.454915e+01
429;dlange;128;0;1;1;0;1080;171;30000;30000;30000;552910253;0.000000e+00;1.010922e-01;7.122209e+01
430;dlange;128;0;1;1;0;1100;171;30000;30000;30000;1671294892;0.000000e+00;9.616543e-02;7.487098e+01
431;dlange;128;0;1;1;0;1100;171;30000;30000;30000;1344247686;0.000000e+00;1.008389e-01;7.140099e+01
432;dlange;128;0;1;1;0;1100;171;30000;30000;30000;1795519125;0.000000e+00;9.928990e-02;7.251493e+01
433;dlange;128;0;1;1;0;1100;171;30000;30000;30000;661761152;0.000000e+00;9.639510e-02;7.469259e+01
434;dlange;128;0;1;1;0;1100;171;30000;30000;30000;474613996;0.000000e+00;1.002419e-01;7.182625e+01
435;dlange;128;0;1;1;0;1100;171;30000;30000;30000;425245975;0.000000e+00;9.498877e-02;7.579843e+01
436;dlange;128;0;1;1;0;1100;171;30000;30000;30000;1315209188;0.000000e+00;9.531161e-02;7.554169e+01
437;dlange;128;0;1;1;0;1100;171;30000;30000;30000;235649157;0.000000e+00;9.151804e-02;7.867301e+01
438;dlange;128;0;1;1;0;1100;171;30000;30000;30000;1448703729;0.000000e+00;1.046634e-01;6.879194e+01
439;dlange;128;0;1;1;0;1100;171;30000;30000;30000;1679895436;0.000000e+00;9.681786e-02;7.436645e+01
440;dlange;128;0;1;1;0;1120;171;30000;30000;30000;1545032460;0.000000e+00;9.828702e-02;7.325484e+01
441;dlange;128;0;1;1;0;1120;171;30000;30000;30000;430253414;0.000000e+00;8.800632e-02;8.181230e+01
442;dlange;128;0;1;1;0;1120;171;30000;30000;30000;861543921;0.000000e+00;7.769409e-02;9.267114e+01
443;dlange;128;0;1;1;0;1120;171;30000;30000;30000;677870460;0.000000e+00;9.262650e-02;7.773154e+01
444;dlange;128;0;1;1;0;1120;171;30000;30000;30000;932026304;0.000000e+00;8.974956e-02;8.022324e+01
445;dlange;128;0;1;1;0;1120;171;30000;30000;30000;496060028;0.000000e+00;8.930736e-02;8.062046e+01
446;dlange;128;0;1;1;0;1120;171;30000;30000;30000;828388027;0.000000e+00;1.004279e-01;7.169324e+01
447;dlange;128;0;1;1;0;1120;171;30000;30000;30000;1144278050;0.000000e+00;9.206196e-02;7.820819e+01
448;dlange;128;0;1;1;0;1120;171;30000;30000;30000;332266748;0.000000e+00;9.925370e-02;7.254137e+01
449;dlange;128;0;1;1;0;1120;171;30000;30000;30000;1192707556;0.000000e+00;8.719901e-02;8.256974e+01
450;dlange;128;0;1;1;0;1140;171;30000;30000;30000;31308902;0.000000e+00;8.283427e-02;8.692054e+01
451;dlange;128;0;1;1;0;1140;171;30000;30000;30000;816504794;0.000000e+00;8.899351e-02;8.090478e+01
452;dlange;128;0;1;1;0;1140;171;30000;30000;30000;820697697;0.000000e+00;7.388549e-02;9.744809e+01
453;dlange;128;0;1;1;0;1140;171;30000;30000;30000;655858699;0.000000e+00;7.560185e-02;9.523577e+01
454;dlange;128;0;1;1;0;1140;171;30000;30000;30000;1583571043;0.000000e+00;9.427138e-02;7.637525e+01
455;dlange;128;0;1;1;0;1140;171;30000;30000;30000;559301039;0.000000e+00;9.238260e-02;7.793675e+01
456;dlange;128;0;1;1;0;1140;171;30000;30000;30000;1395132002;0.000000e+00;6.963990e-02;1.033890e+02
457;dlange;128;0;1;1;0;1140;171;30000;30000;30000;1186090428;0.000000e+00;8.025313e-02;8.971613e+01
458;dlange;128;0;1;1;0;1140;171;30000;30000;30000;1974806403;0.000000e+00;9.409853e-02;7.651554e+01
459;dlange;128;0;1;1;0;1140;171;30000;30000;30000;1473144500;0.000000e+00;9.135895e-02;7.881001e+01
460;dlange;128;0;1;1;0;1160;171;30000;30000;30000;1739000681;0.000000e+00;7.827550e-02;9.198281e+01
461;dlange;128;0;1;1;0;1160;171;30000;30000;30000;1498617647;0.000000e+00;7.576634e-02;9.502901e+01
462;dlange;128;0;1;1;0;1160;171;30000;30000;30000;669908538;0.000000e+00;7.596916e-02;9.477530e+01
463;dlange;128;0;1;1;0;1160;171;30000;30000;30000;1387036159;0.000000e+00;7.541647e-02;9.546986e+01
464;dlange;128;0;1;1;0;1160;171;30000;30000;30000;12895151;0.000000e+00;7.352745e-02;9.792262e+01
465;dlange;128;0;1;1;0;1160;171;30000;30000;30000;1144522535;0.000000e+00;8.822274e-02;8.161162e+01
466;dlange;128;0;1;1;0;1160;171;30000;30000;30000;1812282134;0.000000e+00;1.204406e-01;5.978050e+01
467;dlange;128;0;1;1;0;1160;171;30000;30000;30000;1328104339;0.000000e+00;1.018182e-01;7.071427e+01
468;dlange;128;0;1;1;0;1160;171;30000;30000;30000;1380171692;0.000000e+00;9.417318e-02;7.645488e+01
469;dlange;128;0;1;1;0;1160;171;30000;30000;30000;1113502215;0.000000e+00;8.794002e-02;8.187399e+01
470;dlange;128;0;1;1;0;1180;171;30000;30000;30000;860516127;0.000000e+00;9.748829e-02;7.385503e+01
471;dlange;128;0;1;1;0;1180;171;30000;30000;30000;777720504;0.000000e+00;9.312192e-02;7.731800e+01
472;dlange;128;0;1;1;0;1180;171;30000;30000;30000;1543755629;0.000000e+00;9.472668e-02;7.600816e+01
473;dlange;128;0;1;1;0;1180;171;30000;30000;30000;1722060049;0.000000e+00;7.594027e-02;9.481136e+01
474;dlange;128;0;1;1;0;1180;171;30000;30000;30000;1455590964;0.000000e+00;9.105249e-02;7.907526e+01
475;dlange;128;0;1;1;0;1180;171;30000;30000;30000;328298285;0.000000e+00;9.789183e-02;7.355057e+01
476;dlange;128;0;1;1;0;1180;171;30000;30000;30000;70636429;0.000000e+00;9.619872e-02;7.484507e+01
477;dlange;128;0;1;1;0;1180;171;30000;30000;30000;136495343;0.000000e+00;9.322070e-02;7.723606e+01
478;dlange;128;0;1;1;0;1180;171;30000;30000;30000;1472576335;0.000000e+00;8.620541e-02;8.352144e+01
479;dlange;128;0;1;1;0;1180;171;30000;30000;30000;402903177;0.000000e+00;9.830767e-02;7.323945e+01
480;dlange;128;0;1;1;0;1200;171;30000;30000;30000;1329202900;0.000000e+00;1.075013e-01;6.697594e+01
481;dlange;128;0;1;1;0;1200;171;30000;30000;30000;1503885238;0.000000e+00;1.007882e-01;7.143695e+01
482;dlange;128;0;1;1;0;1200;171;30000;30000;30000;1219407971;0.000000e+00;9.847294e-02;7.311653e+01
483;dlange;128;0;1;1;0;1200;171;30000;30000;30000;2416949;0.000000e+00;8.688445e-02;8.286868e+01
484;dlange;128;0;1;1;0;1200;171;30000;30000;30000;12260289;0.000000e+00;7.426411e-02;9.695128e+01
485;dlange;128;0;1;1;0;1200;171;30000;30000;30000;655495367;0.000000e+00;7.803735e-02;9.226351e+01
486;dlange;128;0;1;1;0;1200;171;30000;30000;30000;561717988;0.000000e+00;8.452090e-02;8.518603e+01
487;dlange;128;0;1;1;0;1200;171;30000;30000;30000;1407392292;0.000000e+00;7.199001e-02;1.000139e+02
488;dlange;128;0;1;1;0;1200;171;30000;30000;30000;1841585795;0.000000e+00;7.143445e-02;1.007917e+02
489;dlange;128;0;1;1;0;1200;171;30000;30000;30000;389040743;0.000000e+00;7.878088e-02;9.139274e+01
490;dlange;128;0;1;1;0;1220;171;30000;30000;30000;733053144;0.000000e+00;6.974909e-02;1.032272e+02
491;dlange;128;0;1;1;0;1220;171;30000;30000;30000;1433102829;0.000000e+00;8.466513e-02;8.504091e+01
492;dlange;128;0;1;1;0;1220;171;30000;30000;30000;1887658390;0.000000e+00;8.046901e-02;8.947544e+01
493;dlange;128;0;1;1;0;1220;171;30000;30000;30000;1402961682;0.000000e+00;7.448590e-02;9.666259e+01
494;dlange;128;0;1;1;0;1220;171;30000;30000;30000;672655340;0.000000e+00;8.024001e-02;8.973080e+01
495;dlange;128;0;1;1;0;1220;171;30000;30000;30000;1900553541;0.000000e+00;7.644547e-02;9.418478e+01
496;dlange;128;0;1;1;0;1220;171;30000;30000;30000;400000569;0.000000e+00;8.296814e-02;8.678030e+01
497;dlange;128;0;1;1;0;1220;171;30000;30000;30000;337453826;0.000000e+00;8.237860e-02;8.740134e+01
498;dlange;128;0;1;1;0;1220;171;30000;30000;30000;1081174232;0.000000e+00;8.190248e-02;8.790943e+01
499;dlange;128;0;1;1;0;1220;171;30000;30000;30000;1780172261;0.000000e+00;7.434064e-02;9.685147e+01
500;dlange;128;0;1;1;0;1240;171;30000;30000;30000;1450956042;0.000000e+00;8.200343e-02;8.780121e+01
501;dlange;128;0;1;1;0;1240;171;30000;30000;30000;1941690360;0.000000e+00;7.846140e-02;9.176487e+01
502;dlange;128;0;1;1;0;1240;171;30000;30000;30000;410409117;0.000000e+00;7.762269e-02;9.275638e+01
503;dlange;128;0;1;1;0;1240;171;30000;30000;30000;847228023;0.000000e+00;7.062399e-02;1.019484e+02
504;dlange;128;0;1;1;0;1240;171;30000;30000;30000;1516266761;0.000000e+00;8.172419e-02;8.810121e+01
505;dlange;128;0;1;1;0;1240;171;30000;30000;30000;1866000081;0.000000e+00;7.941725e-02;9.066040e+01
506;dlange;128;0;1;1;0;1240;171;30000;30000;30000;1175526309;0.000000e+00;8.293964e-02;8.681012e+01
507;dlange;128;0;1;1;0;1240;171;30000;30000;30000;1586903190;0.000000e+00;7.090693e-02;1.015416e+02
508;dlange;128;0;1;1;0;1240;171;30000;30000;30000;2002495425;0.000000e+00;7.895769e-02;9.118808e+01
509;dlange;128;0;1;1;0;1240;171;30000;30000;30000;500618996;0.000000e+00;7.120319e-02;1.011191e+02
510;dlange;128;0;1;1;0;1260;171;30000;30000;30000;1989806367;0.000000e+00;7.275149e-02;9.896704e+01
511;dlange;128;0;1;1;0;1260;171;30000;30000;30000;1184214677;0.000000e+00;7.795766e-02;9.235783e+01
512;dlange;128;0;1;1;0;1260;171;30000;30000;30000;2004504234;0.000000e+00;7.583814e-02;9.493904e+01
513;dlange;128;0;1;1;0;1260;171;30000;30000;30000;1061730690;0.000000e+00;8.221410e-02;8.757622e+01
514;dlange;128;0;1;1;0;1260;171;30000;30000;30000;1186631626;0.000000e+00;7.119121e-02;1.011361e+02
515;dlange;128;0;1;1;0;1260;171;30000;30000;30000;2016764524;0.000000e+00;7.874078e-02;9.143927e+01
516;dlange;128;0;1;1;0;1260;171;30000;30000;30000;1717226057;0.000000e+00;8.803501e-02;8.178565e+01
517;dlange;128;0;1;1;0;1260;171;30000;30000;30000;1748349614;0.000000e+00;7.794980e-02;9.236714e+01
518;dlange;128;0;1;1;0;1260;171;30000;30000;30000;1276673168;0.000000e+00;7.086117e-02;1.016071e+02
519;dlange;128;0;1;1;0;1260;171;30000;30000;30000;1411328205;0.000000e+00;7.906643e-02;9.106267e+01
520;dlange;128;0;1;1;0;1280;171;30000;30000;30000;2137390358;0.000000e+00;7.515295e-02;9.580462e+01
521;dlange;128;0;1;1;0;1280;171;30000;30000;30000;2009726312;0.000000e+00;7.134170e-02;1.009227e+02
522;dlange;128;0;1;1;0;1280;171;30000;30000;30000;696947386;0.000000e+00;7.338051e-02;9.811869e+01
523;dlange;128;0;1;1;0;1280;171;30000;30000;30000;1877565100;0.000000e+00;7.189514e-02;1.001459e+02
524;dlange;128;0;1;1;0;1280;171;30000;30000;30000;1265204346;0.000000e+00;7.971697e-02;9.031954e+01
525;dlange;128;0;1;1;0;1280;171;30000;30000;30000;1369602726;0.000000e+00;7.367748e-02;9.772322e+01
526;dlange;128;0;1;1;0;1280;171;30000;30000;30000;1630634994;0.000000e+00;8.085151e-02;8.905214e+01
527;dlange;128;0;1;1;0;1280;171;30000;30000;30000;1665204916;0.000000e+00;6.928224e-02;1.039227e+02
528;dlange;128;0;1;1;0;1280;171;30000;30000;30000;1707056552;0.000000e+00;7.256323e-02;9.922381e+01
529;dlange;128;0;1;1;0;1280;171;30000;30000;30000;564325578;0.000000e+00;6.932751e-02;1.038549e+02
